<?xml version="1.0" encoding="UTF-8" standalone="no"?>
<!-- Created with Inkscape (http://www.inkscape.org/) -->

<svg
   xmlns:dc="http://purl.org/dc/elements/1.1/"
   xmlns:cc="http://creativecommons.org/ns#"
   xmlns:rdf="http://www.w3.org/1999/02/22-rdf-syntax-ns#"
   xmlns:svg="http://www.w3.org/2000/svg"
   xmlns="http://www.w3.org/2000/svg"
   xmlns:sodipodi="http://sodipodi.sourceforge.net/DTD/sodipodi-0.dtd"
   xmlns:inkscape="http://www.inkscape.org/namespaces/inkscape"
   width="200"
   height="200"
   id="svg2"
   version="1.1"
   inkscape:version="0.48.1 r9760"
   sodipodi:docname="mesh-graph00.svg">
  <defs
     id="defs4" />
  <sodipodi:namedview
     id="base"
     pagecolor="#ffffff"
     bordercolor="#666666"
     borderopacity="1.0"
     inkscape:pageopacity="0.0"
     inkscape:pageshadow="2"
     inkscape:zoom="1.979899"
     inkscape:cx="133.79642"
     inkscape:cy="142.74941"
     inkscape:document-units="px"
     inkscape:current-layer="svg2"
     showgrid="false"
     inkscape:window-width="1514"
     inkscape:window-height="936"
     inkscape:window-x="507"
     inkscape:window-y="370"
     inkscape:window-maximized="0" />
  <metadata
     id="metadata7">
    <rdf:RDF>
      <cc:Work
         rdf:about="">
        <dc:format>image/svg+xml</dc:format>
        <dc:type
           rdf:resource="http://purl.org/dc/dcmitype/StillImage" />
        <dc:title></dc:title>
      </cc:Work>
    </rdf:RDF>
  </metadata>
  <g
     inkscape:label="Layer 1"
     inkscape:groupmode="layer"
     id="layer1"
     transform="translate(-134.70668,-260.18087)">
    <path
       style="fill:none;stroke:#000000;stroke-width:1px;stroke-linecap:butt;stroke-linejoin:miter;stroke-opacity:1"
       d="m 260.61935,268.4838 56.56855,56.56855 -57.07362,64.64976 57.07362,63.63961"
       id="path3106"
       inkscape:connector-curvature="0" />
    <path
       style="fill:none;stroke:#000000;stroke-width:1px;stroke-linecap:butt;stroke-linejoin:miter;stroke-opacity:1"
       d="M 260.11428,453.34172 317.1879,389.70211 260.11428,324.54727 318.70312,268.4838"
       id="path3108"
       inkscape:connector-curvature="0" />
    <path
       style="fill:none;stroke:#000000;stroke-width:1px;stroke-linecap:butt;stroke-linejoin:miter;stroke-opacity:1"
       d="m 289.26076,292.72747 0,131.8249"
       id="path3110"
       inkscape:connector-curvature="0" />
    <path
       transform="translate(99.877443,29.746185)"
       sodipodi:type="arc"
       style="fill:#ffffff;fill-opacity:1;stroke:#000000;stroke-width:3;stroke-miterlimit:4;stroke-opacity:1;stroke-dasharray:none;stroke-dashoffset:0"
       id="path3057"
       sodipodi:cx="190"
       sodipodi:cy="326.64789"
       sodipodi:rx="11.428572"
       sodipodi:ry="11.428572"
       d="m 201.42857,326.64789 c 0,6.31182 -5.11674,11.42857 -11.42857,11.42857 -6.31183,0 -11.42857,-5.11675 -11.42857,-11.42857 0,-6.31183 5.11674,-11.42857 11.42857,-11.42857 6.31183,0 11.42857,5.11674 11.42857,11.42857 z" />
    <path
       d="m 201.42857,326.64789 c 0,6.31182 -5.11674,11.42857 -11.42857,11.42857 -6.31183,0 -11.42857,-5.11675 -11.42857,-11.42857 0,-6.31183 5.11674,-11.42857 11.42857,-11.42857 6.31183,0 11.42857,5.11674 11.42857,11.42857 z"
       sodipodi:ry="11.428572"
       sodipodi:rx="11.428572"
       sodipodi:cy="326.64789"
       sodipodi:cx="190"
       id="path3059"
       style="fill:#ffffff;fill-opacity:1;stroke:#000000;stroke-width:3;stroke-miterlimit:4;stroke-opacity:1;stroke-dasharray:none;stroke-dashoffset:0"
       sodipodi:type="arc"
       transform="translate(99.877443,96.778806)" />
    <path
       transform="matrix(0.44757284,0,0,0.44757284,175.92437,122.61793)"
       sodipodi:type="arc"
       style="fill:#ffffff;fill-opacity:1;stroke:#000000;stroke-width:6.70281982;stroke-miterlimit:4;stroke-opacity:1;stroke-dasharray:none;stroke-dashoffset:0"
       id="path3084"
       sodipodi:cx="190"
       sodipodi:cy="326.64789"
       sodipodi:rx="11.428572"
       sodipodi:ry="11.428572"
       d="m 201.42857,326.64789 c 0,6.31182 -5.11674,11.42857 -11.42857,11.42857 -6.31183,0 -11.42857,-5.11675 -11.42857,-11.42857 0,-6.31183 5.11674,-11.42857 11.42857,-11.42857 6.31183,0 11.42857,5.11674 11.42857,11.42857 z" />
    <path
       d="m 201.42857,326.64789 c 0,6.31182 -5.11674,11.42857 -11.42857,11.42857 -6.31183,0 -11.42857,-5.11675 -11.42857,-11.42857 0,-6.31183 5.11674,-11.42857 11.42857,-11.42857 6.31183,0 11.42857,5.11674 11.42857,11.42857 z"
       sodipodi:ry="11.428572"
       sodipodi:rx="11.428572"
       sodipodi:cy="326.64789"
       sodipodi:cx="190"
       id="path3086"
       style="fill:#ffffff;fill-opacity:1;stroke:#000000;stroke-width:6.70281982;stroke-miterlimit:4;stroke-opacity:1;stroke-dasharray:none;stroke-dashoffset:0"
       sodipodi:type="arc"
       transform="matrix(0.44757284,0,0,0.44757284,231.98783,122.61793)" />
    <path
       d="m 201.42857,326.64789 c 0,6.31182 -5.11674,11.42857 -11.42857,11.42857 -6.31183,0 -11.42857,-5.11675 -11.42857,-11.42857 0,-6.31183 5.11674,-11.42857 11.42857,-11.42857 6.31183,0 11.42857,5.11674 11.42857,11.42857 z"
       sodipodi:ry="11.428572"
       sodipodi:rx="11.428572"
       sodipodi:cy="326.64789"
       sodipodi:cx="190"
       id="path3088"
       style="fill:#ffffff;fill-opacity:1;stroke:#000000;stroke-width:6.70281982;stroke-miterlimit:4;stroke-opacity:1;stroke-dasharray:none;stroke-dashoffset:0"
       sodipodi:type="arc"
       transform="matrix(0.44757284,0,0,0.44757284,175.92437,179.18647)" />
    <path
       transform="matrix(0.44757284,0,0,0.44757284,231.98783,179.18647)"
       sodipodi:type="arc"
       style="fill:#ffffff;fill-opacity:1;stroke:#000000;stroke-width:6.70281982;stroke-miterlimit:4;stroke-opacity:1;stroke-dasharray:none;stroke-dashoffset:0"
       id="path3090"
       sodipodi:cx="190"
       sodipodi:cy="326.64789"
       sodipodi:rx="11.428572"
       sodipodi:ry="11.428572"
       d="m 201.42857,326.64789 c 0,6.31182 -5.11674,11.42857 -11.42857,11.42857 -6.31183,0 -11.42857,-5.11675 -11.42857,-11.42857 0,-6.31183 5.11674,-11.42857 11.42857,-11.42857 6.31183,0 11.42857,5.11674 11.42857,11.42857 z" />
    <path
       transform="matrix(0.44757284,0,0,0.44757284,175.92437,243.83623)"
       sodipodi:type="arc"
       style="fill:#ffffff;fill-opacity:1;stroke:#000000;stroke-width:6.70281982;stroke-miterlimit:4;stroke-opacity:1;stroke-dasharray:none;stroke-dashoffset:0"
       id="path3092"
       sodipodi:cx="190"
       sodipodi:cy="326.64789"
       sodipodi:rx="11.428572"
       sodipodi:ry="11.428572"
       d="m 201.42857,326.64789 c 0,6.31182 -5.11674,11.42857 -11.42857,11.42857 -6.31183,0 -11.42857,-5.11675 -11.42857,-11.42857 0,-6.31183 5.11674,-11.42857 11.42857,-11.42857 6.31183,0 11.42857,5.11674 11.42857,11.42857 z" />
    <path
       d="m 201.42857,326.64789 c 0,6.31182 -5.11674,11.42857 -11.42857,11.42857 -6.31183,0 -11.42857,-5.11675 -11.42857,-11.42857 0,-6.31183 5.11674,-11.42857 11.42857,-11.42857 6.31183,0 11.42857,5.11674 11.42857,11.42857 z"
       sodipodi:ry="11.428572"
       sodipodi:rx="11.428572"
       sodipodi:cy="326.64789"
       sodipodi:cx="190"
       id="path3094"
       style="fill:#ffffff;fill-opacity:1;stroke:#000000;stroke-width:6.70281982;stroke-miterlimit:4;stroke-opacity:1;stroke-dasharray:none;stroke-dashoffset:0"
       sodipodi:type="arc"
       transform="matrix(0.44757284,0,0,0.44757284,231.98783,243.83623)" />
    <path
       d="m 201.42857,326.64789 c 0,6.31182 -5.11674,11.42857 -11.42857,11.42857 -6.31183,0 -11.42857,-5.11675 -11.42857,-11.42857 0,-6.31183 5.11674,-11.42857 11.42857,-11.42857 6.31183,0 11.42857,5.11674 11.42857,11.42857 z"
       sodipodi:ry="11.428572"
       sodipodi:rx="11.428572"
       sodipodi:cy="326.64789"
       sodipodi:cx="190"
       id="path3096"
       style="fill:#ffffff;fill-opacity:1;stroke:#000000;stroke-width:6.70281982;stroke-miterlimit:4;stroke-opacity:1;stroke-dasharray:none;stroke-dashoffset:0"
       sodipodi:type="arc"
       transform="matrix(0.44757284,0,0,0.44757284,175.92437,306.97076)" />
    <path
       transform="matrix(0.44757284,0,0,0.44757284,231.98783,306.97076)"
       sodipodi:type="arc"
       style="fill:#ffffff;fill-opacity:1;stroke:#000000;stroke-width:6.70281982;stroke-miterlimit:4;stroke-opacity:1;stroke-dasharray:none;stroke-dashoffset:0"
       id="path3098"
       sodipodi:cx="190"
       sodipodi:cy="326.64789"
       sodipodi:rx="11.428572"
       sodipodi:ry="11.428572"
       d="m 201.42857,326.64789 c 0,6.31182 -5.11674,11.42857 -11.42857,11.42857 -6.31183,0 -11.42857,-5.11675 -11.42857,-11.42857 0,-6.31183 5.11674,-11.42857 11.42857,-11.42857 6.31183,0 11.42857,5.11674 11.42857,11.42857 z" />
    <path
       style="fill:none;stroke:#000000;stroke-width:1px;stroke-linecap:butt;stroke-linejoin:miter;stroke-opacity:1"
       d="m 159.09903,294.74777 57.07361,65.15484 -56.56854,72.22591"
       id="path3100"
       inkscape:connector-curvature="0" />
    <path
       style="fill:none;stroke:#000000;stroke-width:1px;stroke-linecap:butt;stroke-linejoin:miter;stroke-opacity:1"
       d="m 216.17264,294.2427 -56.56854,65.65991 56.56854,72.22591"
       id="path3102"
       inkscape:connector-curvature="0" />
    <path
       style="fill:none;stroke:#000000;stroke-width:1px;stroke-linecap:butt;stroke-linejoin:miter;stroke-opacity:1"
       d="m 189.82202,325.05235 0,71.21575"
       id="path3104"
       inkscape:connector-curvature="0" />
    <path
       d="m 201.42857,326.64789 c 0,6.31182 -5.11674,11.42857 -11.42857,11.42857 -6.31183,0 -11.42857,-5.11675 -11.42857,-11.42857 0,-6.31183 5.11674,-11.42857 11.42857,-11.42857 6.31183,0 11.42857,5.11674 11.42857,11.42857 z"
       sodipodi:ry="11.428572"
       sodipodi:rx="11.428572"
       sodipodi:cy="326.64789"
       sodipodi:cx="190"
       id="path3055"
       style="fill:#ffffff;fill-opacity:1;stroke:#000000;stroke-width:3;stroke-miterlimit:4;stroke-opacity:1;stroke-dasharray:none;stroke-dashoffset:0"
       sodipodi:type="arc"
       transform="translate(99.877443,-33.903189)" />
    <path
       sodipodi:type="arc"
       style="fill:#ffffff;fill-opacity:1;stroke:#000000;stroke-width:3;stroke-miterlimit:4;stroke-opacity:1;stroke-dasharray:none;stroke-dashoffset:0"
       id="path2985"
       sodipodi:cx="190"
       sodipodi:cy="326.64789"
       sodipodi:rx="11.428572"
       sodipodi:ry="11.428572"
       d="m 201.42857,326.64789 c 0,6.31182 -5.11674,11.42857 -11.42857,11.42857 -6.31183,0 -11.42857,-5.11675 -11.42857,-11.42857 0,-6.31183 5.11674,-11.42857 11.42857,-11.42857 6.31183,0 11.42857,5.11674 11.42857,11.42857 z" />
    <path
       d="m 201.42857,326.64789 c 0,6.31182 -5.11674,11.42857 -11.42857,11.42857 -6.31183,0 -11.42857,-5.11675 -11.42857,-11.42857 0,-6.31183 5.11674,-11.42857 11.42857,-11.42857 6.31183,0 11.42857,5.11674 11.42857,11.42857 z"
       sodipodi:ry="11.428572"
       sodipodi:rx="11.428572"
       sodipodi:cy="326.64789"
       sodipodi:cx="190"
       id="path3053"
       style="fill:#ffffff;fill-opacity:1;stroke:#000000;stroke-width:3;stroke-miterlimit:4;stroke-opacity:1;stroke-dasharray:none;stroke-dashoffset:0"
       sodipodi:type="arc"
       transform="translate(0,67.930733)" />
    <path
       d="m 201.42857,326.64789 c 0,6.31182 -5.11674,11.42857 -11.42857,11.42857 -6.31183,0 -11.42857,-5.11675 -11.42857,-11.42857 0,-6.31183 5.11674,-11.42857 11.42857,-11.42857 6.31183,0 11.42857,5.11674 11.42857,11.42857 z"
       sodipodi:ry="11.428572"
       sodipodi:rx="11.428572"
       sodipodi:cy="326.64789"
       sodipodi:cx="190"
       id="path3061"
       style="fill:#ffffff;fill-opacity:1;stroke:#000000;stroke-width:6.70281982;stroke-miterlimit:4;stroke-opacity:1;stroke-dasharray:none;stroke-dashoffset:0"
       sodipodi:type="arc"
       transform="matrix(0.44757284,0,0,0.44757284,74.404046,148.8819)" />
    <path
       transform="matrix(0.44757284,0,0,0.44757284,130.46751,148.8819)"
       sodipodi:type="arc"
       style="fill:#ffffff;fill-opacity:1;stroke:#000000;stroke-width:6.70281982;stroke-miterlimit:4;stroke-opacity:1;stroke-dasharray:none;stroke-dashoffset:0"
       id="path3074"
       sodipodi:cx="190"
       sodipodi:cy="326.64789"
       sodipodi:rx="11.428572"
       sodipodi:ry="11.428572"
       d="m 201.42857,326.64789 c 0,6.31182 -5.11674,11.42857 -11.42857,11.42857 -6.31183,0 -11.42857,-5.11675 -11.42857,-11.42857 0,-6.31183 5.11674,-11.42857 11.42857,-11.42857 6.31183,0 11.42857,5.11674 11.42857,11.42857 z" />
    <path
       transform="matrix(0.44757284,0,0,0.44757284,74.404046,213.53167)"
       sodipodi:type="arc"
       style="fill:#ffffff;fill-opacity:1;stroke:#000000;stroke-width:6.70281982;stroke-miterlimit:4;stroke-opacity:1;stroke-dasharray:none;stroke-dashoffset:0"
       id="path3076"
       sodipodi:cx="190"
       sodipodi:cy="326.64789"
       sodipodi:rx="11.428572"
       sodipodi:ry="11.428572"
       d="m 201.42857,326.64789 c 0,6.31182 -5.11674,11.42857 -11.42857,11.42857 -6.31183,0 -11.42857,-5.11675 -11.42857,-11.42857 0,-6.31183 5.11674,-11.42857 11.42857,-11.42857 6.31183,0 11.42857,5.11674 11.42857,11.42857 z" />
    <path
       d="m 201.42857,326.64789 c 0,6.31182 -5.11674,11.42857 -11.42857,11.42857 -6.31183,0 -11.42857,-5.11675 -11.42857,-11.42857 0,-6.31183 5.11674,-11.42857 11.42857,-11.42857 6.31183,0 11.42857,5.11674 11.42857,11.42857 z"
       sodipodi:ry="11.428572"
       sodipodi:rx="11.428572"
       sodipodi:cy="326.64789"
       sodipodi:cx="190"
       id="path3078"
       style="fill:#ffffff;fill-opacity:1;stroke:#000000;stroke-width:6.70281982;stroke-miterlimit:4;stroke-opacity:1;stroke-dasharray:none;stroke-dashoffset:0"
       sodipodi:type="arc"
       transform="matrix(0.44757284,0,0,0.44757284,130.46751,213.53167)" />
    <path
       d="m 201.42857,326.64789 c 0,6.31182 -5.11674,11.42857 -11.42857,11.42857 -6.31183,0 -11.42857,-5.11675 -11.42857,-11.42857 0,-6.31183 5.11674,-11.42857 11.42857,-11.42857 6.31183,0 11.42857,5.11674 11.42857,11.42857 z"
       sodipodi:ry="11.428572"
       sodipodi:rx="11.428572"
       sodipodi:cy="326.64789"
       sodipodi:cx="190"
       id="path3080"
       style="fill:#ffffff;fill-opacity:1;stroke:#000000;stroke-width:6.70281982;stroke-miterlimit:4;stroke-opacity:1;stroke-dasharray:none;stroke-dashoffset:0"
       sodipodi:type="arc"
       transform="matrix(0.44757284,0,0,0.44757284,74.404046,285.75757)" />
    <path
       transform="matrix(0.44757284,0,0,0.44757284,130.46751,285.75757)"
       sodipodi:type="arc"
       style="fill:#ffffff;fill-opacity:1;stroke:#000000;stroke-width:6.70281982;stroke-miterlimit:4;stroke-opacity:1;stroke-dasharray:none;stroke-dashoffset:0"
       id="path3082"
       sodipodi:cx="190"
       sodipodi:cy="326.64789"
       sodipodi:rx="11.428572"
       sodipodi:ry="11.428572"
       d="m 201.42857,326.64789 c 0,6.31182 -5.11674,11.42857 -11.42857,11.42857 -6.31183,0 -11.42857,-5.11675 -11.42857,-11.42857 0,-6.31183 5.11674,-11.42857 11.42857,-11.42857 6.31183,0 11.42857,5.11674 11.42857,11.42857 z" />
  </g>
  <text
     xml:space="preserve"
     style="font-size:16px;font-style:normal;font-variant:normal;font-weight:normal;font-stretch:normal;text-align:start;line-height:125%;letter-spacing:0px;word-spacing:0px;writing-mode:lr-tb;text-anchor:start;fill:#000000;fill-opacity:1;stroke:none;font-family:Sans;-inkscape-font-specification:Sans"
     x="49.497475"
     y="71.710625"
     id="text3918"
     sodipodi:linespacing="125%"><tspan
       sodipodi:role="line"
       id="tspan3920"
       x="49.497475"
       y="71.710625">A</tspan></text>
  <text
     sodipodi:linespacing="125%"
     id="text3922"
     y="139.89592"
     x="49.497475"
     style="font-size:16px;font-style:normal;font-variant:normal;font-weight:normal;font-stretch:normal;text-align:start;line-height:125%;letter-spacing:0px;word-spacing:0px;writing-mode:lr;text-anchor:start;fill:#000000;fill-opacity:1;stroke:none;font-family:Sans;-inkscape-font-specification:Sans"
     xml:space="preserve"><tspan
       sodipodi:role="line"
       id="tspan3926">B</tspan></text>
  <text
     sodipodi:linespacing="125%"
     id="text3928"
     y="37.870514"
     x="147.98735"
     style="font-size:16px;font-style:normal;font-variant:normal;font-weight:normal;font-stretch:normal;text-align:start;line-height:125%;letter-spacing:0px;word-spacing:0px;writing-mode:lr-tb;text-anchor:start;fill:#000000;fill-opacity:1;stroke:none;font-family:Sans;-inkscape-font-specification:Sans"
     xml:space="preserve"><tspan
       sodipodi:role="line"
       id="tspan3932"
       x="147.98735"
       y="37.870514">A'</tspan></text>
  <text
     xml:space="preserve"
     style="font-size:16px;font-style:normal;font-variant:normal;font-weight:normal;font-stretch:normal;text-align:start;line-height:125%;letter-spacing:0px;word-spacing:0px;writing-mode:lr;text-anchor:start;fill:#000000;fill-opacity:1;stroke:none;font-family:Sans;-inkscape-font-specification:Sans"
     x="147.98735"
     y="102.0152"
     id="text3934"
     sodipodi:linespacing="125%"><tspan
       sodipodi:role="line"
       id="tspan3938">B'</tspan></text>
  <text
     sodipodi:linespacing="125%"
     id="text3940"
     y="168.68527"
     x="147.98735"
     style="font-size:16px;font-style:normal;font-variant:normal;font-weight:normal;font-stretch:normal;text-align:start;line-height:125%;letter-spacing:0px;word-spacing:0px;writing-mode:lr;text-anchor:start;fill:#000000;fill-opacity:1;stroke:none;font-family:Sans;-inkscape-font-specification:Sans"
     xml:space="preserve"><tspan
       sodipodi:role="line"
       id="tspan3944">C'</tspan></text>
</svg>
