ply
format ascii 1.0
comment Created by Blender 2.65 (sub 0) - www.blender.org, source file: 'keys_linolafett.blend'
element vertex 1880
property float x
property float y
property float z
element face 1854
property list uchar uint vertex_indices
end_header
1.633103 0.048285 -0.064952
1.650985 0.040010 -0.064952
1.650985 0.093681 -0.064952
1.793519 -0.270619 -0.075516
1.793519 -0.261277 -0.070972
1.753010 -0.262547 -0.068169
1.793519 -0.283823 -0.001892
1.793519 -0.279575 -0.017820
1.540205 -0.276014 -0.005561
1.509928 -0.230682 0.000000
1.515562 -0.251428 -0.001265
1.554760 0.027309 0.000000
1.549391 0.127856 0.000000
1.547069 0.106764 0.000000
1.637316 0.143725 0.000000
1.494629 0.334367 0.000000
1.592612 0.146498 0.000000
1.489943 -0.347469 -0.000899
1.511641 -0.299671 -0.001265
1.530386 -0.267221 -0.003912
1.532502 -0.262265 -0.003912
1.558921 0.133149 0.000000
1.549391 0.127856 -0.205737
1.547069 0.106764 -0.205737
1.494629 0.334367 -0.205737
1.558921 0.133149 -0.205737
1.592612 0.146498 -0.205737
1.509928 -0.230682 -0.205737
1.515562 -0.251428 -0.204472
1.489943 -0.347469 -0.204838
1.532502 -0.262265 -0.201825
1.530386 -0.267221 -0.201825
1.511641 -0.299671 -0.204472
1.637316 0.143725 -0.205737
1.554760 0.027309 -0.205737
1.793519 -0.283823 -0.203846
1.540205 -0.276014 -0.200176
1.793519 -0.279575 -0.187917
1.793519 -0.270619 -0.130221
1.753010 -0.262547 -0.137568
1.793519 -0.261277 -0.134766
1.633103 0.048285 -0.140785
1.650985 0.093681 -0.140785
1.650985 0.040010 -0.140785
1.559047 0.052431 0.000000
1.563335 0.077554 0.000000
1.563335 0.077554 -0.205737
1.559047 0.052431 -0.205737
4.324306 0.143938 0.000000
4.320162 0.123420 0.000000
4.324306 0.126034 0.000000
1.932380 0.334522 0.000000
1.932380 0.143938 0.000000
4.252140 0.334522 0.000000
1.932380 0.017770 -0.064952
2.844722 0.017770 -0.064952
2.847215 0.020554 -0.064952
1.932380 -0.034236 -0.205737
2.798164 -0.034236 -0.205737
2.302485 -0.037927 -0.205737
3.091698 -0.102055 -0.003971
3.092412 -0.102575 -0.004072
3.091287 -0.101754 -0.003912
2.798164 -0.034236 0.000000
1.932380 -0.034236 0.000000
2.302485 -0.037927 0.000000
2.051747 -0.279575 -0.187917
2.051747 -0.275190 -0.142162
2.051747 -0.270619 -0.075516
4.324306 0.143938 -0.205737
4.324306 0.126034 -0.205737
1.932380 0.143938 -0.205737
2.051747 -0.270619 -0.130221
2.051747 -0.347038 -0.205737
2.051747 -0.374360 -0.189846
2.051747 -0.374360 -0.205737
2.837620 0.009836 -0.061169
2.802097 -0.029843 0.000000
4.152654 0.017770 -0.064952
4.140075 0.009836 -0.061169
4.140075 0.009836 -0.144568
2.826596 -0.002476 -0.022417
2.818749 -0.011242 -0.003783
2.806030 -0.025450 0.000000
3.063738 -0.081658 -0.205737
2.955188 -0.002476 -0.022417
2.938308 0.009836 -0.061169
4.328300 0.128553 0.000000
4.338007 0.141110 0.000000
4.337678 0.143938 0.000000
4.324306 0.196465 0.000000
4.268115 0.315923 0.000000
4.273011 0.093681 -0.064952
4.152654 0.017770 -0.140785
4.273011 0.093681 -0.140785
4.307425 0.115387 -0.201981
4.320162 0.123420 -0.205737
4.291409 0.105285 -0.061169
2.998727 -0.034236 0.000000
3.091287 -0.101754 -0.201825
3.102896 -0.110223 -0.200176
4.204707 0.376874 -0.189846
4.234629 0.354910 -0.205737
4.204707 0.376874 -0.205737
4.084128 -0.025450 -0.205737
3.932430 -0.121128 -0.010283
4.077163 -0.029843 -0.205737
3.949720 -0.110223 -0.005561
3.963147 -0.101754 -0.003912
2.755711 -0.081658 0.000000
4.338007 0.141110 -0.205737
4.328300 0.128553 -0.205737
2.051747 -0.279575 -0.017820
2.051747 -0.374360 -0.011690
2.051747 -0.275190 -0.063575
4.252140 0.334522 -0.205737
3.063738 -0.081658 0.000000
2.880401 0.029598 -0.064952
2.911217 0.029598 -0.064952
4.234629 0.354910 0.000000
4.204707 0.376874 0.000000
4.204707 0.376874 -0.011690
4.120553 -0.002476 -0.183320
2.837620 0.009836 -0.144568
2.844722 0.017770 -0.140785
1.932380 0.017770 -0.140785
2.847215 0.020554 -0.140785
3.949720 -0.110223 -0.200176
3.963147 -0.101754 -0.201825
4.070198 -0.034236 -0.205737
3.932430 -0.121128 -0.195454
3.995009 -0.081658 -0.205737
4.070198 -0.034236 0.000000
4.106654 -0.011242 -0.003783
4.077163 -0.029843 0.000000
2.927432 0.017770 -0.140785
2.911217 0.029598 -0.140785
4.084128 -0.025450 0.000000
2.250210 -0.081658 0.000000
2.348135 -0.081658 0.000000
2.226188 -0.101754 -0.201825
2.216065 -0.110223 -0.005561
2.216065 -0.110223 -0.200176
2.445978 -0.175390 -0.033780
2.377953 -0.110223 -0.005561
2.445978 -0.175390 -0.171957
2.671799 -0.175390 -0.033780
2.671799 -0.175390 -0.171957
2.730139 -0.110223 -0.200176
1.793519 -0.025450 0.000000
1.932380 -0.025450 0.000000
1.932380 -0.011242 -0.003783
1.793519 -0.011242 -0.003783
1.932380 -0.002476 -0.022417
1.793519 -0.002476 -0.022417
1.932380 0.009836 -0.061169
1.793519 0.009836 -0.061169
1.793519 -0.289886 0.000000
1.932380 -0.289886 0.000000
1.932380 -0.283823 -0.001892
1.932380 -0.279575 -0.017820
1.932380 -0.270619 -0.075516
1.932380 -0.261277 -0.070972
1.932380 -0.275190 -0.063575
1.793519 -0.275190 -0.063575
1.793519 0.017770 -0.064952
1.932380 0.093681 -0.064952
1.793519 0.093681 -0.064952
1.932380 0.105285 -0.061169
1.793519 0.105285 -0.061169
1.932380 0.111879 -0.013036
1.793519 0.111879 -0.013036
1.932380 0.115387 -0.003757
1.793519 0.115387 -0.003757
1.793519 0.123420 0.000000
1.932380 0.123420 0.000000
1.650985 0.123420 0.000000
1.650985 0.115387 -0.003757
1.650985 0.111879 -0.013036
1.650985 0.105285 -0.061169
1.650985 0.032076 -0.061169
1.650985 0.019763 -0.022417
1.650985 0.010997 -0.003783
1.650985 -0.003211 0.000000
1.611231 0.029223 -0.003783
1.600520 0.019889 0.000000
1.627121 0.043072 -0.061169
1.617839 0.034982 -0.022417
1.615813 0.104609 -0.061169
1.622291 0.094982 -0.064952
1.610175 0.112991 -0.003757
1.612133 0.110080 -0.013036
1.605690 0.119656 0.000000
1.567883 0.105344 0.000000
1.576990 0.101075 -0.003765
1.578186 0.054230 -0.003774
1.566587 0.049764 0.000000
1.586637 0.097432 -0.016163
1.596967 0.092881 -0.061169
1.602533 0.061254 -0.061169
1.589811 0.057302 -0.019290
1.612775 0.082606 -0.064952
1.620164 0.062191 -0.064952
1.573688 0.077652 -0.003770
1.584324 0.077367 -0.017727
1.595850 0.077067 -0.061169
1.612570 0.072399 -0.064952
1.651111 -0.267942 -0.058420
1.539617 -0.290528 -0.005561
1.793971 -0.110216 -0.005561
1.932380 -0.110223 -0.005561
1.932380 -0.101754 -0.003912
1.793703 -0.101752 -0.003912
1.932380 -0.081658 0.000000
1.793068 -0.081665 0.000000
1.689519 -0.092004 0.000000
1.707852 -0.113927 -0.003912
1.715577 -0.123166 -0.005561
1.584732 -0.133510 0.000000
1.605096 -0.154376 -0.003912
1.613678 -0.163169 -0.005561
1.529639 -0.281735 -0.003912
1.554845 -0.236514 -0.005561
1.547249 -0.227721 -0.003912
1.529223 -0.206856 0.000000
1.793519 0.143831 0.000000
1.932380 -0.242325 -0.062765
1.793576 -0.242324 -0.062765
1.646414 -0.254797 -0.051788
1.748313 -0.245059 -0.060314
1.542042 -0.271058 -0.005561
1.793448 -0.034237 0.000000
1.657008 -0.017090 0.000000
1.598052 -0.004090 0.000000
1.560746 0.009650 0.000000
1.370910 -0.376875 0.000000
1.370910 -0.350117 0.000000
1.075326 -0.350117 0.000000
1.075326 -0.376875 0.000000
1.480360 -0.374360 0.000000
1.370910 0.334107 0.000000
1.075326 0.334107 0.000000
1.370910 0.376874 0.000000
1.075326 0.376874 0.000000
1.480360 0.376874 0.000000
1.793519 0.376874 0.000000
1.793519 0.334503 0.000000
1.932380 0.376874 0.000000
1.932380 -0.374360 0.000000
1.932380 -0.347038 0.000000
1.793519 -0.347038 0.000000
1.793519 -0.374360 0.000000
1.529639 -0.281735 -0.201825
1.539617 -0.290528 -0.200176
1.793519 -0.347038 -0.205737
1.793519 -0.289886 -0.205737
1.793519 -0.374360 -0.205737
1.480360 -0.374360 -0.205737
1.932380 -0.347038 -0.205737
1.932380 -0.289886 -0.205737
1.932380 -0.374360 -0.205737
1.793519 0.334503 -0.205737
1.793519 0.143831 -0.205737
1.480360 0.376874 -0.205737
1.793519 0.376874 -0.205737
1.932380 0.334522 -0.205737
1.932380 0.376874 -0.205737
1.370910 0.334107 -0.205737
1.370910 0.376874 -0.205737
1.370910 -0.350117 -0.205737
1.075326 0.334107 -0.205737
1.075326 0.376874 -0.205737
1.075326 -0.350117 -0.205737
1.370910 -0.376875 -0.205737
1.075326 -0.376875 -0.205737
1.560746 0.009650 -0.205737
1.529223 -0.206856 -0.205737
1.598052 -0.004090 -0.205737
1.584732 -0.133510 -0.205737
1.657008 -0.017090 -0.205737
1.689519 -0.092004 -0.205737
1.793448 -0.034237 -0.205737
1.793068 -0.081665 -0.205737
1.932380 -0.081658 -0.205737
1.650985 0.123420 -0.205737
1.605690 0.119656 -0.205737
1.567883 0.105344 -0.205737
1.793519 0.123420 -0.205737
1.547249 -0.227721 -0.201825
1.554845 -0.236514 -0.200176
1.542042 -0.271058 -0.200176
1.646414 -0.254797 -0.153949
1.651111 -0.267942 -0.147317
1.613678 -0.163169 -0.200176
1.793576 -0.242324 -0.142972
1.748313 -0.245059 -0.145424
1.793971 -0.110216 -0.200176
1.715577 -0.123166 -0.200176
1.932380 -0.110223 -0.200176
1.932380 -0.242325 -0.142972
1.932380 -0.261277 -0.134766
1.932380 0.123420 -0.205737
1.605096 -0.154376 -0.201825
1.707852 -0.113927 -0.201825
1.793703 -0.101752 -0.201825
1.932380 -0.101754 -0.201825
1.793519 -0.275190 -0.142162
1.612570 0.072399 -0.140785
1.612775 0.082606 -0.140785
1.622291 0.094982 -0.140785
1.620164 0.062191 -0.140785
1.573688 0.077652 -0.201968
1.576990 0.101075 -0.201972
1.586637 0.097432 -0.189574
1.584324 0.077367 -0.188010
1.578186 0.054230 -0.201963
1.589811 0.057302 -0.186447
1.602533 0.061254 -0.144568
1.595850 0.077067 -0.144568
1.596967 0.092881 -0.144568
1.566587 0.049764 -0.205737
1.610175 0.112991 -0.201981
1.612133 0.110080 -0.192701
1.611231 0.029223 -0.201954
1.617839 0.034982 -0.183320
1.627121 0.043072 -0.144568
1.615813 0.104609 -0.144568
1.600520 0.019889 -0.205737
1.650985 0.115387 -0.201981
1.650985 0.111879 -0.192701
1.650985 0.105285 -0.144568
1.650985 0.032076 -0.144568
1.650985 0.019763 -0.183320
1.650985 0.010997 -0.201954
1.650985 -0.003211 -0.205737
1.793519 -0.011242 -0.201954
1.793519 -0.025450 -0.205737
1.793519 0.009836 -0.144568
1.793519 -0.002476 -0.183320
1.793519 0.017770 -0.140785
1.793519 0.093681 -0.140785
1.793519 0.105285 -0.144568
1.793519 0.115387 -0.201981
1.793519 0.111879 -0.192701
1.932380 0.115387 -0.201981
1.932380 0.111879 -0.192701
1.932380 0.105285 -0.144568
1.932380 0.093681 -0.140785
1.932380 0.009836 -0.144568
1.932380 -0.270619 -0.130221
1.932380 -0.275190 -0.142162
1.932380 -0.279575 -0.187917
1.932380 -0.283823 -0.203846
1.932380 -0.002476 -0.183320
1.932380 -0.011242 -0.201954
1.932380 -0.025450 -0.205737
1.480360 0.376874 -0.011690
1.370910 0.376874 -0.011690
1.370910 -0.376875 -0.011690
1.480360 -0.374360 -0.011690
1.793519 0.376874 -0.011690
1.793519 -0.374360 -0.011690
1.932380 0.376874 -0.011690
1.932380 -0.374360 -0.011690
1.075326 -0.376875 -0.011690
1.075326 0.376874 -0.011690
1.480360 0.376874 -0.189846
1.370910 0.376874 -0.189846
1.370910 -0.376875 -0.189846
1.480360 -0.374360 -0.189846
1.793519 0.376874 -0.189846
1.793519 -0.374360 -0.189846
1.932380 0.376874 -0.189846
1.932380 -0.374360 -0.189846
1.075326 -0.376875 -0.189846
1.075326 0.376874 -0.189846
4.324306 0.196465 -0.205737
1.932380 -0.029843 0.000000
1.793484 -0.029844 0.000000
1.653996 -0.010150 0.000000
1.599286 0.007899 0.000000
1.563666 0.029707 0.000000
1.563666 0.029707 -0.205737
1.599286 0.007899 -0.205737
1.653996 -0.010150 -0.205737
1.793484 -0.029844 -0.205737
1.932380 -0.029843 -0.205737
4.307425 0.115387 -0.003757
4.301863 0.111879 -0.013036
2.051747 -0.283823 -0.001892
2.051747 -0.289886 0.000000
2.051747 -0.347038 0.000000
4.333953 0.175954 0.000000
2.051747 -0.374360 0.000000
2.051747 -0.283823 -0.203846
2.051747 -0.289886 -0.205737
2.826596 -0.002476 -0.183320
2.818749 -0.011242 -0.201954
2.880401 0.029598 -0.140785
4.291409 0.105285 -0.144568
4.301863 0.111879 -0.192701
2.250210 -0.081658 -0.205737
2.802097 -0.029843 -0.205737
4.337678 0.143938 -0.205737
4.333953 0.175954 -0.205737
4.268115 0.315923 -0.205737
3.117846 -0.121128 -0.010283
3.117846 -0.121128 -0.195454
3.995009 -0.081658 0.000000
3.102896 -0.110223 -0.005561
2.051747 -0.261277 -0.070972
2.051747 -0.242325 -0.062765
2.051747 -0.242325 -0.142972
2.369113 -0.101754 -0.003912
2.737720 -0.101754 -0.003912
2.927432 0.017770 -0.064952
2.986682 -0.025450 -0.205737
2.967205 -0.011242 -0.201954
4.106654 -0.011242 -0.201954
2.051747 -0.261277 -0.134766
2.377953 -0.110223 -0.200176
2.369113 -0.101754 -0.201825
2.737720 -0.101754 -0.201825
2.755711 -0.081658 -0.205737
2.348135 -0.081658 -0.205737
2.992704 -0.029843 0.000000
2.998727 -0.034236 -0.205737
2.992704 -0.029843 -0.205737
2.226188 -0.101754 -0.003912
2.806030 -0.025450 -0.205737
2.051747 -0.175389 -0.033780
2.986682 -0.025450 0.000000
2.967205 -0.011242 -0.003783
2.955188 -0.002476 -0.183320
2.938308 0.009836 -0.144568
3.555275 -0.148259 -0.183706
3.531179 -0.148259 -0.183706
2.051747 -0.175389 -0.171958
3.799992 -0.226636 -0.149766
3.799992 -0.226636 -0.055971
3.641000 -0.226636 -0.055971
3.641000 -0.226636 -0.149766
3.555275 -0.148259 -0.022031
3.531179 -0.148259 -0.022031
2.730139 -0.110223 -0.005561
4.120553 -0.002476 -0.022417
3.447451 -0.226636 -0.055971
3.447451 -0.226636 -0.149766
3.245543 -0.226636 -0.055971
3.245543 -0.226636 -0.149766
2.557644 -0.175390 -0.033780
2.557644 -0.175390 -0.171957
2.582006 -0.175390 -0.171957
2.582006 -0.175390 -0.033780
2.107898 -0.200711 -0.044745
2.107898 -0.200711 -0.160992
2.619176 -0.158073 -0.179384
2.619176 -0.158073 -0.026354
2.499565 -0.175390 -0.033780
2.499565 -0.175390 -0.171957
2.528605 -0.154288 -0.181095
2.528605 -0.154288 -0.024642
2.656347 -0.175390 -0.171957
2.656347 -0.175390 -0.033780
0.695330 0.875673 -0.021553
0.393168 0.885825 -0.021553
0.390080 0.876973 -0.021553
0.689225 0.866922 -0.021553
0.083924 0.888954 -0.021553
0.083924 0.880070 -0.021553
-0.527483 0.875673 -0.021553
-0.521378 0.866922 -0.021553
-0.222233 0.876973 -0.021553
-0.225321 0.885825 -0.021553
0.695330 -0.877125 -0.021553
0.689225 -0.868374 -0.021553
0.390080 -0.878424 -0.021553
0.393168 -0.887276 -0.021553
0.083924 -0.890405 -0.021553
0.083924 -0.881522 -0.021553
-0.527483 -0.877125 -0.021553
-0.225321 -0.887276 -0.021553
-0.222233 -0.878424 -0.021553
-0.521378 -0.868374 -0.021553
0.756933 0.850251 -0.021553
0.763721 0.858833 -0.021553
0.822039 0.800876 -0.021553
0.829483 0.808961 -0.021553
0.882041 0.720697 -0.021553
0.890090 0.727973 -0.021553
0.934633 0.612794 -0.021553
0.943213 0.618981 -0.021553
0.977794 0.481314 -0.021553
0.986810 0.486175 -0.021553
1.009866 0.331309 -0.021553
1.019205 0.334657 -0.021553
1.029616 0.168544 -0.021553
1.039154 0.170251 -0.021553
1.036284 -0.000726 -0.021553
1.045889 -0.000726 -0.021553
1.029616 -0.169996 -0.021553
1.039154 -0.171703 -0.021553
1.009866 -0.332760 -0.021553
1.019205 -0.336109 -0.021553
0.977794 -0.482765 -0.021553
0.986810 -0.487627 -0.021553
0.934633 -0.614246 -0.021553
0.943213 -0.620433 -0.021553
0.882041 -0.722149 -0.021553
0.890090 -0.729425 -0.021553
0.822039 -0.802328 -0.021553
0.829483 -0.810413 -0.021553
0.756933 -0.851702 -0.021553
0.763721 -0.860285 -0.021553
-0.595873 0.858833 -0.021553
-0.589085 0.850251 -0.021553
-0.661636 0.808961 -0.021553
-0.654191 0.800877 -0.021553
-0.722243 0.727974 -0.021553
-0.714193 0.720698 -0.021553
-0.775365 0.618982 -0.021553
-0.766785 0.612795 -0.021553
-0.818962 0.486176 -0.021553
-0.809947 0.481314 -0.021553
-0.851357 0.334658 -0.021553
-0.842019 0.331309 -0.021553
-0.871306 0.170252 -0.021553
-0.861768 0.168545 -0.021553
-0.878042 -0.000725 -0.021553
-0.868437 -0.000725 -0.021553
-0.871306 -0.171702 -0.021553
-0.861768 -0.169995 -0.021553
-0.851357 -0.336109 -0.021553
-0.842019 -0.332760 -0.021553
-0.818962 -0.487626 -0.021553
-0.809947 -0.482765 -0.021553
-0.775366 -0.620433 -0.021553
-0.766786 -0.614245 -0.021553
-0.722243 -0.729424 -0.021553
-0.714194 -0.722149 -0.021553
-0.661636 -0.810413 -0.021553
-0.654192 -0.802328 -0.021553
-0.595874 -0.860285 -0.021553
-0.589086 -0.851702 -0.021553
-0.234876 0.321792 -0.021553
-0.234876 0.327591 -0.021553
-0.298927 0.321283 -0.021553
-0.297796 0.315595 -0.021553
-0.360517 0.302600 -0.021553
-0.358298 0.297242 -0.021553
-0.417279 0.272260 -0.021553
-0.414057 0.267439 -0.021553
-0.467031 0.231430 -0.021553
-0.462930 0.227329 -0.021553
-0.507861 0.181678 -0.021553
-0.503040 0.178456 -0.021553
-0.538201 0.124916 -0.021553
-0.532844 0.122697 -0.021553
-0.556884 0.063326 -0.021553
-0.551197 0.062195 -0.021553
-0.563193 -0.000725 -0.021553
-0.557394 -0.000725 -0.021553
-0.556884 -0.064777 -0.021553
-0.551197 -0.063646 -0.021553
-0.538201 -0.126367 -0.021553
-0.532844 -0.124148 -0.021553
-0.507861 -0.183129 -0.021553
-0.503040 -0.179907 -0.021553
-0.467031 -0.232881 -0.021553
-0.462931 -0.228780 -0.021553
-0.417279 -0.273711 -0.021553
-0.414058 -0.268890 -0.021553
-0.360518 -0.304051 -0.021553
-0.358299 -0.298694 -0.021553
-0.298928 -0.322734 -0.021553
-0.297796 -0.317047 -0.021553
-0.234876 -0.329043 -0.021553
-0.234876 -0.323244 -0.021553
-0.170825 -0.322734 -0.021553
-0.171956 -0.317047 -0.021553
-0.109235 -0.304051 -0.021553
-0.111454 -0.298694 -0.021553
-0.052473 -0.273711 -0.021553
-0.055695 -0.268890 -0.021553
-0.002721 -0.232881 -0.021553
-0.006821 -0.228781 -0.021553
0.038109 -0.183129 -0.021553
0.033288 -0.179907 -0.021553
0.068449 -0.126367 -0.021553
0.063092 -0.124148 -0.021553
0.087132 -0.064777 -0.021553
0.081445 -0.063646 -0.021553
0.093441 -0.000726 -0.021553
0.087642 -0.000726 -0.021553
0.087132 0.063326 -0.021553
0.081445 0.062194 -0.021553
0.068449 0.124916 -0.021553
0.063092 0.122697 -0.021553
0.038109 0.181677 -0.021553
0.033288 0.178456 -0.021553
-0.002721 0.231429 -0.021553
-0.006821 0.227329 -0.021553
-0.052473 0.272260 -0.021553
-0.055695 0.267438 -0.021553
-0.109235 0.302599 -0.021553
-0.111454 0.297242 -0.021553
-0.170825 0.321282 -0.021553
-0.171956 0.315595 -0.021553
-0.234876 0.315580 0.008444
-0.173168 0.309502 0.008444
-0.172925 0.310721 0.002444
-0.234876 0.316822 0.002444
-0.113831 0.291502 0.008444
-0.113356 0.292650 0.002444
-0.059146 0.262273 0.008444
-0.058456 0.263306 0.002444
-0.011214 0.222936 0.008444
-0.010336 0.223815 0.002444
0.028122 0.175004 0.008444
0.029155 0.175695 0.002444
0.057352 0.120319 0.008444
0.058500 0.120795 0.002444
0.075352 0.060982 0.008444
0.076570 0.061225 0.002444
0.081429 -0.000726 0.008444
0.082672 -0.000726 0.002444
0.075352 -0.062434 0.008444
0.076570 -0.062676 0.002444
0.057352 -0.121771 0.008444
0.058500 -0.122246 0.002444
0.028122 -0.176456 0.008444
0.029155 -0.177146 0.002444
-0.011214 -0.224388 0.008444
-0.010336 -0.225266 0.002444
-0.059146 -0.263724 0.008444
-0.058456 -0.264757 0.002444
-0.113831 -0.292954 0.008444
-0.113356 -0.294102 0.002444
-0.173168 -0.310954 0.008444
-0.172925 -0.312172 0.002444
-0.234876 -0.317031 0.008444
-0.234876 -0.318274 0.002444
-0.296584 -0.310954 0.008444
-0.296827 -0.312172 0.002444
-0.355921 -0.292954 0.008444
-0.356396 -0.294102 0.002444
-0.410606 -0.263724 0.008444
-0.411296 -0.264757 0.002444
-0.458538 -0.224387 0.008444
-0.459417 -0.225266 0.002444
-0.497874 -0.176456 0.008444
-0.498908 -0.177146 0.002444
-0.527104 -0.121770 0.008444
-0.528252 -0.122246 0.002444
-0.545104 -0.062434 0.008444
-0.546323 -0.062676 0.002444
-0.551182 -0.000725 0.008444
-0.552424 -0.000725 0.002444
-0.545104 0.060983 0.008444
-0.546323 0.061225 0.002444
-0.527104 0.120319 0.008444
-0.528252 0.120795 0.002444
-0.497874 0.175005 0.008444
-0.498907 0.175695 0.002444
-0.458538 0.222936 0.008444
-0.459416 0.223815 0.002444
-0.410606 0.262273 0.008444
-0.411296 0.263306 0.002444
-0.355921 0.291503 0.008444
-0.356396 0.292651 0.002444
-0.296584 0.309502 0.008444
-0.296826 0.310721 0.002444
-0.172211 0.314310 -0.015227
-0.234876 0.320482 -0.015227
-0.111955 0.296032 -0.015227
-0.056422 0.266349 -0.015227
-0.007748 0.226403 -0.015227
0.032199 0.177728 -0.015227
0.061882 0.122195 -0.015227
0.080160 0.061939 -0.015227
0.086332 -0.000726 -0.015227
0.080160 -0.063390 -0.015227
0.061882 -0.123647 -0.015227
0.032199 -0.179179 -0.015227
-0.007748 -0.227854 -0.015227
-0.056422 -0.267801 -0.015227
-0.111955 -0.297483 -0.015227
-0.172211 -0.315762 -0.015227
-0.234876 -0.321934 -0.015227
-0.297541 -0.315762 -0.015227
-0.357797 -0.297483 -0.015227
-0.413330 -0.267800 -0.015227
-0.462004 -0.227854 -0.015227
-0.501951 -0.179179 -0.015227
-0.531634 -0.123647 -0.015227
-0.549912 -0.063390 -0.015227
-0.556084 -0.000725 -0.015227
-0.549912 0.061939 -0.015227
-0.531633 0.122196 -0.015227
-0.501951 0.177728 -0.015227
-0.462004 0.226403 -0.015227
-0.413329 0.266349 -0.015227
-0.357797 0.296032 -0.015227
-0.297540 0.314310 -0.015227
-0.295425 0.303676 0.008444
-0.234876 0.309639 0.008444
-0.353647 0.286014 0.008444
-0.407305 0.257333 0.008444
-0.454337 0.218736 0.008444
-0.492935 0.171704 0.008444
-0.521616 0.118046 0.008444
-0.539277 0.059824 0.008444
-0.545241 -0.000725 0.008444
-0.539277 -0.061275 0.008444
-0.521616 -0.119497 0.008444
-0.492935 -0.173155 0.008444
-0.454337 -0.220187 0.008444
-0.407306 -0.258785 0.008444
-0.353647 -0.287465 0.008444
-0.295425 -0.305127 0.008444
-0.234876 -0.311091 0.008444
-0.174327 -0.305127 0.008444
-0.116105 -0.287466 0.008444
-0.062447 -0.258785 0.008444
-0.015415 -0.220187 0.008444
0.023183 -0.173155 0.008444
0.051864 -0.119497 0.008444
0.069525 -0.061275 0.008444
0.075489 -0.000726 0.008444
0.069525 0.059823 0.008444
0.051864 0.118046 0.008444
0.023183 0.171704 0.008444
-0.015415 0.218735 0.008444
-0.062447 0.257333 0.008444
-0.116105 0.286014 0.008444
-0.174327 0.303676 0.008444
0.706430 0.891584 0.008444
0.398782 0.901920 0.008444
0.396214 0.894558 0.008444
0.701353 0.884306 0.008444
0.083924 0.905106 0.008444
0.083924 0.897718 0.008444
-0.230935 0.901920 0.008444
-0.538583 0.891584 0.008444
-0.533505 0.884306 0.008444
-0.228367 0.894558 0.008444
0.398782 -0.903372 0.008444
0.706430 -0.893036 0.008444
0.701353 -0.885758 0.008444
0.396214 -0.896010 0.008444
0.083924 -0.906557 0.008444
0.083924 -0.899169 0.008444
-0.538583 -0.893036 0.008444
-0.230935 -0.903372 0.008444
-0.228367 -0.896010 0.008444
-0.533505 -0.885758 0.008444
0.776062 0.874438 0.008444
0.770417 0.867300 0.008444
0.843019 0.823661 0.008444
0.836828 0.816937 0.008444
0.904726 0.741202 0.008444
0.898032 0.735151 0.008444
0.958813 0.630232 0.008444
0.951678 0.625086 0.008444
1.003201 0.495015 0.008444
0.995704 0.490971 0.008444
1.036185 0.340746 0.008444
1.028418 0.337961 0.008444
1.056496 0.173355 0.008444
1.048563 0.171935 0.008444
1.063354 -0.000726 0.008444
1.055366 -0.000726 0.008444
1.056496 -0.174807 0.008444
1.048563 -0.173387 0.008444
1.036185 -0.342198 0.008444
1.028418 -0.339413 0.008444
1.003201 -0.496467 0.008444
0.995704 -0.492423 0.008444
0.958813 -0.631684 0.008444
0.951678 -0.626538 0.008444
0.904726 -0.742654 0.008444
0.898032 -0.736603 0.008444
0.843019 -0.825113 0.008444
0.836827 -0.818389 0.008444
0.776062 -0.875890 0.008444
0.770417 -0.868752 0.008444
-0.608214 0.874438 0.008444
-0.602569 0.867300 0.008444
-0.675171 0.823661 0.008444
-0.668980 0.816937 0.008444
-0.736878 0.741203 0.008444
-0.730184 0.735152 0.008444
-0.790966 0.630233 0.008444
-0.783830 0.625087 0.008444
-0.835354 0.495016 0.008444
-0.827856 0.490972 0.008444
-0.868337 0.340747 0.008444
-0.860570 0.337962 0.008444
-0.888648 0.173356 0.008444
-0.880716 0.171936 0.008444
-0.895507 -0.000725 0.008444
-0.887518 -0.000725 0.008444
-0.888648 -0.174806 0.008444
-0.880716 -0.173386 0.008444
-0.868337 -0.342197 0.008444
-0.860571 -0.339412 0.008444
-0.835354 -0.496466 0.008444
-0.827857 -0.492423 0.008444
-0.790966 -0.631684 0.008444
-0.783830 -0.626538 0.008444
-0.736879 -0.742654 0.008444
-0.730184 -0.736603 0.008444
-0.675172 -0.825112 0.008444
-0.668980 -0.818389 0.008444
-0.608215 -0.875890 0.008444
-0.602570 -0.868752 0.008444
-0.597325 -0.862119 -0.015054
-0.528788 -0.878995 -0.015054
-0.663227 -0.812141 -0.015054
-0.723963 -0.730980 -0.015054
-0.777200 -0.621756 -0.015054
-0.820889 -0.488666 -0.015054
-0.853354 -0.336824 -0.015054
-0.873345 -0.172067 -0.015054
-0.880095 -0.000725 -0.015054
-0.873345 0.170617 -0.015054
-0.853354 0.335374 -0.015054
-0.820889 0.487215 -0.015054
-0.777199 0.620305 -0.015054
-0.723963 0.729529 -0.015054
-0.663227 0.810690 -0.015054
-0.597324 0.860668 -0.015054
-0.528788 0.877543 -0.015054
0.696635 -0.878995 -0.015054
0.765172 -0.862120 -0.015054
0.831074 -0.812141 -0.015054
0.891811 -0.730980 -0.015054
0.945047 -0.621756 -0.015054
0.988737 -0.488666 -0.015054
1.021201 -0.336825 -0.015054
1.041192 -0.172068 -0.015054
1.047943 -0.000726 -0.015054
1.041192 0.170616 -0.015054
1.021201 0.335373 -0.015054
0.988737 0.487214 -0.015054
0.945047 0.620304 -0.015054
0.891811 0.729528 -0.015054
0.831074 0.810689 -0.015054
0.765172 0.860668 -0.015054
0.696635 0.877543 -0.015054
-0.225981 -0.889169 -0.015054
0.083924 -0.892304 -0.015054
0.393828 -0.889169 -0.015054
0.083924 0.890852 -0.015054
-0.225981 0.887717 -0.015054
0.393828 0.887717 -0.015054
-0.531780 -0.883284 -0.000152
-0.600651 -0.866326 -0.000152
-0.666876 -0.816103 -0.000152
-0.727909 -0.734546 -0.000152
-0.781405 -0.624788 -0.000152
-0.825308 -0.491048 -0.000152
-0.857931 -0.338466 -0.000152
-0.878020 -0.172904 -0.000152
-0.884803 -0.000725 -0.000152
-0.878020 0.171454 -0.000152
-0.857930 0.337015 -0.000152
-0.825308 0.489598 -0.000152
-0.781404 0.623338 -0.000152
-0.727908 0.733095 -0.000152
-0.666875 0.814652 -0.000152
-0.600651 0.864874 -0.000152
-0.531780 0.881832 -0.000152
0.768498 -0.866326 -0.000152
0.699627 -0.883284 -0.000152
0.834723 -0.816103 -0.000152
0.895756 -0.734546 -0.000152
0.949252 -0.624789 -0.000152
0.993155 -0.491049 -0.000152
1.025778 -0.338466 -0.000152
1.045867 -0.172904 -0.000152
1.052650 -0.000726 -0.000152
1.045867 0.171453 -0.000152
1.025778 0.337014 -0.000152
0.993155 0.489597 -0.000152
0.949252 0.623337 -0.000152
0.895756 0.733094 -0.000152
0.834723 0.814651 -0.000152
0.768498 0.864874 -0.000152
0.699627 0.881832 -0.000152
0.083924 -0.896658 -0.000152
-0.227494 -0.893507 -0.000152
0.395341 -0.893507 -0.000152
-0.227494 0.892055 -0.000152
0.083924 0.895206 -0.000152
0.395341 0.892055 -0.000152
-0.729681 -0.778832 0.000591
-0.729681 0.786256 0.000591
-0.742228 0.786256 -0.032295
-0.742228 -0.778832 -0.032295
-0.629301 0.878998 0.000591
-0.629301 -0.897033 0.000591
-0.616754 -0.897033 -0.032295
-0.616754 0.878998 -0.032295
-0.380170 -0.275730 0.000591
-0.380170 -0.897033 0.000591
-0.367622 -0.897033 -0.032295
-0.367622 -0.275730 -0.032295
-0.480549 -0.897033 0.000591
-0.480549 -0.173896 0.000591
-0.493097 -0.173896 -0.032295
-0.493097 -0.897033 -0.032295
-0.229600 -0.897033 0.000591
-0.229600 -0.293915 0.000591
-0.242148 -0.293915 -0.032295
-0.242148 -0.897033 -0.032295
-0.129221 -0.293915 0.000591
-0.129221 -0.897033 0.000591
-0.116673 -0.897033 -0.032295
-0.116673 -0.293915 -0.032295
-0.474480 -0.180053 0.000591
-0.474480 -0.897033 0.000591
-0.385001 -0.270829 0.000591
-0.385001 -0.897033 0.000591
-0.223539 -0.293915 0.000591
-0.223539 -0.897033 0.000591
-0.134749 -0.293915 0.000591
-0.134749 -0.897033 0.000591
-0.636168 0.872654 0.000591
-0.636168 -0.888946 0.000591
-0.720777 0.794483 0.000591
-0.720777 -0.789317 0.000591
-0.134749 0.301072 0.000591
-0.134749 0.904189 0.000591
-0.223539 0.904189 0.000591
-0.223539 0.301072 0.000591
-0.129221 0.301072 0.000591
-0.129221 0.904189 0.000591
-0.229600 0.904189 0.000591
-0.229600 0.301072 0.000591
-0.385001 0.277986 0.000591
-0.385001 0.904189 0.000591
-0.474480 0.904189 0.000591
-0.474480 0.187210 0.000591
-0.380170 0.282887 0.000591
-0.380170 0.904189 0.000591
-0.480549 0.904189 0.000591
-0.480549 0.181053 0.000591
-0.116673 0.301072 -0.032295
-0.116673 0.904189 -0.032295
-0.242148 0.904189 -0.032295
-0.242148 0.301072 -0.032295
-0.493097 0.904189 -0.032295
-0.493097 0.181053 -0.032295
-0.367622 0.282887 -0.032295
-0.367622 0.904189 -0.032295
0.699627 0.881832 -0.202383
0.696635 0.877543 -0.187480
0.393828 0.887717 -0.187480
0.395341 0.892055 -0.202383
0.701353 0.884306 -0.210978
0.396214 0.894558 -0.210978
0.083924 0.890852 -0.187480
0.083924 0.895206 -0.202383
0.083924 0.897718 -0.210978
-0.227494 0.892055 -0.202383
-0.225981 0.887717 -0.187480
-0.528788 0.877543 -0.187480
-0.531780 0.881832 -0.202383
-0.228367 0.894558 -0.210978
-0.533505 0.884306 -0.210978
0.395341 -0.893507 -0.202383
0.393828 -0.889169 -0.187480
0.696635 -0.878995 -0.187480
0.699627 -0.883284 -0.202383
0.396214 -0.896010 -0.210978
0.701353 -0.885758 -0.210978
0.083924 -0.896658 -0.202383
0.083924 -0.892304 -0.187480
0.083924 -0.899169 -0.210978
-0.531780 -0.883284 -0.202383
-0.528788 -0.878995 -0.187480
-0.225981 -0.889169 -0.187480
-0.227494 -0.893507 -0.202383
-0.533505 -0.885758 -0.210978
-0.228367 -0.896010 -0.210978
0.768498 0.864874 -0.202383
0.765172 0.860668 -0.187480
0.770417 0.867300 -0.210978
0.834723 0.814651 -0.202383
0.831074 0.810689 -0.187480
0.836828 0.816937 -0.210978
0.895756 0.733094 -0.202383
0.891811 0.729528 -0.187480
0.898032 0.735151 -0.210978
0.949252 0.623337 -0.202383
0.945047 0.620304 -0.187480
0.951678 0.625086 -0.210978
0.993155 0.489597 -0.202383
0.988737 0.487214 -0.187480
0.995704 0.490971 -0.210978
1.025778 0.337014 -0.202383
1.021201 0.335373 -0.187480
1.028418 0.337961 -0.210978
1.045867 0.171453 -0.202383
1.041192 0.170616 -0.187480
1.048563 0.171935 -0.210978
1.052650 -0.000726 -0.202383
1.047943 -0.000726 -0.187480
1.055366 -0.000726 -0.210978
1.045867 -0.172904 -0.202383
1.041192 -0.172068 -0.187480
1.048563 -0.173387 -0.210978
1.025778 -0.338466 -0.202383
1.021201 -0.336825 -0.187480
1.028418 -0.339413 -0.210978
0.993155 -0.491049 -0.202383
0.988737 -0.488666 -0.187480
0.995704 -0.492423 -0.210978
0.949252 -0.624789 -0.202383
0.945047 -0.621756 -0.187480
0.951678 -0.626538 -0.210978
0.895756 -0.734546 -0.202383
0.891811 -0.730980 -0.187480
0.898032 -0.736603 -0.210978
0.834723 -0.816103 -0.202383
0.831074 -0.812141 -0.187480
0.836827 -0.818389 -0.210978
0.768498 -0.866326 -0.202383
0.765172 -0.862120 -0.187480
0.770417 -0.868752 -0.210978
-0.597324 0.860668 -0.187480
-0.600651 0.864874 -0.202383
-0.602569 0.867300 -0.210978
-0.663227 0.810690 -0.187480
-0.666875 0.814652 -0.202383
-0.668980 0.816937 -0.210978
-0.723963 0.729529 -0.187480
-0.727908 0.733095 -0.202383
-0.730184 0.735152 -0.210978
-0.777199 0.620305 -0.187480
-0.781404 0.623338 -0.202383
-0.783830 0.625087 -0.210978
-0.820889 0.487215 -0.187480
-0.825308 0.489598 -0.202383
-0.827856 0.490972 -0.210978
-0.853354 0.335374 -0.187480
-0.857930 0.337015 -0.202383
-0.860570 0.337962 -0.210978
-0.873345 0.170617 -0.187480
-0.878020 0.171454 -0.202383
-0.880716 0.171936 -0.210978
-0.880095 -0.000725 -0.187480
-0.884803 -0.000725 -0.202383
-0.887518 -0.000725 -0.210978
-0.873345 -0.172067 -0.187480
-0.878020 -0.172904 -0.202383
-0.880716 -0.173386 -0.210978
-0.853354 -0.336824 -0.187480
-0.857931 -0.338466 -0.202383
-0.860571 -0.339412 -0.210978
-0.820889 -0.488666 -0.187480
-0.825308 -0.491048 -0.202383
-0.827857 -0.492423 -0.210978
-0.777200 -0.621756 -0.187480
-0.781405 -0.624788 -0.202383
-0.783830 -0.626538 -0.210978
-0.723963 -0.730980 -0.187480
-0.727909 -0.734546 -0.202383
-0.730184 -0.736603 -0.210978
-0.663227 -0.812141 -0.187480
-0.666876 -0.816103 -0.202383
-0.668980 -0.818389 -0.210978
-0.597325 -0.862119 -0.187480
-0.600651 -0.866326 -0.202383
-0.602570 -0.868752 -0.210978
0.695330 0.875673 -0.180981
0.393168 0.885825 -0.180981
0.083924 0.888954 -0.180981
-0.225321 0.885825 -0.180981
-0.527483 0.875673 -0.180981
0.393168 -0.887276 -0.180981
0.695330 -0.877125 -0.180981
0.083924 -0.890405 -0.180981
-0.527483 -0.877125 -0.180981
-0.225321 -0.887276 -0.180981
0.763721 0.858833 -0.180981
0.829483 0.808961 -0.180981
0.890090 0.727973 -0.180981
0.943213 0.618981 -0.180981
0.986810 0.486175 -0.180981
1.019205 0.334657 -0.180981
1.039154 0.170251 -0.180981
1.045889 -0.000726 -0.180981
1.039154 -0.171703 -0.180981
1.019205 -0.336109 -0.180981
0.986810 -0.487627 -0.180981
0.943213 -0.620433 -0.180981
0.890090 -0.729425 -0.180981
0.829483 -0.810413 -0.180981
0.763721 -0.860285 -0.180981
-0.595873 0.858833 -0.180981
-0.661636 0.808961 -0.180981
-0.722243 0.727974 -0.180981
-0.775365 0.618982 -0.180981
-0.818962 0.486176 -0.180981
-0.851357 0.334658 -0.180981
-0.871306 0.170252 -0.180981
-0.878042 -0.000725 -0.180981
-0.871306 -0.171702 -0.180981
-0.851357 -0.336109 -0.180981
-0.818962 -0.487626 -0.180981
-0.775366 -0.620433 -0.180981
-0.722243 -0.729424 -0.180981
-0.661636 -0.810413 -0.180981
-0.595874 -0.860285 -0.180981
-0.608215 -0.875890 -0.210978
-0.538583 -0.893036 -0.210978
-0.675172 -0.825112 -0.210978
-0.736879 -0.742654 -0.210978
-0.790966 -0.631684 -0.210978
-0.835354 -0.496466 -0.210978
-0.868337 -0.342197 -0.210978
-0.888648 -0.174806 -0.210978
-0.895507 -0.000725 -0.210978
-0.888648 0.173356 -0.210978
-0.868337 0.340747 -0.210978
-0.835354 0.495016 -0.210978
-0.790966 0.630233 -0.210978
-0.736878 0.741203 -0.210978
-0.675171 0.823661 -0.210978
-0.608214 0.874438 -0.210978
-0.538583 0.891584 -0.210978
0.706430 -0.893036 -0.210978
0.776062 -0.875890 -0.210978
0.843019 -0.825113 -0.210978
0.904726 -0.742654 -0.210978
0.958813 -0.631684 -0.210978
1.003201 -0.496467 -0.210978
1.036185 -0.342198 -0.210978
1.056496 -0.174807 -0.210978
1.063354 -0.000726 -0.210978
1.056496 0.173355 -0.210978
1.036185 0.340746 -0.210978
1.003201 0.495015 -0.210978
0.958813 0.630232 -0.210978
0.904726 0.741202 -0.210978
0.843019 0.823661 -0.210978
0.776062 0.874438 -0.210978
0.706430 0.891584 -0.210978
-0.230935 -0.903372 -0.210978
0.083924 -0.906557 -0.210978
0.398782 -0.903372 -0.210978
0.083924 0.905106 -0.210978
-0.230935 0.901920 -0.210978
0.398782 0.901920 -0.210978
-0.234876 0.309639 -0.210978
-0.234876 0.315580 -0.210978
-0.173168 0.309502 -0.210978
-0.174327 0.303676 -0.210978
-0.113831 0.291502 -0.210978
-0.116105 0.286014 -0.210978
-0.059146 0.262273 -0.210978
-0.062447 0.257333 -0.210978
-0.011214 0.222936 -0.210978
-0.015415 0.218735 -0.210978
0.028122 0.175004 -0.210978
0.023183 0.171704 -0.210978
0.057352 0.120319 -0.210978
0.051864 0.118046 -0.210978
0.075352 0.060982 -0.210978
0.069525 0.059823 -0.210978
0.081429 -0.000726 -0.210978
0.075489 -0.000726 -0.210978
0.075352 -0.062434 -0.210978
0.069525 -0.061275 -0.210978
0.057352 -0.121771 -0.210978
0.051864 -0.119497 -0.210978
0.028122 -0.176456 -0.210978
0.023183 -0.173155 -0.210978
-0.011214 -0.224388 -0.210978
-0.015415 -0.220187 -0.210978
-0.059146 -0.263724 -0.210978
-0.062447 -0.258785 -0.210978
-0.113831 -0.292954 -0.210978
-0.116105 -0.287466 -0.210978
-0.173168 -0.310954 -0.210978
-0.174327 -0.305127 -0.210978
-0.234876 -0.317031 -0.210978
-0.234876 -0.311091 -0.210978
-0.296584 -0.310954 -0.210978
-0.295425 -0.305127 -0.210978
-0.355921 -0.292954 -0.210978
-0.353647 -0.287465 -0.210978
-0.410606 -0.263724 -0.210978
-0.407306 -0.258785 -0.210978
-0.458538 -0.224387 -0.210978
-0.454337 -0.220187 -0.210978
-0.497874 -0.176456 -0.210978
-0.492935 -0.173155 -0.210978
-0.527104 -0.121770 -0.210978
-0.521616 -0.119497 -0.210978
-0.545104 -0.062434 -0.210978
-0.539277 -0.061275 -0.210978
-0.551182 -0.000725 -0.210978
-0.545241 -0.000725 -0.210978
-0.545104 0.060983 -0.210978
-0.539277 0.059824 -0.210978
-0.527104 0.120319 -0.210978
-0.521616 0.118046 -0.210978
-0.497874 0.175005 -0.210978
-0.492935 0.171704 -0.210978
-0.458538 0.222936 -0.210978
-0.454337 0.218736 -0.210978
-0.410606 0.262273 -0.210978
-0.407305 0.257333 -0.210978
-0.355921 0.291503 -0.210978
-0.353647 0.286014 -0.210978
-0.296584 0.309502 -0.210978
-0.295425 0.303676 -0.210978
-0.297540 0.314310 -0.187307
-0.297796 0.315595 -0.180981
-0.234876 0.321792 -0.180981
-0.234876 0.320482 -0.187307
-0.296826 0.310721 -0.204978
-0.234876 0.316822 -0.204978
-0.357797 0.296032 -0.187307
-0.358298 0.297242 -0.180981
-0.356396 0.292651 -0.204978
-0.413329 0.266349 -0.187307
-0.414057 0.267439 -0.180981
-0.411296 0.263306 -0.204978
-0.462004 0.226403 -0.187307
-0.462930 0.227329 -0.180981
-0.459416 0.223815 -0.204978
-0.501951 0.177728 -0.187307
-0.503040 0.178456 -0.180981
-0.498907 0.175695 -0.204978
-0.531633 0.122196 -0.187307
-0.532844 0.122697 -0.180981
-0.528252 0.120795 -0.204978
-0.549912 0.061939 -0.187307
-0.551197 0.062195 -0.180981
-0.546323 0.061225 -0.204978
-0.556084 -0.000725 -0.187307
-0.557394 -0.000725 -0.180981
-0.552424 -0.000725 -0.204978
-0.549912 -0.063390 -0.187307
-0.551197 -0.063646 -0.180981
-0.546323 -0.062676 -0.204978
-0.531634 -0.123647 -0.187307
-0.532844 -0.124148 -0.180981
-0.528252 -0.122246 -0.204978
-0.501951 -0.179179 -0.187307
-0.503040 -0.179907 -0.180981
-0.498908 -0.177146 -0.204978
-0.462004 -0.227854 -0.187307
-0.462931 -0.228780 -0.180981
-0.459417 -0.225266 -0.204978
-0.413330 -0.267800 -0.187307
-0.414058 -0.268890 -0.180981
-0.411296 -0.264757 -0.204978
-0.357797 -0.297483 -0.187307
-0.358299 -0.298694 -0.180981
-0.356396 -0.294102 -0.204978
-0.297541 -0.315762 -0.187307
-0.297796 -0.317047 -0.180981
-0.296827 -0.312172 -0.204978
-0.234876 -0.321934 -0.187307
-0.234876 -0.323244 -0.180981
-0.234876 -0.318274 -0.204978
-0.172211 -0.315762 -0.187307
-0.171956 -0.317047 -0.180981
-0.172925 -0.312172 -0.204978
-0.111955 -0.297483 -0.187307
-0.111454 -0.298694 -0.180981
-0.113356 -0.294102 -0.204978
-0.056422 -0.267801 -0.187307
-0.055695 -0.268890 -0.180981
-0.058456 -0.264757 -0.204978
-0.007748 -0.227854 -0.187307
-0.006821 -0.228781 -0.180981
-0.010336 -0.225266 -0.204978
0.032199 -0.179179 -0.187307
0.033288 -0.179907 -0.180981
0.029155 -0.177146 -0.204978
0.061882 -0.123647 -0.187307
0.063092 -0.124148 -0.180981
0.058500 -0.122246 -0.204978
0.080160 -0.063390 -0.187307
0.081445 -0.063646 -0.180981
0.076570 -0.062676 -0.204978
0.086332 -0.000726 -0.187307
0.087642 -0.000726 -0.180981
0.082672 -0.000726 -0.204978
0.080160 0.061939 -0.187307
0.081445 0.062194 -0.180981
0.076570 0.061225 -0.204978
0.061882 0.122195 -0.187307
0.063092 0.122697 -0.180981
0.058500 0.120795 -0.204978
0.032199 0.177728 -0.187307
0.033288 0.178456 -0.180981
0.029155 0.175695 -0.204978
-0.007748 0.226403 -0.187307
-0.006821 0.227329 -0.180981
-0.010336 0.223815 -0.204978
-0.056422 0.266349 -0.187307
-0.055695 0.267438 -0.180981
-0.058456 0.263306 -0.204978
-0.111955 0.296032 -0.187307
-0.111454 0.297242 -0.180981
-0.113356 0.292650 -0.204978
-0.172211 0.314310 -0.187307
-0.171956 0.315595 -0.180981
-0.172925 0.310721 -0.204978
-0.222233 -0.878424 -0.180981
-0.170825 -0.322734 -0.180981
-0.109235 -0.304051 -0.180981
0.083924 -0.881522 -0.180981
0.977794 -0.482765 -0.180981
0.390080 -0.878424 -0.180981
-0.002721 -0.232881 -0.180981
0.038109 -0.183129 -0.180981
-0.298927 0.321283 -0.180981
-0.360517 0.302600 -0.180981
-0.714193 0.720698 -0.180981
-0.521378 0.866922 -0.180981
-0.002721 0.231429 -0.180981
0.390080 0.876973 -0.180981
0.977794 0.481314 -0.180981
0.038109 0.181677 -0.180981
-0.052473 0.272260 -0.180981
0.083924 0.880070 -0.180981
-0.298928 -0.322734 -0.180981
-0.521378 -0.868374 -0.180981
-0.714194 -0.722149 -0.180981
-0.360518 -0.304051 -0.180981
-0.234876 -0.329043 -0.180981
-0.052473 -0.273711 -0.180981
-0.234876 0.327591 -0.180981
-0.222233 0.876973 -0.180981
0.689225 0.866922 -0.180981
0.934633 0.612794 -0.180981
0.756933 0.850251 -0.180981
0.822039 0.800876 -0.180981
0.882041 0.720697 -0.180981
-0.109235 0.302599 -0.180981
-0.170825 0.321282 -0.180981
-0.417279 0.272260 -0.180981
-0.766785 0.612795 -0.180981
-0.417279 -0.273711 -0.180981
-0.766786 -0.614245 -0.180981
0.689225 -0.868374 -0.180981
0.934633 -0.614246 -0.180981
-0.589086 -0.851702 -0.180981
-0.654192 -0.802328 -0.180981
0.756933 -0.851702 -0.180981
0.882041 -0.722149 -0.180981
0.822039 -0.802328 -0.180981
-0.589085 0.850251 -0.180981
-0.654191 0.800877 -0.180981
-0.467031 0.231430 -0.180981
-0.809947 0.481314 -0.180981
0.087132 0.063326 -0.180981
0.068449 0.124916 -0.180981
1.009866 0.331309 -0.180981
-0.507861 0.181678 -0.180981
-0.538201 0.124916 -0.180981
-0.861768 0.168545 -0.180981
-0.842019 0.331309 -0.180981
-0.467031 -0.232881 -0.180981
-0.809947 -0.482765 -0.180981
1.036284 -0.000726 -0.180981
0.093441 -0.000726 -0.180981
1.029616 0.168544 -0.180981
0.087132 -0.064777 -0.180981
1.009866 -0.332760 -0.180981
0.068449 -0.126367 -0.180981
-0.861768 -0.169995 -0.180981
-0.538201 -0.126367 -0.180981
-0.507861 -0.183129 -0.180981
-0.842019 -0.332760 -0.180981
1.029616 -0.169996 -0.180981
-0.868437 -0.000725 -0.180981
-0.563193 -0.000725 -0.180981
-0.556884 -0.064777 -0.180981
-0.556884 0.063326 -0.180981
-0.380170 0.282887 -0.200941
-0.380170 0.904189 -0.200941
-0.367622 0.904189 -0.168055
-0.367622 0.282887 -0.168055
-0.480549 0.904189 -0.200941
-0.480549 0.181053 -0.200941
-0.493097 0.181053 -0.168055
-0.493097 0.904189 -0.168055
-0.229600 0.904189 -0.200941
-0.229600 0.301072 -0.200941
-0.242148 0.301072 -0.168055
-0.242148 0.904189 -0.168055
-0.129221 0.301072 -0.200941
-0.129221 0.904189 -0.200941
-0.116673 0.904189 -0.168055
-0.116673 0.301072 -0.168055
-0.474480 0.187210 -0.200941
-0.474480 0.904189 -0.200941
-0.385001 0.277986 -0.200941
-0.385001 0.904189 -0.200941
-0.223539 0.301072 -0.200941
-0.223539 0.904189 -0.200941
-0.134749 0.301072 -0.200941
-0.134749 0.904189 -0.200941
-0.720777 0.794483 -0.200941
-0.720777 -0.789317 -0.200941
-0.729681 -0.778832 -0.200941
-0.729681 0.786256 -0.200941
-0.636168 0.872654 -0.200941
-0.636168 -0.888946 -0.200941
-0.629301 0.878998 -0.200941
-0.629301 -0.897033 -0.200941
-0.134749 -0.293915 -0.200941
-0.134749 -0.897033 -0.200941
-0.223539 -0.897033 -0.200941
-0.223539 -0.293915 -0.200941
-0.129221 -0.293915 -0.200941
-0.129221 -0.897033 -0.200941
-0.229600 -0.897033 -0.200941
-0.229600 -0.293915 -0.200941
-0.385001 -0.270829 -0.200941
-0.385001 -0.897033 -0.200941
-0.474480 -0.897033 -0.200941
-0.474480 -0.180053 -0.200941
-0.380170 -0.275730 -0.200941
-0.380170 -0.897033 -0.200941
-0.480549 -0.897033 -0.200941
-0.480549 -0.173896 -0.200941
-0.116673 -0.293915 -0.168055
-0.116673 -0.897033 -0.168055
-0.242148 -0.897033 -0.168055
-0.242148 -0.293915 -0.168055
-0.493097 -0.897033 -0.168055
-0.493097 -0.173896 -0.168055
-0.367622 -0.275730 -0.168055
-0.367622 -0.897033 -0.168055
-0.616754 0.878998 -0.168055
-0.616754 -0.897033 -0.168055
-0.742228 -0.778832 -0.168055
-0.742228 0.786256 -0.168055
0.415474 0.949773 0.008444
0.411858 0.939405 0.008444
0.732281 0.928640 0.008444
0.739432 0.938889 0.008444
0.083924 0.953128 0.008444
0.083924 0.942723 0.008444
-0.571584 0.938889 0.008444
-0.564434 0.928640 0.008444
-0.244010 0.939405 0.008444
-0.247627 0.949773 0.008444
0.739432 -0.940341 0.008444
0.732281 -0.930091 0.008444
0.411858 -0.940857 0.008444
0.415474 -0.951225 0.008444
0.083924 -0.944175 0.008444
0.083924 -0.954580 0.008444
-0.247627 -0.951225 0.008444
-0.244010 -0.940857 0.008444
-0.564434 -0.930091 0.008444
-0.571584 -0.940341 0.008444
0.804805 0.910782 0.008444
0.812756 0.920835 0.008444
0.874542 0.857896 0.008444
0.883262 0.867365 0.008444
0.938812 0.772013 0.008444
0.948241 0.780535 0.008444
0.995146 0.656435 0.008444
1.005195 0.663682 0.008444
1.041377 0.515602 0.008444
1.051936 0.521296 0.008444
1.075730 0.354927 0.008444
1.086668 0.358849 0.008444
1.096885 0.180584 0.008444
1.108056 0.182584 0.008444
1.104028 -0.000726 0.008444
1.115278 -0.000726 0.008444
1.096885 -0.182036 0.008444
1.108056 -0.184036 0.008444
1.075730 -0.356379 0.008444
1.086668 -0.360301 0.008444
1.041377 -0.517054 0.008444
1.051936 -0.522748 0.008444
0.995146 -0.657887 0.008444
1.005195 -0.665134 0.008444
0.938812 -0.773465 0.008444
0.948241 -0.781987 0.008444
0.874542 -0.859348 0.008444
0.883262 -0.868817 0.008444
0.804805 -0.912234 0.008444
0.812756 -0.922287 0.008444
-0.644908 0.920835 0.008444
-0.636958 0.910782 0.008444
-0.715414 0.867366 0.008444
-0.706695 0.857896 0.008444
-0.780393 0.780536 0.008444
-0.770965 0.772014 0.008444
-0.837348 0.663683 0.008444
-0.827298 0.656435 0.008444
-0.884089 0.521297 0.008444
-0.873529 0.515603 0.008444
-0.918821 0.358850 0.008444
-0.907883 0.354928 0.008444
-0.940209 0.182585 0.008444
-0.929037 0.180585 0.008444
-0.947430 -0.000725 0.008444
-0.936180 -0.000725 0.008444
-0.940209 -0.184035 0.008444
-0.929037 -0.182035 0.008444
-0.918821 -0.360300 0.008444
-0.907883 -0.356378 0.008444
-0.884089 -0.522748 0.008444
-0.873530 -0.517053 0.008444
-0.837348 -0.665134 0.008444
-0.827299 -0.657886 0.008444
-0.780393 -0.781987 0.008444
-0.770965 -0.773465 0.008444
-0.715415 -0.868817 0.008444
-0.706695 -0.859347 0.008444
-0.644909 -0.922286 0.008444
-0.636958 -0.912234 0.008444
-0.644909 -0.922286 -0.210978
-0.634512 -0.909141 -0.210978
-0.562234 -0.926938 -0.210978
-0.571584 -0.940341 -0.210978
-0.715415 -0.868817 -0.210978
-0.704013 -0.856434 -0.210978
-0.780393 -0.781987 -0.210978
-0.768064 -0.770843 -0.210978
-0.837348 -0.665134 -0.210978
-0.824206 -0.655656 -0.210978
-0.884089 -0.522748 -0.210978
-0.870281 -0.515301 -0.210978
-0.918821 -0.360300 -0.210978
-0.904517 -0.355171 -0.210978
-0.940209 -0.184035 -0.210978
-0.925600 -0.181420 -0.210978
-0.947430 -0.000725 -0.210978
-0.932719 -0.000725 -0.210978
-0.940209 0.182585 -0.210978
-0.925600 0.179970 -0.210978
-0.918821 0.358850 -0.210978
-0.904517 0.353721 -0.210978
-0.884089 0.521297 -0.210978
-0.870281 0.513851 -0.210978
-0.837348 0.663683 -0.210978
-0.824206 0.654205 -0.210978
-0.780393 0.780536 -0.210978
-0.768064 0.769392 -0.210978
-0.715414 0.867366 -0.210978
-0.704012 0.854983 -0.210978
-0.644908 0.920835 -0.210978
-0.634511 0.907689 -0.210978
-0.571584 0.938889 -0.210978
-0.562234 0.925486 -0.210978
0.739432 -0.940341 -0.210978
0.730081 -0.926938 -0.210978
0.802359 -0.909141 -0.210978
0.812756 -0.922287 -0.210978
0.871859 -0.856434 -0.210978
0.883262 -0.868817 -0.210978
0.935912 -0.770843 -0.210978
0.948241 -0.781987 -0.210978
0.992054 -0.655657 -0.210978
1.005195 -0.665134 -0.210978
1.038128 -0.515302 -0.210978
1.051936 -0.522748 -0.210978
1.072365 -0.355172 -0.210978
1.086668 -0.360301 -0.210978
1.093447 -0.181421 -0.210978
1.108056 -0.184036 -0.210978
1.100566 -0.000726 -0.210978
1.115278 -0.000726 -0.210978
1.093447 0.179969 -0.210978
1.108056 0.182584 -0.210978
1.072365 0.353720 -0.210978
1.086668 0.358849 -0.210978
1.038128 0.513850 -0.210978
1.051936 0.521296 -0.210978
0.992054 0.654205 -0.210978
1.005195 0.663682 -0.210978
0.935912 0.769391 -0.210978
0.948241 0.780535 -0.210978
0.871860 0.854982 -0.210978
0.883262 0.867365 -0.210978
0.802359 0.907689 -0.210978
0.812756 0.920835 -0.210978
0.730081 0.925486 -0.210978
0.739432 0.938889 -0.210978
-0.247627 -0.951225 -0.210978
-0.242898 -0.937667 -0.210978
0.083924 -0.940973 -0.210978
0.083924 -0.954580 -0.210978
0.410745 -0.937667 -0.210978
0.415474 -0.951225 -0.210978
0.083924 0.953128 -0.210978
0.083924 0.939521 -0.210978
-0.242898 0.936215 -0.210978
-0.247627 0.949773 -0.210978
0.415474 0.949773 -0.210978
0.410745 0.936215 -0.210978
0.742756 0.943654 -0.010490
0.417156 0.954593 -0.010490
0.742756 0.943654 -0.192043
0.417156 0.954593 -0.192043
0.083924 0.957965 -0.010490
0.083924 0.957965 -0.192043
-0.249308 0.954593 -0.010490
-0.574909 0.943654 -0.010490
-0.249308 0.954593 -0.192043
-0.574909 0.943654 -0.192043
0.417156 -0.956045 -0.010490
0.742756 -0.945106 -0.010490
0.417156 -0.956045 -0.192043
0.742756 -0.945106 -0.192043
0.083924 -0.959417 -0.010490
0.083924 -0.959417 -0.192043
-0.574909 -0.945106 -0.010490
-0.249308 -0.956045 -0.010490
-0.574909 -0.945106 -0.192043
-0.249308 -0.956045 -0.192043
0.816452 0.925508 -0.010490
0.816452 0.925508 -0.192043
0.887315 0.871767 -0.010490
0.887315 0.871767 -0.192043
0.952624 0.784497 -0.010490
0.952624 0.784497 -0.192043
1.009867 0.667052 -0.010490
1.009867 0.667052 -0.192043
1.056845 0.523943 -0.010490
1.056845 0.523943 -0.192043
1.091753 0.360673 -0.010490
1.091753 0.360673 -0.192043
1.113250 0.183513 -0.010490
1.113250 0.183513 -0.192043
1.120508 -0.000726 -0.010490
1.120508 -0.000726 -0.192043
1.113250 -0.184965 -0.010490
1.113250 -0.184965 -0.192043
1.091753 -0.362124 -0.010490
1.091753 -0.362124 -0.192043
1.056845 -0.525395 -0.010490
1.056845 -0.525395 -0.192043
1.009867 -0.668504 -0.010490
1.009867 -0.668504 -0.192043
0.952624 -0.785949 -0.010490
0.952624 -0.785949 -0.192043
0.887315 -0.873219 -0.010490
0.887315 -0.873219 -0.192043
0.816452 -0.926960 -0.010490
0.816452 -0.926960 -0.192043
-0.648604 0.925508 -0.010490
-0.648604 0.925508 -0.192043
-0.719468 0.871768 -0.010490
-0.719468 0.871768 -0.192043
-0.784776 0.784498 -0.010490
-0.784776 0.784498 -0.192043
-0.842020 0.667052 -0.010490
-0.842020 0.667052 -0.192043
-0.888998 0.523944 -0.010490
-0.888998 0.523944 -0.192043
-0.923906 0.360674 -0.010490
-0.923906 0.360674 -0.192043
-0.945402 0.183514 -0.010490
-0.945402 0.183514 -0.192043
-0.952661 -0.000725 -0.010490
-0.952661 -0.000725 -0.192043
-0.945402 -0.184965 -0.010490
-0.945402 -0.184965 -0.192043
-0.923906 -0.362124 -0.010490
-0.923906 -0.362124 -0.192043
-0.888998 -0.525395 -0.010490
-0.888998 -0.525395 -0.192043
-0.842020 -0.668503 -0.010490
-0.842020 -0.668503 -0.192043
-0.784777 -0.785949 -0.010490
-0.784777 -0.785949 -0.192043
-0.719468 -0.873219 -0.010490
-0.719468 -0.873219 -0.192043
-0.648605 -0.926960 -0.010490
-0.648605 -0.926960 -0.192043
-0.287892 0.265803 0.008444
-0.287053 0.261585 -0.010005
-0.234876 0.266724 -0.010005
-0.234876 0.271025 0.008444
-0.287053 0.261585 -0.192529
-0.234876 0.266724 -0.192529
-0.287892 0.265803 -0.210978
-0.234876 0.271025 -0.210978
-0.338870 0.250339 0.008444
-0.337224 0.246365 -0.010005
-0.337224 0.246365 -0.192529
-0.338870 0.250339 -0.210978
-0.385852 0.225227 0.008444
-0.383463 0.221651 -0.010005
-0.383463 0.221651 -0.192529
-0.385852 0.225227 -0.210978
-0.427032 0.191431 0.008444
-0.423991 0.188390 -0.010005
-0.423991 0.188390 -0.192529
-0.427032 0.191431 -0.210978
-0.460828 0.150251 0.008444
-0.457252 0.147861 -0.010005
-0.457252 0.147861 -0.192529
-0.460828 0.150251 -0.210978
-0.485941 0.103269 0.008444
-0.481967 0.101623 -0.010005
-0.481967 0.101623 -0.192529
-0.485941 0.103269 -0.210978
-0.501405 0.052290 0.008444
-0.497186 0.051451 -0.010005
-0.497186 0.051451 -0.192529
-0.501405 0.052290 -0.210978
-0.506626 -0.000725 0.008444
-0.502325 -0.000725 -0.010005
-0.502325 -0.000725 -0.192529
-0.506626 -0.000725 -0.210978
-0.501405 -0.053741 0.008444
-0.497186 -0.052902 -0.010005
-0.497186 -0.052902 -0.192529
-0.501405 -0.053741 -0.210978
-0.485941 -0.104720 0.008444
-0.481967 -0.103074 -0.010005
-0.481967 -0.103074 -0.192529
-0.485941 -0.104720 -0.210978
-0.460828 -0.151702 0.008444
-0.457252 -0.149312 -0.010005
-0.457252 -0.149312 -0.192529
-0.460828 -0.151702 -0.210978
-0.427033 -0.192882 0.008444
-0.423991 -0.189841 -0.010005
-0.423991 -0.189841 -0.192529
-0.427033 -0.192882 -0.210978
-0.385853 -0.226678 0.008444
-0.383463 -0.223102 -0.010005
-0.383463 -0.223102 -0.192529
-0.385853 -0.226678 -0.210978
-0.338871 -0.251790 0.008444
-0.337225 -0.247817 -0.010005
-0.337225 -0.247817 -0.192529
-0.338871 -0.251790 -0.210978
-0.287892 -0.267254 0.008444
-0.287053 -0.263036 -0.010005
-0.287053 -0.263036 -0.192529
-0.287892 -0.267254 -0.210978
-0.234876 -0.272476 0.008444
-0.234876 -0.268175 -0.010005
-0.234876 -0.268175 -0.192529
-0.234876 -0.272476 -0.210978
-0.181860 -0.267254 0.008444
-0.182699 -0.263036 -0.010005
-0.182699 -0.263036 -0.192529
-0.181860 -0.267254 -0.210978
-0.130882 -0.251790 0.008444
-0.132528 -0.247817 -0.010005
-0.132528 -0.247817 -0.192529
-0.130882 -0.251790 -0.210978
-0.083900 -0.226678 0.008444
-0.086289 -0.223102 -0.010005
-0.086289 -0.223102 -0.192529
-0.083900 -0.226678 -0.210978
-0.042720 -0.192882 0.008444
-0.045761 -0.189841 -0.010005
-0.045761 -0.189841 -0.192529
-0.042720 -0.192882 -0.210978
-0.008924 -0.151702 0.008444
-0.012500 -0.149313 -0.010005
-0.012500 -0.149313 -0.192529
-0.008924 -0.151702 -0.210978
0.016188 -0.104720 0.008444
0.012215 -0.103074 -0.010005
0.012215 -0.103074 -0.192529
0.016188 -0.104720 -0.210978
0.031653 -0.053742 0.008444
0.027434 -0.052902 -0.010005
0.027434 -0.052902 -0.192529
0.031653 -0.053742 -0.210978
0.036874 -0.000726 0.008444
0.032573 -0.000726 -0.010005
0.032573 -0.000726 -0.192529
0.036874 -0.000726 -0.210978
0.031653 0.052290 0.008444
0.027434 0.051451 -0.010005
0.027434 0.051451 -0.192529
0.031653 0.052290 -0.210978
0.016188 0.103269 0.008444
0.012215 0.101623 -0.010005
0.012215 0.101623 -0.192529
0.016188 0.103269 -0.210978
-0.008924 0.150251 0.008444
-0.012500 0.147861 -0.010005
-0.012500 0.147861 -0.192529
-0.008924 0.150251 -0.210978
-0.042720 0.191431 0.008444
-0.045761 0.188389 -0.010005
-0.045761 0.188389 -0.192529
-0.042720 0.191431 -0.210978
-0.083900 0.225226 0.008444
-0.086289 0.221650 -0.010005
-0.086289 0.221650 -0.192529
-0.083900 0.225226 -0.210978
-0.130882 0.250339 0.008444
-0.132528 0.246365 -0.010005
-0.132528 0.246365 -0.192529
-0.130882 0.250339 -0.210978
-0.181860 0.265803 0.008444
-0.182699 0.261585 -0.010005
-0.182699 0.261585 -0.192529
-0.181860 0.265803 -0.210978
-0.234876 0.278104 0.008444
-0.289273 0.272746 0.008444
-0.341579 0.256879 0.008444
-0.389785 0.231113 0.008444
-0.432038 0.196437 0.008444
-0.466714 0.154184 0.008444
-0.492481 0.105978 0.008444
-0.508348 0.053672 0.008444
-0.513706 -0.000725 0.008444
-0.508348 -0.055122 0.008444
-0.492481 -0.107429 0.008444
-0.466715 -0.155635 0.008444
-0.432039 -0.197888 0.008444
-0.389786 -0.232564 0.008444
-0.341580 -0.258331 0.008444
-0.289273 -0.274198 0.008444
-0.234876 -0.279555 0.008444
-0.180479 -0.274198 0.008444
-0.128173 -0.258331 0.008444
-0.079967 -0.232564 0.008444
-0.037714 -0.197888 0.008444
-0.003038 -0.155635 0.008444
0.022729 -0.107429 0.008444
0.038596 -0.055123 0.008444
0.043954 -0.000726 0.008444
0.038596 0.053671 0.008444
0.022729 0.105978 0.008444
-0.003038 0.154184 0.008444
-0.037714 0.196437 0.008444
-0.079967 0.231113 0.008444
-0.128173 0.256879 0.008444
-0.180479 0.272746 0.008444
-0.234876 0.280035 -0.210978
-0.180102 0.274640 -0.210978
-0.127434 0.258663 -0.210978
-0.078894 0.232718 -0.210978
-0.036349 0.197802 -0.210978
-0.001432 0.155256 -0.210978
0.024513 0.106717 -0.210978
0.040490 0.054048 -0.210978
0.045884 -0.000726 -0.210978
0.040490 -0.055499 -0.210978
0.024513 -0.108168 -0.210978
-0.001432 -0.156708 -0.210978
-0.036349 -0.199253 -0.210978
-0.078894 -0.234169 -0.210978
-0.127434 -0.260115 -0.210978
-0.180102 -0.276091 -0.210978
-0.234876 -0.281486 -0.210978
-0.289650 -0.276091 -0.210978
-0.342318 -0.260114 -0.210978
-0.390858 -0.234169 -0.210978
-0.433404 -0.199253 -0.210978
-0.468320 -0.156708 -0.210978
-0.494265 -0.108168 -0.210978
-0.510242 -0.055499 -0.210978
-0.515636 -0.000725 -0.210978
-0.510242 0.054048 -0.210978
-0.494265 0.106717 -0.210978
-0.468320 0.155257 -0.210978
-0.433403 0.197802 -0.210978
-0.390858 0.232718 -0.210978
-0.342318 0.258663 -0.210978
-0.289649 0.274640 -0.210978
3 0 1 2
3 3 4 5
3 6 7 8
3 9 10 11
3 12 13 11
3 13 9 11
3 14 15 16
3 10 17 18
3 10 19 20
3 9 17 10
3 16 15 21
3 21 15 12
3 12 15 13
3 22 23 24
3 25 22 24
3 26 25 24
3 27 28 29
3 28 30 31
3 28 32 29
3 33 26 24
3 23 34 27
3 22 34 23
3 27 34 28
3 35 36 37
3 38 39 40
3 41 42 43
3 11 44 12
3 44 45 12
3 46 47 22
3 47 34 22
3 48 49 50
3 51 52 53
3 54 55 56
3 57 58 59
3 60 61 62
3 63 64 65
3 66 67 68
3 69 70 71
3 67 72 68
3 73 74 75
3 76 77 63
3 78 79 80
3 81 82 83
3 84 85 86
3 87 88 89
3 90 91 53
3 92 93 94
3 95 96 97
3 98 99 100
3 49 70 50
3 101 102 103
3 104 105 106
3 107 105 108
3 63 109 76
3 110 111 70
3 112 113 114
3 115 103 102
3 98 62 116
3 56 117 54
3 117 118 92
3 53 119 120
3 120 119 121
3 122 80 105
3 123 124 55
3 125 126 124
3 127 128 129
3 105 130 127
3 131 129 128
3 132 133 134
3 135 118 136
3 98 84 99
3 134 133 137
3 59 65 138
3 59 139 65
3 140 141 142
3 143 144 145
3 146 147 148
4 149 150 151 152
4 152 151 153 154
4 154 153 155 156
4 157 158 159 6
4 6 159 160 7
4 3 161 162 4
4 7 160 163 164
4 164 163 161 3
4 156 155 54 165
4 165 54 166 167
4 167 166 168 169
4 169 168 170 171
4 171 170 172 173
4 174 173 172 175
4 174 176 177 173
4 171 178 179 169
4 173 177 178 171
4 169 179 2 167
4 167 2 1 165
4 165 1 180 156
4 154 181 182 152
4 156 180 181 154
4 152 182 183 149
4 182 184 185 183
4 180 186 187 181
4 181 187 184 182
4 1 0 186 180
4 179 188 189 2
4 177 190 191 178
4 178 191 188 179
4 176 192 190 177
4 190 192 193 194
4 195 196 185 184
4 188 191 197 198
4 199 200 187 186
4 189 188 198 201
4 186 0 202 199
4 184 187 200 195
4 194 197 191 190
4 194 193 45 203
4 203 45 196 195
4 198 197 204 205
4 205 204 200 199
4 201 198 205 206
4 206 205 199 202
4 195 200 204 203
4 203 204 197 194
4 0 2 189 202
4 206 202 189 201
4 3 5 207 164
4 7 164 207 8
4 6 8 208 157
4 209 210 211 212
4 212 211 213 214
4 214 215 216 212
4 212 216 217 209
4 215 218 219 216
4 216 219 220 217
4 208 8 19 221
4 222 220 219 223
4 223 219 218 224
4 52 225 174 175
4 4 162 226 227
4 227 226 210 209
4 217 220 228 229
4 229 228 207 5
4 209 217 229 227
4 227 229 5 4
4 220 222 230 228
4 228 230 8 207
4 19 8 230 20
4 20 230 222 223
4 10 20 223 224
4 225 14 176 174
4 193 192 16 21
4 45 193 21 12
4 176 14 16 192
4 214 213 64 231
4 215 214 231 232
4 232 233 218 215
4 233 234 224 218
4 234 11 10 224
4 235 236 237 238
4 239 17 236 235
4 236 240 241 237
4 240 242 243 241
4 17 15 240 236
4 15 244 242 240
4 9 13 15 17
4 245 246 51 247
4 246 225 52 51
4 244 15 246 245
4 15 14 225 246
4 248 249 250 251
4 249 158 157 250
4 19 10 18 221
4 251 250 17 239
4 250 157 208 17
4 17 208 221 18
4 29 32 252 253
4 254 29 253 255
4 256 257 29 254
4 31 252 32 28
4 258 254 255 259
4 260 256 254 258
4 24 261 262 33
4 263 264 261 24
4 261 265 71 262
4 264 266 265 261
4 27 29 24 23
4 24 267 268 263
4 29 269 267 24
4 267 270 271 268
4 269 272 270 267
4 257 273 269 29
4 273 274 272 269
4 275 276 28 34
4 277 278 276 275
4 279 280 278 277
4 280 279 281 282
4 282 281 57 283
4 284 285 26 33
4 46 22 25 286
4 286 25 26 285
4 262 287 284 33
4 28 276 288 30
4 30 288 289 290
4 31 30 290 36
4 291 292 36 290
4 293 291 290 289
4 294 40 39 295
4 296 294 295 297
4 295 39 292 291
4 297 295 291 293
4 294 296 298 299
4 40 294 299 300
4 71 301 287 262
4 288 276 278 302
4 289 288 302 293
4 253 252 31 36
4 303 297 293 302
4 280 303 302 278
4 304 296 297 303
4 282 304 303 280
4 304 282 283 305
4 296 304 305 298
4 35 255 253 36
4 37 36 292 306
4 38 306 292 39
4 307 308 309 310
4 41 310 309 42
4 311 312 313 314
4 315 311 314 316
4 307 310 317 318
4 308 307 318 319
4 318 317 316 314
4 319 318 314 313
4 311 315 320 46
4 312 311 46 286
4 312 321 322 313
4 323 315 316 324
4 310 41 325 317
4 309 308 319 326
4 317 325 324 316
4 326 319 313 322
4 315 323 327 320
4 321 312 286 285
4 284 328 321 285
4 329 330 326 322
4 328 329 322 321
4 330 42 309 326
4 43 331 325 41
4 332 333 323 324
4 331 332 324 325
4 333 334 327 323
4 335 336 334 333
4 337 338 332 331
4 338 335 333 332
4 339 337 331 43
4 340 339 43 42
4 341 340 42 330
4 342 343 329 328
4 343 341 330 329
4 287 342 328 284
4 287 301 344 342
4 343 342 344 345
4 341 343 345 346
4 340 341 346 347
4 339 340 347 125
4 337 339 125 348
4 306 38 349 350
4 37 306 350 351
4 38 40 300 349
4 35 37 351 352
4 255 35 352 259
4 338 337 348 353
4 335 338 353 354
4 336 335 354 355
4 244 356 357 242
4 235 358 359 239
4 245 360 356 244
4 239 359 361 251
4 247 362 360 245
4 251 361 363 248
4 238 364 358 235
4 242 357 365 243
4 356 366 367 357
4 366 263 268 367
4 358 368 369 359
4 368 273 257 369
4 360 370 366 356
4 370 264 263 366
4 359 369 371 361
4 369 257 256 371
4 362 372 370 360
4 372 266 264 370
4 361 371 373 363
4 371 256 260 373
4 364 374 368 358
4 374 274 273 368
4 357 367 375 365
4 367 268 271 375
4 175 49 48 52
4 69 71 265 376
4 64 377 378 231
4 377 150 149 378
4 231 378 379 232
4 378 149 183 379
4 185 380 379 183
4 380 233 232 379
4 196 381 380 185
4 381 234 233 380
4 45 44 381 196
4 44 11 234 381
4 320 382 47 46
4 382 275 34 47
4 327 383 382 320
4 383 277 275 382
4 334 384 383 327
4 384 279 277 383
4 279 384 385 281
4 384 334 336 385
4 281 385 386 57
4 385 336 355 386
4 172 387 49 175
4 170 388 387 172
4 160 112 114 163
4 159 389 112 160
4 158 390 389 159
4 390 158 249 391
4 48 89 392 90
4 89 48 50 87
4 52 48 90 53
4 51 53 120 247
4 363 113 393 248
4 352 394 395 259
4 353 396 397 354
4 351 66 394 352
4 350 67 66 351
4 349 72 67 350
4 398 126 125 347
4 346 399 94 347
4 344 95 400 345
4 301 96 95 344
4 345 400 399 346
4 71 70 96 301
4 57 59 401 283
4 373 74 113 363
4 260 75 74 373
4 57 386 402 58
4 377 64 63 77
4 69 403 110 70
4 69 376 404 403
4 392 404 376 90
4 305 140 142 298
4 150 377 77 83
4 91 405 115 53
4 406 98 100 407
4 408 132 98 116
4 409 62 98 406
4 162 410 411 226
4 411 410 68 412
4 109 139 413 414
4 168 97 388 170
4 388 97 96 387
4 166 92 97 168
4 54 117 92 166
4 92 118 415 78
4 163 114 68 161
4 161 68 410 162
4 389 393 113 112
4 153 81 76 155
4 83 77 76 81
4 393 391 249 248
4 390 391 393 389
4 395 73 258 259
4 73 75 260 258
4 266 103 115 265
4 115 405 376 265
4 104 416 417 418
4 397 396 76 109
4 394 66 68 395
4 300 419 72 349
4 68 72 419 412
4 108 105 80 79
4 80 93 92 78
4 136 398 347 94
4 400 95 97 399
4 148 420 421 422
4 423 422 421 424
4 299 412 419 300
4 247 120 121 362
4 395 113 74 73
4 362 121 101 372
4 372 101 103 266
4 132 134 425 98
4 98 425 85 84
4 129 426 427 106
4 210 141 428 211
4 155 76 55 54
4 151 82 81 153
4 87 111 110 88
4 89 403 404 392
4 429 402 386 355
4 429 397 109 402
4 348 123 396 353
4 76 396 123 55
4 94 399 97 92
4 387 96 70 49
4 115 102 119 53
4 411 430 210 226
4 211 428 138 213
4 138 428 401 59
4 141 140 401 428
4 79 78 415 86
4 431 432 85 425
4 403 89 88 110
4 119 102 101 121
4 376 405 91 90
4 354 397 429 355
4 122 418 417 433
4 433 434 80 122
4 415 434 433 417
4 104 418 122 105
4 125 124 123 348
4 105 127 129 106
4 100 435 436 407
4 283 401 140 305
4 87 50 70 111
4 298 437 412 299
4 438 439 440 441
4 134 137 431 425
4 436 435 442 443
4 444 414 413 144
4 409 107 108 62
4 105 107 409 406
4 133 132 408 445
4 85 432 133 445
4 150 83 82 151
4 106 427 416 104
4 56 126 398 117
4 436 443 446 447
4 113 395 68 114
4 138 65 64 213
4 447 446 448 449
4 450 451 452 453
4 63 65 139 109
4 420 413 139 421
4 116 62 108 408
4 85 445 79 86
4 408 108 79 445
4 118 117 398 136
4 135 434 415 118
4 434 135 93 80
4 55 124 126 56
4 135 136 94 93
4 128 127 100 99
4 130 435 100 127
4 447 449 407 436
4 415 426 84 86
4 131 84 426 129
4 139 59 424 421
4 58 423 424 59
4 431 137 133 432
4 423 58 444 422
4 444 146 148 422
4 142 141 454 455
4 449 448 406 407
4 128 99 84 131
4 446 443 406 448
4 430 454 141 210
4 441 440 442 435
4 441 435 130 438
4 452 456 457 453
4 455 454 430 437
4 412 437 430 411
4 420 145 144 413
4 439 105 442 440
4 458 143 145 459
4 142 455 437 298
4 105 439 438 130
4 105 406 443 442
4 460 461 458 459
4 460 459 145 420
4 460 451 450 461
4 457 456 462 463
4 144 143 458 461
4 463 462 147 146
4 444 457 463 146
4 461 450 453 457
4 144 461 457 444
4 451 460 456 452
4 147 462 456 148
4 460 420 148 456
3 58 414 444
3 58 109 414
3 58 402 109
3 417 416 415
4 426 415 416 427
4 464 465 466 467
4 465 468 469 466
4 470 471 472 473
4 468 473 472 469
4 474 475 476 477
4 478 477 476 479
4 480 481 482 483
4 478 479 482 481
4 464 467 484 485
4 485 484 486 487
4 487 486 488 489
4 489 488 490 491
4 491 490 492 493
4 493 492 494 495
4 495 494 496 497
4 497 496 498 499
4 499 498 500 501
4 501 500 502 503
4 503 502 504 505
4 505 504 506 507
4 507 506 508 509
4 509 508 510 511
4 511 510 512 513
4 513 512 475 474
4 514 515 471 470
4 514 516 517 515
4 516 518 519 517
4 518 520 521 519
4 520 522 523 521
4 522 524 525 523
4 524 526 527 525
4 526 528 529 527
4 528 530 531 529
4 530 532 533 531
4 532 534 535 533
4 534 536 537 535
4 536 538 539 537
4 538 540 541 539
4 540 542 543 541
4 542 480 483 543
4 544 545 546 547
4 547 546 548 549
4 549 548 550 551
4 551 550 552 553
4 553 552 554 555
4 555 554 556 557
4 557 556 558 559
4 559 558 560 561
4 561 560 562 563
4 563 562 564 565
4 565 564 566 567
4 567 566 568 569
4 569 568 570 571
4 571 570 572 573
4 573 572 574 575
4 575 574 576 577
4 577 576 578 579
4 579 578 580 581
4 581 580 582 583
4 583 582 584 585
4 585 584 586 587
4 587 586 588 589
4 589 588 590 591
4 591 590 592 593
4 593 592 594 595
4 595 594 596 597
4 597 596 598 599
4 599 598 600 601
4 601 600 602 603
4 603 602 604 605
4 605 604 606 607
4 607 606 545 544
3 564 562 531
3 527 558 556
3 590 502 500
3 594 496 494
3 488 467 490
3 506 475 508
3 588 586 504
3 596 492 598
3 469 604 602
3 576 482 578
3 606 472 545
3 580 479 582
4 560 558 527 529
4 566 533 535 568
4 531 562 560 529
4 590 500 498 592
4 531 533 566 564
4 590 588 504 502
4 498 496 594 592
4 554 552 523 525
4 568 535 537 570
4 554 525 527 556
4 594 494 492 596
4 552 550 521 523
4 515 517 519 471
4 512 510 508 475
4 543 483 539 541
4 475 506 504 476
4 570 537 539 572
4 550 548 519 521
4 604 469 472 606
4 484 467 488 486
4 467 466 492 490
4 545 472 471 546
4 582 479 476 584
4 483 482 576 574
4 574 572 539 483
4 602 600 466 469
4 600 598 492 466
4 546 471 519 548
4 504 586 584 476
4 482 479 580 578
4 608 609 610 611
4 609 612 613 610
4 612 614 615 613
4 614 616 617 615
4 616 618 619 617
4 618 620 621 619
4 620 622 623 621
4 622 624 625 623
4 624 626 627 625
4 626 628 629 627
4 628 630 631 629
4 630 632 633 631
4 632 634 635 633
4 634 636 637 635
4 636 638 639 637
4 638 640 641 639
4 640 642 643 641
4 642 644 645 643
4 644 646 647 645
4 646 648 649 647
4 648 650 651 649
4 650 652 653 651
4 652 654 655 653
4 654 656 657 655
4 656 658 659 657
4 658 660 661 659
4 660 662 663 661
4 662 664 665 663
4 664 666 667 665
4 666 668 669 667
4 668 670 671 669
4 670 608 611 671
4 611 610 672 673
4 673 672 607 544
4 610 613 674 672
4 672 674 605 607
4 613 615 675 674
4 674 675 603 605
4 615 617 676 675
4 675 676 601 603
4 617 619 677 676
4 676 677 599 601
4 619 621 678 677
4 677 678 597 599
4 621 623 679 678
4 678 679 595 597
4 623 625 680 679
4 679 680 593 595
4 625 627 681 680
4 680 681 591 593
4 627 629 682 681
4 681 682 589 591
4 629 631 683 682
4 682 683 587 589
4 631 633 684 683
4 683 684 585 587
4 633 635 685 684
4 684 685 583 585
4 635 637 686 685
4 685 686 581 583
4 637 639 687 686
4 686 687 579 581
4 639 641 688 687
4 687 688 577 579
4 641 643 689 688
4 688 689 575 577
4 643 645 690 689
4 689 690 573 575
4 645 647 691 690
4 690 691 571 573
4 647 649 692 691
4 691 692 569 571
4 649 651 693 692
4 692 693 567 569
4 651 653 694 693
4 693 694 565 567
4 653 655 695 694
4 694 695 563 565
4 655 657 696 695
4 695 696 561 563
4 657 659 697 696
4 696 697 559 561
4 659 661 698 697
4 697 698 557 559
4 661 663 699 698
4 698 699 555 557
4 663 665 700 699
4 699 700 553 555
4 665 667 701 700
4 700 701 551 553
4 667 669 702 701
4 701 702 549 551
4 669 671 703 702
4 702 703 547 549
4 671 611 673 703
4 703 673 544 547
4 704 705 608 670
4 706 704 670 668
4 707 706 668 666
4 708 707 666 664
4 709 708 664 662
4 710 709 662 660
4 711 710 660 658
4 712 711 658 656
4 713 712 656 654
4 714 713 654 652
4 715 714 652 650
4 716 715 650 648
4 717 716 648 646
4 718 717 646 644
4 719 718 644 642
4 720 719 642 640
4 721 720 640 638
4 722 721 638 636
4 723 722 636 634
4 724 723 634 632
4 725 724 632 630
4 726 725 630 628
4 727 726 628 626
4 728 727 626 624
4 729 728 624 622
4 730 729 622 620
4 731 730 620 618
4 732 731 618 616
4 733 732 616 614
4 734 733 614 612
4 735 734 612 609
4 705 735 609 608
4 736 737 738 739
4 737 740 741 738
4 742 743 744 745
4 740 742 745 741
4 746 747 748 749
4 750 746 749 751
4 752 753 754 755
4 753 750 751 754
4 756 736 739 757
4 758 756 757 759
4 760 758 759 761
4 762 760 761 763
4 764 762 763 765
4 766 764 765 767
4 768 766 767 769
4 770 768 769 771
4 772 770 771 773
4 774 772 773 775
4 776 774 775 777
4 778 776 777 779
4 780 778 779 781
4 782 780 781 783
4 784 782 783 785
4 747 784 785 748
4 743 786 787 744
4 786 788 789 787
4 788 790 791 789
4 790 792 793 791
4 792 794 795 793
4 794 796 797 795
4 796 798 799 797
4 798 800 801 799
4 800 802 803 801
4 802 804 805 803
4 804 806 807 805
4 806 808 809 807
4 808 810 811 809
4 810 812 813 811
4 812 814 815 813
4 814 752 755 815
4 816 817 480 542
4 818 816 542 540
4 819 818 540 538
4 820 819 538 536
4 821 820 536 534
4 822 821 534 532
4 823 822 532 530
4 824 823 530 528
4 825 824 528 526
4 826 825 526 524
4 827 826 524 522
4 828 827 522 520
4 829 828 520 518
4 830 829 518 516
4 831 830 516 514
4 832 831 514 470
4 833 834 513 474
4 834 835 511 513
4 835 836 509 511
4 836 837 507 509
4 837 838 505 507
4 838 839 503 505
4 839 840 501 503
4 840 841 499 501
4 841 842 497 499
4 842 843 495 497
4 843 844 493 495
4 844 845 491 493
4 845 846 489 491
4 846 847 487 489
4 847 848 485 487
4 848 849 464 485
4 850 851 478 481
4 817 850 481 480
4 851 852 477 478
4 852 833 474 477
4 853 854 473 468
4 854 832 470 473
4 855 853 468 465
4 849 855 465 464
4 815 755 856 857
4 857 856 817 816
4 813 815 857 858
4 858 857 816 818
4 811 813 858 859
4 859 858 818 819
4 809 811 859 860
4 860 859 819 820
4 807 809 860 861
4 861 860 820 821
4 805 807 861 862
4 862 861 821 822
4 803 805 862 863
4 863 862 822 823
4 801 803 863 864
4 864 863 823 824
4 799 801 864 865
4 865 864 824 825
4 797 799 865 866
4 866 865 825 826
4 795 797 866 867
4 867 866 826 827
4 793 795 867 868
4 868 867 827 828
4 791 793 868 869
4 869 868 828 829
4 789 791 869 870
4 870 869 829 830
4 787 789 870 871
4 871 870 830 831
4 744 787 871 872
4 872 871 831 832
4 748 785 873 874
4 874 873 834 833
4 785 783 875 873
4 873 875 835 834
4 783 781 876 875
4 875 876 836 835
4 781 779 877 876
4 876 877 837 836
4 779 777 878 877
4 877 878 838 837
4 777 775 879 878
4 878 879 839 838
4 775 773 880 879
4 879 880 840 839
4 773 771 881 880
4 880 881 841 840
4 771 769 882 881
4 881 882 842 841
4 769 767 883 882
4 882 883 843 842
4 767 765 884 883
4 883 884 844 843
4 765 763 885 884
4 884 885 845 844
4 763 761 886 885
4 885 886 846 845
4 761 759 887 886
4 886 887 847 846
4 759 757 888 887
4 887 888 848 847
4 757 739 889 888
4 888 889 849 848
4 754 751 890 891
4 891 890 851 850
4 755 754 891 856
4 856 891 850 817
4 751 749 892 890
4 890 892 852 851
4 749 748 874 892
4 892 874 833 852
4 741 745 893 894
4 894 893 854 853
4 745 744 872 893
4 893 872 832 854
4 738 741 894 895
4 895 894 853 855
4 739 738 895 889
4 889 895 855 849
4 896 897 898 899
4 900 901 902 903
4 904 905 906 907
4 908 909 910 911
4 912 913 914 915
4 916 917 918 919
4 920 909 908 921
4 904 922 923 905
4 922 920 921 923
4 924 913 912 925
4 916 926 927 917
4 926 924 925 927
4 900 928 929 901
4 928 930 931 929
4 930 897 896 931
4 932 933 934 935
4 936 937 933 932
4 935 934 938 939
4 940 941 942 943
4 944 945 941 940
4 943 942 946 947
4 936 948 949 937
4 938 950 951 939
4 946 952 953 947
4 944 954 955 945
4 956 957 958 959
4 960 956 959 961
4 959 958 962 963
4 961 959 963 964
4 965 966 967 968
4 969 965 968 970
4 963 962 966 965
4 964 963 965 969
4 971 972 973 974
4 975 971 974 976
4 977 978 972 971
4 979 977 971 975
4 980 981 982 983
4 984 980 983 985
4 983 982 978 977
4 985 983 977 979
4 986 987 957 956
4 988 986 956 960
4 989 990 987 986
4 991 989 986 988
4 992 993 990 989
4 994 992 989 991
4 995 996 993 992
4 997 995 992 994
4 998 999 996 995
4 1000 998 995 997
4 1001 1002 999 998
4 1003 1001 998 1000
4 1004 1005 1002 1001
4 1006 1004 1001 1003
4 1007 1008 1005 1004
4 1009 1007 1004 1006
4 1010 1011 1008 1007
4 1012 1010 1007 1009
4 1013 1014 1011 1010
4 1015 1013 1010 1012
4 1016 1017 1014 1013
4 1018 1016 1013 1015
4 1019 1020 1017 1016
4 1021 1019 1016 1018
4 1022 1023 1020 1019
4 1024 1022 1019 1021
4 1025 1026 1023 1022
4 1027 1025 1022 1024
4 1028 1029 1026 1025
4 1030 1028 1025 1027
4 974 973 1029 1028
4 976 974 1028 1030
4 968 967 1031 1032
4 970 968 1032 1033
4 1032 1031 1034 1035
4 1033 1032 1035 1036
4 1035 1034 1037 1038
4 1036 1035 1038 1039
4 1038 1037 1040 1041
4 1039 1038 1041 1042
4 1041 1040 1043 1044
4 1042 1041 1044 1045
4 1044 1043 1046 1047
4 1045 1044 1047 1048
4 1047 1046 1049 1050
4 1048 1047 1050 1051
4 1050 1049 1052 1053
4 1051 1050 1053 1054
4 1053 1052 1055 1056
4 1054 1053 1056 1057
4 1056 1055 1058 1059
4 1057 1056 1059 1060
4 1059 1058 1061 1062
4 1060 1059 1062 1063
4 1062 1061 1064 1065
4 1063 1062 1065 1066
4 1065 1064 1067 1068
4 1066 1065 1068 1069
4 1068 1067 1070 1071
4 1069 1068 1071 1072
4 1071 1070 1073 1074
4 1072 1071 1074 1075
4 1074 1073 981 980
4 1075 1074 980 984
4 957 1076 1077 958
4 958 1077 1078 962
4 966 1079 1080 967
4 962 1078 1079 966
4 972 1081 1082 973
4 978 1083 1081 972
4 981 1084 1085 982
4 982 1085 1083 978
4 987 1086 1076 957
4 990 1087 1086 987
4 993 1088 1087 990
4 996 1089 1088 993
4 999 1090 1089 996
4 1002 1091 1090 999
4 1005 1092 1091 1002
4 1008 1093 1092 1005
4 1011 1094 1093 1008
4 1014 1095 1094 1011
4 1017 1096 1095 1014
4 1020 1097 1096 1017
4 1023 1098 1097 1020
4 1026 1099 1098 1023
4 1029 1100 1099 1026
4 973 1082 1100 1029
4 967 1080 1101 1031
4 1031 1101 1102 1034
4 1034 1102 1103 1037
4 1037 1103 1104 1040
4 1040 1104 1105 1043
4 1043 1105 1106 1046
4 1046 1106 1107 1049
4 1049 1107 1108 1052
4 1052 1108 1109 1055
4 1055 1109 1110 1058
4 1058 1110 1111 1061
4 1061 1111 1112 1064
4 1064 1112 1113 1067
4 1067 1113 1114 1070
4 1070 1114 1115 1073
4 1073 1115 1084 981
4 1116 1075 984 1117
4 1118 1072 1075 1116
4 1119 1069 1072 1118
4 1120 1066 1069 1119
4 1121 1063 1066 1120
4 1122 1060 1063 1121
4 1123 1057 1060 1122
4 1124 1054 1057 1123
4 1125 1051 1054 1124
4 1126 1048 1051 1125
4 1127 1045 1048 1126
4 1128 1042 1045 1127
4 1129 1039 1042 1128
4 1130 1036 1039 1129
4 1131 1033 1036 1130
4 1132 970 1033 1131
4 1133 976 1030 1134
4 1134 1030 1027 1135
4 1135 1027 1024 1136
4 1136 1024 1021 1137
4 1137 1021 1018 1138
4 1138 1018 1015 1139
4 1139 1015 1012 1140
4 1140 1012 1009 1141
4 1141 1009 1006 1142
4 1142 1006 1003 1143
4 1143 1003 1000 1144
4 1144 1000 997 1145
4 1145 997 994 1146
4 1146 994 991 1147
4 1147 991 988 1148
4 1148 988 960 1149
4 1150 985 979 1151
4 1117 984 985 1150
4 1151 979 975 1152
4 1152 975 976 1133
4 1153 964 969 1154
4 1154 969 970 1132
4 1155 961 964 1153
4 1149 960 961 1155
4 1156 1157 1158 1159
4 1159 1158 1160 1161
4 1161 1160 1162 1163
4 1163 1162 1164 1165
4 1165 1164 1166 1167
4 1167 1166 1168 1169
4 1169 1168 1170 1171
4 1171 1170 1172 1173
4 1173 1172 1174 1175
4 1175 1174 1176 1177
4 1177 1176 1178 1179
4 1179 1178 1180 1181
4 1181 1180 1182 1183
4 1183 1182 1184 1185
4 1185 1184 1186 1187
4 1187 1186 1188 1189
4 1189 1188 1190 1191
4 1191 1190 1192 1193
4 1193 1192 1194 1195
4 1195 1194 1196 1197
4 1197 1196 1198 1199
4 1199 1198 1200 1201
4 1201 1200 1202 1203
4 1203 1202 1204 1205
4 1205 1204 1206 1207
4 1207 1206 1208 1209
4 1209 1208 1210 1211
4 1211 1210 1212 1213
4 1213 1212 1214 1215
4 1215 1214 1216 1217
4 1217 1216 1218 1219
4 1219 1218 1157 1156
4 1220 1221 1222 1223
4 1224 1220 1223 1225
4 1226 1227 1221 1220
4 1228 1226 1220 1224
4 1229 1230 1227 1226
4 1231 1229 1226 1228
4 1232 1233 1230 1229
4 1234 1232 1229 1231
4 1235 1236 1233 1232
4 1237 1235 1232 1234
4 1238 1239 1236 1235
4 1240 1238 1235 1237
4 1241 1242 1239 1238
4 1243 1241 1238 1240
4 1244 1245 1242 1241
4 1246 1244 1241 1243
4 1247 1248 1245 1244
4 1249 1247 1244 1246
4 1250 1251 1248 1247
4 1252 1250 1247 1249
4 1253 1254 1251 1250
4 1255 1253 1250 1252
4 1256 1257 1254 1253
4 1258 1256 1253 1255
4 1259 1260 1257 1256
4 1261 1259 1256 1258
4 1262 1263 1260 1259
4 1264 1262 1259 1261
4 1265 1266 1263 1262
4 1267 1265 1262 1264
4 1268 1269 1266 1265
4 1270 1268 1265 1267
4 1271 1272 1269 1268
4 1273 1271 1268 1270
4 1274 1275 1272 1271
4 1276 1274 1271 1273
4 1277 1278 1275 1274
4 1279 1277 1274 1276
4 1280 1281 1278 1277
4 1282 1280 1277 1279
4 1283 1284 1281 1280
4 1285 1283 1280 1282
4 1286 1287 1284 1283
4 1288 1286 1283 1285
4 1289 1290 1287 1286
4 1291 1289 1286 1288
4 1292 1293 1290 1289
4 1294 1292 1289 1291
4 1295 1296 1293 1292
4 1297 1295 1292 1294
4 1298 1299 1296 1295
4 1300 1298 1295 1297
4 1301 1302 1299 1298
4 1303 1301 1298 1300
4 1304 1305 1302 1301
4 1306 1304 1301 1303
4 1307 1308 1305 1304
4 1309 1307 1304 1306
4 1310 1311 1308 1307
4 1312 1310 1307 1309
4 1313 1314 1311 1310
4 1315 1313 1310 1312
4 1223 1222 1314 1313
4 1225 1223 1313 1315
4 1218 1224 1225 1157
4 1216 1228 1224 1218
4 1214 1231 1228 1216
4 1212 1234 1231 1214
4 1210 1237 1234 1212
4 1208 1240 1237 1210
4 1206 1243 1240 1208
4 1204 1246 1243 1206
4 1202 1249 1246 1204
4 1200 1252 1249 1202
4 1198 1255 1252 1200
4 1196 1258 1255 1198
4 1194 1261 1258 1196
4 1192 1264 1261 1194
4 1190 1267 1264 1192
4 1188 1270 1267 1190
4 1186 1273 1270 1188
4 1184 1276 1273 1186
4 1182 1279 1276 1184
4 1180 1282 1279 1182
4 1178 1285 1282 1180
4 1176 1288 1285 1178
4 1174 1291 1288 1176
4 1172 1294 1291 1174
4 1170 1297 1294 1172
4 1168 1300 1297 1170
4 1166 1303 1300 1168
4 1164 1306 1303 1166
4 1162 1309 1306 1164
4 1160 1312 1309 1162
4 1158 1315 1312 1160
4 1157 1225 1315 1158
4 1316 1317 1318 1319
4 1320 1321 1322 1323
4 1324 1325 1326 1327
4 1328 1329 1330 1331
4 1332 1333 1329 1328
4 1334 1335 1336 1337
4 1335 1334 1338 1316
4 1339 1322 1321 1319
4 1340 1324 1327 1341
4 1342 1343 1330 1329
4 1344 1345 1346 1342
4 1347 1348 1341 1333
4 1349 1350 1326 1325
4 1351 1337 1336 1352
4 1353 1321 1320 1354
4 1355 1356 1336 1335
4 1357 1353 1358 1359
4 1360 1327 1326 1361
4 1362 1363 1350 1349
4 1364 1365 1330 1366
4 1367 1368 1369 1370
4 1371 1351 1352 1372
4 1367 1370 1363 1362
4 1373 1374 1364 1375
4 1376 1377 1320 1378
4 1379 1380 1381 1382
4 1376 1374 1373 1383
4 1379 1384 1385 1386
4 1381 1371 1372 1382
4 1385 1384 1369 1387
3 1318 1339 1319
3 1348 1340 1341
3 1338 1317 1316
3 1333 1332 1347
3 1365 1331 1330
3 1378 1320 1323
3 1354 1358 1353
3 1346 1343 1342
3 1364 1366 1375
3 1376 1383 1377
3 1369 1368 1387
3 1380 1379 1386
4 1314 1222 1340 1348
4 1311 1314 1348 1347
4 1308 1311 1347 1332
4 1305 1308 1332 1328
4 1302 1305 1328 1331
4 1299 1302 1331 1365
4 1296 1299 1365 1364
4 1293 1296 1364 1374
4 1290 1293 1374 1376
4 1287 1290 1376 1378
4 1284 1287 1378 1323
4 1281 1284 1323 1322
4 1278 1281 1322 1339
4 1275 1278 1339 1318
4 1272 1275 1318 1317
4 1269 1272 1317 1338
4 1266 1269 1338 1334
4 1263 1266 1334 1337
4 1260 1263 1337 1351
4 1257 1260 1351 1371
4 1254 1257 1371 1381
4 1251 1254 1381 1380
4 1248 1251 1380 1386
4 1245 1248 1386 1385
4 1242 1245 1385 1387
4 1239 1242 1387 1368
4 1236 1239 1368 1367
4 1233 1236 1367 1362
4 1230 1233 1362 1349
4 1227 1230 1349 1325
4 1221 1227 1325 1324
4 1222 1221 1324 1340
4 1115 1355 1335 1084
4 1114 1356 1355 1115
4 1113 1336 1356 1114
4 1112 1352 1336 1113
4 1111 1372 1352 1112
4 1110 1382 1372 1111
4 1109 1379 1382 1110
4 1108 1384 1379 1109
4 1107 1369 1384 1108
4 1106 1370 1369 1107
4 1105 1363 1370 1106
4 1104 1350 1363 1105
4 1103 1326 1350 1104
4 1102 1361 1326 1103
4 1101 1360 1361 1102
4 1101 1080 1327 1360
4 1100 1082 1353 1357
4 1099 1100 1357 1359
4 1098 1099 1359 1358
4 1097 1098 1358 1354
4 1096 1097 1354 1320
4 1095 1096 1320 1377
4 1094 1095 1377 1383
4 1093 1094 1383 1373
4 1092 1093 1373 1375
4 1091 1092 1375 1366
4 1090 1091 1366 1330
4 1089 1090 1330 1343
4 1088 1089 1343 1346
4 1087 1088 1346 1345
4 1086 1087 1345 1344
4 1076 1086 1344 1342
4 1083 1085 1316 1319
4 1084 1335 1316 1085
4 1083 1319 1321 1081
4 1082 1081 1321 1353
4 1078 1333 1341 1079
4 1080 1079 1341 1327
4 1077 1329 1333 1078
4 1076 1342 1329 1077
4 1388 1389 1390 1391
4 1392 1393 1394 1395
4 1396 1397 1398 1399
4 1400 1401 1402 1403
4 1404 1393 1392 1405
4 1388 1406 1407 1389
4 1406 1404 1405 1407
4 1408 1397 1396 1409
4 1400 1410 1411 1401
4 1410 1408 1409 1411
4 1412 1413 1414 1415
4 1416 1417 1413 1412
4 1418 1419 1417 1416
4 1420 1421 1422 1423
4 1424 1425 1421 1420
4 1423 1422 1426 1427
4 1428 1429 1430 1431
4 1432 1433 1429 1428
4 1431 1430 1434 1435
4 1424 1436 1437 1425
4 1426 1438 1439 1427
4 1434 1440 1441 1435
4 1432 1442 1443 1433
4 1418 1444 1445 1419
4 1414 1446 1447 1415
4 1448 1449 1450 1451
4 1449 737 736 1450
4 1452 1453 1449 1448
4 1453 740 737 1449
4 1454 1455 1456 1457
4 1455 743 742 1456
4 1457 1456 1453 1452
4 1456 742 740 1453
4 1458 1459 1460 1461
4 1459 747 746 1460
4 1461 1460 1462 1463
4 1460 746 750 1462
4 1464 1465 1466 1467
4 1465 753 752 1466
4 1463 1462 1465 1464
4 1462 750 753 1465
4 1451 1450 1468 1469
4 1450 736 756 1468
4 1469 1468 1470 1471
4 1468 756 758 1470
4 1471 1470 1472 1473
4 1470 758 760 1472
4 1473 1472 1474 1475
4 1472 760 762 1474
4 1475 1474 1476 1477
4 1474 762 764 1476
4 1477 1476 1478 1479
4 1476 764 766 1478
4 1479 1478 1480 1481
4 1478 766 768 1480
4 1481 1480 1482 1483
4 1480 768 770 1482
4 1483 1482 1484 1485
4 1482 770 772 1484
4 1485 1484 1486 1487
4 1484 772 774 1486
4 1487 1486 1488 1489
4 1486 774 776 1488
4 1489 1488 1490 1491
4 1488 776 778 1490
4 1491 1490 1492 1493
4 1490 778 780 1492
4 1493 1492 1494 1495
4 1492 780 782 1494
4 1495 1494 1496 1497
4 1494 782 784 1496
4 1497 1496 1459 1458
4 1496 784 747 1459
4 1498 1499 1455 1454
4 1499 786 743 1455
4 1500 1501 1499 1498
4 1501 788 786 1499
4 1502 1503 1501 1500
4 1503 790 788 1501
4 1504 1505 1503 1502
4 1505 792 790 1503
4 1506 1507 1505 1504
4 1507 794 792 1505
4 1508 1509 1507 1506
4 1509 796 794 1507
4 1510 1511 1509 1508
4 1511 798 796 1509
4 1512 1513 1511 1510
4 1513 800 798 1511
4 1514 1515 1513 1512
4 1515 802 800 1513
4 1516 1517 1515 1514
4 1517 804 802 1515
4 1518 1519 1517 1516
4 1519 806 804 1517
4 1520 1521 1519 1518
4 1521 808 806 1519
4 1522 1523 1521 1520
4 1523 810 808 1521
4 1524 1525 1523 1522
4 1525 812 810 1523
4 1526 1527 1525 1524
4 1527 814 812 1525
4 1467 1466 1527 1526
4 1466 752 814 1527
4 1528 1529 1530 1531
4 1529 1116 1117 1530
4 1532 1533 1529 1528
4 1533 1118 1116 1529
4 1534 1535 1533 1532
4 1535 1119 1118 1533
4 1536 1537 1535 1534
4 1537 1120 1119 1535
4 1538 1539 1537 1536
4 1539 1121 1120 1537
4 1540 1541 1539 1538
4 1541 1122 1121 1539
4 1542 1543 1541 1540
4 1543 1123 1122 1541
4 1544 1545 1543 1542
4 1545 1124 1123 1543
4 1546 1547 1545 1544
4 1547 1125 1124 1545
4 1548 1549 1547 1546
4 1549 1126 1125 1547
4 1550 1551 1549 1548
4 1551 1127 1126 1549
4 1552 1553 1551 1550
4 1553 1128 1127 1551
4 1554 1555 1553 1552
4 1555 1129 1128 1553
4 1556 1557 1555 1554
4 1557 1130 1129 1555
4 1558 1559 1557 1556
4 1559 1131 1130 1557
4 1560 1561 1559 1558
4 1561 1132 1131 1559
4 1562 1563 1564 1565
4 1563 1133 1134 1564
4 1565 1564 1566 1567
4 1564 1134 1135 1566
4 1567 1566 1568 1569
4 1566 1135 1136 1568
4 1569 1568 1570 1571
4 1568 1136 1137 1570
4 1571 1570 1572 1573
4 1570 1137 1138 1572
4 1573 1572 1574 1575
4 1572 1138 1139 1574
4 1575 1574 1576 1577
4 1574 1139 1140 1576
4 1577 1576 1578 1579
4 1576 1140 1141 1578
4 1579 1578 1580 1581
4 1578 1141 1142 1580
4 1581 1580 1582 1583
4 1580 1142 1143 1582
4 1583 1582 1584 1585
4 1582 1143 1144 1584
4 1585 1584 1586 1587
4 1584 1144 1145 1586
4 1587 1586 1588 1589
4 1586 1145 1146 1588
4 1589 1588 1590 1591
4 1588 1146 1147 1590
4 1591 1590 1592 1593
4 1590 1147 1148 1592
4 1593 1592 1594 1595
4 1592 1148 1149 1594
4 1596 1597 1598 1599
4 1597 1150 1151 1598
4 1531 1530 1597 1596
4 1530 1117 1150 1597
4 1599 1598 1600 1601
4 1598 1151 1152 1600
4 1601 1600 1563 1562
4 1600 1152 1133 1563
4 1602 1603 1604 1605
4 1603 1153 1154 1604
4 1605 1604 1561 1560
4 1604 1154 1132 1561
4 1606 1607 1603 1602
4 1607 1155 1153 1603
4 1595 1594 1607 1606
4 1594 1149 1155 1607
4 1451 1608 1609 1448
4 1608 1610 1611 1609
4 1610 1595 1606 1611
4 1448 1609 1612 1452
4 1609 1611 1613 1612
4 1611 1606 1602 1613
4 1457 1614 1615 1454
4 1614 1616 1617 1615
4 1616 1605 1560 1617
4 1452 1612 1614 1457
4 1612 1613 1616 1614
4 1613 1602 1605 1616
4 1461 1618 1619 1458
4 1618 1620 1621 1619
4 1620 1601 1562 1621
4 1463 1622 1618 1461
4 1622 1623 1620 1618
4 1623 1599 1601 1620
4 1467 1624 1625 1464
4 1624 1626 1627 1625
4 1626 1531 1596 1627
4 1464 1625 1622 1463
4 1625 1627 1623 1622
4 1627 1596 1599 1623
4 1469 1628 1608 1451
4 1628 1629 1610 1608
4 1629 1593 1595 1610
4 1471 1630 1628 1469
4 1630 1631 1629 1628
4 1631 1591 1593 1629
4 1473 1632 1630 1471
4 1632 1633 1631 1630
4 1633 1589 1591 1631
4 1475 1634 1632 1473
4 1634 1635 1633 1632
4 1635 1587 1589 1633
4 1477 1636 1634 1475
4 1636 1637 1635 1634
4 1637 1585 1587 1635
4 1479 1638 1636 1477
4 1638 1639 1637 1636
4 1639 1583 1585 1637
4 1481 1640 1638 1479
4 1640 1641 1639 1638
4 1641 1581 1583 1639
4 1483 1642 1640 1481
4 1642 1643 1641 1640
4 1643 1579 1581 1641
4 1485 1644 1642 1483
4 1644 1645 1643 1642
4 1645 1577 1579 1643
4 1487 1646 1644 1485
4 1646 1647 1645 1644
4 1647 1575 1577 1645
4 1489 1648 1646 1487
4 1648 1649 1647 1646
4 1649 1573 1575 1647
4 1491 1650 1648 1489
4 1650 1651 1649 1648
4 1651 1571 1573 1649
4 1493 1652 1650 1491
4 1652 1653 1651 1650
4 1653 1569 1571 1651
4 1495 1654 1652 1493
4 1654 1655 1653 1652
4 1655 1567 1569 1653
4 1497 1656 1654 1495
4 1656 1657 1655 1654
4 1657 1565 1567 1655
4 1458 1619 1656 1497
4 1619 1621 1657 1656
4 1621 1562 1565 1657
4 1454 1615 1658 1498
4 1615 1617 1659 1658
4 1617 1560 1558 1659
4 1498 1658 1660 1500
4 1658 1659 1661 1660
4 1659 1558 1556 1661
4 1500 1660 1662 1502
4 1660 1661 1663 1662
4 1661 1556 1554 1663
4 1502 1662 1664 1504
4 1662 1663 1665 1664
4 1663 1554 1552 1665
4 1504 1664 1666 1506
4 1664 1665 1667 1666
4 1665 1552 1550 1667
4 1506 1666 1668 1508
4 1666 1667 1669 1668
4 1667 1550 1548 1669
4 1508 1668 1670 1510
4 1668 1669 1671 1670
4 1669 1548 1546 1671
4 1510 1670 1672 1512
4 1670 1671 1673 1672
4 1671 1546 1544 1673
4 1512 1672 1674 1514
4 1672 1673 1675 1674
4 1673 1544 1542 1675
4 1514 1674 1676 1516
4 1674 1675 1677 1676
4 1675 1542 1540 1677
4 1516 1676 1678 1518
4 1676 1677 1679 1678
4 1677 1540 1538 1679
4 1518 1678 1680 1520
4 1678 1679 1681 1680
4 1679 1538 1536 1681
4 1520 1680 1682 1522
4 1680 1681 1683 1682
4 1681 1536 1534 1683
4 1522 1682 1684 1524
4 1682 1683 1685 1684
4 1683 1534 1532 1685
4 1524 1684 1686 1526
4 1684 1685 1687 1686
4 1685 1532 1528 1687
4 1526 1686 1624 1467
4 1686 1687 1626 1624
4 1687 1528 1531 1626
4 1688 1689 1690 1691
4 1689 1692 1693 1690
4 1692 1694 1695 1693
4 1696 1697 1689 1688
4 1697 1698 1692 1689
4 1698 1699 1694 1692
4 1700 1701 1697 1696
4 1701 1702 1698 1697
4 1702 1703 1699 1698
4 1704 1705 1701 1700
4 1705 1706 1702 1701
4 1706 1707 1703 1702
4 1708 1709 1705 1704
4 1709 1710 1706 1705
4 1710 1711 1707 1706
4 1712 1713 1709 1708
4 1713 1714 1710 1709
4 1714 1715 1711 1710
4 1716 1717 1713 1712
4 1717 1718 1714 1713
4 1718 1719 1715 1714
4 1720 1721 1717 1716
4 1721 1722 1718 1717
4 1722 1723 1719 1718
4 1724 1725 1721 1720
4 1725 1726 1722 1721
4 1726 1727 1723 1722
4 1728 1729 1725 1724
4 1729 1730 1726 1725
4 1730 1731 1727 1726
4 1732 1733 1729 1728
4 1733 1734 1730 1729
4 1734 1735 1731 1730
4 1736 1737 1733 1732
4 1737 1738 1734 1733
4 1738 1739 1735 1734
4 1740 1741 1737 1736
4 1741 1742 1738 1737
4 1742 1743 1739 1738
4 1744 1745 1741 1740
4 1745 1746 1742 1741
4 1746 1747 1743 1742
4 1748 1749 1745 1744
4 1749 1750 1746 1745
4 1750 1751 1747 1746
4 1752 1753 1749 1748
4 1753 1754 1750 1749
4 1754 1755 1751 1750
4 1756 1757 1753 1752
4 1757 1758 1754 1753
4 1758 1759 1755 1754
4 1760 1761 1757 1756
4 1761 1762 1758 1757
4 1762 1763 1759 1758
4 1764 1765 1761 1760
4 1765 1766 1762 1761
4 1766 1767 1763 1762
4 1768 1769 1765 1764
4 1769 1770 1766 1765
4 1770 1771 1767 1766
4 1772 1773 1769 1768
4 1773 1774 1770 1769
4 1774 1775 1771 1770
4 1776 1777 1773 1772
4 1777 1778 1774 1773
4 1778 1779 1775 1774
4 1780 1781 1777 1776
4 1781 1782 1778 1777
4 1782 1783 1779 1778
4 1784 1785 1781 1780
4 1785 1786 1782 1781
4 1786 1787 1783 1782
4 1788 1789 1785 1784
4 1789 1790 1786 1785
4 1790 1791 1787 1786
4 1792 1793 1789 1788
4 1793 1794 1790 1789
4 1794 1795 1791 1790
4 1796 1797 1793 1792
4 1797 1798 1794 1793
4 1798 1799 1795 1794
4 1800 1801 1797 1796
4 1801 1802 1798 1797
4 1802 1803 1799 1798
4 1804 1805 1801 1800
4 1805 1806 1802 1801
4 1806 1807 1803 1802
4 1808 1809 1805 1804
4 1809 1810 1806 1805
4 1810 1811 1807 1806
4 1812 1813 1809 1808
4 1813 1814 1810 1809
4 1814 1815 1811 1810
4 1691 1690 1813 1812
4 1690 1693 1814 1813
4 1693 1695 1815 1814
4 1691 1816 1817 1688
4 1816 705 704 1817
4 1688 1817 1818 1696
4 1817 704 706 1818
4 1696 1818 1819 1700
4 1818 706 707 1819
4 1700 1819 1820 1704
4 1819 707 708 1820
4 1704 1820 1821 1708
4 1820 708 709 1821
4 1708 1821 1822 1712
4 1821 709 710 1822
4 1712 1822 1823 1716
4 1822 710 711 1823
4 1716 1823 1824 1720
4 1823 711 712 1824
4 1720 1824 1825 1724
4 1824 712 713 1825
4 1724 1825 1826 1728
4 1825 713 714 1826
4 1728 1826 1827 1732
4 1826 714 715 1827
4 1732 1827 1828 1736
4 1827 715 716 1828
4 1736 1828 1829 1740
4 1828 716 717 1829
4 1740 1829 1830 1744
4 1829 717 718 1830
4 1744 1830 1831 1748
4 1830 718 719 1831
4 1748 1831 1832 1752
4 1831 719 720 1832
4 1752 1832 1833 1756
4 1832 720 721 1833
4 1756 1833 1834 1760
4 1833 721 722 1834
4 1760 1834 1835 1764
4 1834 722 723 1835
4 1764 1835 1836 1768
4 1835 723 724 1836
4 1768 1836 1837 1772
4 1836 724 725 1837
4 1772 1837 1838 1776
4 1837 725 726 1838
4 1776 1838 1839 1780
4 1838 726 727 1839
4 1780 1839 1840 1784
4 1839 727 728 1840
4 1784 1840 1841 1788
4 1840 728 729 1841
4 1788 1841 1842 1792
4 1841 729 730 1842
4 1792 1842 1843 1796
4 1842 730 731 1843
4 1796 1843 1844 1800
4 1843 731 732 1844
4 1800 1844 1845 1804
4 1844 732 733 1845
4 1804 1845 1846 1808
4 1845 733 734 1846
4 1808 1846 1847 1812
4 1846 734 735 1847
4 1812 1847 1816 1691
4 1847 735 705 1816
4 1695 1848 1849 1815
4 1848 1156 1159 1849
4 1815 1849 1850 1811
4 1849 1159 1161 1850
4 1811 1850 1851 1807
4 1850 1161 1163 1851
4 1807 1851 1852 1803
4 1851 1163 1165 1852
4 1803 1852 1853 1799
4 1852 1165 1167 1853
4 1799 1853 1854 1795
4 1853 1167 1169 1854
4 1795 1854 1855 1791
4 1854 1169 1171 1855
4 1791 1855 1856 1787
4 1855 1171 1173 1856
4 1787 1856 1857 1783
4 1856 1173 1175 1857
4 1783 1857 1858 1779
4 1857 1175 1177 1858
4 1779 1858 1859 1775
4 1858 1177 1179 1859
4 1775 1859 1860 1771
4 1859 1179 1181 1860
4 1771 1860 1861 1767
4 1860 1181 1183 1861
4 1767 1861 1862 1763
4 1861 1183 1185 1862
4 1763 1862 1863 1759
4 1862 1185 1187 1863
4 1759 1863 1864 1755
4 1863 1187 1189 1864
4 1755 1864 1865 1751
4 1864 1189 1191 1865
4 1751 1865 1866 1747
4 1865 1191 1193 1866
4 1747 1866 1867 1743
4 1866 1193 1195 1867
4 1743 1867 1868 1739
4 1867 1195 1197 1868
4 1739 1868 1869 1735
4 1868 1197 1199 1869
4 1735 1869 1870 1731
4 1869 1199 1201 1870
4 1731 1870 1871 1727
4 1870 1201 1203 1871
4 1727 1871 1872 1723
4 1871 1203 1205 1872
4 1723 1872 1873 1719
4 1872 1205 1207 1873
4 1719 1873 1874 1715
4 1873 1207 1209 1874
4 1715 1874 1875 1711
4 1874 1209 1211 1875
4 1711 1875 1876 1707
4 1875 1211 1213 1876
4 1707 1876 1877 1703
4 1876 1213 1215 1877
4 1703 1877 1878 1699
4 1877 1215 1217 1878
4 1699 1878 1879 1694
4 1878 1217 1219 1879
4 1694 1879 1848 1695
4 1879 1219 1156 1848
