ply
format ascii 1.0
comment Created by Blender 2.62 (sub 0) - www.blender.org, source file: 'spaceship.blend'
element vertex 2041
property float x
property float y
property float z
element face 2031
property list uchar uint vertex_indices
end_header
0.247843 -2.117436 0.159209
0.304532 -1.295612 0.373652
0.202839 -1.259414 0.449066
0.217350 -2.107045 0.179366
-0.202839 -1.259414 0.449066
-0.304532 -1.295612 0.373652
-0.247843 -2.117436 0.159209
-0.217350 -2.107045 0.179366
0.303543 -0.808881 0.447437
0.198644 -0.872494 0.511172
-0.198644 -0.872494 0.511172
-0.303543 -0.808881 0.447437
0.415995 -1.568244 0.092614
0.337556 -1.319645 0.324843
0.279780 -2.089266 0.130626
0.311291 -2.009336 0.059695
-0.279780 -2.089266 0.130626
-0.337556 -1.319645 0.324843
-0.415995 -1.568244 0.092614
-0.311291 -2.009336 0.059695
0.444551 -0.870825 0.201858
0.377764 -0.765621 0.396825
-0.377764 -0.765621 0.396825
-0.444551 -0.870825 0.201858
0.000000 -0.853269 0.509116
0.000000 -1.268020 0.468675
0.000000 -2.116400 0.204168
0.182392 0.876348 -0.398200
0.394563 0.360536 -0.416299
0.000000 0.349981 -0.398199
0.000000 0.876357 -0.398199
-0.394563 0.360536 -0.416299
-0.182392 0.876348 -0.398200
0.000000 0.365495 0.595379
0.200813 0.365487 0.595378
0.200813 0.863185 0.447756
0.000000 0.863192 0.447757
-0.200813 0.863185 0.447756
-0.200813 0.365487 0.595378
0.539003 -0.801840 -0.362879
0.482795 -1.244168 -0.298171
0.352730 -1.591941 -0.295671
0.394563 -0.907189 -0.457219
-0.352730 -1.591941 -0.295671
-0.482795 -1.244168 -0.298171
-0.539003 -0.801840 -0.362879
-0.394563 -0.907189 -0.457219
0.454543 0.568508 0.340438
0.454543 -0.109744 0.280848
0.730697 -0.034752 0.046261
0.699300 0.331574 0.130099
-0.730697 -0.034752 0.046261
-0.454543 -0.109744 0.280848
-0.454543 0.568508 0.340438
-0.699300 0.331574 0.130099
0.729655 0.209014 -0.398201
0.699860 -0.041621 -0.403615
0.394563 -0.077454 -0.457219
-0.394563 -0.077454 -0.457219
-0.699860 -0.041621 -0.403615
-0.729655 0.209014 -0.398201
0.200813 -0.020576 0.658077
0.000000 -0.020568 0.658078
-0.200813 -0.020576 0.658077
0.000000 -0.188328 0.733819
0.217380 -0.188334 0.733817
-0.217380 -0.188334 0.733817
0.752364 -0.132117 -0.460331
0.415772 -0.192660 -0.529468
-0.415772 -0.192660 -0.529468
-0.752364 -0.132117 -0.460331
0.478812 -0.209269 0.310731
0.785833 -0.140700 0.082325
-0.478812 -0.209269 0.310731
-0.785833 -0.140700 0.082325
0.698257 -0.750687 -0.438110
0.415772 -0.803977 -0.529468
-0.698257 -0.750687 -0.438110
-0.415772 -0.803977 -0.529468
0.454543 -0.892864 0.201858
0.670082 -0.783142 -0.007085
0.701765 -0.697547 0.026256
0.478812 -0.788549 0.227711
-0.701765 -0.697547 0.026256
-0.670082 -0.783142 -0.007085
-0.454543 -0.892864 0.201858
-0.478812 -0.788549 0.227711
0.217842 1.378994 0.075696
0.287634 1.128794 0.315601
0.400066 0.461922 0.450228
-0.400066 0.461922 0.450228
-0.287634 1.128794 0.315601
-0.217842 1.378994 0.075696
0.000000 1.379003 0.075698
0.000000 1.163251 0.328920
0.163911 -3.223863 -0.077470
0.103771 -3.062706 0.029798
0.000000 -3.066575 0.034062
0.000000 -3.269652 -0.077468
-0.103771 -3.062706 0.029798
-0.163911 -3.223863 -0.077470
0.108730 -2.840743 0.096356
0.000000 -2.848390 0.103148
-0.108730 -2.840743 0.096356
0.400066 -0.097724 0.454840
-0.400066 -0.097724 0.454840
0.420292 -0.198278 0.494826
-0.420292 -0.198278 0.494826
0.400066 -0.795069 0.385414
0.420292 -0.699129 0.421858
-0.400066 -0.795069 0.385414
-0.420292 -0.699129 0.421858
0.648284 1.114305 -0.235199
0.373491 1.172645 -0.261592
0.423749 1.297505 -0.096859
0.610661 1.125035 -0.113828
-0.423749 1.297505 -0.096859
-0.373491 1.172645 -0.261592
-0.648284 1.114305 -0.235199
-0.610661 1.125035 -0.113828
0.255992 1.389180 -0.009605
0.552753 0.756331 0.207483
-0.255992 1.389180 -0.009605
-0.552753 0.756331 0.207483
0.454542 -1.591953 0.123907
0.465187 -1.615954 0.029927
0.612588 -1.336193 -0.120655
0.604273 -1.319456 -0.033548
-0.612588 -1.336193 -0.120655
-0.465187 -1.615954 0.029927
-0.454542 -1.591953 0.123907
-0.604273 -1.319456 -0.033548
0.401535 -1.594312 -0.258218
0.526757 -1.322777 -0.238386
-0.526757 -1.322777 -0.238386
-0.401535 -1.594312 -0.258218
0.812479 0.377725 -0.000742
-0.812479 0.377725 -0.000742
0.000000 -3.294245 -0.113840
0.185352 -3.248455 -0.113842
-0.185352 -3.248455 -0.113842
0.000000 -3.287545 -0.166737
0.169623 -3.241755 -0.166738
-0.169623 -3.241755 -0.166738
0.079426 1.047701 -0.142356
0.000000 1.049434 -0.146280
0.000000 1.086731 0.036099
0.117670 1.086242 0.041216
-0.079426 1.047701 -0.142356
-0.117670 1.086242 0.041216
0.000000 1.389190 -0.009604
0.752138 -0.019235 -0.033742
-0.752138 -0.019235 -0.033742
0.797965 -0.122982 -0.416304
0.731888 -0.033880 -0.377962
0.809281 -0.110170 -0.013703
-0.731888 -0.033880 -0.377962
-0.797965 -0.122982 -0.416304
-0.809281 -0.110170 -0.013703
0.691522 -0.783858 -0.077486
0.725213 -0.698460 -0.059680
-0.725213 -0.698460 -0.059680
-0.691522 -0.783858 -0.077486
0.584904 -0.783220 -0.310104
0.742164 -0.732509 -0.392012
-0.742164 -0.732509 -0.392012
-0.584904 -0.783220 -0.310104
0.178523 -0.719510 0.523073
0.000000 -0.719502 0.523074
0.000000 -0.704892 0.459024
0.146954 -0.704934 0.459347
-0.178523 -0.719510 0.523073
-0.146954 -0.704934 0.459347
0.328616 -2.054872 0.122117
0.338990 -2.005216 0.064244
0.298781 -1.945396 0.034757
0.290082 -2.015200 0.091010
-0.298781 -1.945396 0.034757
-0.338990 -2.005216 0.064244
-0.328616 -2.054872 0.122117
-0.290082 -2.015200 0.091010
0.243587 -2.121092 0.191755
0.253864 -2.066830 0.148869
-0.243587 -2.121092 0.191755
-0.253864 -2.066830 0.148869
0.364266 -0.790664 0.350849
0.414235 -0.884106 0.169834
-0.364266 -0.790664 0.350849
-0.414235 -0.884106 0.169834
0.000000 -0.576077 0.391503
0.169243 -0.576125 0.391825
-0.169243 -0.576125 0.391825
0.000000 -2.077624 0.148140
0.237023 -2.141604 0.017314
0.000000 -2.137867 0.016586
-0.237023 -2.141604 0.017314
0.364266 -0.673662 0.181257
-0.364266 -0.673662 0.181257
0.414235 -0.779974 0.000242
-0.414235 -0.779974 0.000242
0.290082 -2.066847 -0.078582
-0.290082 -2.066847 -0.078582
0.298781 -1.987429 -0.134835
-0.298781 -1.987429 -0.134835
0.000000 -0.673662 0.181257
0.000000 -0.779974 0.000242
0.000000 -2.066847 -0.078582
0.000000 -1.987429 -0.134835
0.217380 -0.699608 0.669945
0.000000 -0.699601 0.669946
0.000000 -0.864378 0.625910
0.217612 -0.846978 0.627728
-0.217380 -0.699608 0.669945
-0.217612 -0.846978 0.627728
0.420524 -0.718316 0.447416
-0.420524 -0.718316 0.447416
0.400298 -0.776216 0.426967
-0.400298 -0.776216 0.426967
0.815163 -0.624925 -0.465362
0.865376 -0.669915 -0.223436
-0.865376 -0.669915 -0.223436
-0.815163 -0.624925 -0.465362
0.899131 -0.165095 -0.465354
0.949443 -0.153384 -0.177459
-0.899131 -0.165095 -0.465354
-0.949443 -0.153384 -0.177459
0.763999 -0.646291 -0.508717
0.517072 -0.723184 -0.539118
-0.763999 -0.646291 -0.508717
-0.517072 -0.723184 -0.539118
0.843515 -0.175514 -0.506734
0.517072 -0.232449 -0.573786
-0.517072 -0.232449 -0.573786
-0.843515 -0.175514 -0.506734
0.412962 -1.546407 -0.075845
0.412962 -1.557760 0.093747
0.399579 -1.503697 0.111155
0.399579 -1.493868 -0.058437
-0.399579 -1.503697 0.111155
-0.412962 -1.557760 0.093747
-0.412962 -1.546407 -0.075845
-0.399579 -1.493868 -0.058437
0.400852 -0.830369 0.017650
-0.400852 -0.830369 0.017650
0.400852 -0.956937 0.187241
-0.400852 -0.956937 0.187241
0.476714 -0.964519 0.219266
-0.476714 -0.964519 0.219266
0.441159 -1.533298 0.141314
-0.441159 -1.533298 0.141314
0.583860 -0.955330 0.147336
-0.583860 -0.955330 0.147336
0.543866 -1.297398 0.102768
-0.543866 -1.297398 0.102768
0.255566 -1.927207 -0.240096
0.000000 -1.987429 -0.259377
-0.255566 -1.927207 -0.240096
0.000000 -0.779974 -0.227431
0.414235 -0.779974 -0.227431
-0.414235 -0.779974 -0.227431
0.328825 -1.546407 -0.257273
-0.328825 -1.546407 -0.257273
0.000000 -1.546407 -0.257273
0.099302 -0.568153 0.690701
0.099302 -0.272212 0.724641
-0.099302 -0.568153 0.690701
-0.099302 -0.272212 0.724641
0.478812 -0.663503 0.247256
0.420292 -0.593128 0.435218
-0.478812 -0.663503 0.247256
-0.420292 -0.593128 0.435218
0.217380 -0.568157 0.682046
-0.217380 -0.568157 0.682046
0.420292 -0.302161 0.478808
0.478812 -0.327114 0.296306
-0.420292 -0.302161 0.478808
-0.478812 -0.327114 0.296306
0.217380 -0.272216 0.715985
-0.217380 -0.272216 0.715985
0.696700 -0.311534 0.065114
0.656404 -0.632481 0.041578
-0.696700 -0.311534 0.065114
-0.656404 -0.632481 0.041578
0.093075 -0.304399 0.692505
0.205032 -0.304402 0.684089
-0.093075 -0.304399 0.692505
-0.205032 -0.304402 0.684089
0.462065 -0.350823 0.276042
0.673914 -0.337649 0.051259
-0.462065 -0.350823 0.276042
-0.673914 -0.337649 0.051259
0.634734 -0.609044 0.028375
0.462065 -0.635276 0.228352
-0.634734 -0.609044 0.028375
-0.462065 -0.635276 0.228352
0.405167 -0.329724 0.453487
-0.405167 -0.329724 0.453487
0.205032 -0.554651 0.651090
0.093075 -0.554648 0.659506
-0.205032 -0.554651 0.651090
-0.093075 -0.554648 0.659506
0.405167 -0.575766 0.411104
-0.405167 -0.575766 0.411104
0.000000 1.155076 -0.318555
0.161758 1.155067 -0.318478
-0.161758 1.155067 -0.318478
0.485635 0.724418 -0.368135
-0.485635 0.724418 -0.368135
0.792130 0.351385 -0.377959
-0.792130 0.351385 -0.377959
0.000000 -1.591933 -0.345339
0.000000 -0.945644 -0.457218
0.000000 -0.079574 -0.457218
0.181999 -0.756245 0.487860
0.000000 -0.756239 0.487862
-0.181999 -0.756245 0.487860
0.369047 -0.825670 0.413505
0.367933 -0.795795 0.408008
-0.369047 -0.825670 0.413505
-0.367933 -0.795795 0.408008
0.201045 -0.897300 0.541043
0.200901 -0.905459 0.517836
-0.200901 -0.905459 0.517836
-0.201045 -0.897300 0.541043
0.000000 -0.897292 0.541044
0.000000 -0.905452 0.517837
0.401106 -0.747634 0.458182
0.388806 -0.782844 0.445746
-0.401106 -0.747634 0.458182
-0.388806 -0.782844 0.445746
0.215731 -0.861788 0.621205
-0.215731 -0.861788 0.621205
0.203523 -0.918321 0.558706
-0.203523 -0.918321 0.558706
0.000000 -0.886791 0.625898
0.000000 -0.924584 0.560878
0.349744 -1.611388 -0.296147
0.286384 -2.024101 -0.306248
0.000000 -2.024093 -0.306247
0.000000 -1.611380 -0.343580
-0.286384 -2.024101 -0.306248
-0.349744 -1.611388 -0.296147
0.347552 -2.116929 -0.043038
0.460473 -1.635203 0.028043
0.449343 -1.610550 0.121222
-0.449343 -1.610550 0.121222
-0.460473 -1.635203 0.028043
-0.347552 -2.116929 -0.043038
0.407824 -1.575204 0.091093
-0.407824 -1.575204 0.091093
0.407824 -1.566252 -0.078499
-0.407824 -1.566252 -0.078499
0.325529 -1.563543 -0.256500
-0.325529 -1.563543 -0.256500
0.000000 -1.566252 -0.257367
0.398823 -1.613747 -0.258971
0.341269 -2.026189 -0.274964
-0.398823 -1.613747 -0.258971
-0.341269 -2.026189 -0.274964
0.347268 -1.610654 -0.286870
0.380328 -1.612810 -0.260543
-0.347268 -1.610654 -0.286870
-0.380328 -1.612810 -0.260543
0.338075 -1.562864 -0.263237
0.000000 -1.565341 -0.264030
-0.338075 -1.562864 -0.263237
0.409831 -1.565341 -0.081835
-0.409831 -1.565341 -0.081835
0.413409 -1.574017 0.088192
-0.413409 -1.574017 0.088192
0.447780 -1.608255 0.120041
-0.447780 -1.608255 0.120041
0.452220 -1.633449 0.025059
-0.452220 -1.633449 0.025059
0.000000 -1.610544 -0.341568
0.349996 -1.592879 -0.286435
0.000000 -1.592769 -0.343176
-0.349996 -1.592879 -0.286435
0.382807 -1.595046 -0.259854
-0.382807 -1.595046 -0.259854
0.000000 -1.547202 -0.263943
0.341088 -1.547202 -0.263943
-0.341088 -1.547202 -0.263943
0.414528 -1.547202 -0.079409
-0.414528 -1.547202 -0.079409
0.418106 -1.558074 0.090618
-0.418106 -1.558074 0.090618
0.452533 -1.591258 0.122495
-0.452533 -1.591258 0.122495
0.456529 -1.615855 0.026781
-0.456529 -1.615855 0.026781
0.335464 -2.038121 -0.272956
0.281677 -2.036076 -0.303614
-0.335464 -2.038121 -0.272956
-0.281677 -2.036076 -0.303614
0.000000 -3.235559 -0.196375
0.167253 -3.209442 -0.196376
-0.167253 -3.209442 -0.196376
0.341621 -2.127045 -0.089174
-0.341621 -2.127045 -0.089174
0.182667 -3.191720 -0.158560
-0.182667 -3.191720 -0.158560
0.000000 -2.036068 -0.303613
0.348750 -0.791065 -0.526146
0.348750 -0.219622 -0.526147
-0.348750 -0.791065 -0.526146
-0.348750 -0.219622 -0.526147
0.334379 -0.810664 -0.460540
-0.334379 -0.810664 -0.460540
0.334379 -0.142144 -0.460540
-0.334379 -0.142144 -0.460540
0.000000 -0.149525 -0.460539
0.000000 -0.824104 -0.460539
0.000000 -0.791235 -0.522267
0.000000 -0.219614 -0.522267
0.898014 -0.238900 -0.461997
0.846009 -0.246248 -0.501006
-0.898014 -0.238900 -0.461997
-0.846009 -0.246248 -0.501006
0.771656 -0.578262 -0.502876
0.819498 -0.563194 -0.462004
-0.771656 -0.578262 -0.502876
-0.819498 -0.563194 -0.462004
0.540763 -0.286402 -0.564219
-0.540763 -0.286402 -0.564219
0.540763 -0.665357 -0.541546
-0.540763 -0.665357 -0.541546
0.446041 -0.689469 -0.522438
-0.446041 -0.689469 -0.522438
0.446041 -0.258340 -0.522438
-0.446041 -0.258340 -0.522438
0.945059 -0.230641 -0.190591
-0.945059 -0.230641 -0.190591
0.866450 -0.594922 -0.233933
-0.866450 -0.594922 -0.233933
0.813997 -0.200165 -0.036214
-0.813997 -0.200165 -0.036214
0.735389 -0.615054 -0.079556
-0.735389 -0.615054 -0.079556
0.461893 -0.277711 -0.503049
0.461893 -0.664056 -0.503049
-0.461893 -0.277711 -0.503049
-0.461893 -0.664056 -0.503049
0.732857 -0.597371 -0.098809
0.806472 -0.225579 -0.059248
-0.732857 -0.597371 -0.098809
-0.806472 -0.225579 -0.059248
0.855592 -0.579330 -0.239717
-0.855592 -0.579330 -0.239717
0.929207 -0.252889 -0.200156
-0.929207 -0.252889 -0.200156
0.811623 -0.550897 -0.447888
-0.811623 -0.550897 -0.447888
0.885151 -0.260291 -0.447881
-0.885151 -0.260291 -0.447881
0.550597 -0.302857 -0.541184
-0.550597 -0.302857 -0.541184
0.550597 -0.642448 -0.541183
-0.550597 -0.642448 -0.541183
0.766821 -0.564400 -0.485193
-0.766821 -0.564400 -0.485193
0.836450 -0.266875 -0.483487
-0.836450 -0.266875 -0.483487
0.000000 -2.115765 0.214023
0.155982 -2.073070 0.201766
0.155981 -2.044863 0.166786
-0.155982 -2.073070 0.201766
-0.155981 -2.044863 0.166786
0.217946 -2.047293 0.167324
-0.217946 -2.047293 0.167324
0.213794 -2.087418 0.194472
-0.213794 -2.087418 0.194472
0.585136 -0.811614 -0.289322
0.543949 -0.828322 -0.336677
-0.585136 -0.811614 -0.289322
-0.543949 -0.828322 -0.336677
0.493515 -1.225217 -0.278615
0.532961 -1.295752 -0.224970
-0.493515 -1.225217 -0.278615
-0.532961 -1.295752 -0.224970
0.602515 -1.292773 -0.041171
0.548312 -1.272980 0.081143
-0.602515 -1.292773 -0.041171
-0.548312 -1.272980 0.081143
0.584198 -0.966046 0.121133
-0.584198 -0.966046 0.121133
0.661564 -0.811544 -0.017427
-0.661564 -0.811544 -0.017427
0.680803 -0.812187 -0.080597
-0.680803 -0.812187 -0.080597
0.609976 -1.307791 -0.119332
-0.609976 -1.307791 -0.119332
0.511885 -1.295752 -0.224970
0.588900 -1.307791 -0.119332
-0.511885 -1.295752 -0.224970
-0.588900 -1.307791 -0.119332
0.581439 -1.292773 -0.041171
-0.581439 -1.292773 -0.041171
0.640488 -0.811544 -0.017427
0.659727 -0.812187 -0.080597
-0.640488 -0.811544 -0.017427
-0.659727 -0.812187 -0.080597
0.564059 -0.811614 -0.289322
-0.564059 -0.811614 -0.289322
0.563122 -0.966046 0.121133
-0.563122 -0.966046 0.121133
0.527236 -1.272980 0.081143
-0.527236 -1.272980 0.081143
0.522873 -0.828322 -0.336677
0.472439 -1.225217 -0.278615
-0.522873 -0.828322 -0.336677
-0.472439 -1.225217 -0.278615
0.268348 -2.050532 -0.295581
0.000000 -2.051521 -0.294706
-0.268348 -2.050532 -0.295581
0.135150 -3.195147 -0.196376
0.167602 -3.177263 -0.158560
-0.135150 -3.195147 -0.196376
-0.167602 -3.177263 -0.158560
0.326555 -2.139273 -0.089174
0.303361 -2.052528 -0.272956
-0.326555 -2.139273 -0.089174
-0.303361 -2.052528 -0.272956
0.000000 -3.221038 -0.187804
0.000000 -2.979567 -0.252289
0.087317 -2.975515 -0.246332
-0.087317 -2.975515 -0.246332
0.439043 -1.705665 -0.038641
0.412517 -1.693121 -0.153762
-0.439043 -1.705665 -0.038641
-0.412517 -1.693121 -0.153762
0.369436 -1.978297 -0.175165
-0.369436 -1.978297 -0.175165
0.373539 -1.994915 -0.067840
-0.373539 -1.994915 -0.067840
0.366030 -1.973085 -0.172516
0.369973 -1.989059 -0.069355
-0.366030 -1.973085 -0.172516
-0.369973 -1.989059 -0.069355
0.432935 -1.711034 -0.041290
-0.432935 -1.711034 -0.041290
0.407438 -1.698977 -0.151944
-0.407438 -1.698977 -0.151944
0.403436 -1.711034 -0.041290
0.377939 -1.698977 -0.151944
-0.403436 -1.711034 -0.041290
-0.377939 -1.698977 -0.151944
0.336531 -1.973085 -0.172516
-0.336531 -1.973085 -0.172516
0.340474 -1.989059 -0.069355
-0.340474 -1.989059 -0.069355
0.174962 -2.487304 0.143209
0.000000 -2.489370 0.157482
-0.174962 -2.487304 0.143209
0.000000 -2.474786 0.159689
0.177355 -2.474530 0.144902
-0.177355 -2.474530 0.144902
0.235373 -2.487005 0.076621
0.269055 -2.525490 -0.005526
-0.269055 -2.525490 -0.005526
-0.235373 -2.487005 0.076621
0.266765 -2.541564 -0.007431
0.232548 -2.499711 0.075438
-0.232548 -2.499711 0.075438
-0.266765 -2.541564 -0.007431
0.282152 -2.582190 -0.078897
-0.282152 -2.582190 -0.078897
0.284651 -2.564700 -0.077760
-0.284651 -2.564700 -0.077760
0.272073 -2.578927 -0.123155
-0.272073 -2.578927 -0.123155
0.269224 -2.597939 -0.124416
-0.269224 -2.597939 -0.124416
0.248583 -2.578115 -0.123211
-0.248583 -2.578115 -0.123211
0.245800 -2.596083 -0.124425
-0.245800 -2.596083 -0.124425
0.197894 -2.502538 -0.270896
0.000000 -2.503660 -0.290638
-0.197894 -2.502538 -0.270896
0.000000 -2.525299 -0.289727
0.195390 -2.518802 -0.269866
-0.195390 -2.518802 -0.269866
0.218108 -2.560918 -0.234144
-0.218108 -2.560918 -0.234144
0.220543 -2.544500 -0.235252
-0.220543 -2.544500 -0.235252
0.194332 -2.519150 -0.265794
0.216598 -2.560426 -0.230783
-0.194332 -2.519150 -0.265794
-0.216598 -2.560426 -0.230783
0.218984 -2.544336 -0.231869
0.196787 -2.503210 -0.266802
-0.218984 -2.544336 -0.231869
-0.196787 -2.503210 -0.266802
0.246466 -2.577281 -0.122060
-0.246466 -2.577281 -0.122060
0.243738 -2.594891 -0.123251
-0.243738 -2.594891 -0.123251
0.000000 -2.525517 -0.285259
0.000000 -2.504309 -0.286152
0.266696 -2.596709 -0.123241
-0.266696 -2.596709 -0.123241
0.269487 -2.578076 -0.122005
-0.269487 -2.578076 -0.122005
0.279365 -2.581274 -0.078630
-0.279365 -2.581274 -0.078630
0.281815 -2.564132 -0.077515
-0.281815 -2.564132 -0.077515
0.266530 -2.525704 -0.006720
-0.266530 -2.525704 -0.006720
0.264285 -2.541458 -0.008587
-0.264285 -2.541458 -0.008587
0.230751 -2.500438 0.072630
0.174311 -2.488279 0.139050
-0.230751 -2.500438 0.072630
-0.174311 -2.488279 0.139050
0.176657 -2.475760 0.140710
0.233519 -2.487986 0.073789
-0.176657 -2.475760 0.140710
-0.233519 -2.487986 0.073789
0.000000 -2.476010 0.155202
0.000000 -2.490304 0.153039
0.129662 -0.897589 0.626685
0.117453 -0.955916 0.577853
-0.129662 -0.897589 0.626685
-0.117453 -0.955916 0.577853
0.000000 -0.962179 0.579026
0.000000 -0.922592 0.629220
0.200032 1.056414 -0.008927
0.183051 1.035236 -0.107413
-0.200032 1.056414 -0.008927
-0.183051 1.035236 -0.107413
0.726341 0.682358 -0.277670
-0.726341 0.682358 -0.277670
0.737193 0.696405 -0.049141
-0.737193 0.696405 -0.049141
0.000000 1.272152 -0.260841
0.101323 1.272146 -0.260793
-0.101323 1.272146 -0.260793
0.160350 1.418792 -0.067318
0.000000 1.418798 -0.067317
-0.160350 1.418792 -0.067318
0.279124 1.345964 -0.121973
-0.279124 1.345964 -0.121973
0.247643 1.267753 -0.225160
-0.247643 1.267753 -0.225160
0.000000 1.286301 -0.233237
0.106718 1.283855 -0.234490
-0.106718 1.283855 -0.234490
0.151972 1.396284 -0.086160
0.000000 1.398730 -0.084869
-0.151972 1.396284 -0.086160
0.256394 1.338006 -0.129351
-0.256394 1.338006 -0.129351
0.232258 1.278044 -0.208461
-0.232258 1.278044 -0.208461
0.000000 1.261543 -0.214430
0.104007 1.259643 -0.215334
-0.104007 1.259643 -0.215334
0.149261 1.372072 -0.067004
0.000000 1.373971 -0.066061
-0.149261 1.372072 -0.067004
0.251254 1.314343 -0.109847
-0.251254 1.314343 -0.109847
0.227119 1.254380 -0.188956
-0.227119 1.254380 -0.188956
0.000000 1.241012 -0.186616
0.100504 1.236887 -0.185830
-0.100504 1.236887 -0.185830
0.138748 1.275427 -0.002259
0.000000 1.278308 -0.004238
-0.138748 1.275427 -0.002259
0.236112 1.243207 -0.055540
-0.236112 1.243207 -0.055540
0.219130 1.222029 -0.154026
-0.219130 1.222029 -0.154026
0.806472 -0.225580 -0.059248
0.929207 -0.252890 -0.200156
0.855592 -0.579331 -0.239717
0.732857 -0.597372 -0.098809
-0.855592 -0.579331 -0.239717
-0.929207 -0.252890 -0.200156
-0.806472 -0.225580 -0.059248
-0.732857 -0.597372 -0.098809
0.811623 -0.550899 -0.447888
0.885151 -0.260292 -0.447881
-0.811623 -0.550899 -0.447888
-0.885151 -0.260292 -0.447881
0.836450 -0.266876 -0.483487
0.550597 -0.302858 -0.541184
0.550597 -0.642449 -0.541183
0.766821 -0.564401 -0.485193
-0.550597 -0.642449 -0.541183
-0.550597 -0.302858 -0.541184
-0.836450 -0.266876 -0.483487
-0.766821 -0.564401 -0.485193
0.570359 -0.323573 -0.563111
0.570359 -0.609529 -0.563110
-0.570359 -0.609529 -0.563110
-0.570359 -0.323573 -0.563111
0.917430 -0.287729 -0.466317
0.866907 -0.293274 -0.503255
-0.866907 -0.293274 -0.503255
-0.917430 -0.287729 -0.466317
0.794673 -0.543808 -0.505025
0.841151 -0.532438 -0.466324
-0.841151 -0.532438 -0.466324
-0.794673 -0.543808 -0.505025
0.963134 -0.281497 -0.190350
-0.963134 -0.281497 -0.190350
0.886765 -0.556380 -0.231391
-0.886765 -0.556380 -0.231391
0.835808 -0.258500 -0.044170
-0.835808 -0.258500 -0.044170
0.759439 -0.571571 -0.085212
-0.759439 -0.571571 -0.085212
0.760993 -0.532705 -0.560607
0.801232 -0.312274 -0.559049
-0.801232 -0.312274 -0.559049
-0.760993 -0.532705 -0.560607
0.636035 -0.590529 -0.611713
-0.636035 -0.590529 -0.611713
0.636035 -0.338933 -0.611713
-0.636035 -0.338933 -0.611713
0.599041 -0.577012 -0.635012
0.599041 -0.352846 -0.635012
-0.599041 -0.352846 -0.635012
-0.599041 -0.577012 -0.635012
0.551923 -0.339161 -0.579522
-0.551923 -0.339161 -0.579522
0.551923 -0.593941 -0.579522
-0.551923 -0.593941 -0.579522
0.407409 -0.339161 -0.613545
0.323859 -0.593941 -0.613545
-0.323859 -0.593941 -0.613545
-0.407409 -0.339161 -0.613545
0.325669 -0.577012 -0.670504
-0.325669 -0.577012 -0.670504
0.409219 -0.352846 -0.670504
-0.409219 -0.352846 -0.670504
0.000000 -0.577015 -0.676992
0.000000 -0.352849 -0.676992
0.000000 -0.339164 -0.620033
0.000000 -0.593944 -0.620033
0.000000 -0.649735 -0.629739
0.264441 -0.649730 -0.625747
-0.264441 -0.649730 -0.625747
0.347991 -0.283371 -0.625747
0.000000 -0.283375 -0.629739
-0.347991 -0.283371 -0.625747
0.266251 -0.625387 -0.660798
0.000000 -0.625392 -0.664790
-0.266251 -0.625387 -0.660798
0.000000 -0.303054 -0.664790
0.349801 -0.303049 -0.660798
-0.349801 -0.303049 -0.660798
0.077466 -0.547567 0.744254
0.000000 -0.547566 0.744255
0.000000 -0.543217 0.708837
0.077466 -0.543218 0.708837
-0.077466 -0.547567 0.744254
-0.077466 -0.543218 0.708837
0.077466 -0.310100 0.737456
0.000000 -0.310099 0.737456
0.000000 -0.314448 0.772873
0.077466 -0.314448 0.772873
-0.077466 -0.310100 0.737456
-0.077466 -0.314448 0.772873
0.106415 -0.314408 0.763567
0.106415 -0.310070 0.728237
-0.106415 -0.310070 0.728237
-0.106415 -0.314408 0.763567
0.106415 -0.547527 0.734961
0.106415 -0.543186 0.699606
-0.106415 -0.547527 0.734961
-0.106415 -0.543186 0.699606
0.215217 -0.543146 0.693194
0.225281 -0.547448 0.726919
-0.225281 -0.547448 0.726919
-0.215217 -0.543146 0.693194
0.234463 -0.314311 0.754195
0.224402 -0.310012 0.720483
-0.224402 -0.310012 0.720483
-0.234463 -0.314311 0.754195
0.268753 -0.316278 0.726142
0.260770 -0.312867 0.699392
-0.260770 -0.312867 0.699392
-0.268753 -0.316278 0.726142
0.251587 -0.546002 0.672108
0.259570 -0.549414 0.698858
-0.259570 -0.549414 0.698858
-0.251587 -0.546002 0.672108
0.422926 -0.562973 0.477351
0.443085 -0.566029 0.492677
-0.443085 -0.566029 0.492677
-0.422926 -0.562973 0.477351
0.467467 -0.332736 0.510119
0.448266 -0.329760 0.493439
-0.448266 -0.329760 0.493439
-0.467467 -0.332736 0.510119
0.541979 -0.393982 0.286299
0.522154 -0.390950 0.270260
0.452050 -0.330978 0.487002
0.471950 -0.334097 0.502678
-0.452050 -0.330978 0.487002
-0.522154 -0.390950 0.270260
-0.541979 -0.393982 0.286299
-0.471950 -0.334097 0.502678
0.497188 -0.624189 0.253572
0.517024 -0.627231 0.269570
0.446820 -0.567242 0.486235
0.427359 -0.564397 0.469765
-0.446820 -0.567242 0.486235
-0.517024 -0.627231 0.269570
-0.497188 -0.624189 0.253572
-0.427359 -0.564397 0.469765
0.519534 -0.627519 0.263051
0.500604 -0.624248 0.246298
0.550508 -0.603082 0.165448
0.560653 -0.606919 0.172989
-0.550508 -0.603082 0.165448
-0.500604 -0.624248 0.246298
-0.519534 -0.627519 0.263051
-0.560653 -0.606919 0.172989
0.525067 -0.391172 0.263865
0.544718 -0.394116 0.279300
0.585579 -0.373646 0.189804
0.575434 -0.369809 0.182263
-0.585579 -0.373646 0.189804
-0.544718 -0.394116 0.279300
-0.525067 -0.391172 0.263865
-0.575434 -0.369809 0.182263
0.588724 -0.388143 0.183283
0.581771 -0.384791 0.178342
-0.588724 -0.388143 0.183283
-0.581771 -0.384791 0.178342
0.559994 -0.588585 0.163651
0.566948 -0.591937 0.168593
-0.559994 -0.588585 0.163651
-0.566948 -0.591937 0.168593
0.571182 -0.579112 0.171843
0.558592 -0.574904 0.162311
0.616561 -0.610104 0.094799
0.629150 -0.614312 0.104331
-0.616561 -0.610104 0.094799
-0.558592 -0.574904 0.162311
-0.571182 -0.579112 0.171843
-0.629150 -0.614312 0.104331
0.577536 -0.397615 0.175091
0.590126 -0.401824 0.184623
0.648094 -0.437024 0.117111
0.635505 -0.432816 0.107579
-0.648094 -0.437024 0.117111
-0.590126 -0.401824 0.184623
-0.577536 -0.397615 0.175091
-0.635505 -0.432816 0.107579
0.000000 -0.392631 0.724572
0.000000 -0.325242 0.732845
0.077466 -0.325243 0.732845
0.077466 -0.392632 0.724572
-0.077466 -0.325243 0.732845
-0.077466 -0.392632 0.724572
0.077466 -0.460020 0.716299
0.077466 -0.527409 0.708026
0.000000 -0.527408 0.708026
0.000000 -0.460020 0.716299
-0.077466 -0.527409 0.708026
-0.077466 -0.460020 0.716299
0.077466 -0.532423 0.748866
0.077466 -0.465035 0.757139
0.000000 -0.465034 0.757139
0.000000 -0.532422 0.748866
-0.077466 -0.465035 0.757139
-0.077466 -0.532423 0.748866
0.077466 -0.397646 0.765412
0.077466 -0.330258 0.773685
0.000000 -0.330257 0.773685
0.000000 -0.397646 0.765412
-0.077466 -0.330258 0.773685
-0.077466 -0.397646 0.765412
0.106415 -0.532389 0.739611
0.106415 -0.465000 0.747884
-0.106415 -0.465000 0.747884
-0.106415 -0.532389 0.739611
0.106415 -0.397612 0.756157
0.106415 -0.330223 0.764430
-0.106415 -0.330223 0.764430
-0.106415 -0.397612 0.756157
0.106415 -0.325209 0.723590
0.106415 -0.392597 0.715317
-0.106415 -0.392597 0.715317
-0.106415 -0.325209 0.723590
0.106415 -0.459986 0.707044
0.106415 -0.527374 0.698772
-0.106415 -0.527374 0.698772
-0.106415 -0.459986 0.707044
0.222984 -0.325119 0.715964
0.220329 -0.392529 0.708075
-0.220329 -0.392529 0.708075
-0.222984 -0.325119 0.715964
0.217674 -0.459938 0.700186
0.215018 -0.527348 0.692297
-0.215018 -0.527348 0.692297
-0.217674 -0.459938 0.700186
0.226700 -0.532340 0.731439
0.229355 -0.464931 0.739328
-0.229355 -0.464931 0.739328
-0.226700 -0.532340 0.731439
0.232011 -0.397521 0.747217
0.234666 -0.330112 0.755106
-0.234666 -0.330112 0.755106
-0.232011 -0.397521 0.747217
0.262028 -0.534752 0.706862
0.264683 -0.467341 0.714751
-0.264683 -0.467341 0.714751
-0.262028 -0.534752 0.706862
0.267338 -0.399932 0.722640
0.269994 -0.332522 0.730529
-0.269994 -0.332522 0.730529
-0.267338 -0.399932 0.722640
0.258312 -0.327529 0.691388
0.255657 -0.394939 0.683499
-0.255657 -0.394939 0.683499
-0.258312 -0.327529 0.691388
0.253002 -0.462350 0.675609
0.250347 -0.529760 0.667720
-0.250347 -0.529760 0.667720
-0.253002 -0.462350 0.675609
0.441324 -0.344057 0.486727
0.432469 -0.411556 0.483709
-0.432469 -0.411556 0.483709
-0.441324 -0.344057 0.486727
0.425275 -0.479205 0.478835
0.419699 -0.547018 0.472092
-0.419699 -0.547018 0.472092
-0.425275 -0.479205 0.478835
0.451318 -0.551849 0.497919
0.456834 -0.484048 0.504649
-0.456834 -0.484048 0.504649
-0.451318 -0.551849 0.497919
0.464032 -0.416398 0.509524
0.472974 -0.348888 0.512527
-0.472974 -0.348888 0.512527
-0.464032 -0.416398 0.509524
0.525008 -0.613339 0.274244
0.531925 -0.545413 0.280085
0.461888 -0.485538 0.496390
0.454018 -0.552650 0.493491
-0.461888 -0.485538 0.496390
-0.531925 -0.545413 0.280085
-0.525008 -0.613339 0.274244
-0.454018 -0.552650 0.493491
0.539155 -0.477754 0.284963
0.546801 -0.410450 0.288556
0.475701 -0.349667 0.508143
0.469118 -0.417879 0.501268
-0.475701 -0.349667 0.508143
-0.546801 -0.410450 0.288556
-0.539155 -0.477754 0.284963
-0.469118 -0.417879 0.501268
0.514990 -0.405544 0.263050
0.507448 -0.472936 0.259139
0.437410 -0.413062 0.475444
0.444001 -0.344856 0.482296
-0.437410 -0.413062 0.475444
-0.507448 -0.472936 0.259139
-0.514990 -0.405544 0.263050
-0.444001 -0.344856 0.482296
0.500218 -0.540595 0.254262
0.493366 -0.608577 0.248218
0.422309 -0.547831 0.467673
0.430181 -0.480721 0.470566
-0.422309 -0.547831 0.467673
-0.493366 -0.608577 0.248218
-0.500218 -0.540595 0.254262
-0.430181 -0.480721 0.470566
0.510481 -0.473039 0.252936
0.517154 -0.405601 0.258648
0.570587 -0.384489 0.178543
0.563359 -0.452133 0.173667
-0.570587 -0.384489 0.178543
-0.517154 -0.405601 0.258648
-0.510481 -0.473039 0.252936
-0.563359 -0.452133 0.173667
0.495337 -0.608627 0.244208
0.503251 -0.540698 0.248059
0.556131 -0.519777 0.168791
0.548903 -0.587422 0.163914
-0.556131 -0.519777 0.168791
-0.503251 -0.540698 0.248059
-0.495337 -0.608627 0.244208
-0.548903 -0.587422 0.163914
0.534228 -0.545614 0.273846
0.526643 -0.613467 0.269822
0.565499 -0.592239 0.176710
0.572727 -0.524595 0.181586
-0.565499 -0.592239 0.176710
-0.526643 -0.613467 0.269822
-0.534228 -0.545614 0.273846
-0.572727 -0.524595 0.181586
0.548203 -0.410561 0.284763
0.541458 -0.477955 0.278724
0.579955 -0.456950 0.186462
0.587184 -0.389305 0.191338
-0.579955 -0.456950 0.186462
-0.541458 -0.477955 0.278724
-0.548203 -0.410561 0.284763
-0.587184 -0.389305 0.191338
0.583811 -0.460920 0.180363
-0.583811 -0.460920 0.180363
0.577496 -0.520016 0.176103
-0.577496 -0.520016 0.176103
0.564907 -0.515808 0.166572
-0.564907 -0.515808 0.166572
0.571222 -0.456712 0.170831
-0.571222 -0.456712 0.170831
0.622875 -0.551008 0.099060
-0.622875 -0.551008 0.099060
0.629190 -0.491912 0.103319
-0.629190 -0.491912 0.103319
0.641779 -0.496120 0.112851
-0.641779 -0.496120 0.112851
0.635464 -0.555216 0.108591
-0.635464 -0.555216 0.108591
0.636101 -0.494650 0.113090
0.629665 -0.489814 0.105060
-0.636101 -0.494650 0.113090
-0.629665 -0.489814 0.105060
0.623351 -0.548911 0.100800
0.629786 -0.553747 0.108831
-0.623351 -0.548911 0.100800
-0.629786 -0.553747 0.108831
0.571898 -0.519162 0.175867
-0.571898 -0.519162 0.175867
0.578213 -0.460065 0.180127
-0.578213 -0.460065 0.180127
0.576312 -0.456869 0.171537
-0.576312 -0.456869 0.171537
0.569998 -0.515965 0.167277
-0.569998 -0.515965 0.167277
0.568555 -0.452400 0.174303
-0.568555 -0.452400 0.174303
0.561327 -0.520045 0.169427
-0.561327 -0.520045 0.169427
0.567065 -0.523561 0.181482
-0.567065 -0.523561 0.181482
0.574293 -0.455916 0.186358
-0.574293 -0.455916 0.186358
0.535770 -0.476808 0.278708
-0.535770 -0.476808 0.278708
0.528541 -0.544467 0.273831
-0.528541 -0.544467 0.273831
0.508918 -0.541740 0.248135
-0.508918 -0.541740 0.248135
0.516148 -0.474082 0.253012
-0.516148 -0.474082 0.253012
0.505891 -0.541669 0.254334
0.435838 -0.481632 0.470711
-0.505891 -0.541669 0.254334
-0.435838 -0.481632 0.470711
0.513121 -0.474010 0.259211
0.443067 -0.413972 0.475589
-0.443067 -0.413972 0.475589
-0.513121 -0.474010 0.259211
0.533468 -0.476606 0.284947
0.463465 -0.416974 0.501115
-0.533468 -0.476606 0.284947
-0.463465 -0.416974 0.501115
0.526238 -0.544265 0.280070
0.456235 -0.484633 0.496238
-0.456235 -0.484633 0.496238
-0.526238 -0.544265 0.280070
0.458379 -0.415503 0.509370
0.261854 -0.399389 0.722238
-0.458379 -0.415503 0.509370
-0.261854 -0.399389 0.722238
0.451181 -0.483153 0.504496
0.259199 -0.466799 0.714349
-0.259199 -0.466799 0.714349
-0.451181 -0.483153 0.504496
0.430932 -0.480105 0.478980
0.258494 -0.462899 0.676004
-0.430932 -0.480105 0.478980
-0.258494 -0.462899 0.676004
0.438126 -0.412456 0.483855
0.261150 -0.395488 0.683893
-0.261150 -0.395488 0.683893
-0.438126 -0.412456 0.483855
0.221449 -0.460249 0.701315
-0.221449 -0.460249 0.701315
0.224104 -0.392839 0.709203
-0.224104 -0.392839 0.709203
0.228176 -0.397209 0.746104
-0.228176 -0.397209 0.746104
0.225521 -0.464619 0.738214
-0.225521 -0.464619 0.738214
0.103323 -0.397491 0.754870
-0.103323 -0.397491 0.754870
0.103323 -0.464879 0.746597
-0.103323 -0.464879 0.746597
0.109440 -0.460104 0.708344
-0.109440 -0.460104 0.708344
0.109440 -0.392715 0.716617
-0.109440 -0.392715 0.716617
0.079907 -0.460189 0.717676
-0.079907 -0.460189 0.717676
0.079907 -0.392801 0.725949
-0.079907 -0.392801 0.725949
0.075025 -0.397477 0.764034
-0.075025 -0.397477 0.764034
0.075025 -0.464866 0.755761
-0.075025 -0.464866 0.755761
0.000000 -0.397459 0.763892
0.000000 -0.464847 0.755619
0.000000 -0.460206 0.717819
0.000000 -0.392817 0.726092
0.652623 -0.261810 0.218040
0.676701 -0.263352 0.138010
0.614171 -0.566836 0.096514
0.597236 -0.527118 0.167855
-0.614171 -0.566836 0.096514
-0.676701 -0.263352 0.138010
-0.652623 -0.261810 0.218040
-0.597236 -0.527118 0.167855
0.724248 -0.264784 0.102930
0.660197 -0.588760 0.066607
-0.660197 -0.588760 0.066607
-0.724248 -0.264784 0.102930
0.754989 -0.265782 0.074749
0.687446 -0.599488 0.053193
-0.687446 -0.599488 0.053193
-0.754989 -0.265782 0.074749
0.774817 -0.266009 0.088364
0.709903 -0.601597 0.054973
-0.709903 -0.601597 0.054973
-0.774817 -0.266009 0.088364
0.776448 -0.336339 0.021137
0.786363 -0.336694 0.020591
0.773357 -0.527961 0.008979
0.756472 -0.537710 0.007266
-0.773357 -0.527961 0.008979
-0.786363 -0.336694 0.020591
-0.776448 -0.336339 0.021137
-0.756472 -0.537710 0.007266
0.775642 -0.385168 0.119296
0.750834 -0.387799 0.153065
0.732053 -0.523422 0.144756
0.752653 -0.536066 0.120328
-0.732053 -0.523422 0.144756
-0.750834 -0.387799 0.153065
-0.775642 -0.385168 0.119296
-0.752653 -0.536066 0.120328
0.712626 -0.317223 0.209736
0.669619 -0.316281 0.214481
0.639793 -0.458067 0.186074
0.680474 -0.465431 0.182542
-0.639793 -0.458067 0.186074
-0.669619 -0.316281 0.214481
-0.712626 -0.317223 0.209736
-0.680474 -0.465431 0.182542
0.796035 -0.265900 0.129755
0.811361 -0.271813 0.081056
0.775324 -0.269134 0.051772
-0.811361 -0.271813 0.081056
-0.796035 -0.265900 0.129755
-0.775324 -0.269134 0.051772
0.777753 -0.542677 0.091639
0.787409 -0.397660 0.091241
-0.777753 -0.542677 0.091639
-0.787409 -0.397660 0.091241
0.701908 -0.542597 0.085545
0.690717 -0.546298 0.072764
0.712052 -0.552180 0.060650
0.721624 -0.544708 0.065555
-0.712052 -0.552180 0.060650
-0.690717 -0.546298 0.072764
-0.701908 -0.542597 0.085545
-0.721624 -0.544708 0.065555
0.740648 -0.603550 0.021451
-0.740648 -0.603550 0.021451
0.796156 -0.275055 0.015424
0.779816 -0.271695 0.021464
-0.796156 -0.275055 0.015424
-0.779816 -0.271695 0.021464
0.797451 -0.333067 0.064041
0.775985 -0.526215 0.044025
-0.775985 -0.526215 0.044025
-0.797451 -0.333067 0.064041
0.761444 -0.607839 0.033187
0.754431 -0.610624 0.027901
0.753818 -0.600856 0.011692
0.766856 -0.598362 0.012925
-0.753818 -0.600856 0.011692
-0.754431 -0.610624 0.027901
-0.761444 -0.607839 0.033187
-0.766856 -0.598362 0.012925
0.746960 -0.602897 -0.001351
-0.746960 -0.602897 -0.001351
0.752750 -0.264001 0.206992
0.662911 -0.267275 0.233530
0.741344 -0.268992 0.224875
-0.662911 -0.267275 0.233530
-0.752750 -0.264001 0.206992
-0.741344 -0.268992 0.224875
0.619525 -0.475100 0.194218
-0.619525 -0.475100 0.194218
0.621536 -0.514419 0.164767
0.673468 -0.523820 0.160259
-0.673468 -0.523820 0.160259
-0.621536 -0.514419 0.164767
0.691946 -0.544262 0.159633
0.693714 -0.488529 0.187778
-0.691946 -0.544262 0.159633
-0.693714 -0.488529 0.187778
0.618288 -0.628041 0.095224
0.605304 -0.597591 0.149919
-0.618288 -0.628041 0.095224
-0.605304 -0.597591 0.149919
0.653574 -0.644849 0.072296
-0.653574 -0.644849 0.072296
0.674466 -0.653074 0.062011
-0.674466 -0.653074 0.062011
0.691682 -0.654691 0.063376
-0.691682 -0.654691 0.063376
0.715569 -0.593526 0.137712
0.737940 -0.608600 0.113920
-0.715569 -0.593526 0.137712
-0.737940 -0.608600 0.113920
0.677915 -0.610734 0.143615
-0.677915 -0.610734 0.143615
0.715253 -0.656188 0.037676
-0.715253 -0.656188 0.037676
0.749913 -0.626748 0.041181
0.744537 -0.628883 0.037129
-0.749913 -0.626748 0.041181
-0.744537 -0.628883 0.037129
0.757402 -0.612479 0.091731
-0.757402 -0.612479 0.091731
0.625394 -0.629578 0.099226
0.615200 -0.605725 0.142065
-0.625394 -0.629578 0.099226
-0.615200 -0.605725 0.142065
0.653612 -0.642755 0.081395
-0.653612 -0.642755 0.081395
0.670332 -0.649204 0.073419
-0.670332 -0.649204 0.073419
0.690499 -0.653144 0.069295
-0.690499 -0.653144 0.069295
0.678987 -0.611969 0.139230
-0.678987 -0.611969 0.139230
0.753259 -0.296973 0.194419
0.791349 -0.299667 0.127114
-0.753259 -0.296973 0.194419
-0.791349 -0.299667 0.127114
0.699961 -0.536727 0.156193
-0.699961 -0.536727 0.156193
0.776055 -0.589490 0.048136
0.807145 -0.305904 0.082531
0.774432 -0.575406 0.056457
-0.807145 -0.305904 0.082531
-0.776055 -0.589490 0.048136
-0.774432 -0.575406 0.056457
0.715659 -0.656895 0.043951
-0.715659 -0.656895 0.043951
0.742399 -0.645409 0.058134
0.740598 -0.643765 0.061440
-0.740598 -0.643765 0.061440
-0.742399 -0.645409 0.058134
0.631079 -0.621139 0.096015
0.622445 -0.601010 0.132212
-0.631079 -0.621139 0.096015
-0.622445 -0.601010 0.132212
0.655428 -0.632266 0.081060
-0.655428 -0.632266 0.081060
0.669867 -0.637714 0.074389
-0.669867 -0.637714 0.074389
0.689507 -0.642400 0.068656
-0.689507 -0.642400 0.068656
0.676828 -0.606121 0.130496
-0.676828 -0.606121 0.130496
0.744940 -0.315322 0.180445
0.779858 -0.318366 0.119132
-0.744940 -0.315322 0.180445
-0.779858 -0.318366 0.119132
0.696293 -0.530611 0.147321
-0.696293 -0.530611 0.147321
0.795506 -0.324740 0.077270
0.765134 -0.565529 0.054755
-0.795506 -0.324740 0.077270
-0.765134 -0.565529 0.054755
0.713373 -0.646868 0.044991
-0.713373 -0.646868 0.044991
0.734590 -0.635723 0.058599
-0.734590 -0.635723 0.058599
0.668112 -0.299432 0.226509
0.723015 -0.300634 0.220451
-0.668112 -0.299432 0.226509
-0.723015 -0.300634 0.220451
0.633232 -0.465338 0.193934
-0.633232 -0.465338 0.193934
0.685165 -0.474738 0.189425
-0.685165 -0.474738 0.189425
0.679418 -0.534179 0.164666
0.613121 -0.522178 0.170422
-0.679418 -0.534179 0.164666
-0.613121 -0.522178 0.170422
0.793570 -0.274166 -0.060302
0.804735 -0.276462 -0.064429
0.802394 -0.307368 -0.064619
0.792347 -0.306133 -0.064190
-0.802394 -0.307368 -0.064619
-0.804735 -0.276462 -0.064429
-0.793570 -0.274166 -0.060302
-0.792347 -0.306133 -0.064190
0.763733 -0.575322 -0.112633
0.749584 -0.585154 -0.109525
0.753198 -0.555694 -0.109604
0.765732 -0.547676 -0.109036
-0.753198 -0.555694 -0.109604
-0.749584 -0.585154 -0.109525
-0.763733 -0.575322 -0.112633
-0.765732 -0.547676 -0.109036
0.778123 -0.311033 0.016165
0.753153 -0.562746 -0.001174
-0.778123 -0.311033 0.016165
-0.753153 -0.562746 -0.001174
0.780976 -0.551084 0.044619
0.807809 -0.309649 0.069638
-0.780976 -0.551084 0.044619
-0.807809 -0.309649 0.069638
0.774432 -0.581302 0.035978
0.771823 -0.580334 -0.006543
0.773888 -0.559179 -0.003669
0.777195 -0.559741 0.034004
-0.773888 -0.559179 -0.003669
-0.771823 -0.580334 -0.006543
-0.774432 -0.581302 0.035978
-0.777195 -0.559741 0.034004
0.792827 -0.312840 0.015538
-0.792827 -0.312840 0.015538
0.800523 -0.328814 -0.064303
0.791947 -0.328285 -0.065575
-0.800523 -0.328814 -0.064303
-0.791947 -0.328285 -0.065575
0.755754 -0.537077 -0.108428
0.766668 -0.530176 -0.106170
-0.755754 -0.537077 -0.108428
-0.766668 -0.530176 -0.106170
0.777637 -0.336007 0.014531
0.757661 -0.537378 0.000659
-0.777637 -0.336007 0.014531
-0.757661 -0.537378 0.000659
0.782443 -0.526721 0.042235
0.803909 -0.333574 0.062251
-0.782443 -0.526721 0.042235
-0.803909 -0.333574 0.062251
0.775382 -0.551902 0.000755
0.777181 -0.528048 0.004781
-0.777181 -0.528048 0.004781
-0.775382 -0.551902 0.000755
0.790187 -0.336781 0.016393
-0.790187 -0.336781 0.016393
0.753695 -0.606532 0.009497
0.752885 -0.613269 0.023737
-0.753695 -0.606532 0.009497
-0.752885 -0.613269 0.023737
0.754306 -0.594432 -0.008463
0.767089 -0.587554 -0.010019
-0.767089 -0.587554 -0.010019
-0.754306 -0.594432 -0.008463
0.771702 -0.589585 -0.004364
0.766458 -0.607880 0.033967
0.771317 -0.601572 0.010173
-0.766458 -0.607880 0.033967
-0.771702 -0.589585 -0.004364
-0.771317 -0.601572 0.010173
0.769309 -0.597114 0.047648
0.742311 -0.640109 0.054437
0.747603 -0.633319 0.043231
0.762592 -0.609986 0.037730
-0.747603 -0.633319 0.043231
-0.742311 -0.640109 0.054437
-0.769309 -0.597114 0.047648
-0.762592 -0.609986 0.037730
0.720362 -0.649627 0.038577
0.737372 -0.638185 0.036203
-0.737372 -0.638185 0.036203
-0.720362 -0.649627 0.038577
0.738631 -0.610901 0.025891
0.747197 -0.617704 0.027491
-0.747197 -0.617704 0.027491
-0.738631 -0.610901 0.025891
0.751223 -0.582442 -0.094183
0.757236 -0.577259 -0.090009
-0.751223 -0.582442 -0.094183
-0.757236 -0.577259 -0.090009
0.761853 -0.571305 -0.091997
0.762976 -0.555785 -0.089977
-0.761853 -0.571305 -0.091997
-0.762976 -0.555785 -0.089977
0.773936 -0.583832 -0.005844
0.777164 -0.584502 0.040716
-0.773936 -0.583832 -0.005844
-0.777164 -0.584502 0.040716
0.780690 -0.556978 0.038195
0.776573 -0.556825 -0.002175
-0.780690 -0.556978 0.038195
-0.776573 -0.556825 -0.002175
0.764673 -0.572871 -0.099881
-0.764673 -0.572871 -0.099881
0.766106 -0.553058 -0.097303
-0.766106 -0.553058 -0.097303
0.755735 -0.604460 0.010260
0.756832 -0.613706 0.026198
-0.755735 -0.604460 0.010260
-0.756832 -0.613706 0.026198
0.763845 -0.610921 0.031483
0.768773 -0.601966 0.011494
-0.763845 -0.610921 0.031483
-0.768773 -0.601966 0.011494
0.749959 -0.635710 0.042127
0.752612 -0.629304 0.038946
-0.752612 -0.629304 0.038946
-0.749959 -0.635710 0.042127
0.739553 -0.639842 0.034284
0.747236 -0.631439 0.034894
-0.747236 -0.631439 0.034894
-0.739553 -0.639842 0.034284
0.769020 -0.591221 -0.011151
-0.769020 -0.591221 -0.011151
0.756237 -0.598099 -0.009594
-0.756237 -0.598099 -0.009594
0.753354 -0.586175 -0.094757
-0.753354 -0.586175 -0.094757
0.759367 -0.580993 -0.090583
-0.759367 -0.580993 -0.090583
0.792735 -0.280299 0.013974
0.781570 -0.278003 0.018101
-0.792735 -0.280299 0.013974
-0.781570 -0.278003 0.018101
0.790394 -0.311204 0.013784
-0.790394 -0.311204 0.013784
0.780347 -0.309969 0.014213
-0.780347 -0.309969 0.014213
0.788524 -0.332650 0.014100
-0.788524 -0.332650 0.014100
0.779948 -0.332121 0.012828
-0.779948 -0.332121 0.012828
0.784966 -0.278852 0.009118
0.792184 -0.281034 0.006088
0.798711 -0.278947 -0.048121
0.791493 -0.276766 -0.045091
-0.798711 -0.278947 -0.048121
-0.792184 -0.281034 0.006088
-0.784966 -0.278852 0.009118
-0.791493 -0.276766 -0.045091
0.788755 -0.309978 0.004716
0.795282 -0.307891 -0.049493
-0.795282 -0.307891 -0.049493
-0.788755 -0.309978 0.004716
0.785719 -0.309209 0.006861
0.792247 -0.307123 -0.047347
-0.785719 -0.309209 0.006861
-0.792247 -0.307123 -0.047347
0.788778 -0.329746 0.005378
0.795305 -0.327659 -0.048831
-0.795305 -0.327659 -0.048831
-0.788778 -0.329746 0.005378
0.783706 -0.329427 0.004976
0.790233 -0.327341 -0.049233
-0.790233 -0.327341 -0.049233
-0.783706 -0.329427 0.004976
0.793581 -0.279687 0.010258
0.782694 -0.277302 0.013156
-0.793581 -0.279687 0.010258
-0.782694 -0.277302 0.013156
0.790991 -0.274650 -0.048876
0.801878 -0.277035 -0.051773
-0.790991 -0.274650 -0.048876
-0.801878 -0.277035 -0.051773
0.791395 -0.310543 0.009386
-0.791395 -0.310543 0.009386
0.799692 -0.307891 -0.052646
-0.799692 -0.307891 -0.052646
0.781316 -0.309318 0.009953
-0.781316 -0.309318 0.009953
0.789613 -0.306666 -0.052079
-0.789613 -0.306666 -0.052079
0.789547 -0.331982 0.009602
-0.789547 -0.331982 0.009602
0.797844 -0.329330 -0.052429
-0.797844 -0.329330 -0.052429
0.780959 -0.331456 0.008383
-0.780959 -0.331456 0.008383
0.789256 -0.328804 -0.053649
-0.789256 -0.328804 -0.053649
0.636992 -0.621913 0.097464
0.629940 -0.605475 0.127025
-0.636992 -0.621913 0.097464
-0.629940 -0.605475 0.127025
0.656877 -0.631001 0.085251
-0.656877 -0.631001 0.085251
0.668669 -0.635450 0.079803
-0.668669 -0.635450 0.079803
0.689124 -0.641058 0.071585
-0.689124 -0.641058 0.071585
0.706009 -0.635005 0.087672
0.678194 -0.606685 0.127609
0.675967 -0.609867 0.123227
0.702894 -0.634701 0.087144
-0.675967 -0.609867 0.123227
-0.678194 -0.606685 0.127609
-0.706009 -0.635005 0.087672
-0.702894 -0.634701 0.087144
0.674354 -0.609649 0.125623
-0.674354 -0.609649 0.125623
0.713029 -0.646489 0.048724
-0.713029 -0.646489 0.048724
0.730358 -0.637388 0.059838
-0.730358 -0.637388 0.059838
0.732782 -0.634629 0.059841
0.728975 -0.636146 0.060959
-0.732782 -0.634629 0.059841
-0.728975 -0.636146 0.060959
0.634152 -0.609062 0.124971
0.639509 -0.622912 0.100667
0.643503 -0.619778 0.101292
0.639117 -0.608189 0.121531
-0.643503 -0.619778 0.101292
-0.639509 -0.622912 0.100667
-0.634152 -0.609062 0.124971
-0.639117 -0.608189 0.121531
0.657363 -0.631645 0.088592
0.658624 -0.627261 0.090897
-0.658624 -0.627261 0.090897
-0.657363 -0.631645 0.088592
0.669937 -0.636199 0.082730
0.669576 -0.631203 0.085784
-0.669576 -0.631203 0.085784
-0.669937 -0.636199 0.082730
0.690631 -0.641433 0.073566
0.690466 -0.636881 0.075323
-0.690466 -0.636881 0.075323
-0.690631 -0.641433 0.073566
0.700201 -0.636006 0.086494
0.671922 -0.613145 0.122010
0.670780 -0.611698 0.118763
0.698152 -0.632077 0.086099
-0.670780 -0.611698 0.118763
-0.671922 -0.613145 0.122010
-0.700201 -0.636006 0.086494
-0.698152 -0.632077 0.086099
0.713015 -0.646277 0.053566
0.712571 -0.642193 0.056040
-0.712571 -0.642193 0.056040
-0.713015 -0.646277 0.053566
0.725794 -0.638842 0.061288
0.722968 -0.636009 0.062234
-0.722968 -0.636009 0.062234
-0.725794 -0.638842 0.061288
0.644132 -0.529044 0.097134
0.638373 -0.515619 0.121276
0.636560 -0.604310 0.122439
0.642318 -0.617734 0.098298
-0.636560 -0.604310 0.122439
-0.638373 -0.515619 0.121276
-0.644132 -0.529044 0.097134
-0.642318 -0.617734 0.098298
0.658558 -0.625156 0.088324
0.660371 -0.536465 0.087160
-0.660371 -0.536465 0.087160
-0.658558 -0.625156 0.088324
0.668188 -0.628790 0.083875
0.670001 -0.540099 0.082711
-0.670001 -0.540099 0.082711
-0.668188 -0.628790 0.083875
0.688904 -0.634989 0.073928
-0.688904 -0.634989 0.073928
0.700095 -0.631288 0.086708
0.672830 -0.607718 0.121295
0.674643 -0.519028 0.120131
-0.674643 -0.519028 0.120131
-0.672830 -0.607718 0.121295
-0.700095 -0.631288 0.086708
0.712438 -0.641044 0.052022
-0.712438 -0.641044 0.052022
0.726589 -0.633611 0.061098
-0.726589 -0.633611 0.061098
0.779921 -0.329385 0.121448
0.751832 -0.326196 0.169401
-0.751832 -0.326196 0.169401
-0.779921 -0.329385 0.121448
0.723436 -0.526990 0.147080
0.745276 -0.380410 0.157519
-0.723436 -0.526990 0.147080
-0.745276 -0.380410 0.157519
0.787213 -0.390564 0.084739
0.777684 -0.550772 0.081990
-0.787213 -0.390564 0.084739
-0.777684 -0.550772 0.081990
0.794975 -0.334688 0.086111
-0.794975 -0.334688 0.086111
0.703808 -0.601795 0.137020
-0.703808 -0.601795 0.137020
0.691241 -0.532428 0.120926
0.712671 -0.551806 0.091364
0.730660 -0.543070 0.105296
0.709515 -0.528030 0.126316
-0.730660 -0.543070 0.105296
-0.712671 -0.551806 0.091364
-0.691241 -0.532428 0.120926
-0.709515 -0.528030 0.126316
0.733469 -0.553770 0.069159
0.745730 -0.545744 0.084273
-0.745730 -0.545744 0.084273
-0.733469 -0.553770 0.069159
0.751880 -0.625549 0.081043
-0.751880 -0.625549 0.081043
0.746130 -0.383422 0.159494
0.724638 -0.525165 0.149084
0.732249 -0.522013 0.147031
0.751040 -0.389949 0.155561
-0.732249 -0.522013 0.147031
-0.724638 -0.525165 0.149084
-0.746130 -0.383422 0.159494
-0.751040 -0.389949 0.155561
0.779460 -0.548504 0.082622
0.789424 -0.393773 0.084721
0.789598 -0.400041 0.090464
0.779521 -0.541353 0.091145
-0.789598 -0.400041 0.090464
-0.789424 -0.393773 0.084721
-0.779460 -0.548504 0.082622
-0.779521 -0.541353 0.091145
0.705709 -0.600326 0.138959
0.716098 -0.593022 0.139570
-0.716098 -0.593022 0.139570
-0.705709 -0.600326 0.138959
0.736310 -0.531866 0.110301
0.719470 -0.521478 0.128518
-0.736310 -0.531866 0.110301
-0.719470 -0.521478 0.128518
0.751559 -0.536135 0.092961
-0.751559 -0.536135 0.092961
0.754206 -0.623906 0.082516
0.759083 -0.612361 0.091957
-0.754206 -0.623906 0.082516
-0.759083 -0.612361 0.091957
0.746651 -0.320022 0.180465
0.752738 -0.329628 0.170710
-0.746651 -0.320022 0.180465
-0.752738 -0.329628 0.170710
0.797253 -0.329280 0.077849
0.796785 -0.338067 0.085659
-0.796785 -0.338067 0.085659
-0.797253 -0.329280 0.077849
0.706288 -0.636850 0.087818
0.709550 -0.632761 0.091355
0.685236 -0.609751 0.125399
-0.709550 -0.632761 0.091355
-0.706288 -0.636850 0.087818
-0.685236 -0.609751 0.125399
0.706564 -0.605135 0.131297
-0.706564 -0.605135 0.131297
0.733074 -0.634003 0.066508
-0.733074 -0.634003 0.066508
0.747151 -0.625024 0.084160
-0.747151 -0.625024 0.084160
0.717493 -0.597825 0.133211
0.736333 -0.609770 0.112947
-0.717493 -0.597825 0.133211
-0.736333 -0.609770 0.112947
0.708108 -0.606300 0.132653
0.717761 -0.599843 0.134343
-0.708108 -0.606300 0.132653
-0.717761 -0.599843 0.134343
0.753348 -0.616223 0.094683
0.748017 -0.625903 0.086186
-0.753348 -0.616223 0.094683
-0.748017 -0.625903 0.086186
0.753186 -0.614066 0.093778
-0.753186 -0.614066 0.093778
0.711084 -0.629432 0.092383
0.689654 -0.610053 0.121944
-0.711084 -0.629432 0.092383
-0.689654 -0.610053 0.121944
0.707928 -0.605656 0.127335
-0.707928 -0.605656 0.127335
0.731882 -0.631396 0.070178
-0.731882 -0.631396 0.070178
0.744144 -0.623370 0.085292
-0.744144 -0.623370 0.085292
0.717883 -0.599103 0.129537
0.734723 -0.609491 0.111320
-0.717883 -0.599103 0.129537
-0.734723 -0.609491 0.111320
0.709306 -0.603946 0.126976
0.718099 -0.598157 0.128921
-0.709306 -0.603946 0.126976
-0.718099 -0.598157 0.128921
0.748892 -0.612854 0.094874
0.743743 -0.621343 0.087200
-0.748892 -0.612854 0.094874
-0.743743 -0.621343 0.087200
0.749972 -0.613761 0.093979
-0.749972 -0.613761 0.093979
0.710530 -0.532262 0.124383
0.719323 -0.526473 0.126329
-0.710530 -0.532262 0.124383
-0.719323 -0.526473 0.126329
0.749269 -0.541210 0.093746
0.744120 -0.549699 0.086072
-0.749269 -0.541210 0.093746
-0.744120 -0.549699 0.086072
0.724133 -0.527326 0.149375
0.746498 -0.380847 0.159558
-0.724133 -0.527326 0.149375
-0.746498 -0.380847 0.159558
0.752055 -0.388236 0.155106
0.732750 -0.523758 0.147052
-0.752055 -0.388236 0.155106
-0.732750 -0.523758 0.147052
0.704470 -0.602784 0.139011
-0.704470 -0.602784 0.139011
0.716231 -0.594515 0.139703
-0.716231 -0.594515 0.139703
0.746402 -0.315907 0.182310
-0.746402 -0.315907 0.182310
0.753293 -0.326782 0.171266
-0.753293 -0.326782 0.171266
0.707610 -0.606934 0.132473
-0.707610 -0.606934 0.132473
0.718539 -0.599624 0.134387
-0.718539 -0.599624 0.134387
0.708797 -0.606678 0.126518
-0.708797 -0.606678 0.126518
0.718751 -0.600125 0.128720
-0.718751 -0.600125 0.128720
0.710069 -0.528073 0.123939
-0.710069 -0.528073 0.123939
0.720024 -0.521520 0.126141
-0.720024 -0.521520 0.126141
0.789631 -0.390803 0.084569
0.780063 -0.551220 0.082042
-0.789631 -0.390803 0.084569
-0.780063 -0.551220 0.082042
0.780132 -0.543125 0.091691
0.789827 -0.397899 0.091071
-0.780132 -0.543125 0.091691
-0.789827 -0.397899 0.091071
0.753553 -0.626768 0.081823
-0.753553 -0.626768 0.081823
0.759075 -0.613699 0.092511
-0.759075 -0.613699 0.092511
0.797904 -0.325066 0.076961
-0.797904 -0.325066 0.076961
0.797374 -0.335014 0.085802
-0.797374 -0.335014 0.085802
0.753646 -0.615708 0.095416
-0.753646 -0.615708 0.095416
0.747611 -0.626666 0.085798
-0.747611 -0.626666 0.085798
0.748893 -0.614525 0.095562
-0.748893 -0.614525 0.095562
0.743064 -0.624134 0.086874
-0.743064 -0.624134 0.086874
0.749503 -0.536076 0.094275
-0.749503 -0.536076 0.094275
0.743674 -0.545685 0.085587
-0.743674 -0.545685 0.085587
0.724133 -0.527326 0.149375
0.746498 -0.380847 0.159558
-0.724133 -0.527326 0.149375
-0.746498 -0.380847 0.159558
0.752055 -0.388236 0.155106
0.732750 -0.523758 0.147052
-0.752055 -0.388236 0.155106
-0.732750 -0.523758 0.147052
0.704470 -0.602784 0.139011
-0.704470 -0.602784 0.139011
0.716231 -0.594515 0.139703
-0.716231 -0.594515 0.139703
0.746402 -0.315907 0.182310
-0.746402 -0.315907 0.182310
0.753293 -0.326782 0.171266
-0.753293 -0.326782 0.171266
0.707610 -0.606934 0.132473
-0.707610 -0.606934 0.132473
0.718539 -0.599624 0.134387
-0.718539 -0.599624 0.134387
0.708797 -0.606678 0.126518
-0.708797 -0.606678 0.126518
0.718751 -0.600125 0.128720
-0.718751 -0.600125 0.128720
0.710069 -0.528073 0.123939
-0.710069 -0.528073 0.123939
0.720024 -0.521520 0.126141
-0.720024 -0.521520 0.126141
0.789631 -0.390803 0.084569
0.780063 -0.551220 0.082042
-0.789631 -0.390803 0.084569
-0.780063 -0.551220 0.082042
0.780132 -0.543125 0.091691
0.789827 -0.397899 0.091071
-0.780132 -0.543125 0.091691
-0.789827 -0.397899 0.091071
0.753553 -0.626768 0.081823
-0.753553 -0.626768 0.081823
0.759075 -0.613699 0.092511
-0.759075 -0.613699 0.092511
0.797904 -0.325066 0.076961
-0.797904 -0.325066 0.076961
0.797374 -0.335014 0.085802
-0.797374 -0.335014 0.085802
0.753646 -0.615708 0.095416
-0.753646 -0.615708 0.095416
0.747611 -0.626666 0.085798
-0.747611 -0.626666 0.085798
0.748893 -0.614525 0.095562
-0.748893 -0.614525 0.095562
0.743064 -0.624134 0.086874
-0.743064 -0.624134 0.086874
0.749503 -0.536076 0.094275
-0.749503 -0.536076 0.094275
0.743674 -0.545685 0.085587
-0.743674 -0.545685 0.085587
0.724931 -0.525309 0.150050
0.746648 -0.383604 0.160352
-0.724931 -0.525309 0.150050
-0.746648 -0.383604 0.160352
0.751557 -0.390131 0.156418
0.732542 -0.522157 0.147998
-0.751557 -0.390131 0.156418
-0.732542 -0.522157 0.147998
0.705962 -0.600712 0.139838
-0.705962 -0.600712 0.139838
0.716351 -0.593408 0.140450
-0.716351 -0.593408 0.140450
0.747272 -0.320262 0.181248
-0.747272 -0.320262 0.181248
0.753360 -0.329868 0.171492
-0.753360 -0.329868 0.171492
0.708566 -0.607012 0.132919
-0.708566 -0.607012 0.132919
0.718220 -0.600555 0.134610
-0.718220 -0.600555 0.134610
0.709723 -0.604375 0.126365
-0.709723 -0.604375 0.126365
0.718517 -0.598587 0.128310
-0.718517 -0.598587 0.128310
0.710779 -0.532306 0.123387
-0.710779 -0.532306 0.123387
0.719573 -0.526518 0.125332
-0.719573 -0.526518 0.125332
0.790443 -0.393873 0.084653
0.780463 -0.548692 0.082641
-0.790443 -0.393873 0.084653
-0.780463 -0.548692 0.082641
0.780524 -0.541541 0.091163
0.790616 -0.400141 0.090396
-0.780524 -0.541541 0.091163
-0.790616 -0.400141 0.090396
0.754986 -0.624406 0.082785
-0.754986 -0.624406 0.082785
0.759864 -0.612861 0.092226
-0.759864 -0.612861 0.092226
0.798265 -0.329411 0.077725
-0.798265 -0.329411 0.077725
0.797796 -0.338199 0.085535
-0.797796 -0.338199 0.085535
0.753467 -0.616833 0.095334
-0.753467 -0.616833 0.095334
0.748136 -0.626512 0.086837
-0.748136 -0.626512 0.086837
0.748290 -0.613112 0.095563
-0.748290 -0.613112 0.095563
0.743141 -0.621600 0.087889
-0.743141 -0.621600 0.087889
0.748410 -0.541200 0.094310
-0.748410 -0.541200 0.094310
0.743261 -0.549687 0.086636
-0.743261 -0.549687 0.086636
0.743689 -0.641462 0.054285
0.771017 -0.598169 0.047837
-0.743689 -0.641462 0.054285
-0.771017 -0.598169 0.047837
0.764299 -0.611041 0.037918
0.748981 -0.634672 0.043080
-0.764299 -0.611041 0.037918
-0.748981 -0.634672 0.043080
0.720926 -0.650824 0.037395
-0.720926 -0.650824 0.037395
0.737936 -0.639382 0.035021
-0.737936 -0.639382 0.035021
0.738709 -0.611645 0.024019
-0.738709 -0.611645 0.024019
0.747276 -0.618449 0.025619
-0.747276 -0.618449 0.025619
0.702827 -0.636526 0.087235
-0.702827 -0.636526 0.087235
0.731944 1.084780 -0.135231
0.713351 1.075940 -0.235221
-0.731944 1.084780 -0.135231
-0.713351 1.075940 -0.235221
0.833166 -0.007489 -0.134274
0.904111 0.377622 -0.093226
-0.833166 -0.007489 -0.134274
-0.904111 0.377622 -0.093226
0.812379 0.697723 -0.293060
0.882340 0.372151 -0.316008
-0.812379 0.697723 -0.293060
-0.882340 0.372151 -0.316008
0.822949 -0.014878 -0.307962
-0.822949 -0.014878 -0.307962
0.823245 0.711788 -0.091630
-0.823245 0.711788 -0.091630
1.662314 0.953597 -0.336708
1.756285 1.200998 -0.327725
1.758007 1.204824 -0.284449
1.666535 0.959061 -0.272690
-1.758007 1.204824 -0.284449
-1.756285 1.200998 -0.327725
-1.662314 0.953597 -0.336708
-1.666535 0.959061 -0.272690
1.221045 0.245034 -0.310310
1.502971 0.578691 -0.328165
1.506606 0.585443 -0.261240
1.226327 0.249997 -0.240040
-1.506606 0.585443 -0.261240
-1.502971 0.578691 -0.328165
-1.221045 0.245034 -0.310310
-1.226327 0.249997 -0.240040
1.423974 1.094189 -0.303143
1.314431 0.767652 -0.326849
-1.423974 1.094189 -0.303143
-1.314431 0.767652 -0.326849
1.322823 0.778515 -0.180223
1.431861 1.101186 -0.237658
-1.322823 0.778515 -0.180223
-1.431861 1.101186 -0.237658
1.157297 0.455536 -0.328886
1.008917 0.078420 -0.301640
-1.157297 0.455536 -0.328886
-1.008917 0.078420 -0.301640
1.193638 0.449120 -0.188005
-1.193638 0.449120 -0.188005
1.013055 0.085034 -0.223941
-1.013055 0.085034 -0.223941
1.048693 1.078106 -0.270683
1.078964 0.731005 -0.306322
-1.048693 1.078106 -0.270683
-1.078964 0.731005 -0.306322
1.090821 0.743735 -0.141140
1.069223 1.081314 -0.195174
-1.090821 0.743735 -0.141140
-1.069223 1.081314 -0.195174
1.055157 0.419812 -0.324036
0.929720 0.022482 -0.300726
-1.055157 0.419812 -0.324036
-0.929720 0.022482 -0.300726
1.072427 0.410428 -0.150540
-1.072427 0.410428 -0.150540
0.927426 0.029618 -0.198367
-0.927426 0.029618 -0.198367
0.878568 1.076629 -0.249134
0.919221 0.719187 -0.299547
-0.919221 0.719187 -0.299547
-0.878568 1.076629 -0.249134
0.926994 0.732600 -0.121962
0.887354 1.085100 -0.171538
-0.887354 1.085100 -0.171538
-0.926994 0.732600 -0.121962
0.950116 0.391617 -0.319934
0.876132 0.003128 -0.304423
-0.876132 0.003128 -0.304423
-0.950116 0.391617 -0.319934
0.987999 0.390352 -0.126201
-0.987999 0.390352 -0.126201
0.880229 0.010393 -0.165625
-0.880229 0.010393 -0.165625
0.298351 0.630633 0.467504
0.329360 0.427702 0.501735
-0.298351 0.630633 0.467504
-0.329360 0.427702 0.501735
0.261774 0.608707 0.491978
-0.261774 0.608707 0.491978
0.319178 0.104920 0.520527
0.256189 0.110005 0.573212
-0.319178 0.104920 0.520527
-0.256189 0.110005 0.573212
0.271519 0.399708 0.543870
-0.271519 0.399708 0.543870
0.283692 0.400950 0.539826
0.274010 0.586419 0.494951
-0.283692 0.400950 0.539826
-0.274010 0.586419 0.494951
0.276225 0.139598 0.559941
-0.276225 0.139598 0.559941
0.320615 0.418820 0.512930
0.305468 0.137238 0.535482
-0.320615 0.418820 0.512930
-0.305468 0.137238 0.535482
0.294171 0.598504 0.481461
-0.294171 0.598504 0.481461
0.419359 0.395909 0.705741
0.406621 0.395220 0.711563
0.373680 0.246491 0.672555
0.386069 0.245491 0.662193
-0.373680 0.246491 0.672555
-0.406621 0.395220 0.711563
-0.419359 0.395909 0.705741
-0.386069 0.245491 0.662193
0.408321 0.484338 0.684557
0.397056 0.480320 0.690535
-0.397056 0.480320 0.690535
-0.408321 0.484338 0.684557
0.399875 0.512016 0.669362
0.389645 0.507814 0.674995
-0.399875 0.512016 0.669362
-0.389645 0.507814 0.674995
0.313159 0.592457 0.548578
0.322723 0.598190 0.542179
-0.313159 0.592457 0.548578
-0.322723 0.598190 0.542179
0.348965 0.541096 0.584745
0.361374 0.406693 0.587882
-0.361374 0.406693 0.587882
-0.348965 0.541096 0.584745
0.326808 0.148740 0.574242
0.313668 0.149801 0.585234
-0.313668 0.149801 0.585234
-0.326808 0.148740 0.574242
0.325918 0.389533 0.613710
-0.325918 0.389533 0.613710
0.333676 0.531931 0.594975
-0.333676 0.531931 0.594975
0.345743 0.565982 0.604785
-0.345743 0.565982 0.604785
0.355094 0.569334 0.600257
-0.355094 0.569334 0.600257
4 0 1 2 3
4 4 5 6 7
4 1 8 9 2
4 10 11 5 4
4 12 13 14 15
4 16 17 18 19
4 0 14 13 1
4 17 16 6 5
4 20 21 13 12
4 17 22 23 18
4 21 8 1 13
4 5 11 22 17
4 2 9 24 25
4 24 10 4 25
4 3 2 25 26
4 25 4 7 26
4 27 28 29 30
4 29 31 32 30
4 33 34 35 36
4 37 38 33 36
4 39 40 41 42
4 43 44 45 46
4 47 48 49 50
4 51 52 53 54
4 55 56 57 28
4 58 59 60 31
4 61 34 33 62
4 33 38 63 62
4 61 62 64 65
4 64 62 63 66
4 56 67 68 57
4 69 70 59 58
4 49 48 71 72
4 73 52 51 74
4 75 39 42 76
4 46 45 77 78
4 79 80 81 82
4 83 84 85 86
4 87 88 89 47
4 90 91 92 53
4 88 87 93 94
4 93 92 91 94
4 94 36 35 88
4 37 36 94 91
4 95 96 97 98
4 97 99 100 98
4 96 101 102 97
4 102 103 99 97
4 47 89 104 48
4 105 90 53 52
4 48 104 106 71
4 107 105 52 73
4 104 61 65 106
4 66 63 105 107
4 108 79 82 109
4 86 85 110 111
4 112 113 114 115
4 116 117 118 119
4 120 87 47 121
4 53 92 122 123
4 124 125 126 127
4 128 129 130 131
4 132 133 126 125
4 128 134 135 129
4 121 47 50 136
4 54 53 123 137
4 98 138 139 95
4 140 138 98 100
4 141 142 139 138
4 140 143 141 138
4 144 145 146 147
4 146 145 148 149
4 87 120 150 93
4 150 122 92 93
4 49 151 136 50
4 137 152 51 54
4 153 154 151 155
4 152 156 157 158
4 151 49 72 155
4 74 51 152 158
4 80 159 160 81
4 161 162 84 83
4 163 164 160 159
4 161 165 166 162
4 81 160 155 72
4 158 161 83 74
4 167 168 169 170
4 169 168 171 172
4 173 174 175 176
4 177 178 179 180
4 181 173 176 182
4 180 179 183 184
4 79 108 185 186
4 187 110 85 188
4 108 167 170 185
4 172 171 110 187
4 170 169 189 190
4 189 169 172 191
4 192 182 193 194
4 195 184 192 194
4 185 170 190 196
4 191 172 187 197
4 186 185 196 198
4 197 187 188 199
4 182 176 200 193
4 201 180 184 195
4 176 175 202 200
4 203 177 180 201
4 196 190 189 204
4 189 191 197 204
4 198 196 204 205
4 204 197 199 205
4 193 200 206 194
4 206 201 195 194
4 200 202 207 206
4 207 203 201 206
4 208 209 210 211
4 210 209 212 213
4 109 208 211 214
4 213 212 111 215
4 108 109 214 216
4 215 111 110 217
4 164 218 219 160
4 220 221 165 161
4 222 153 155 223
4 158 157 224 225
4 226 75 76 227
4 78 77 228 229
4 67 230 231 68
4 232 233 70 69
4 234 235 236 237
4 238 239 240 241
4 198 234 237 242
4 241 240 199 243
4 186 198 242 244
4 243 199 188 245
4 79 186 244 246
4 245 188 85 247
4 235 124 248 236
4 249 130 239 238
4 80 79 246 250
4 247 85 84 251
4 124 127 252 248
4 253 131 130 249
4 236 244 242 237
4 243 245 238 241
4 248 246 244 236
4 245 247 249 238
4 246 248 252 250
4 253 249 247 251
4 207 202 254 255
4 256 203 207 255
4 198 205 257 258
4 257 205 199 259
4 234 198 258 260
4 259 199 240 261
4 260 258 257 262
4 257 259 261 262
4 64 209 263 264
4 265 209 64 266
4 109 82 267 268
4 269 86 111 270
4 208 109 268 271
4 270 111 212 272
4 209 208 271 263
4 272 212 209 265
4 71 106 273 274
4 275 107 73 276
4 106 65 277 273
4 278 66 107 275
4 81 72 279 280
4 281 74 83 282
4 82 81 280 267
4 282 83 86 269
4 72 71 274 279
4 276 73 74 281
4 65 64 264 277
4 266 64 66 278
4 277 264 283 284
4 285 266 278 286
4 279 274 287 288
4 289 276 281 290
4 267 280 291 292
4 293 282 269 294
4 280 279 288 291
4 290 281 282 293
4 273 277 284 295
4 286 278 275 296
4 274 273 295 287
4 296 275 276 289
4 263 271 297 298
4 299 272 265 300
4 271 268 301 297
4 302 270 272 299
4 268 267 292 301
4 294 269 270 302
4 264 263 298 283
4 300 265 266 285
4 297 284 283 298
4 285 286 299 300
4 287 292 291 288
4 293 294 289 290
4 287 295 301 292
4 302 296 289 294
4 295 284 297 301
4 299 286 296 302
4 30 303 304 27
4 305 303 30 32
4 306 28 27 304
4 32 31 307 305
4 40 133 132 41
4 135 134 44 43
4 308 55 28 306
4 31 60 309 307
4 154 56 55 308
4 60 59 156 309
4 153 67 56 154
4 59 70 157 156
4 75 164 163 39
4 166 165 77 45
4 226 218 164 75
4 165 221 228 77
4 222 230 67 153
4 70 233 224 157
4 42 41 310 311
4 310 43 46 311
4 57 312 29 28
4 29 312 58 31
4 168 167 313 314
4 315 171 168 314
4 108 216 316 317
4 318 217 110 319
4 216 320 321 316
4 322 323 217 318
4 320 324 325 321
4 325 324 323 322
4 167 108 317 313
4 319 110 171 315
4 313 317 316 321
4 318 319 315 322
4 314 313 321 325
4 322 315 314 325
4 216 214 326 327
4 328 215 217 329
4 214 211 330 326
4 331 213 215 328
4 320 216 327 332
4 329 217 323 333
4 211 210 334 330
4 334 210 213 331
4 324 320 332 335
4 333 323 324 335
4 332 327 326 330
4 328 329 333 331
4 336 337 338 339
4 338 340 341 339
4 342 343 344 174
4 345 346 347 178
4 174 344 348 175
4 349 345 178 177
4 175 348 350 202
4 351 349 177 203
4 202 350 352 254
4 353 351 203 256
4 254 352 354 255
4 354 353 256 255
4 337 336 355 356
4 357 341 340 358
4 355 336 359 360
4 361 341 357 362
4 354 352 363 364
4 365 353 354 364
4 352 350 366 363
4 367 351 353 365
4 350 348 368 366
4 369 349 351 367
4 348 344 370 368
4 371 345 349 369
4 343 355 360 372
4 362 357 346 373
4 344 343 372 370
4 373 346 345 371
4 336 339 374 359
4 374 339 341 361
4 310 41 375 376
4 377 43 310 376
4 41 132 378 375
4 379 135 43 377
4 260 262 380 381
4 380 262 261 382
4 234 260 381 383
4 382 261 240 384
4 235 234 383 385
4 384 240 239 386
4 124 235 385 387
4 386 239 130 388
4 125 124 387 389
4 388 130 129 390
4 132 125 389 378
4 390 129 135 379
4 359 375 378 360
4 379 377 361 362
4 363 381 380 364
4 380 382 365 364
4 366 383 381 363
4 382 384 367 365
4 368 385 383 366
4 384 386 369 367
4 370 387 385 368
4 386 388 371 369
4 360 378 389 372
4 390 379 362 373
4 372 389 387 370
4 388 390 373 371
4 375 359 374 376
4 374 361 377 376
4 337 356 391 392
4 393 358 340 394
4 142 141 395 396
4 395 141 143 397
4 356 342 398 391
4 399 347 358 393
4 139 142 396 400
4 397 143 140 401
4 338 337 392 402
4 394 340 338 402
4 68 76 403 404
4 405 78 69 406
4 76 42 407 403
4 408 46 78 405
4 57 68 404 409
4 406 69 58 410
4 312 57 409 411
4 410 58 312 411
4 42 311 412 407
4 412 311 46 408
4 413 414 404 403
4 406 414 413 405
4 407 412 413 403
4 413 412 408 405
4 411 409 404 414
4 406 410 411 414
4 230 222 415 416
4 417 224 233 418
4 218 226 419 420
4 421 228 221 422
4 231 230 416 423
4 418 233 232 424
4 226 227 425 419
4 426 229 228 421
4 227 76 427 425
4 428 78 229 426
4 68 231 423 429
4 424 232 69 430
4 222 223 431 415
4 432 225 224 417
4 219 218 420 433
4 422 221 220 434
4 223 155 435 431
4 436 158 225 432
4 160 219 433 437
4 434 220 161 438
4 155 160 437 435
4 438 161 158 436
4 76 68 429 427
4 430 69 78 428
4 427 429 439 440
4 441 430 428 442
4 435 437 443 444
4 445 438 436 446
4 437 433 447 443
4 448 434 438 445
4 431 435 444 449
4 446 436 432 450
4 433 420 451 447
4 452 422 434 448
4 415 431 449 453
4 450 432 417 454
4 429 423 455 439
4 456 424 430 441
4 425 427 440 457
4 442 428 426 458
4 419 425 457 459
4 458 426 421 460
4 423 416 461 455
4 462 418 424 456
4 420 419 459 451
4 460 421 422 452
4 416 415 453 461
4 454 417 418 462
4 444 443 447 449
4 448 445 446 450
4 440 439 455 457
4 456 441 442 458
4 451 453 449 447
4 450 454 452 448
4 461 459 457 455
4 458 460 462 456
4 461 453 451 459
4 452 454 462 460
4 192 463 464 465
4 466 463 192 467
4 182 192 465 468
4 467 192 184 469
4 181 182 468 470
4 469 184 183 471
4 463 181 470 464
4 471 183 463 466
4 464 470 468 465
4 469 471 466 467
4 39 163 472 473
4 474 166 45 475
4 133 40 476 477
4 478 44 134 479
4 40 39 473 476
4 475 45 44 478
4 252 127 480 481
4 482 131 253 483
4 250 252 481 484
4 483 253 251 485
4 80 250 484 486
4 485 251 84 487
4 163 159 488 472
4 489 162 166 474
4 159 80 486 488
4 487 84 162 489
4 127 126 490 480
4 491 128 131 482
4 126 133 477 490
4 479 134 128 491
4 490 477 492 493
4 494 479 491 495
4 480 490 493 496
4 495 491 482 497
4 488 486 498 499
4 500 487 489 501
4 472 488 499 502
4 501 489 474 503
4 486 484 504 498
4 505 485 487 500
4 484 481 506 504
4 507 483 485 505
4 481 480 496 506
4 497 482 483 507
4 476 473 508 509
4 510 475 478 511
4 477 476 509 492
4 511 478 479 494
4 473 472 502 508
4 503 474 475 510
4 496 493 499 498
4 501 495 497 500
4 492 502 499 493
4 501 503 494 495
4 496 498 504 506
4 505 500 497 507
4 508 502 492 509
4 494 503 510 511
4 402 392 512 513
4 514 394 402 513
4 400 396 515 516
4 517 397 401 518
4 391 398 519 520
4 521 399 393 522
4 396 395 523 515
4 523 395 397 517
4 392 391 520 512
4 522 393 394 514
4 523 524 525 515
4 526 524 523 517
4 355 343 527 528
4 529 346 357 530
4 356 355 528 531
4 530 357 358 532
4 343 342 533 527
4 534 347 346 529
4 342 356 531 533
4 532 358 347 534
4 533 531 535 536
4 537 532 534 538
4 527 533 536 539
4 538 534 529 540
4 531 528 541 535
4 542 530 532 537
4 528 527 539 541
4 540 529 530 542
4 541 539 543 544
4 545 540 542 546
4 535 541 544 547
4 546 542 537 548
4 539 536 549 543
4 550 538 540 545
4 536 535 547 549
4 548 537 538 550
4 547 544 543 549
4 545 546 548 550
4 551 552 102 101
4 102 552 553 103
4 554 555 181 463
4 183 556 554 463
4 557 558 174 173
4 178 559 560 179
4 561 562 96 95
4 99 563 564 100
4 555 557 173 181
4 179 560 556 183
4 562 551 101 96
4 103 553 563 99
4 565 561 95 139
4 100 564 566 140
4 558 567 342 174
4 347 568 559 178
4 567 569 398 342
4 399 570 568 347
4 571 565 139 400
4 140 566 572 401
4 569 573 519 398
4 521 574 570 399
4 575 571 400 516
4 401 572 576 518
4 577 578 513 512
4 513 578 579 514
4 580 581 525 524
4 526 582 580 524
4 583 575 516 515
4 518 576 584 517
4 573 585 520 519
4 522 586 574 521
4 585 577 512 520
4 514 579 586 522
4 581 583 515 525
4 517 584 582 526
4 583 581 587 588
4 589 582 584 590
4 577 585 591 592
4 593 586 579 594
4 585 573 595 591
4 596 574 586 593
4 575 583 588 597
4 590 584 576 598
4 581 580 599 587
4 599 580 582 589
4 578 577 592 600
4 594 579 578 600
4 571 575 597 601
4 598 576 572 602
4 573 569 603 595
4 604 570 574 596
4 565 571 601 605
4 602 572 566 606
4 569 567 607 603
4 608 568 570 604
4 567 558 609 607
4 610 559 568 608
4 561 565 605 611
4 606 566 564 612
4 551 562 613 614
4 615 563 553 616
4 557 555 617 618
4 619 556 560 620
4 562 561 611 613
4 612 564 563 615
4 558 557 618 609
4 620 560 559 610
4 555 554 621 617
4 621 554 556 619
4 552 551 614 622
4 616 553 552 622
4 591 588 587 592
4 589 590 593 594
4 588 591 595 597
4 596 593 590 598
4 592 587 599 600
4 599 589 594 600
4 597 595 603 601
4 604 596 598 602
4 601 603 607 605
4 608 604 602 606
4 605 607 609 611
4 610 608 606 612
4 613 618 617 614
4 619 620 615 616
4 618 613 611 609
4 612 615 620 610
4 621 622 614 617
4 616 622 621 619
4 332 330 623 624
4 625 331 333 626
4 335 332 624 627
4 626 333 335 627
4 330 334 628 623
4 628 334 331 625
4 627 624 623 628
4 625 626 627 628
4 306 304 113 112
4 117 305 307 118
4 144 147 629 630
4 631 149 148 632
4 120 121 115 114
4 119 123 122 116
4 308 306 112 633
4 118 307 309 634
4 121 136 635 115
4 636 137 123 119
4 304 303 637 638
4 637 303 305 639
4 150 120 640 641
4 642 122 150 641
4 120 114 643 640
4 644 116 122 642
4 114 113 645 643
4 646 117 116 644
4 113 304 638 645
4 639 305 117 646
4 638 637 647 648
4 647 637 639 649
4 641 640 650 651
4 652 642 641 651
4 640 643 653 650
4 654 644 642 652
4 643 645 655 653
4 656 646 644 654
4 645 638 648 655
4 649 639 646 656
4 648 647 657 658
4 657 647 649 659
4 651 650 660 661
4 662 652 651 661
4 650 653 663 660
4 664 654 652 662
4 653 655 665 663
4 666 656 654 664
4 655 648 658 665
4 659 649 656 666
4 658 657 667 668
4 667 657 659 669
4 661 660 670 671
4 672 662 661 671
4 660 663 673 670
4 674 664 662 672
4 675 673 663 665
4 664 674 676 666
4 668 675 665 658
4 666 676 669 659
4 668 667 145 144
4 145 667 669 148
4 671 670 147 146
4 149 672 671 146
4 670 673 629 147
4 631 674 672 149
4 673 675 630 629
4 632 676 674 631
4 675 668 144 630
4 148 669 676 632
4 677 678 679 680
4 681 682 683 684
4 685 679 678 686
4 682 681 687 688
4 689 690 691 692
4 693 694 695 696
4 689 692 685 686
4 687 696 695 688
4 690 697 698 691
4 699 700 694 693
4 686 701 702 689
4 703 704 688 695
4 692 705 706 685
4 707 708 696 687
4 689 702 697 690
4 700 703 695 694
4 691 698 705 692
4 708 699 693 696
4 678 709 701 686
4 704 710 682 688
4 685 706 711 679
4 712 707 687 681
4 677 713 709 678
4 710 714 683 682
4 679 711 715 680
4 716 712 681 684
4 713 677 680 715
4 684 683 714 716
4 705 702 701 706
4 704 703 708 707
4 711 706 701 709
4 704 707 712 710
4 709 713 715 711
4 716 714 710 712
4 705 717 718 702
4 719 720 708 703
4 698 721 717 705
4 720 722 699 708
4 702 718 723 697
4 724 719 703 700
4 723 718 717 721
4 720 719 724 722
4 721 725 726 723
4 727 728 722 724
4 723 726 729 697
4 730 727 724 700
4 698 731 725 721
4 728 732 699 722
4 697 729 731 698
4 732 730 700 699
4 729 733 734 731
4 735 736 730 732
4 731 734 737 725
4 738 735 732 728
4 726 739 733 729
4 736 740 727 730
4 725 737 739 726
4 740 738 728 727
4 737 741 742 739
4 742 741 738 740
4 733 743 744 734
4 744 743 736 735
4 744 745 746 734
4 747 745 744 735
4 733 748 749 743
4 749 750 736 743
4 737 751 752 741
4 752 753 738 741
4 742 754 755 739
4 756 754 742 740
4 739 755 748 733
4 750 756 740 736
4 734 746 751 737
4 753 747 735 738
4 746 745 752 751
4 752 745 747 753
4 755 754 749 748
4 749 754 756 750
4 757 758 759 760
4 759 758 761 762
4 763 764 765 766
4 765 764 767 768
4 766 769 770 763
4 771 772 768 767
4 773 757 760 774
4 762 761 775 776
4 774 777 778 773
4 779 780 776 775
4 769 781 782 770
4 783 784 772 771
4 781 785 786 782
4 787 788 784 783
4 777 789 790 778
4 791 792 780 779
4 793 794 790 789
4 791 795 796 792
4 797 798 786 785
4 787 799 800 788
4 801 802 803 804
4 805 806 807 808
4 809 810 811 812
4 813 814 815 816
4 817 818 819 820
4 821 822 823 824
4 825 826 827 828
4 829 830 831 832
4 828 827 833 834
4 835 829 832 836
4 820 819 837 838
4 839 821 824 840
4 841 842 843 844
4 845 846 847 848
4 849 850 851 852
4 853 854 855 856
4 857 858 859 860
4 861 858 857 862
4 863 864 865 866
4 865 867 868 866
4 869 870 871 872
4 871 873 874 872
4 875 876 877 878
4 877 879 880 878
4 881 882 870 869
4 873 883 884 874
4 885 886 876 875
4 879 887 888 880
4 889 890 860 859
4 862 891 892 861
4 893 894 864 863
4 867 895 896 868
4 897 898 890 889
4 891 899 900 892
4 901 902 894 893
4 895 903 904 896
4 905 906 882 881
4 883 907 908 884
4 909 910 886 885
4 887 911 912 888
4 913 914 906 905
4 907 915 916 908
4 917 918 910 909
4 911 919 920 912
4 921 922 898 897
4 899 923 924 900
4 925 926 902 901
4 903 927 928 904
4 929 930 922 921
4 923 931 932 924
4 933 934 926 925
4 927 935 936 928
4 937 938 914 913
4 915 939 940 916
4 941 942 918 917
4 919 943 944 920
4 945 946 947 948
4 949 950 951 952
4 953 954 955 956
4 957 958 959 960
4 961 962 963 964
4 965 966 967 968
4 969 970 971 972
4 973 974 975 976
4 977 978 979 980
4 981 982 983 984
4 985 986 987 988
4 989 990 991 992
4 993 994 995 996
4 997 998 999 1000
4 1001 1002 1003 1004
4 1005 1006 1007 1008
4 1004 1003 1009 850
4 1010 1005 1008 854
4 996 995 841 1011
4 847 997 1000 1012
4 988 987 1013 842
4 1014 989 992 846
4 980 979 849 1015
4 855 981 984 1016
4 842 1013 1017 843
4 1018 1014 846 845
4 1015 849 852 1019
4 856 855 1016 1020
4 850 1009 1021 851
4 1022 1010 854 853
4 1011 841 844 1023
4 848 847 1012 1024
4 843 1017 1023 844
4 1024 1018 845 848
4 1019 852 851 1021
4 853 856 1020 1022
4 1019 1021 1025 1026
4 1027 1022 1020 1028
4 1023 1017 1029 1030
4 1031 1018 1024 1032
4 1011 1023 1030 1033
4 1032 1024 1012 1034
4 1021 1009 1035 1025
4 1036 1010 1022 1027
4 1015 1019 1026 1037
4 1028 1020 1016 1038
4 1017 1013 1039 1029
4 1040 1014 1018 1031
4 980 1015 1037 1041
4 1038 1016 984 1042
4 1013 987 1043 1039
4 1044 989 1014 1040
4 996 1011 1033 1045
4 1034 1012 1000 1046
4 1009 1003 1047 1035
4 1048 1005 1010 1036
4 1002 1049 1047 1003
4 1048 1050 1006 1005
4 1051 993 996 1045
4 1000 999 1052 1046
4 986 1053 1043 987
4 1044 1054 990 989
4 1055 977 980 1041
4 984 983 1056 1042
4 1057 969 972 1058
4 976 975 1059 1060
4 962 1061 1062 963
4 1063 1064 966 965
4 1065 953 956 1066
4 960 959 1067 1068
4 946 1069 1070 947
4 1071 1072 950 949
4 1073 941 917 1074
4 920 944 1075 1076
4 938 1077 1078 914
4 1079 1080 939 915
4 1081 933 925 1082
4 928 936 1083 1084
4 930 1085 1086 922
4 1087 1088 931 923
4 925 901 1089 1082
4 1090 904 928 1084
4 898 922 1086 1091
4 1087 923 899 1092
4 917 909 1093 1074
4 1094 912 920 1076
4 906 914 1078 1095
4 1079 915 907 1096
4 909 885 1097 1093
4 1098 888 912 1094
4 882 906 1095 1099
4 1096 907 883 1100
4 901 893 1101 1089
4 1102 896 904 1090
4 890 898 1091 1103
4 1092 899 891 1104
4 893 863 1105 1101
4 1106 868 896 1102
4 860 890 1103 1107
4 1104 891 862 1108
4 885 875 1109 1097
4 1110 880 888 1098
4 870 882 1099 1111
4 1100 883 873 1112
4 875 878 1113 1109
4 1113 878 880 1110
4 871 870 1111 1114
4 1112 873 871 1114
4 863 866 1115 1105
4 1115 866 868 1106
4 1107 1116 857 860
4 857 1116 1108 862
4 1116 857 866 1115
4 1029 1026 1025 1030
4 1027 1028 1031 1032
4 1035 1033 1030 1025
4 1032 1034 1036 1027
4 1039 1037 1026 1029
4 1028 1038 1040 1031
4 1043 1041 1037 1039
4 1038 1042 1044 1040
4 1047 1045 1033 1035
4 1034 1046 1048 1036
4 1049 1051 1045 1047
4 1046 1052 1050 1048
4 1053 1055 1041 1043
4 1042 1056 1054 1044
4 1061 1057 1058 1062
4 1060 1059 1064 1063
4 1069 1065 1066 1070
4 1068 1067 1072 1071
4 1077 1073 1074 1078
4 1076 1075 1080 1079
4 1085 1081 1082 1086
4 1084 1083 1088 1087
4 1086 1082 1089 1091
4 1090 1084 1087 1092
4 1078 1074 1093 1095
4 1094 1076 1079 1096
4 1095 1093 1097 1099
4 1098 1094 1096 1100
4 1091 1089 1101 1103
4 1102 1090 1092 1104
4 1103 1101 1105 1107
4 1106 1102 1104 1108
4 1099 1097 1109 1111
4 1110 1098 1100 1112
4 1111 1109 1113 1114
4 1113 1110 1112 1114
4 1115 1116 1107 1105
4 1108 1116 1115 1106
4 858 764 763 859
4 767 764 858 861
4 759 865 864 760
4 867 865 759 762
4 765 877 876 766
4 879 877 765 768
4 757 869 872 758
4 872 874 761 758
4 770 889 859 763
4 861 892 771 767
4 886 769 766 876
4 768 772 887 879
4 869 757 773 881
4 775 761 874 884
4 894 774 760 864
4 762 776 895 867
4 902 777 774 894
4 776 780 903 895
4 782 897 889 770
4 892 900 783 771
4 910 781 769 886
4 772 784 911 887
4 778 905 881 773
4 884 908 779 775
4 786 921 897 782
4 900 924 787 783
4 918 785 781 910
4 784 788 919 911
4 790 913 905 778
4 908 916 791 779
4 926 789 777 902
4 780 792 927 903
4 934 793 789 926
4 792 796 935 927
4 798 929 921 786
4 924 932 799 787
4 942 797 785 918
4 788 800 943 919
4 794 937 913 790
4 916 940 795 791
4 802 961 964 803
4 968 967 806 805
4 954 801 804 955
4 808 807 958 957
4 810 945 948 811
4 952 951 814 813
4 970 809 812 971
4 816 815 974 973
4 818 985 988 819
4 992 991 822 821
4 978 825 828 979
4 832 831 982 981
4 826 1001 1004 827
4 1008 1007 830 829
4 994 817 820 995
4 824 823 998 997
4 827 1004 850 833
4 854 1008 829 835
4 979 828 834 849
4 836 832 981 855
4 819 988 842 837
4 846 992 821 839
4 995 820 838 841
4 840 824 997 847
4 838 837 842 841
4 846 839 840 847
4 834 833 850 849
4 854 835 836 855
4 793 812 811 794
4 813 816 796 795
4 797 804 803 798
4 805 808 800 799
4 812 793 934 971
4 935 796 816 973
4 798 803 964 929
4 968 805 799 932
4 804 797 942 955
4 943 800 808 957
4 794 811 948 937
4 952 813 795 940
4 963 930 929 964
4 932 931 965 968
4 933 972 971 934
4 973 976 936 935
4 947 938 937 948
4 940 939 949 952
4 941 956 955 942
4 957 960 944 943
4 1081 1058 972 933
4 976 1060 1083 936
4 1062 1085 930 963
4 931 1088 1063 965
4 1073 1066 956 941
4 960 1068 1075 944
4 1070 1077 938 947
4 939 1080 1071 949
4 1085 1062 1058 1081
4 1060 1063 1088 1083
4 1077 1070 1066 1073
4 1068 1071 1080 1075
4 801 826 825 802
4 831 830 807 806
4 809 818 817 810
4 823 822 815 814
4 978 961 802 825
4 806 967 982 831
4 954 1001 826 801
4 830 1007 958 807
4 994 945 810 817
4 814 951 998 823
4 970 985 818 809
4 822 991 974 815
4 993 946 945 994
4 951 950 999 998
4 953 1002 1001 954
4 1007 1006 959 958
4 977 962 961 978
4 967 966 983 982
4 969 986 985 970
4 991 990 975 974
4 1065 1049 1002 953
4 1006 1050 1067 959
4 1051 1069 946 993
4 950 1072 1052 999
4 1057 1053 986 969
4 990 1054 1059 975
4 1055 1061 962 977
4 966 1064 1056 983
4 1069 1051 1049 1065
4 1050 1052 1072 1067
4 1061 1055 1053 1057
4 1054 1056 1064 1059
4 1117 1118 1119 1120
4 1121 1122 1123 1124
4 1118 1125 1126 1119
4 1127 1128 1122 1121
4 1125 1129 1130 1126
4 1131 1132 1128 1127
4 1129 1133 1134 1130
4 1135 1136 1132 1131
4 1137 1138 1139 1140
4 1141 1142 1143 1144
4 1145 1146 1147 1148
4 1149 1150 1151 1152
4 1153 1154 1155 1156
4 1157 1158 1159 1160
4 1133 1161 1162 1163
4 1164 1165 1136 1166
4 1145 1148 1167 1168
4 1169 1152 1151 1170
4 1171 1172 1173 1174
4 1175 1176 1177 1178
4 1134 1133 1163 1179
4 1166 1136 1135 1180
4 1163 1162 1181 1182
4 1183 1164 1166 1184
4 1185 1186 1139 1138
4 1141 1187 1188 1142
4 1189 1190 1191 1192
4 1193 1194 1195 1196
4 1179 1163 1182 1197
4 1184 1166 1180 1198
4 1199 1117 1200 1201
4 1202 1123 1203 1204
4 1117 1120 1205 1200
4 1206 1124 1123 1202
4 1207 1208 1156 1155
4 1160 1209 1210 1157
4 1211 1199 1201 1212
4 1204 1203 1213 1214
4 1120 1119 1215 1216
4 1217 1121 1124 1218
4 1119 1126 1219 1215
4 1220 1127 1121 1217
4 1126 1130 1221 1219
4 1222 1131 1127 1220
4 1130 1134 1223 1221
4 1224 1135 1131 1222
4 1148 1147 1225 1226
4 1227 1149 1152 1228
4 1211 1120 1216 1229
4 1218 1124 1213 1230
4 1134 1179 1231 1223
4 1232 1180 1135 1224
4 1190 1189 1233 1234
4 1235 1195 1194 1236
4 1167 1148 1226 1237
4 1228 1152 1169 1238
4 1216 1215 1239 1240
4 1241 1217 1218 1242
4 1215 1219 1243 1239
4 1244 1220 1217 1241
4 1219 1221 1245 1243
4 1246 1222 1220 1244
4 1221 1223 1247 1245
4 1248 1224 1222 1246
4 1229 1216 1240 1249
4 1242 1218 1230 1250
4 1161 1199 1251 1252
4 1253 1203 1165 1254
4 1199 1211 1255 1251
4 1256 1213 1203 1253
4 1257 1162 1258 1259
4 1260 1164 1261 1262
4 1162 1161 1252 1258
4 1254 1165 1164 1260
4 1223 1231 1263 1247
4 1264 1232 1224 1248
4 1231 1265 1266 1263
4 1267 1268 1232 1264
4 1211 1229 1249 1255
4 1250 1230 1213 1256
4 1265 1257 1259 1266
4 1262 1261 1268 1267
4 1240 1239 1269 1270
4 1271 1241 1242 1272
4 1239 1243 1273 1269
4 1274 1244 1241 1271
4 1243 1245 1275 1273
4 1276 1246 1244 1274
4 1245 1247 1277 1275
4 1278 1248 1246 1276
4 1249 1240 1270 1279
4 1272 1242 1250 1280
4 1252 1251 1281 1282
4 1283 1253 1254 1284
4 1251 1255 1285 1281
4 1286 1256 1253 1283
4 1259 1258 1287 1288
4 1289 1260 1262 1290
4 1258 1252 1282 1287
4 1284 1254 1260 1289
4 1247 1263 1291 1277
4 1292 1264 1248 1278
4 1263 1266 1293 1291
4 1294 1267 1264 1292
4 1255 1249 1279 1285
4 1280 1250 1256 1286
4 1266 1259 1288 1293
4 1290 1262 1267 1294
4 1201 1200 1295 1296
4 1297 1202 1204 1298
4 1200 1205 1299 1295
4 1300 1206 1202 1297
4 1212 1201 1296 1301
4 1298 1204 1214 1302
4 1120 1211 1303 1304
4 1305 1213 1124 1306
4 1211 1212 1301 1303
4 1302 1214 1213 1305
4 1205 1120 1304 1299
4 1306 1124 1206 1300
4 1296 1295 1154 1153
4 1158 1297 1298 1159
4 1295 1299 1155 1154
4 1157 1300 1297 1158
4 1301 1296 1153 1156
4 1159 1298 1302 1160
4 1304 1303 1208 1207
4 1209 1305 1306 1210
4 1303 1301 1156 1208
4 1160 1302 1305 1209
4 1299 1304 1207 1155
4 1210 1306 1300 1157
4 1307 1308 1309 1310
4 1311 1312 1313 1314
4 1315 1316 1317 1318
4 1319 1320 1321 1322
4 1197 1182 1323 1324
4 1325 1184 1198 1326
4 1162 1257 1327 1328
4 1329 1261 1164 1330
4 1331 1332 1333 1334
4 1335 1336 1337 1338
4 1181 1162 1328 1339
4 1330 1164 1183 1340
4 1310 1309 1341 1342
4 1343 1311 1314 1344
4 1318 1317 1345 1346
4 1347 1319 1322 1348
4 1324 1323 1349 1350
4 1351 1325 1326 1352
4 1328 1327 1353 1354
4 1355 1329 1330 1356
4 1327 1357 1358 1353
4 1359 1360 1329 1355
4 1339 1328 1354 1361
4 1356 1330 1340 1362
4 1349 1361 1138 1137
4 1142 1362 1351 1143
4 1358 1350 1140 1139
4 1144 1352 1359 1141
4 1350 1349 1137 1140
4 1143 1351 1352 1144
4 1354 1353 1186 1185
4 1187 1355 1356 1188
4 1353 1358 1139 1186
4 1141 1359 1355 1187
4 1361 1354 1185 1138
4 1188 1356 1362 1142
4 1179 1197 1363 1364
4 1365 1198 1180 1366
4 1367 1368 1192 1191
4 1196 1369 1370 1193
4 1371 1257 1372 1373
4 1374 1261 1375 1376
4 1377 1378 1379 1380
4 1381 1382 1383 1384
4 1378 1385 1386 1379
4 1387 1388 1382 1381
4 1385 1389 1390 1386
4 1391 1392 1388 1387
4 1368 1367 1393 1394
4 1395 1370 1369 1396
4 1197 1324 1317 1316
4 1319 1326 1198 1320
4 1333 1332 1397 1398
4 1399 1336 1335 1400
4 1324 1350 1345 1317
4 1347 1352 1326 1319
4 1350 1358 1346 1345
4 1348 1359 1352 1347
4 1358 1357 1318 1346
4 1322 1360 1359 1348
4 1257 1371 1401 1402
4 1403 1375 1261 1404
4 1357 1327 1405 1406
4 1407 1329 1360 1408
4 1327 1257 1402 1405
4 1404 1261 1329 1407
4 1371 1315 1409 1401
4 1410 1321 1375 1403
4 1315 1318 1411 1409
4 1412 1322 1321 1410
4 1318 1357 1406 1411
4 1408 1360 1322 1412
4 1402 1401 1332 1331
4 1336 1403 1404 1337
4 1406 1405 1334 1333
4 1338 1407 1408 1335
4 1405 1402 1331 1334
4 1337 1404 1407 1338
4 1401 1409 1397 1332
4 1399 1410 1403 1336
4 1409 1411 1398 1397
4 1400 1412 1410 1399
4 1411 1406 1333 1398
4 1335 1408 1412 1400
4 1364 1363 1413 1414
4 1415 1365 1366 1416
4 1373 1372 1417 1418
4 1419 1374 1376 1420
4 1372 1421 1422 1417
4 1423 1424 1374 1419
4 1421 1425 1426 1422
4 1427 1428 1424 1423
4 1425 1364 1414 1426
4 1416 1366 1428 1427
4 1371 1373 1418 1429
4 1420 1376 1375 1430
4 1363 1197 1431 1413
4 1432 1198 1365 1415
4 1197 1316 1433 1431
4 1434 1320 1198 1432
4 1316 1315 1435 1433
4 1436 1321 1320 1434
4 1315 1371 1429 1435
4 1430 1375 1321 1436
4 1414 1413 1191 1190
4 1193 1415 1416 1194
4 1418 1417 1189 1192
4 1195 1419 1420 1196
4 1417 1422 1233 1189
4 1235 1423 1419 1195
4 1422 1426 1234 1233
4 1236 1427 1423 1235
4 1426 1414 1190 1234
4 1194 1416 1427 1236
4 1429 1418 1192 1368
4 1196 1420 1430 1369
4 1413 1431 1367 1191
4 1370 1432 1415 1193
4 1431 1433 1393 1367
4 1395 1434 1432 1370
4 1433 1435 1394 1393
4 1396 1436 1434 1395
4 1435 1429 1368 1394
4 1369 1430 1436 1396
4 1182 1181 1437 1438
4 1439 1183 1184 1440
4 1181 1339 1441 1437
4 1442 1340 1183 1439
4 1323 1182 1438 1443
4 1440 1184 1325 1444
4 1339 1361 1445 1441
4 1446 1362 1340 1442
4 1361 1349 1447 1445
4 1448 1351 1362 1446
4 1349 1323 1443 1447
4 1444 1325 1351 1448
4 1449 1450 1451 1452
4 1453 1454 1455 1456
4 1450 1457 1458 1451
4 1459 1460 1454 1453
4 1461 1449 1452 1462
4 1456 1455 1463 1464
4 1457 1465 1466 1458
4 1467 1468 1460 1459
4 1465 1469 1470 1466
4 1471 1472 1468 1467
4 1469 1461 1462 1470
4 1464 1463 1472 1471
4 1438 1437 1473 1474
4 1475 1439 1440 1476
4 1308 1307 1477 1478
4 1479 1313 1312 1480
4 1437 1441 1481 1473
4 1482 1442 1439 1475
4 1309 1308 1478 1483
4 1480 1312 1311 1484
4 1443 1438 1474 1485
4 1476 1440 1444 1486
4 1307 1310 1487 1477
4 1488 1314 1313 1479
4 1441 1445 1489 1481
4 1490 1446 1442 1482
4 1341 1309 1483 1491
4 1484 1311 1343 1492
4 1445 1447 1493 1489
4 1494 1448 1446 1490
4 1342 1341 1491 1495
4 1492 1343 1344 1496
4 1447 1443 1485 1493
4 1486 1444 1448 1494
4 1310 1342 1495 1487
4 1496 1344 1314 1488
4 1474 1473 1450 1449
4 1454 1475 1476 1455
4 1478 1477 1452 1451
4 1456 1479 1480 1453
4 1473 1481 1457 1450
4 1460 1482 1475 1454
4 1483 1478 1451 1458
4 1453 1480 1484 1459
4 1485 1474 1449 1461
4 1455 1476 1486 1463
4 1477 1487 1462 1452
4 1464 1488 1479 1456
4 1481 1489 1465 1457
4 1468 1490 1482 1460
4 1491 1483 1458 1466
4 1459 1484 1492 1467
4 1489 1493 1469 1465
4 1472 1494 1490 1468
4 1495 1491 1466 1470
4 1467 1492 1496 1471
4 1493 1485 1461 1469
4 1463 1486 1494 1472
4 1487 1495 1470 1462
4 1471 1496 1488 1464
4 1270 1269 1497 1498
4 1499 1271 1272 1500
4 1269 1273 1501 1497
4 1502 1274 1271 1499
4 1273 1275 1503 1501
4 1504 1276 1274 1502
4 1275 1277 1505 1503
4 1506 1278 1276 1504
4 1507 1508 1509 1510
4 1511 1512 1513 1514
4 1279 1270 1498 1515
4 1500 1272 1280 1516
4 1277 1291 1517 1505
4 1518 1292 1278 1506
4 1291 1293 1519 1517
4 1520 1294 1292 1518
4 1521 1507 1510 1522
4 1514 1513 1523 1524
4 1525 1526 1527 1528
4 1529 1530 1531 1532
4 1526 1533 1534 1527
4 1535 1536 1530 1529
4 1533 1537 1538 1534
4 1539 1540 1536 1535
4 1537 1541 1542 1538
4 1543 1544 1540 1539
4 1545 1546 1547 1548
4 1549 1550 1551 1552
4 1546 1525 1528 1547
4 1532 1531 1550 1549
4 1541 1553 1554 1542
4 1555 1556 1544 1543
4 1553 1557 1558 1554
4 1559 1560 1556 1555
4 1557 1545 1548 1558
4 1552 1551 1560 1559
4 1561 1562 1563 1564
4 1565 1566 1567 1568
4 1564 1569 1570 1561
4 1571 1572 1568 1567
4 1569 1573 1574 1570
4 1575 1576 1572 1571
4 1573 1577 1172 1574
4 1176 1578 1576 1575
4 1579 1580 1581 1171
4 1582 1583 1584 1177
4 1562 1581 1580 1563
4 1583 1582 1566 1565
4 1577 1585 1173 1172
4 1175 1586 1578 1176
4 1585 1587 1174 1173
4 1178 1588 1586 1175
4 1587 1579 1171 1174
4 1177 1584 1588 1178
4 1589 1590 1146 1145
4 1150 1591 1592 1151
4 1281 1285 1593 1594
4 1595 1286 1283 1596
4 1288 1287 1597 1598
4 1599 1289 1290 1600
4 1601 1589 1145 1168
4 1151 1592 1602 1170
4 1285 1279 1603 1593
4 1604 1280 1286 1595
4 1605 1606 1607 1608
4 1609 1610 1611 1612
4 1606 1613 1614 1607
4 1615 1616 1610 1609
4 1293 1288 1598 1617
4 1600 1290 1294 1618
4 1619 1620 1621 1622
4 1623 1624 1625 1626
4 1627 1628 1629 1630
4 1631 1632 1633 1634
4 1620 1635 1636 1621
4 1637 1638 1624 1623
4 1608 1607 1639 1640
4 1641 1609 1612 1642
4 1607 1614 1643 1639
4 1644 1615 1609 1641
4 1645 1627 1630 1646
4 1634 1633 1647 1648
4 1282 1281 1590 1589
4 1591 1283 1284 1592
4 1649 1619 1622 1650
4 1626 1625 1651 1652
4 1287 1282 1589 1601
4 1592 1284 1289 1602
4 1628 1653 1654 1629
4 1655 1656 1632 1631
4 1279 1657 1658 1659
4 1660 1661 1280 1662
4 1603 1279 1659 1663
4 1662 1280 1604 1664
4 1657 1293 1665 1658
4 1666 1294 1661 1660
4 1293 1617 1667 1665
4 1668 1618 1294 1666
4 1226 1225 1669 1670
4 1671 1227 1228 1672
4 1636 1635 1673 1674
4 1675 1638 1637 1676
4 1645 1646 1677 1678
4 1679 1648 1647 1680
4 1237 1226 1670 1681
4 1672 1228 1238 1682
4 1659 1658 1683 1684
4 1685 1660 1662 1686
4 1663 1659 1684 1687
4 1686 1662 1664 1688
4 1658 1665 1689 1683
4 1690 1666 1660 1685
4 1665 1667 1691 1689
4 1692 1668 1666 1690
4 1670 1669 1693 1694
4 1695 1671 1672 1696
4 1674 1673 1697 1698
4 1699 1675 1676 1700
4 1678 1677 1701 1702
4 1703 1679 1680 1704
4 1681 1670 1694 1705
4 1696 1672 1682 1706
4 1684 1683 1606 1605
4 1610 1685 1686 1611
4 1687 1684 1605 1608
4 1611 1686 1688 1612
4 1683 1689 1613 1606
4 1616 1690 1685 1610
4 1689 1691 1614 1613
4 1615 1692 1690 1616
4 1694 1693 1640 1639
4 1642 1695 1696 1641
4 1698 1697 1707 1708
4 1709 1699 1700 1710
4 1702 1701 1711 1712
4 1713 1703 1704 1714
4 1705 1694 1639 1643
4 1641 1696 1706 1644
4 1594 1593 1715 1716
4 1717 1595 1596 1718
4 1147 1146 1719 1720
4 1721 1150 1149 1722
4 1593 1603 1723 1715
4 1724 1604 1595 1717
4 1225 1147 1720 1725
4 1722 1149 1227 1726
4 1281 1594 1716 1727
4 1718 1596 1283 1728
4 1146 1590 1729 1719
4 1730 1591 1150 1721
4 1590 1281 1727 1729
4 1728 1283 1591 1730
4 1603 1663 1731 1723
4 1732 1664 1604 1724
4 1669 1225 1725 1733
4 1726 1227 1671 1734
4 1663 1687 1735 1731
4 1736 1688 1664 1732
4 1693 1669 1733 1737
4 1734 1671 1695 1738
4 1687 1608 1739 1735
4 1740 1612 1688 1736
4 1608 1640 1741 1739
4 1742 1642 1612 1740
4 1640 1693 1737 1741
4 1738 1695 1642 1742
4 1598 1597 1743 1744
4 1745 1599 1600 1746
4 1168 1167 1747 1748
4 1749 1169 1170 1750
4 1617 1598 1744 1751
4 1746 1600 1618 1752
4 1167 1237 1753 1747
4 1754 1238 1169 1749
4 1597 1287 1755 1743
4 1756 1289 1599 1745
4 1287 1601 1757 1755
4 1758 1602 1289 1756
4 1601 1168 1748 1757
4 1750 1170 1602 1758
4 1237 1681 1759 1753
4 1760 1682 1238 1754
4 1667 1617 1751 1761
4 1752 1618 1668 1762
4 1681 1705 1763 1759
4 1764 1706 1682 1760
4 1691 1667 1761 1765
4 1762 1668 1692 1766
4 1705 1643 1767 1763
4 1768 1644 1706 1764
4 1643 1614 1769 1767
4 1770 1615 1644 1768
4 1614 1691 1765 1769
4 1766 1692 1615 1770
4 1716 1715 1771 1772
4 1773 1717 1718 1774
4 1720 1719 1775 1776
4 1777 1721 1722 1778
4 1715 1723 1779 1771
4 1780 1724 1717 1773
4 1725 1720 1776 1781
4 1778 1722 1726 1782
4 1727 1716 1772 1783
4 1774 1718 1728 1784
4 1719 1729 1785 1775
4 1786 1730 1721 1777
4 1729 1727 1783 1785
4 1784 1728 1730 1786
4 1723 1731 1787 1779
4 1788 1732 1724 1780
4 1733 1725 1781 1789
4 1782 1726 1734 1790
4 1731 1735 1791 1787
4 1792 1736 1732 1788
4 1737 1733 1789 1793
4 1790 1734 1738 1794
4 1735 1739 1795 1791
4 1796 1740 1736 1792
4 1739 1741 1797 1795
4 1798 1742 1740 1796
4 1741 1737 1793 1797
4 1794 1738 1742 1798
4 1744 1743 1799 1800
4 1801 1745 1746 1802
4 1748 1747 1803 1804
4 1805 1749 1750 1806
4 1751 1744 1800 1807
4 1802 1746 1752 1808
4 1747 1753 1809 1803
4 1810 1754 1749 1805
4 1743 1755 1811 1799
4 1812 1756 1745 1801
4 1755 1757 1813 1811
4 1814 1758 1756 1812
4 1757 1748 1804 1813
4 1806 1750 1758 1814
4 1753 1759 1815 1809
4 1816 1760 1754 1810
4 1761 1751 1807 1817
4 1808 1752 1762 1818
4 1759 1763 1819 1815
4 1820 1764 1760 1816
4 1765 1761 1817 1821
4 1818 1762 1766 1822
4 1763 1767 1823 1819
4 1824 1768 1764 1820
4 1767 1769 1825 1823
4 1826 1770 1768 1824
4 1769 1765 1821 1825
4 1822 1766 1770 1826
4 1772 1771 1827 1828
4 1829 1773 1774 1830
4 1776 1775 1831 1832
4 1833 1777 1778 1834
4 1771 1779 1835 1827
4 1836 1780 1773 1829
4 1781 1776 1832 1837
4 1834 1778 1782 1838
4 1783 1772 1828 1839
4 1830 1774 1784 1840
4 1775 1785 1841 1831
4 1842 1786 1777 1833
4 1785 1783 1839 1841
4 1840 1784 1786 1842
4 1779 1787 1843 1835
4 1844 1788 1780 1836
4 1789 1781 1837 1845
4 1838 1782 1790 1846
4 1787 1791 1847 1843
4 1848 1792 1788 1844
4 1793 1789 1845 1849
4 1846 1790 1794 1850
4 1791 1795 1851 1847
4 1852 1796 1792 1848
4 1795 1797 1853 1851
4 1854 1798 1796 1852
4 1797 1793 1849 1853
4 1850 1794 1798 1854
4 1800 1799 1855 1856
4 1857 1801 1802 1858
4 1804 1803 1859 1860
4 1861 1805 1806 1862
4 1807 1800 1856 1863
4 1858 1802 1808 1864
4 1803 1809 1865 1859
4 1866 1810 1805 1861
4 1799 1811 1867 1855
4 1868 1812 1801 1857
4 1811 1813 1869 1867
4 1870 1814 1812 1868
4 1813 1804 1860 1869
4 1862 1806 1814 1870
4 1809 1815 1871 1865
4 1872 1816 1810 1866
4 1817 1807 1863 1873
4 1864 1808 1818 1874
4 1815 1819 1875 1871
4 1876 1820 1816 1872
4 1821 1817 1873 1877
4 1874 1818 1822 1878
4 1819 1823 1879 1875
4 1880 1824 1820 1876
4 1823 1825 1881 1879
4 1882 1826 1824 1880
4 1825 1821 1877 1881
4 1878 1822 1826 1882
4 1828 1827 1620 1619
4 1624 1829 1830 1625
4 1832 1831 1622 1621
4 1626 1833 1834 1623
4 1827 1835 1635 1620
4 1638 1836 1829 1624
4 1837 1832 1621 1636
4 1623 1834 1838 1637
4 1839 1828 1619 1649
4 1625 1830 1840 1651
4 1831 1841 1650 1622
4 1652 1842 1833 1626
4 1841 1839 1649 1650
4 1651 1840 1842 1652
4 1835 1843 1673 1635
4 1675 1844 1836 1638
4 1845 1837 1636 1674
4 1637 1838 1846 1676
4 1843 1847 1697 1673
4 1699 1848 1844 1675
4 1849 1845 1674 1698
4 1676 1846 1850 1700
4 1847 1851 1707 1697
4 1709 1852 1848 1699
4 1851 1853 1708 1707
4 1710 1854 1852 1709
4 1853 1849 1698 1708
4 1700 1850 1854 1710
4 1856 1855 1628 1627
4 1632 1857 1858 1633
4 1860 1859 1630 1629
4 1634 1861 1862 1631
4 1863 1856 1627 1645
4 1633 1858 1864 1647
4 1859 1865 1646 1630
4 1648 1866 1861 1634
4 1855 1867 1653 1628
4 1656 1868 1857 1632
4 1867 1869 1654 1653
4 1655 1870 1868 1656
4 1869 1860 1629 1654
4 1631 1862 1870 1655
4 1865 1871 1677 1646
4 1679 1872 1866 1648
4 1873 1863 1645 1678
4 1647 1864 1874 1680
4 1871 1875 1701 1677
4 1703 1876 1872 1679
4 1877 1873 1678 1702
4 1680 1874 1878 1704
4 1875 1879 1711 1701
4 1713 1880 1876 1703
4 1879 1881 1712 1711
4 1714 1882 1880 1713
4 1881 1877 1702 1712
4 1704 1878 1882 1714
4 1257 1265 1883 1884
4 1885 1268 1261 1886
4 1421 1372 1887 1888
4 1889 1374 1424 1890
4 1372 1257 1884 1887
4 1886 1261 1374 1889
4 1265 1231 1891 1883
4 1892 1232 1268 1885
4 1425 1421 1888 1893
4 1890 1424 1428 1894
4 1231 1179 1895 1891
4 1896 1180 1232 1892
4 1179 1364 1897 1895
4 1898 1366 1180 1896
4 1364 1425 1893 1897
4 1894 1428 1366 1898
4 1884 1883 1378 1377
4 1382 1885 1886 1383
4 1888 1887 1380 1379
4 1384 1889 1890 1381
4 1887 1884 1377 1380
4 1383 1886 1889 1384
4 1883 1891 1385 1378
4 1388 1892 1885 1382
4 1893 1888 1379 1386
4 1381 1890 1894 1387
4 1891 1895 1389 1385
4 1392 1896 1892 1388
4 1895 1897 1390 1389
4 1391 1898 1896 1392
4 1897 1893 1386 1390
4 1387 1894 1898 1391
4 1498 1497 1526 1525
4 1530 1499 1500 1531
4 1564 1563 1528 1527
4 1532 1565 1568 1529
4 1497 1501 1533 1526
4 1536 1502 1499 1530
4 1569 1564 1527 1534
4 1529 1568 1572 1535
4 1501 1503 1537 1533
4 1540 1504 1502 1536
4 1573 1569 1534 1538
4 1535 1572 1576 1539
4 1503 1505 1541 1537
4 1544 1506 1504 1540
4 1577 1573 1538 1542
4 1539 1576 1578 1543
4 1899 1515 1546 1545
4 1550 1516 1900 1551
4 1580 1579 1548 1547
4 1552 1584 1583 1549
4 1515 1498 1525 1546
4 1531 1500 1516 1550
4 1563 1580 1547 1528
4 1549 1583 1565 1532
4 1505 1517 1553 1541
4 1556 1518 1506 1544
4 1585 1577 1542 1554
4 1543 1578 1586 1555
4 1517 1519 1557 1553
4 1560 1520 1518 1556
4 1587 1585 1554 1558
4 1555 1586 1588 1559
4 1519 1899 1545 1557
4 1551 1900 1520 1560
4 1579 1587 1558 1548
4 1559 1588 1584 1552
4 1657 1279 1508 1507
4 1512 1280 1661 1513
4 1279 1515 1509 1508
4 1511 1516 1280 1512
4 1515 1899 1510 1509
4 1514 1900 1516 1511
4 1293 1657 1507 1521
4 1513 1661 1294 1523
4 1899 1519 1522 1510
4 1524 1520 1900 1514
4 1519 1293 1521 1522
4 1523 1294 1520 1524
3 1118 1117 1199
3 1203 1123 1122
3 1118 1199 1161
3 1165 1203 1122
3 1125 1118 1161
3 1165 1122 1128
3 1125 1161 1133
3 1136 1165 1128
3 1129 1125 1133
3 1136 1128 1132
3 1581 1562 1561
3 1567 1566 1582
3 1171 1581 1561
3 1567 1582 1177
3 1171 1561 1570
3 1571 1567 1177
3 1171 1570 1574
3 1575 1571 1177
3 1171 1574 1172
3 1176 1575 1177
4 112 115 1901 1902
4 1903 119 118 1904
4 136 151 1905 1906
4 1907 152 137 1908
4 308 633 1909 1910
4 1911 634 309 1912
4 151 154 1913 1905
4 1914 156 152 1907
4 635 136 1906 1915
4 1908 137 636 1916
4 154 308 1910 1913
4 1912 309 156 1914
4 115 635 1915 1901
4 1916 636 119 1903
4 633 112 1902 1909
4 1904 118 634 1911
4 1917 1918 1919 1920
4 1921 1922 1923 1924
4 1925 1926 1927 1928
4 1929 1930 1931 1932
4 1927 1926 1917 1920
4 1923 1930 1929 1924
4 1933 1918 1917 1934
4 1923 1922 1935 1936
4 1937 1920 1919 1938
4 1921 1924 1939 1940
4 1941 1926 1925 1942
4 1931 1930 1943 1944
4 1945 1927 1920 1937
4 1924 1929 1946 1939
4 1942 1925 1928 1947
4 1932 1931 1944 1948
4 1934 1917 1926 1941
4 1930 1923 1936 1943
4 1947 1928 1927 1945
4 1929 1932 1948 1946
4 1938 1919 1918 1933
4 1922 1921 1940 1935
4 1949 1933 1934 1950
4 1936 1935 1951 1952
4 1953 1937 1938 1954
4 1940 1939 1955 1956
4 1957 1941 1942 1958
4 1944 1943 1959 1960
4 1961 1945 1937 1953
4 1939 1946 1962 1955
4 1958 1942 1947 1963
4 1948 1944 1960 1964
4 1950 1934 1941 1957
4 1943 1936 1952 1959
4 1963 1947 1945 1961
4 1946 1948 1964 1962
4 1954 1938 1933 1949
4 1935 1940 1956 1951
4 1902 1965 1966 1909
4 1967 1968 1904 1911
4 1965 1949 1950 1966
4 1952 1951 1968 1967
4 1915 1969 1970 1901
4 1971 1972 1916 1903
4 1969 1953 1954 1970
4 1956 1955 1972 1971
4 1910 1973 1974 1913
4 1975 1976 1912 1914
4 1973 1957 1958 1974
4 1960 1959 1976 1975
4 1906 1977 1969 1915
4 1972 1978 1908 1916
4 1977 1961 1953 1969
4 1955 1962 1978 1972
4 1913 1974 1979 1905
4 1980 1975 1914 1907
4 1974 1958 1963 1979
4 1964 1960 1975 1980
4 1909 1966 1973 1910
4 1976 1967 1911 1912
4 1966 1950 1957 1973
4 1959 1952 1967 1976
4 1905 1979 1977 1906
4 1978 1980 1907 1908
4 1979 1963 1961 1977
4 1962 1964 1980 1978
4 1901 1970 1965 1902
4 1968 1971 1903 1904
4 1970 1954 1949 1965
4 1951 1956 1971 1968
4 89 88 1981 1982
4 1983 91 90 1984
4 88 35 1985 1981
4 1986 37 91 1983
4 61 104 1987 1988
4 1989 105 63 1990
4 104 89 1982 1987
4 1984 90 105 1989
4 34 61 1988 1991
4 1990 63 38 1992
4 35 34 1991 1985
4 1992 38 37 1986
4 1985 1991 1993 1994
4 1995 1992 1986 1996
4 1991 1988 1997 1993
4 1998 1990 1992 1995
4 1987 1982 1999 2000
4 2001 1984 1989 2002
4 1988 1987 2000 1997
4 2002 1989 1990 1998
4 1981 1985 1994 2003
4 1996 1986 1983 2004
4 1982 1981 2003 1999
4 2004 1983 1984 2001
4 2005 2006 2007 2008
4 2009 2010 2011 2012
4 2013 2014 2006 2005
4 2010 2015 2016 2011
4 2014 2013 2017 2018
4 2019 2016 2015 2020
4 2003 1994 2021 2022
4 2023 1996 2004 2024
4 2003 2025 2026 1999
4 2027 2028 2004 2001
4 2025 2013 2005 2026
4 2011 2016 2028 2027
4 2000 2029 2030 1997
4 2031 2032 2002 1998
4 2029 2008 2007 2030
4 2009 2012 2032 2031
4 1999 2026 2029 2000
4 2032 2027 2001 2002
4 2026 2005 2008 2029
4 2012 2011 2027 2032
4 1997 2030 2033 1993
4 2034 2031 1998 1995
4 2030 2007 2006 2033
4 2010 2009 2031 2034
4 1993 2033 2035 1994
4 2036 2034 1995 1996
4 2033 2006 2014 2035
4 2015 2010 2034 2036
4 1994 2035 2037 2021
4 2038 2036 1996 2023
4 2035 2014 2018 2037
4 2020 2015 2036 2038
4 2013 2025 2039 2017
4 2040 2028 2016 2019
4 2025 2003 2022 2039
4 2024 2004 2028 2040
4 2021 2037 2039 2022
4 2040 2038 2023 2024
4 2037 2018 2017 2039
4 2019 2020 2038 2040
