ply
format ascii 1.0
comment Created by Blender 2.61 (sub 0) - www.blender.org, source file: 'coin_01.blend'
element vertex 66
property float x
property float y
property float z
element face 80
property list uchar uint vertex_indices
end_header
0.000000 0.075586 1.075586
-0.382683 0.075586 0.999466
-0.382683 -0.075586 0.999466
0.000000 -0.075586 1.075586
-0.707107 0.075586 0.782693
-0.707107 -0.075586 0.782693
-0.923879 0.075586 0.458270
-0.923879 -0.075586 0.458270
-1.000000 0.075586 0.075586
-1.000000 -0.075586 0.075586
-0.923880 0.075586 -0.307097
-0.923880 -0.075586 -0.307097
-0.707107 0.075586 -0.631521
-0.707107 -0.075586 -0.631521
-0.382683 0.075586 -0.848293
-0.382683 -0.075586 -0.848293
0.000000 0.075586 -0.924414
0.000000 -0.075586 -0.924414
0.382683 0.075586 -0.848293
0.382683 -0.075586 -0.848293
0.707107 0.075586 -0.631521
0.707107 -0.075586 -0.631521
0.923880 0.075586 -0.307097
0.923880 -0.075586 -0.307097
1.000000 0.075586 0.075586
1.000000 -0.075586 0.075586
0.923880 0.075586 0.458270
0.923880 -0.075586 0.458270
0.707107 0.075586 0.782693
0.707107 -0.075586 0.782693
0.382683 0.075586 0.999466
0.382683 -0.075586 0.999466
-0.381166 -0.075586 0.995805
-0.000000 -0.075586 0.075586
-0.000000 -0.075586 1.071623
-0.704304 -0.075586 0.779891
-0.920218 -0.075586 0.456753
-0.996037 -0.075586 0.075586
-0.920218 -0.075586 -0.305581
-0.704304 -0.075586 -0.628718
-0.381167 -0.075586 -0.844632
0.000000 -0.075586 -0.920451
0.381167 -0.075586 -0.844632
0.704304 -0.075586 -0.628718
0.920218 -0.075586 -0.305581
0.996037 -0.075586 0.075586
0.920218 -0.075586 0.456753
0.704304 -0.075586 0.779891
0.381167 -0.075586 0.995804
0.381167 0.075586 0.995804
0.000000 0.075586 0.075586
-0.000000 0.075586 1.071623
0.704304 0.075586 0.779891
0.920218 0.075586 0.456753
0.996037 0.075586 0.075586
0.920218 0.075586 -0.305581
0.704304 0.075586 -0.628718
0.381167 0.075586 -0.844632
0.000000 0.075586 -0.920451
-0.381167 0.075586 -0.844632
-0.704304 0.075586 -0.628718
-0.920218 0.075586 -0.305581
-0.996037 0.075586 0.075586
-0.920218 0.075586 0.456753
-0.704304 0.075586 0.779891
-0.381166 0.075586 0.995805
4 0 1 2 3
4 1 4 5 2
4 4 6 7 5
4 6 8 9 7
4 8 10 11 9
4 10 12 13 11
4 12 14 15 13
4 14 16 17 15
4 16 18 19 17
4 18 20 21 19
4 20 22 23 21
4 22 24 25 23
4 24 26 27 25
4 26 28 29 27
4 28 30 31 29
4 30 0 3 31
3 32 33 34
4 2 32 34 3
3 35 33 32
4 5 35 32 2
3 36 33 35
4 7 36 35 5
3 37 33 36
4 9 37 36 7
3 38 33 37
4 11 38 37 9
3 39 33 38
4 13 39 38 11
3 40 33 39
4 15 40 39 13
3 41 33 40
4 17 41 40 15
3 42 33 41
4 19 42 41 17
3 43 33 42
4 21 43 42 19
3 44 33 43
4 23 44 43 21
3 45 33 44
4 25 45 44 23
3 46 33 45
4 27 46 45 25
3 47 33 46
4 29 47 46 27
3 48 33 47
4 31 48 47 29
3 34 33 48
4 3 34 48 31
3 49 50 51
4 51 0 30 49
3 52 50 49
4 28 52 49 30
3 53 50 52
4 26 53 52 28
3 54 50 53
4 24 54 53 26
3 55 50 54
4 22 55 54 24
3 56 50 55
4 20 56 55 22
3 57 50 56
4 18 57 56 20
3 58 50 57
4 16 58 57 18
3 59 50 58
4 14 59 58 16
3 60 50 59
4 12 60 59 14
3 61 50 60
4 10 61 60 12
3 62 50 61
4 8 62 61 10
3 63 50 62
4 6 63 62 8
3 64 50 63
4 4 64 63 6
3 65 50 64
4 1 65 64 4
3 51 50 65
4 0 51 65 1
