ply
format ascii 1.0
comment Created by Blender 2.61 (sub 0) - www.blender.org, source file: 'coin_01.blend'
element vertex 370
property float x
property float y
property float z
element face 384
property list uchar uint vertex_indices
end_header
0.000000 -0.075586 1.070791
0.000000 -0.075586 1.075586
-0.382683 -0.075586 0.999466
-0.380848 -0.075586 0.995035
-0.707107 -0.075586 0.782693
-0.703716 -0.075586 0.779302
-0.923880 -0.075586 0.458270
-0.919449 -0.075586 0.456435
-1.000000 -0.075586 0.075586
-0.995205 -0.075586 0.075586
-0.923880 -0.075586 -0.307097
-0.919449 -0.075586 -0.305262
-0.707107 -0.075586 -0.631521
-0.703716 -0.075586 -0.628130
-0.382683 -0.075586 -0.848293
-0.380848 -0.075586 -0.843863
-0.000000 -0.075586 -0.924414
-0.000000 -0.075586 -0.919618
0.382683 -0.075586 -0.848293
0.380848 -0.075586 -0.843863
0.707107 -0.075586 -0.631521
0.703716 -0.075586 -0.628130
0.923880 -0.075586 -0.307097
0.919449 -0.075586 -0.305262
1.000000 -0.075586 0.075586
0.995205 -0.075586 0.075586
0.923879 -0.075586 0.458270
0.919449 -0.075586 0.456435
0.707107 -0.075586 0.782693
0.703716 -0.075586 0.779302
0.382683 -0.075586 0.999466
0.380848 -0.075586 0.995036
-0.129310 -0.029766 1.119477
-0.280013 -0.029766 1.089501
-0.000000 0.075586 1.075586
-0.129310 0.029766 1.119477
-0.382683 0.075586 0.999466
-0.280013 0.029766 1.089501
-0.518947 -0.029766 0.990531
-0.646706 -0.029766 0.905165
-0.518947 0.029766 0.990531
-0.707107 0.075586 0.782693
-0.646706 0.029766 0.905165
-0.829578 -0.029767 0.722293
-0.914945 -0.029767 0.594533
-0.829578 0.029766 0.722293
-0.923880 0.075586 0.458270
-0.914945 0.029766 0.594533
-1.013914 -0.029767 0.355599
-1.043891 -0.029767 0.204896
-1.013914 0.029766 0.355599
-1.000000 0.075586 0.075586
-1.043891 0.029766 0.204896
-1.043891 -0.029766 -0.053724
-1.013914 -0.029766 -0.204427
-1.043891 0.029766 -0.053724
-0.923880 0.075586 -0.307097
-1.013914 0.029766 -0.204427
-0.914945 -0.029766 -0.443360
-0.829578 -0.029766 -0.571120
-0.914945 0.029766 -0.443360
-0.707107 0.075586 -0.631521
-0.829578 0.029766 -0.571120
-0.646707 -0.029766 -0.753992
-0.518947 -0.029766 -0.839359
-0.646707 0.029766 -0.753992
-0.382683 0.075586 -0.848293
-0.518947 0.029766 -0.839359
-0.280013 -0.029766 -0.938328
-0.129310 -0.029766 -0.968305
-0.280013 0.029766 -0.938328
-0.000000 0.075586 -0.924414
-0.129310 0.029766 -0.968305
0.129310 -0.029766 -0.968305
0.280013 -0.029766 -0.938328
0.129310 0.029766 -0.968305
0.382683 0.075586 -0.848293
0.280013 0.029766 -0.938328
0.518946 -0.029766 -0.839359
0.646706 -0.029766 -0.753992
0.518946 0.029766 -0.839359
0.707107 0.075586 -0.631521
0.646706 0.029766 -0.753992
0.829578 -0.029766 -0.571120
0.914945 -0.029766 -0.443361
0.829578 0.029766 -0.571120
0.923880 0.075586 -0.307097
0.914945 0.029766 -0.443361
1.013914 -0.029766 -0.204427
1.043891 -0.029766 -0.053724
1.013914 0.029766 -0.204427
1.000000 0.075586 0.075586
1.043891 0.029766 -0.053724
1.043891 -0.029766 0.204896
1.013914 -0.029766 0.355599
1.043891 0.029766 0.204896
0.923879 0.075586 0.458270
1.013914 0.029766 0.355599
0.914945 -0.029766 0.594533
0.829578 -0.029766 0.722293
0.914945 0.029766 0.594533
0.707107 0.075586 0.782693
0.829578 0.029766 0.722293
0.646706 -0.029766 0.905165
0.518946 -0.029766 0.990531
0.646706 0.029766 0.905165
0.382683 0.075586 0.999466
0.518946 0.029766 0.990531
0.129310 -0.029766 1.119477
0.280013 -0.029766 1.089501
0.280013 0.029766 1.089501
0.129310 0.029766 1.119477
0.000000 -0.075586 0.075586
0.110191 0.291784 0.341612
-0.000000 0.343244 0.075586
-0.000000 0.291784 0.363530
0.171043 0.213854 0.488522
-0.000000 0.213854 0.522544
0.203607 0.291784 0.279193
0.316047 0.213854 0.391633
0.266025 0.291784 0.185778
0.412935 0.213854 0.246630
0.287944 0.291784 0.075586
0.446958 0.213854 0.075586
0.266025 0.291784 -0.034605
0.412935 0.213854 -0.095457
0.203607 0.291784 -0.128021
0.316047 0.213854 -0.240461
0.110191 0.291784 -0.190439
0.171043 0.213854 -0.337349
-0.000000 0.291784 -0.212357
-0.000000 0.213854 -0.371372
-0.110191 0.291784 -0.190439
-0.171043 0.213854 -0.337349
-0.203607 0.291784 -0.128021
-0.316047 0.213854 -0.240461
-0.266025 0.291784 -0.034605
-0.412935 0.213854 -0.095457
-0.287944 0.291784 0.075586
-0.446958 0.213854 0.075586
-0.266025 0.291784 0.185778
-0.412935 0.213854 0.246630
-0.203607 0.291784 0.279193
-0.316047 0.213854 0.391633
-0.110191 0.291784 0.341612
-0.171043 0.213854 0.488522
0.351241 0.075586 0.923559
0.223335 0.075586 0.614766
0.000000 0.075586 0.659190
0.000000 0.075586 0.993425
0.222083 0.075586 0.611743
0.000000 0.075586 0.655918
0.649010 0.075586 0.724596
0.412670 0.075586 0.488257
0.410357 0.075586 0.485943
0.847972 0.075586 0.426828
0.539179 0.075586 0.298922
0.536157 0.075586 0.297670
0.917839 0.075586 0.075586
0.583604 0.075586 0.075586
0.580332 0.075586 0.075586
0.847972 0.075586 -0.275656
0.539179 0.075586 -0.147749
0.536157 0.075586 -0.146497
0.649010 0.075586 -0.573424
0.412670 0.075586 -0.337084
0.410357 0.075586 -0.334771
0.351241 0.075586 -0.772386
0.223335 0.075586 -0.463593
0.222083 0.075586 -0.460571
-0.000000 0.075586 -0.842252
-0.000000 0.075586 -0.508018
-0.000000 0.075586 -0.504746
-0.351242 0.075586 -0.772386
-0.223335 0.075586 -0.463593
-0.222083 0.075586 -0.460571
-0.649010 0.075586 -0.573424
-0.412670 0.075586 -0.337084
-0.410357 0.075586 -0.334770
-0.847972 0.075586 -0.275655
-0.539179 0.075586 -0.147749
-0.536157 0.075586 -0.146497
-0.917839 0.075586 0.075586
-0.583604 0.075586 0.075586
-0.580332 0.075586 0.075586
-0.847972 0.075586 0.426828
-0.539179 0.075586 0.298922
-0.536157 0.075586 0.297670
-0.649010 0.075586 0.724596
-0.412670 0.075586 0.488256
-0.410357 0.075586 0.485943
-0.351242 0.075586 0.923559
-0.223335 0.075586 0.614766
-0.222083 0.075586 0.611743
0.352297 0.075586 0.926108
0.000000 0.075586 0.996185
0.650961 0.075586 0.726548
0.850522 0.075586 0.427884
0.920598 0.075586 0.075586
0.850522 0.075586 -0.276712
0.650961 0.075586 -0.575375
0.352298 0.075586 -0.774936
-0.000000 0.075586 -0.845012
-0.352298 0.075586 -0.774936
-0.650961 0.075586 -0.575375
-0.850522 0.075586 -0.276712
-0.920598 0.075586 0.075586
-0.850522 0.075586 0.427884
-0.650961 0.075586 0.726548
-0.352298 0.075586 0.926108
-0.000000 0.059125 1.061710
0.000000 0.059125 0.996185
-0.352298 0.059125 0.926108
-0.377373 0.059125 0.986646
-0.650961 0.059125 0.726548
-0.697295 0.059124 0.772881
-0.850522 0.059125 0.427884
-0.911060 0.059124 0.452960
-0.920598 0.059125 0.075586
-0.986124 0.059125 0.075586
-0.850522 0.059125 -0.276712
-0.911060 0.059125 -0.301787
-0.650961 0.059125 -0.575375
-0.697295 0.059125 -0.621709
-0.352298 0.059125 -0.774936
-0.377373 0.059125 -0.835473
-0.000000 0.059125 -0.845012
-0.000000 0.059125 -0.910538
0.352298 0.059125 -0.774936
0.377373 0.059125 -0.835474
0.650961 0.059125 -0.575375
0.697295 0.059125 -0.621709
0.850522 0.059125 -0.276712
0.911060 0.059125 -0.301787
0.920598 0.059125 0.075586
0.986124 0.059125 0.075586
0.850522 0.059125 0.427884
0.911060 0.059125 0.452960
0.650961 0.059125 0.726548
0.697295 0.059125 0.772881
0.352297 0.059125 0.926108
0.377373 0.059125 0.986646
0.381975 0.075586 0.997757
-0.000000 0.075586 1.073736
0.705798 0.075586 0.781385
0.922170 0.075586 0.457562
0.998150 0.075586 0.075586
0.922170 0.075586 -0.306389
0.705798 0.075586 -0.630212
0.381975 0.075586 -0.846584
-0.000000 0.075586 -0.922564
-0.381975 0.075586 -0.846584
-0.705799 0.075586 -0.630212
-0.922170 0.075586 -0.306389
-0.998150 0.075586 0.075586
-0.922170 0.075586 0.457562
-0.705799 0.075586 0.781385
-0.381975 0.075586 0.997756
0.377986 0.075586 0.988128
-0.000000 0.075586 1.063314
0.377373 0.075586 0.986646
-0.000000 0.075586 1.061710
0.698429 0.075586 0.774015
0.697295 0.075586 0.772881
0.912541 0.075586 0.453573
0.911060 0.075586 0.452960
0.987727 0.075586 0.075586
0.986124 0.075586 0.075586
0.912541 0.075586 -0.302401
0.911060 0.075586 -0.301787
0.698429 0.075586 -0.622843
0.697295 0.075586 -0.621709
0.377987 0.075586 -0.836955
0.377373 0.075586 -0.835474
-0.000000 0.075586 -0.912141
-0.000000 0.075586 -0.910538
-0.377987 0.075586 -0.836955
-0.377373 0.075586 -0.835473
-0.698429 0.075586 -0.622842
-0.697295 0.075586 -0.621709
-0.912541 0.075586 -0.302401
-0.911060 0.075586 -0.301787
-0.987727 0.075586 0.075586
-0.986124 0.075586 0.075586
-0.912541 0.075586 0.453573
-0.911060 0.075586 0.452960
-0.698429 0.075586 0.774015
-0.697295 0.075586 0.772881
-0.377987 0.075586 0.988127
-0.377373 0.075586 0.986646
-0.352298 0.060787 0.926108
0.000000 0.060787 0.996185
-0.650961 0.060787 0.726547
-0.850522 0.060787 0.427884
-0.920598 0.060787 0.075586
-0.850522 0.060787 -0.276712
-0.650961 0.060787 -0.575375
-0.352298 0.060787 -0.774936
-0.000000 0.060787 -0.845012
0.352298 0.060787 -0.774936
0.650961 0.060787 -0.575375
0.850522 0.060787 -0.276712
0.920598 0.060787 0.075586
0.850522 0.060787 0.427884
0.650961 0.060787 0.726548
0.352297 0.060787 0.926108
-0.352298 0.073114 0.926108
0.000000 0.073114 0.996185
-0.650961 0.073114 0.726547
-0.850522 0.073114 0.427884
-0.920598 0.073114 0.075586
-0.850522 0.073114 -0.276712
-0.650961 0.073114 -0.575375
-0.352298 0.073114 -0.774936
-0.000000 0.073114 -0.845012
0.352298 0.073114 -0.774936
0.650961 0.073114 -0.575375
0.850522 0.073114 -0.276712
0.920598 0.073114 0.075586
0.850522 0.073114 0.427884
0.650961 0.073114 0.726548
0.352297 0.073114 0.926108
-0.000000 0.060940 1.061710
-0.377373 0.060939 0.986646
-0.697295 0.060939 0.772881
-0.911060 0.060939 0.452960
-0.986124 0.060939 0.075586
-0.911060 0.060939 -0.301787
-0.697295 0.060940 -0.621709
-0.377373 0.060940 -0.835473
-0.000000 0.060940 -0.910538
0.377373 0.060940 -0.835474
0.697295 0.060940 -0.621709
0.911060 0.060940 -0.301787
0.986124 0.060940 0.075586
0.911060 0.060940 0.452960
0.697295 0.060940 0.772882
0.377373 0.060940 0.986646
-0.000000 0.074050 1.061710
-0.377373 0.074050 0.986646
-0.697295 0.074050 0.772881
-0.911060 0.074050 0.452960
-0.986124 0.074050 0.075586
-0.911060 0.074050 -0.301787
-0.697295 0.074050 -0.621709
-0.377373 0.074050 -0.835473
-0.000000 0.074050 -0.910538
0.377373 0.074050 -0.835474
0.697295 0.074050 -0.621709
0.911060 0.074050 -0.301787
0.986124 0.074050 0.075586
0.911060 0.074050 0.452960
0.697295 0.074050 0.772881
0.377373 0.074050 0.986646
0.221437 0.077337 0.610183
0.000000 0.077336 0.654230
0.409163 0.077337 0.484749
0.534597 0.077337 0.297024
0.578644 0.077337 0.075586
0.534597 0.077337 -0.145851
0.409163 0.077337 -0.333577
0.221437 0.077337 -0.459011
-0.000000 0.077336 -0.503058
-0.221437 0.077336 -0.459011
-0.409163 0.077336 -0.333577
-0.534597 0.077336 -0.145851
-0.578644 0.077336 0.075586
-0.534597 0.077336 0.297024
-0.409163 0.077336 0.484749
-0.221437 0.077336 0.610183
4 0 1 2 3
4 4 5 3 2
4 6 7 5 4
4 8 9 7 6
4 10 11 9 8
4 12 13 11 10
4 14 15 13 12
4 16 17 15 14
4 18 19 17 16
4 20 21 19 18
4 22 23 21 20
4 24 25 23 22
4 26 27 25 24
4 28 29 27 26
4 30 31 29 28
4 1 0 31 30
4 1 32 33 2
4 32 1 34 35
4 36 37 35 34
4 2 33 37 36
4 33 32 35 37
4 2 38 39 4
4 36 40 38 2
4 41 42 40 36
4 4 39 42 41
4 39 38 40 42
4 4 43 44 6
4 41 45 43 4
4 46 47 45 41
4 6 44 47 46
4 44 43 45 47
4 6 48 49 8
4 46 50 48 6
4 51 52 50 46
4 8 49 52 51
4 49 48 50 52
4 8 53 54 10
4 51 55 53 8
4 56 57 55 51
4 10 54 57 56
4 54 53 55 57
4 10 58 59 12
4 56 60 58 10
4 61 62 60 56
4 12 59 62 61
4 59 58 60 62
4 12 63 64 14
4 61 65 63 12
4 66 67 65 61
4 14 64 67 66
4 64 63 65 67
4 14 68 69 16
4 66 70 68 14
4 71 72 70 66
4 16 69 72 71
4 69 68 70 72
4 16 73 74 18
4 71 75 73 16
4 76 77 75 71
4 18 74 77 76
4 74 73 75 77
4 18 78 79 20
4 76 80 78 18
4 81 82 80 76
4 20 79 82 81
4 79 78 80 82
4 20 83 84 22
4 81 85 83 20
4 86 87 85 81
4 22 84 87 86
4 84 83 85 87
4 22 88 89 24
4 86 90 88 22
4 91 92 90 86
4 24 89 92 91
4 89 88 90 92
4 24 93 94 26
4 91 95 93 24
4 96 97 95 91
4 26 94 97 96
4 94 93 95 97
4 26 98 99 28
4 96 100 98 26
4 101 102 100 96
4 28 99 102 101
4 99 98 100 102
4 28 103 104 30
4 101 105 103 28
4 106 107 105 101
4 30 104 107 106
4 104 103 105 107
4 108 1 30 109
4 106 110 109 30
4 34 111 110 106
4 1 108 111 34
4 108 109 110 111
3 3 112 0
3 5 112 3
3 7 112 5
3 9 112 7
3 11 112 9
3 13 112 11
3 15 112 13
3 17 112 15
3 19 112 17
3 21 112 19
3 23 112 21
3 25 112 23
3 27 112 25
3 29 112 27
3 31 112 29
3 0 112 31
3 113 114 115
4 116 113 115 117
3 118 114 113
4 119 118 113 116
3 120 114 118
4 121 120 118 119
3 122 114 120
4 123 122 120 121
3 124 114 122
4 125 124 122 123
3 126 114 124
4 127 126 124 125
3 128 114 126
4 129 128 126 127
3 130 114 128
4 131 130 128 129
3 132 114 130
4 133 132 130 131
3 134 114 132
4 135 134 132 133
3 136 114 134
4 137 136 134 135
3 138 114 136
4 139 138 136 137
3 140 114 138
4 141 140 138 139
3 142 114 140
4 143 142 140 141
3 144 114 142
4 145 144 142 143
3 115 114 144
4 117 115 144 145
4 146 147 148 149
4 147 150 151 148
4 152 153 147 146
4 153 154 150 147
4 155 156 153 152
4 156 157 154 153
4 158 159 156 155
4 159 160 157 156
4 161 162 159 158
4 162 163 160 159
4 164 165 162 161
4 165 166 163 162
4 167 168 165 164
4 168 169 166 165
4 170 171 168 167
4 171 172 169 168
4 173 174 171 170
4 174 175 172 171
4 176 177 174 173
4 177 178 175 174
4 179 180 177 176
4 180 181 178 177
4 182 183 180 179
4 183 184 181 180
4 185 186 183 182
4 186 187 184 183
4 188 189 186 185
4 189 190 187 186
4 191 192 189 188
4 192 193 190 189
4 149 148 192 191
4 148 151 193 192
4 194 146 149 195
4 196 152 146 194
4 197 155 152 196
4 198 158 155 197
4 199 161 158 198
4 200 164 161 199
4 201 167 164 200
4 202 170 167 201
4 203 173 170 202
4 204 176 173 203
4 205 179 176 204
4 206 182 179 205
4 207 185 182 206
4 208 188 185 207
4 209 191 188 208
4 195 149 191 209
4 210 211 212 213
4 213 212 214 215
4 215 214 216 217
4 217 216 218 219
4 219 218 220 221
4 221 220 222 223
4 223 222 224 225
4 225 224 226 227
4 227 226 228 229
4 229 228 230 231
4 231 230 232 233
4 233 232 234 235
4 235 234 236 237
4 237 236 238 239
4 239 238 240 241
4 241 240 211 210
4 106 242 243 34
4 101 244 242 106
4 96 245 244 101
4 91 246 245 96
4 86 247 246 91
4 81 248 247 86
4 76 249 248 81
4 71 250 249 76
4 66 251 250 71
4 61 252 251 66
4 56 253 252 61
4 51 254 253 56
4 46 255 254 51
4 41 256 255 46
4 36 257 256 41
4 34 243 257 36
4 242 258 259 243
4 258 260 261 259
4 244 262 258 242
4 262 263 260 258
4 245 264 262 244
4 264 265 263 262
4 246 266 264 245
4 266 267 265 264
4 247 268 266 246
4 268 269 267 266
4 248 270 268 247
4 270 271 269 268
4 249 272 270 248
4 272 273 271 270
4 250 274 272 249
4 274 275 273 272
4 251 276 274 250
4 276 277 275 274
4 252 278 276 251
4 278 279 277 276
4 253 280 278 252
4 280 281 279 278
4 254 282 280 253
4 282 283 281 280
4 255 284 282 254
4 284 285 283 282
4 256 286 284 255
4 286 287 285 284
4 257 288 286 256
4 288 289 287 286
4 243 259 288 257
4 259 261 289 288
4 290 212 211 291
4 292 214 212 290
4 293 216 214 292
4 294 218 216 293
4 295 220 218 294
4 296 222 220 295
4 297 224 222 296
4 298 226 224 297
4 299 228 226 298
4 300 230 228 299
4 301 232 230 300
4 302 234 232 301
4 303 236 234 302
4 304 238 236 303
4 305 240 238 304
4 291 211 240 305
4 209 306 307 195
4 306 290 291 307
4 208 308 306 209
4 308 292 290 306
4 207 309 308 208
4 309 293 292 308
4 206 310 309 207
4 310 294 293 309
4 205 311 310 206
4 311 295 294 310
4 204 312 311 205
4 312 296 295 311
4 203 313 312 204
4 313 297 296 312
4 202 314 313 203
4 314 298 297 313
4 201 315 314 202
4 315 299 298 314
4 200 316 315 201
4 316 300 299 315
4 199 317 316 200
4 317 301 300 316
4 198 318 317 199
4 318 302 301 317
4 197 319 318 198
4 319 303 302 318
4 196 320 319 197
4 320 304 303 319
4 194 321 320 196
4 321 305 304 320
4 195 307 321 194
4 307 291 305 321
4 322 210 213 323
4 323 213 215 324
4 324 215 217 325
4 325 217 219 326
4 326 219 221 327
4 327 221 223 328
4 328 223 225 329
4 329 225 227 330
4 330 227 229 331
4 331 229 231 332
4 332 231 233 333
4 333 233 235 334
4 334 235 237 335
4 335 237 239 336
4 336 239 241 337
4 337 241 210 322
4 261 338 339 289
4 338 322 323 339
4 289 339 340 287
4 339 323 324 340
4 287 340 341 285
4 340 324 325 341
4 285 341 342 283
4 341 325 326 342
4 283 342 343 281
4 342 326 327 343
4 281 343 344 279
4 343 327 328 344
4 279 344 345 277
4 344 328 329 345
4 277 345 346 275
4 345 329 330 346
4 275 346 347 273
4 346 330 331 347
4 273 347 348 271
4 347 331 332 348
4 271 348 349 269
4 348 332 333 349
4 269 349 350 267
4 349 333 334 350
4 267 350 351 265
4 350 334 335 351
4 265 351 352 263
4 351 335 336 352
4 263 352 353 260
4 352 336 337 353
4 260 353 338 261
4 353 337 322 338
4 150 354 355 151
4 354 116 117 355
4 154 356 354 150
4 356 119 116 354
4 157 357 356 154
4 357 121 119 356
4 160 358 357 157
4 358 123 121 357
4 163 359 358 160
4 359 125 123 358
4 166 360 359 163
4 360 127 125 359
4 169 361 360 166
4 361 129 127 360
4 172 362 361 169
4 362 131 129 361
4 175 363 362 172
4 363 133 131 362
4 178 364 363 175
4 364 135 133 363
4 181 365 364 178
4 365 137 135 364
4 184 366 365 181
4 366 139 137 365
4 187 367 366 184
4 367 141 139 366
4 190 368 367 187
4 368 143 141 367
4 193 369 368 190
4 369 145 143 368
4 151 355 369 193
4 355 117 145 369
