ply
format ascii 1.0
comment Created by Blender 2.60 (sub 0) - www.blender.org, source file: 'meshgit_durano.blend'
element vertex 811
property float x
property float y
property float z
element face 786
property list uchar uint vertex_indices
end_header
0.465573 0.927404 0.878549
0.405890 0.860310 0.805811
0.607427 0.505937 1.144744
0.664254 0.633172 1.230760
-0.607427 0.505937 1.144744
-0.405890 0.860310 0.805811
-0.465573 0.927404 0.878549
-0.664254 0.633172 1.230760
0.897993 0.553351 0.850066
0.964987 0.657582 1.004224
-0.897993 0.553351 0.850066
-0.964987 0.657582 1.004224
0.777219 0.881078 0.827959
0.714847 0.788320 0.704537
-0.714847 0.788320 0.704537
-0.777219 0.881078 0.827959
0.828650 0.901058 0.942034
0.863169 0.824999 1.071745
-0.863169 0.824999 1.071745
-0.828650 0.901058 0.942034
0.505178 1.005904 0.934871
-0.505178 1.005904 0.934871
0.677968 0.867557 1.211095
-0.677968 0.867557 1.211095
0.781866 1.107806 1.179283
0.687391 0.998249 0.978603
-0.687391 0.998249 0.978603
-0.781866 1.107806 1.179283
0.877702 1.047214 1.101824
-0.877702 1.047214 1.101824
0.842276 1.070276 1.005831
-0.842276 1.070276 1.005831
0.839614 1.169878 0.930008
0.899546 1.217412 0.958473
-0.899546 1.217412 0.958473
-0.839614 1.169878 0.930008
0.757254 1.212017 0.951217
-0.757254 1.212017 0.951217
0.850608 1.285648 0.989525
-0.850608 1.285648 0.989525
0.815180 1.291807 0.849741
0.760937 1.227139 0.852801
-0.760937 1.227139 0.852801
-0.815180 1.291807 0.849741
0.841453 1.253326 0.875293
-0.841453 1.253326 0.875293
0.799852 1.202821 0.876535
-0.799852 1.202821 0.876535
0.892981 1.158193 0.798245
0.921525 1.200281 0.800583
-0.921525 1.200281 0.800583
-0.892981 1.158193 0.798245
0.860224 1.169248 0.757032
-0.860224 1.169248 0.757032
0.899028 1.223642 0.755239
-0.899028 1.223642 0.755239
0.000000 2.017346 0.104755
0.000000 1.875528 0.107099
0.187689 1.868858 -0.023221
0.275891 1.975290 -0.005552
-0.187689 1.868858 -0.023221
-0.275891 1.975290 -0.005552
0.428473 1.766637 -0.259703
0.174059 1.781514 -0.127471
0.000000 1.843795 -0.200672
0.000000 1.798987 -0.378921
-0.174059 1.781514 -0.127471
-0.428473 1.766637 -0.259703
0.385334 1.994632 -0.263351
0.235740 2.155614 -0.017708
-0.235740 2.155614 -0.017708
-0.385334 1.994632 -0.263351
0.000000 1.967697 -0.343957
0.000000 2.200658 0.093984
0.257764 2.128045 -0.329497
0.155369 2.205264 -0.180162
-0.155369 2.205264 -0.180162
-0.257764 2.128045 -0.329497
0.000000 2.109747 -0.398875
0.000000 2.298058 -0.155048
0.176315 2.344259 -0.293071
0.114890 2.295436 -0.189552
-0.114890 2.295436 -0.189552
-0.176315 2.344259 -0.293071
0.000000 2.369301 -0.374721
0.000000 2.364653 -0.175453
0.114737 2.458488 -0.193221
0.087835 2.453274 -0.112227
-0.087835 2.453274 -0.112227
-0.114737 2.458488 -0.193221
0.000000 2.478000 -0.234020
0.000000 2.477527 -0.039177
0.045846 2.554690 -0.198799
0.037765 2.606214 -0.193527
-0.037765 2.606214 -0.193527
-0.045846 2.554690 -0.198799
0.000000 2.588591 -0.245988
0.000000 2.655134 -0.206794
0.000000 1.330820 -0.224212
0.328371 1.138244 -0.393257
0.437156 1.409784 -0.349684
0.000000 1.566893 -0.257722
-0.437156 1.409784 -0.349684
-0.328371 1.138244 -0.393257
0.642248 1.020594 -0.474889
0.759400 1.318770 -0.418077
-0.759400 1.318770 -0.418077
-0.642248 1.020594 -0.474889
0.910141 0.926979 -0.418308
1.045328 1.097825 -0.497570
-1.045328 1.097825 -0.497570
-0.910141 0.926979 -0.418308
0.000000 -1.058185 0.110947
0.415539 -1.041097 -0.166615
0.298695 -0.845205 -0.080111
0.000000 -0.962728 0.010192
-0.298695 -0.845205 -0.080111
-0.415539 -1.041097 -0.166615
0.748779 -0.778951 -0.281912
0.592269 -0.791690 -0.203973
-0.592269 -0.791690 -0.203973
-0.748779 -0.778951 -0.281912
1.106427 -0.367931 -0.353732
1.021717 -0.354407 -0.211576
-1.021717 -0.354407 -0.211576
-1.106427 -0.367931 -0.353732
0.599896 0.982511 -0.343469
0.892727 0.818464 -0.290542
-0.599896 0.982511 -0.343469
-0.892727 0.818464 -0.290542
0.309078 1.179133 -0.300401
-0.309078 1.179133 -0.300401
0.000000 1.263885 -0.066025
0.242994 -0.817350 -0.083475
0.000000 -0.986465 0.034182
-0.242994 -0.817350 -0.083475
0.483514 -0.660507 -0.249916
-0.483514 -0.660507 -0.249916
0.914566 -0.378901 -0.254349
-0.914566 -0.378901 -0.254349
0.000000 -0.399723 -1.553673
0.245537 -0.220736 -1.720219
0.268786 -0.574831 -1.582519
0.000000 -0.687325 -1.685276
-0.268786 -0.574831 -1.582519
-0.245537 -0.220736 -1.720219
0.365409 -0.234117 -1.657244
0.478469 -0.672475 -1.646874
-0.478469 -0.672475 -1.646874
-0.365409 -0.234117 -1.657244
0.904034 -0.181717 -1.331537
0.670969 -0.469731 -1.641199
-0.670969 -0.469731 -1.641199
-0.904034 -0.181717 -1.331537
0.859580 -1.029943 -0.351133
1.069988 -1.105413 -0.538188
-0.859580 -1.029943 -0.351133
-1.069988 -1.105413 -0.538188
0.462526 -1.303058 -0.010780
-0.462526 -1.303058 -0.010780
0.000000 -1.339190 0.160519
0.315288 -1.273411 -2.010560
0.000000 -1.413423 -2.076385
-0.315288 -1.273411 -2.010560
0.587053 -1.082111 -1.961978
-0.587053 -1.082111 -1.961978
0.720868 -0.848377 -1.859924
-0.720868 -0.848377 -1.859924
0.955191 -1.982916 -0.631862
1.115326 -1.546221 -0.646056
-0.955191 -1.982916 -0.631862
-1.115326 -1.546221 -0.646056
0.000000 -2.566803 -0.021762
0.453503 -2.349688 -0.238438
-0.453503 -2.349688 -0.238438
1.032530 -0.284985 -0.537870
1.096094 -0.745038 -0.779415
-1.032530 -0.284985 -0.537870
-1.096094 -0.745038 -0.779415
1.091607 -1.546277 -1.080194
-1.091607 -1.546277 -1.080194
0.397749 1.681240 -0.856077
0.000000 1.796968 -0.813938
-0.397749 1.681240 -0.856077
0.855985 1.407051 -0.943782
-0.855985 1.407051 -0.943782
1.036780 1.147838 -1.025310
-1.036780 1.147838 -1.025310
1.078899 -2.205378 -1.014834
-1.078899 -2.205378 -1.014834
0.583969 -2.601728 -1.097410
-0.583969 -2.601728 -1.097410
0.000000 -2.671867 -1.067240
0.851420 0.868432 0.698940
0.859293 0.816131 0.484502
0.719177 1.032268 0.732658
0.374716 1.115960 0.938731
-0.719177 1.032268 0.732658
-0.859293 0.816131 0.484502
-0.851420 0.868432 0.698940
-0.374716 1.115960 0.938731
0.841197 0.832481 -0.189920
0.601258 0.964069 -0.222853
-0.841197 0.832481 -0.189920
-0.601258 0.964069 -0.222853
0.297874 1.167204 -0.164728
-0.297874 1.167204 -0.164728
0.000000 1.254728 0.131148
0.286043 -0.807473 -0.034084
0.000000 -0.995677 0.141602
-0.286043 -0.807473 -0.034084
0.244848 -0.763105 1.022598
0.251598 -0.543493 1.183503
0.000000 -0.589125 1.377376
0.000000 -0.913980 1.131466
-0.251598 -0.543493 1.183503
-0.244848 -0.763105 1.022598
0.470931 -0.594822 -0.135609
-0.470931 -0.594822 -0.135609
0.653524 -0.364350 1.004751
0.671271 -0.317551 1.121943
-0.671271 -0.317551 1.121943
-0.653524 -0.364350 1.004751
0.876961 -0.276278 -0.258227
-0.876961 -0.276278 -0.258227
0.908563 -0.045456 0.700784
0.930944 0.097866 0.775169
-0.930944 0.097866 0.775169
-0.908563 -0.045456 0.700784
0.074135 -0.692823 0.080788
0.000000 -0.909228 0.231027
-0.074135 -0.692823 0.080788
0.078022 -0.765938 0.796242
0.000000 -1.046166 0.812096
-0.078022 -0.765938 0.796242
0.747773 0.863364 0.193374
0.577529 1.050325 0.225465
-0.577529 1.050325 0.225465
-0.747773 0.863364 0.193374
0.764075 0.835472 -0.000787
0.598685 1.030773 -0.095488
-0.598685 1.030773 -0.095488
-0.764075 0.835472 -0.000787
0.315272 1.170117 0.077763
-0.315272 1.170117 0.077763
0.332669 1.157193 0.298113
-0.332669 1.157193 0.298113
0.000000 1.228644 0.225278
0.000000 1.210832 0.268502
0.469139 -0.546390 -0.074738
0.206706 -0.643484 -0.026373
-0.469139 -0.546390 -0.074738
-0.206706 -0.643484 -0.026373
0.280849 -0.703011 0.959373
0.644387 -0.423097 0.903583
-0.280849 -0.703011 0.959373
-0.644387 -0.423097 0.903583
0.849070 -0.292772 -0.203128
-0.849070 -0.292772 -0.203128
0.895061 -0.152604 0.632475
-0.895061 -0.152604 0.632475
0.134962 -0.716854 0.666364
-0.134962 -0.716854 0.666364
0.137922 -0.627373 0.056269
-0.137922 -0.627373 0.056269
0.954524 0.153523 0.143708
0.920356 0.099102 0.110104
-0.954524 0.153523 0.143708
-0.920356 0.099102 0.110104
0.906800 -0.037373 -0.205409
0.875272 -0.119558 -0.112040
-0.906800 -0.037373 -0.205409
-0.875272 -0.119558 -0.112040
0.000000 1.231559 0.304351
0.352943 1.166553 0.338620
-0.352943 1.166553 0.338620
0.562722 1.096713 0.411506
-0.562722 1.096713 0.411506
0.699951 1.199858 0.725128
-0.699951 1.199858 0.725128
0.579794 1.247269 1.023936
-0.579794 1.247269 1.023936
0.000000 0.822276 1.418821
0.328663 0.912758 1.258993
0.432078 1.082655 1.221537
0.000000 0.993889 1.375002
-0.432078 1.082655 1.221537
-0.328663 0.912758 1.258993
0.581256 1.402284 1.023150
0.433844 1.443451 1.129489
-0.581256 1.402284 1.023150
-0.433844 1.443451 1.129489
0.000000 1.429007 1.243804
0.621116 1.331414 0.702661
-0.621116 1.331414 0.702661
0.549146 1.198486 0.566017
-0.549146 1.198486 0.566017
0.318539 1.238298 0.384725
-0.318539 1.238298 0.384725
0.000000 1.302655 0.298657
0.000000 1.063919 0.232732
0.471427 1.372433 0.267355
-0.471427 1.372433 0.267355
0.624223 1.352798 0.467149
-0.624223 1.352798 0.467149
0.619648 1.415304 0.601976
-0.619648 1.415304 0.601976
0.573877 1.646910 0.731761
-0.573877 1.646910 0.731761
0.393375 1.905298 0.676493
0.000000 1.811353 0.826725
-0.393375 1.905298 0.676493
0.568310 1.644559 0.289545
-0.568310 1.644559 0.289545
0.494014 -2.226515 -1.668015
0.000000 -2.410376 -1.672702
0.000000 -2.275853 -1.579655
0.436046 -2.119723 -1.575261
-0.494014 -2.226515 -1.668015
-0.436046 -2.119723 -1.575261
0.990266 -1.891301 -1.487712
0.857321 -1.836488 -1.413374
-0.990266 -1.891301 -1.487712
-0.857321 -1.836488 -1.413374
1.174802 -1.451155 -1.414903
0.998684 -1.440667 -1.336735
-1.174802 -1.451155 -1.414903
-0.998684 -1.440667 -1.336735
1.327985 -0.718501 -1.051378
1.112140 -0.871169 -1.082469
-1.327985 -0.718501 -1.051378
-1.112140 -0.871169 -1.082469
1.088908 -0.358904 -0.708913
1.007446 -0.379148 -0.657025
-1.088908 -0.358904 -0.708913
-1.007446 -0.379148 -0.657025
1.103385 -0.345866 -1.262915
-1.103385 -0.345866 -1.262915
0.786050 -0.947115 -1.689997
0.612992 -1.307026 -1.783187
-0.786050 -0.947115 -1.689997
-0.612992 -1.307026 -1.783187
0.376943 -1.548181 -1.919101
-0.376943 -1.548181 -1.919101
0.000000 -1.603205 -1.967430
0.771756 -0.561316 -1.408448
-0.771756 -0.561316 -1.408448
0.597749 -2.020876 -0.232564
0.567896 -1.408516 -0.032542
-0.597749 -2.020876 -0.232564
-0.567896 -1.408516 -0.032542
0.838481 -1.189601 -0.250834
0.809496 -1.846569 -0.466274
-0.838481 -1.189601 -0.250834
-0.809496 -1.846569 -0.466274
0.747235 -1.527434 -0.092956
0.833693 -1.544396 -0.261853
-0.747235 -1.527434 -0.092956
-0.833693 -1.544396 -0.261853
0.776213 -1.706538 -0.412654
0.682843 -1.788020 -0.351305
-0.776213 -1.706538 -0.412654
-0.682843 -1.788020 -0.351305
0.660599 -1.585986 -0.448432
0.667885 -1.526609 -0.434083
-0.660599 -1.585986 -0.448432
-0.667885 -1.526609 -0.434083
0.635331 -1.543053 -0.393275
0.597402 -1.589973 -0.408595
-0.635331 -1.543053 -0.393275
-0.597402 -1.589973 -0.408595
0.000000 -2.113027 -1.444533
0.442680 -1.976824 -1.395632
-0.442680 -1.976824 -1.395632
0.767028 -1.760009 -1.319093
-0.767028 -1.760009 -1.319093
0.904938 -1.418963 -1.226678
-0.904938 -1.418963 -1.226678
0.986885 -0.967868 -1.037249
-0.986885 -0.967868 -1.037249
0.963747 -0.435793 -0.773600
-0.963747 -0.435793 -0.773600
0.941712 -0.382953 -1.189494
-0.941712 -0.382953 -1.189494
0.694628 -1.034339 -1.617983
0.508539 -1.366308 -1.724276
-0.694628 -1.034339 -1.617983
-0.508539 -1.366308 -1.724276
0.265962 -1.494404 -1.794341
-0.265962 -1.494404 -1.794341
0.000000 -1.529823 -1.819928
0.772242 -0.686535 -1.387934
-0.772242 -0.686535 -1.387934
0.757669 -1.121970 -1.095211
0.746556 -0.300776 -0.459016
-0.757669 -1.121970 -1.095211
-0.746556 -0.300776 -0.459016
0.438892 -1.150758 -1.050197
0.375271 -0.227725 -0.356635
-0.375271 -0.227725 -0.356635
-0.438892 -1.150758 -1.050197
0.000000 -1.178976 -1.001873
0.000000 -0.159812 -0.387538
0.320043 0.103277 -1.346998
0.731069 -0.000097 -1.489018
-0.320043 0.103277 -1.346998
-0.731069 -0.000097 -1.489018
0.000000 0.195540 -1.440062
0.374328 -0.792183 -1.491921
0.701182 -0.816921 -1.518568
-0.374328 -0.792183 -1.491921
-0.701182 -0.816921 -1.518568
0.000000 -0.808057 -1.547771
0.000000 -1.645919 -1.251053
0.432049 -1.558701 -1.062579
-0.432049 -1.558701 -1.062579
0.000000 -1.965487 -1.351776
0.443821 -1.738230 -1.145027
-0.443821 -1.738230 -1.145027
0.654047 -1.410812 -1.251458
-0.654047 -1.410812 -1.251458
0.630574 -1.713438 -1.299313
-0.630574 -1.713438 -1.299313
0.514140 -1.088533 -1.775854
0.219935 -1.060115 -1.722908
0.213098 -1.351433 -1.759992
0.352326 -1.351041 -1.736973
-0.213098 -1.351433 -1.759992
-0.219935 -1.060115 -1.722908
-0.514140 -1.088533 -1.775854
-0.352326 -1.351041 -1.736973
0.000000 -1.053418 -1.722908
0.000000 -1.358130 -1.759992
0.871816 -0.217952 -1.301061
-0.871816 -0.217952 -1.301061
0.789622 -0.800465 -1.340393
-0.789622 -0.800465 -1.340393
0.645854 -1.076175 -1.589071
0.452798 -1.425817 -1.652060
-0.452798 -1.425817 -1.652060
-0.645854 -1.076175 -1.589071
0.239440 -1.481998 -1.712663
0.000000 -1.497949 -1.735986
-0.239440 -1.481998 -1.712663
0.672239 1.357255 -1.177518
0.759287 0.967469 -1.449410
0.779540 1.085240 -1.305911
0.553247 1.389104 -1.241255
-0.779540 1.085240 -1.305911
-0.759287 0.967469 -1.449410
-0.672239 1.357255 -1.177518
-0.553247 1.389104 -1.241255
0.326604 1.494191 -1.074306
0.262103 1.570793 -1.082117
-0.326604 1.494191 -1.074306
-0.262103 1.570793 -1.082117
0.000000 1.567687 -1.042549
0.000000 1.675993 -1.007737
0.784284 0.293990 -1.684068
0.353585 0.286205 -1.751635
0.476615 0.377754 -2.047593
0.639308 0.531805 -1.855312
-0.476615 0.377754 -2.047593
-0.353585 0.286205 -1.751635
-0.784284 0.293990 -1.684068
-0.639308 0.531805 -1.855312
0.145928 0.203204 -1.739213
0.225366 0.319082 -2.055122
-0.225366 0.319082 -2.055122
-0.145928 0.203204 -1.739213
0.000000 0.261989 -1.806016
0.000000 0.315629 -2.144051
0.961622 1.291219 -1.542700
0.685459 1.556999 -1.218313
-0.961622 1.291219 -1.542700
-0.685459 1.556999 -1.218313
0.305723 1.686365 -1.000438
-0.305723 1.686365 -1.000438
0.000000 1.713442 -0.917920
0.581702 0.666377 -2.315093
0.927657 0.946204 -2.075052
-0.581702 0.666377 -2.315093
-0.927657 0.946204 -2.075052
0.231151 0.512774 -2.395267
-0.231151 0.512774 -2.395267
0.000000 0.479898 -2.419240
0.704971 1.282614 -1.056232
0.992495 0.993626 -1.305636
0.714759 1.226047 -1.102381
0.538577 1.293713 -0.996811
-0.714759 1.226047 -1.102381
-0.992495 0.993626 -1.305636
-0.704971 1.282614 -1.056232
-0.538577 1.293713 -0.996811
0.361493 1.326781 -0.948239
0.309768 1.453051 -0.892010
-0.361493 1.326781 -0.948239
-0.309768 1.453051 -0.892010
0.000000 1.374533 -0.913075
0.000000 1.521289 -0.850567
0.697952 1.214600 -1.160297
-0.697952 1.214600 -1.160297
0.000000 1.645831 -0.992011
0.292521 1.510478 -1.037268
-0.292521 1.510478 -1.037268
0.524005 1.353085 -1.120463
-0.524005 1.353085 -1.120463
0.382698 1.797743 0.144141
0.252537 1.964794 0.407784
-0.382698 1.797743 0.144141
-0.252537 1.964794 0.407784
0.508719 1.484107 -0.050327
-0.508719 1.484107 -0.050327
0.000000 1.882512 0.427289
0.000000 1.083038 -0.118596
0.268197 2.015448 0.342781
0.514888 1.918037 0.148772
0.321663 2.065750 -0.072645
0.172966 2.097378 0.230884
-0.321663 2.065750 -0.072645
-0.514888 1.918037 0.148772
-0.268197 2.015448 0.342781
-0.172966 2.097378 0.230884
0.542490 1.624880 -0.246725
0.446846 1.844758 -0.333695
-0.446846 1.844758 -0.333695
-0.542490 1.624880 -0.246725
0.000000 2.033673 0.441764
0.000000 2.169405 0.255370
0.000000 1.313342 -0.516770
0.000000 1.908107 -0.485259
0.000000 2.061754 0.056557
0.442502 -0.485216 -0.000559
0.185430 -0.573291 0.073018
-0.442502 -0.485216 -0.000559
-0.185430 -0.573291 0.073018
0.309309 -0.756603 0.929058
0.692299 -0.494419 0.850538
-0.309309 -0.756603 0.929058
-0.692299 -0.494419 0.850538
0.821252 -0.254954 -0.098337
-0.821252 -0.254954 -0.098337
0.926535 -0.213230 0.607504
-0.926535 -0.213230 0.607504
0.144218 -0.710475 0.592924
-0.144218 -0.710475 0.592924
0.138431 -0.593484 0.055186
-0.138431 -0.593484 0.055186
0.904952 0.094521 0.088673
-0.904952 0.094521 0.088673
0.878051 -0.099020 -0.089959
-0.878051 -0.099020 -0.089959
0.070234 -0.720162 0.374694
0.000000 -0.925891 0.356893
-0.070234 -0.720162 0.374694
0.130498 -0.661910 0.351233
-0.130498 -0.661910 0.351233
0.137699 -0.638253 0.341680
-0.137699 -0.638253 0.341680
0.437298 -0.461658 0.013297
0.206700 -0.543908 0.078435
-0.437298 -0.461658 0.013297
-0.206700 -0.543908 0.078435
0.774168 -0.237037 -0.069354
-0.774168 -0.237037 -0.069354
0.604148 -0.440844 0.717906
0.304872 -0.609786 0.743324
0.301484 -0.472638 0.837191
0.597096 -0.274517 0.791518
-0.301484 -0.472638 0.837191
-0.304872 -0.609786 0.743324
-0.604148 -0.440844 0.717906
-0.597096 -0.274517 0.791518
0.816179 -0.239955 0.578071
0.774672 -0.093009 0.629244
-0.816179 -0.239955 0.578071
-0.774672 -0.093009 0.629244
0.149507 -0.569411 0.560750
0.186675 -0.377984 0.610359
-0.186675 -0.377984 0.610359
-0.149507 -0.569411 0.560750
0.127551 -0.543846 0.360516
0.168581 -0.375585 0.387649
-0.168581 -0.375585 0.387649
-0.127551 -0.543846 0.360516
0.818480 0.004706 0.240633
0.747664 0.115547 0.324509
-0.818480 0.004706 0.240633
-0.747664 0.115547 0.324509
0.418634 -0.376872 -0.004707
0.230394 -0.446968 -0.004059
-0.418634 -0.376872 -0.004707
-0.230394 -0.446968 -0.004059
0.669015 -0.137740 0.001910
-0.669015 -0.137740 0.001910
0.298954 -0.647718 0.758053
0.611677 -0.457458 0.728256
-0.611677 -0.457458 0.728256
-0.298954 -0.647718 0.758053
0.833040 -0.237313 0.573430
-0.833040 -0.237313 0.573430
0.132900 -0.618843 0.564619
-0.132900 -0.618843 0.564619
0.113563 -0.572963 0.357159
-0.113563 -0.572963 0.357159
0.838820 0.017372 0.202258
-0.838820 0.017372 0.202258
1.085783 -0.282367 -0.401865
1.249952 -0.746797 -0.899208
-1.249952 -0.746797 -0.899208
-1.085783 -0.282367 -0.401865
1.173480 -1.505419 -1.249116
-1.173480 -1.505419 -1.249116
0.341535 1.385978 -0.993599
0.000000 1.491900 -0.953286
-0.341535 1.385978 -0.993599
0.697046 1.293192 -1.095490
-0.697046 1.293192 -1.095490
1.035161 1.017065 -1.219958
-1.035161 1.017065 -1.219958
1.071154 -2.052995 -1.290609
-1.071154 -2.052995 -1.290609
0.554075 -2.432136 -1.435894
-0.554075 -2.432136 -1.435894
0.000000 -2.569522 -1.423410
1.228988 1.431251 -1.668890
0.908546 1.705784 -1.230729
-1.228988 1.431251 -1.668890
-0.908546 1.705784 -1.230729
0.467403 1.845935 -0.952938
-0.467403 1.845935 -0.952938
0.000000 1.871009 -0.858216
0.746565 0.797711 -2.708017
1.174347 1.085565 -2.355421
-0.746565 0.797711 -2.708017
-1.174347 1.085565 -2.355421
0.348157 0.653405 -2.827214
-0.348157 0.653405 -2.827214
0.000000 0.624399 -2.856166
1.349212 -0.045142 -0.457780
1.201676 -0.033325 -0.259789
-1.201676 -0.033325 -0.259789
-1.349212 -0.045142 -0.457780
1.618576 0.524645 -0.577500
1.386886 0.399530 -0.296242
-1.386886 0.399530 -0.296242
-1.618576 0.524645 -0.577500
1.016882 -0.051811 -0.296673
-1.016882 -0.051811 -0.296673
1.173952 0.331776 -0.219148
-1.173952 0.331776 -0.219148
0.405052 -0.044929 -1.738692
0.842962 0.003754 -1.518548
-0.842962 0.003754 -1.518548
-0.405052 -0.044929 -1.738692
0.208073 -0.040054 -1.702532
-0.208073 -0.040054 -1.702532
0.000000 -0.119964 -1.742242
0.280916 -0.254747 1.231238
0.000000 -0.271037 1.380451
-0.280916 -0.254747 1.231238
0.309084 0.022676 1.277102
0.000000 0.034576 1.383406
-0.309084 0.022676 1.277102
0.697827 -0.044088 1.097994
-0.697827 -0.044088 1.097994
0.657897 0.300086 1.027111
-0.657897 0.300086 1.027111
0.922696 0.315074 0.767010
-0.922696 0.315074 0.767010
0.863715 0.520295 0.750767
-0.863715 0.520295 0.750767
1.446135 0.018493 -0.795127
-1.446135 0.018493 -0.795127
1.658670 0.452721 -0.918970
-1.658670 0.452721 -0.918970
0.999005 0.194030 0.566008
-0.999005 0.194030 0.566008
1.022541 0.408398 0.454251
-1.022541 0.408398 0.454251
0.983454 0.031354 -0.240794
-0.983454 0.031354 -0.240794
1.085771 0.326921 -0.224045
-1.085771 0.326921 -0.224045
0.996323 0.309232 0.159717
-0.996323 0.309232 0.159717
0.958145 0.431835 0.139482
-0.958145 0.431835 0.139482
0.973636 0.156801 -0.156340
-0.973636 0.156801 -0.156340
1.001207 0.381030 -0.082930
-1.001207 0.381030 -0.082930
1.158259 -0.099154 -1.318467
-1.158259 -0.099154 -1.318467
1.141455 0.391396 -1.539852
-1.141455 0.391396 -1.539852
1.341141 0.008989 -1.077490
-1.341141 0.008989 -1.077490
1.469421 0.406174 -1.291160
-1.469421 0.406174 -1.291160
0.209854 1.916687 -0.071419
0.000000 1.921112 0.058901
-0.209854 1.916687 -0.071419
0.000000 1.889047 -0.248870
0.184642 1.828300 -0.175669
-0.184642 1.828300 -0.175669
0.197156 1.606184 -0.231715
0.209985 1.694571 0.012898
-0.197156 1.606184 -0.231715
-0.209985 1.694571 0.012898
0.000000 1.666932 -0.188580
0.000000 1.698996 0.121591
0.000000 1.257457 -0.242403
0.436152 1.510884 -0.137128
-0.436152 1.510884 -0.137128
0.285973 1.853375 0.357349
0.000000 1.769473 0.382651
-0.285973 1.853375 0.357349
0.437261 1.772874 0.143933
-0.437261 1.772874 0.143933
0.000000 1.291313 -0.293980
0.444735 1.533659 -0.115727
-0.444735 1.533659 -0.115727
0.261957 1.914716 0.381074
0.000000 1.892538 0.459272
-0.261957 1.914716 0.381074
0.447089 1.785167 0.185440
-0.447089 1.785167 0.185440
0.875015 0.915816 0.765536
0.511339 1.185110 0.983368
0.610311 1.013003 0.969176
0.815769 0.914823 0.848491
-0.610311 1.013003 0.969176
-0.511339 1.185110 0.983368
-0.875015 0.915816 0.765536
-0.815769 0.914823 0.848491
0.784657 0.543488 1.303283
1.037110 0.561341 0.876119
0.915052 0.699706 0.958049
0.788175 0.694148 1.173966
-0.915052 0.699706 0.958049
-1.037110 0.561341 0.876119
-0.784657 0.543488 1.303283
-0.788175 0.694148 1.173966
0.729776 0.668144 0.865207
0.681107 0.651258 0.971003
-0.729776 0.668144 0.865207
-0.681107 0.651258 0.971003
0.600063 0.765635 0.868750
0.680787 0.736062 0.821395
-0.600063 0.765635 0.868750
-0.680787 0.736062 0.821395
1.365066 0.858176 -0.635712
1.190839 0.640703 -0.332960
-1.190839 0.640703 -0.332960
-1.365066 0.858176 -0.635712
1.068231 0.607868 -0.252790
-1.068231 0.607868 -0.252790
0.319950 0.516672 1.267051
0.421175 0.715337 1.014646
-0.421175 0.715337 1.014646
-0.319950 0.516672 1.267051
0.000000 0.471749 1.403061
1.305766 0.898300 -0.987102
-1.305766 0.898300 -0.987102
0.993191 0.614781 -0.181874
-0.993191 0.614781 -0.181874
0.856953 0.707712 0.742360
0.950978 0.665666 0.480132
-0.950978 0.665666 0.480132
-0.856953 0.707712 0.742360
0.919191 0.641703 -0.020287
-0.919191 0.641703 -0.020287
0.885714 0.665007 0.170277
-0.885714 0.665007 0.170277
0.819349 0.694010 -1.563346
1.064409 0.727980 -1.434999
-1.064409 0.727980 -1.434999
-0.819349 0.694010 -1.563346
0.779326 0.840912 -1.584585
-0.779326 0.840912 -1.584585
0.973723 1.096906 -1.773139
-0.973723 1.096906 -1.773139
1.247864 0.755434 -1.252706
-1.247864 0.755434 -1.252706
1.187569 1.228618 -1.946077
-1.187569 1.228618 -1.946077
0.938637 0.751790 0.818015
0.859950 0.819096 0.897244
-0.859950 0.819096 0.897244
-0.938637 0.751790 0.818015
0.515012 0.872924 1.193064
0.576340 0.846868 1.115961
-0.576340 0.846868 1.115961
-0.515012 0.872924 1.193064
0.636128 0.714737 0.914252
-0.636128 0.714737 0.914252
0.702587 0.705838 0.840891
-0.702587 0.705838 0.840891
0.892153 0.539540 0.787233
0.701513 0.355596 1.065098
-0.701513 0.355596 1.065098
-0.892153 0.539540 0.787233
0.863639 0.893444 0.659806
0.413652 1.125433 0.918495
-0.863639 0.893444 0.659806
-0.413652 1.125433 0.918495
0.463209 0.729437 1.049437
-0.463209 0.729437 1.049437
0.866344 0.701781 0.747137
-0.866344 0.701781 0.747137
4 0 1 2 3
4 4 5 6 7
4 3 2 8 9
4 10 4 7 11
4 12 13 1 0
4 5 14 15 6
4 13 12 9 8
4 14 10 11 15
4 12 16 17 9
4 18 19 15 11
4 16 12 0 20
4 19 21 6 15
4 9 17 22 3
4 23 18 11 7
4 3 22 20 0
4 21 23 7 6
4 22 24 25 20
4 26 27 23 21
4 17 28 24 22
4 27 29 18 23
4 20 25 30 16
4 31 26 21 19
4 16 30 28 17
4 29 31 19 18
4 30 32 33 28
4 34 35 31 29
4 25 36 32 30
4 35 37 26 31
4 28 33 38 24
4 39 34 29 27
4 24 38 36 25
4 37 39 27 26
4 38 40 41 36
4 42 43 39 37
4 33 44 40 38
4 43 45 34 39
4 36 41 46 32
4 47 42 37 35
4 32 46 44 33
4 45 47 35 34
4 46 48 49 44
4 50 51 47 45
4 41 52 48 46
4 51 53 42 47
4 44 49 54 40
4 55 50 45 43
4 40 54 52 41
4 53 55 43 42
4 48 52 54 49
4 55 53 51 50
4 56 57 58 59
4 60 57 56 61
4 62 63 64 65
4 64 66 67 65
4 59 58 63 62
4 66 60 61 67
4 62 68 69 59
4 70 71 67 61
4 65 72 68 62
4 71 72 65 67
4 59 69 73 56
4 73 70 61 56
4 68 74 75 69
4 76 77 71 70
4 72 78 74 68
4 77 78 72 71
4 69 75 79 73
4 79 76 70 73
4 74 80 81 75
4 82 83 77 76
4 78 84 80 74
4 83 84 78 77
4 75 81 85 79
4 85 82 76 79
4 80 86 87 81
4 88 89 83 82
4 84 90 86 80
4 89 90 84 83
4 81 87 91 85
4 91 88 82 85
4 86 92 93 87
4 94 95 89 88
4 90 96 92 86
4 95 96 90 89
4 87 93 97 91
4 97 94 88 91
4 92 96 97 93
4 97 96 95 94
4 98 99 100 101
4 102 103 98 101
4 99 104 105 100
4 106 107 103 102
4 104 108 109 105
4 110 111 107 106
4 112 113 114 115
4 116 117 112 115
4 113 118 119 114
4 120 121 117 116
4 118 122 123 119
4 124 125 121 120
4 108 104 126 127
4 128 107 111 129
4 104 99 130 126
4 131 103 107 128
4 99 98 132 130
4 132 98 103 131
4 115 114 133 134
4 135 116 115 134
4 114 119 136 133
4 137 120 116 135
4 119 123 138 136
4 139 124 120 137
4 140 141 142 143
4 144 145 140 143
4 141 146 147 142
4 148 149 145 144
4 146 150 151 147
4 152 153 149 148
4 122 118 154 155
4 156 121 125 157
4 118 113 158 154
4 159 117 121 156
4 113 112 160 158
4 160 112 117 159
4 143 142 161 162
4 163 144 143 162
4 142 147 164 161
4 165 148 144 163
4 147 151 166 164
4 167 152 148 165
4 155 154 168 169
4 170 156 157 171
4 158 160 172 173
4 172 160 159 174
4 175 122 155 176
4 157 125 177 178
4 176 155 169 179
4 171 157 178 180
4 100 181 182 101
4 182 183 102 101
4 105 184 181 100
4 183 185 106 102
4 109 186 184 105
4 185 187 110 106
4 168 188 179 169
4 180 189 170 171
4 173 190 188 168
4 189 191 174 170
4 172 192 190 173
4 191 192 172 174
4 193 194 195 196
4 197 198 199 200
4 201 127 126 202
4 128 129 203 204
4 130 205 202 126
4 204 206 131 128
4 132 207 205 130
4 206 207 132 131
4 133 208 209 134
4 209 210 135 134
4 211 212 213 214
4 213 215 216 214
4 136 217 208 133
4 210 218 137 135
4 219 220 212 211
4 215 221 222 216
4 138 223 217 136
4 218 224 139 137
4 225 226 220 219
4 221 227 228 222
4 208 229 230 209
4 230 231 210 209
4 232 211 214 233
4 214 216 234 233
4 194 235 236 195
4 237 238 198 197
4 235 239 240 236
4 241 242 238 237
4 239 201 202 240
4 204 203 242 241
4 205 243 240 202
4 241 244 206 204
4 243 245 236 240
4 237 246 244 241
4 207 247 243 205
4 244 247 207 206
4 247 248 245 243
4 246 248 247 244
4 208 217 249 250
4 251 218 210 252
4 219 211 253 254
4 255 216 222 256
4 217 223 257 249
4 258 224 218 251
4 225 219 254 259
4 256 222 228 260
4 211 232 261 253
4 262 234 216 255
4 229 208 250 263
4 252 210 231 264
4 265 225 259 266
4 260 228 267 268
4 269 265 266 270
4 268 267 271 272
4 223 269 270 257
4 272 271 224 258
4 245 248 273 274
4 273 248 246 275
4 236 245 274 276
4 275 246 237 277
4 195 236 276 278
4 277 237 197 279
4 196 195 278 280
4 279 197 200 281
4 282 283 284 285
4 286 287 282 285
4 283 196 280 284
4 281 200 287 286
4 284 280 288 289
4 290 281 286 291
4 285 284 289 292
4 291 286 285 292
4 280 278 293 288
4 294 279 281 290
4 278 276 295 293
4 296 277 279 294
4 276 274 297 295
4 298 275 277 296
4 274 273 299 297
4 299 273 275 298
4 297 299 300 301
4 300 299 298 302
4 295 297 301 303
4 302 298 296 304
4 293 295 303 305
4 304 296 294 306
4 288 293 305 307
4 306 294 290 308
4 292 289 309 310
4 311 291 292 310
4 289 288 307 309
4 308 290 291 311
4 301 312 305 303
4 306 313 302 304
4 312 309 307 305
4 308 311 313 306
4 314 315 316 317
4 316 315 318 319
4 320 314 317 321
4 319 318 322 323
4 324 320 321 325
4 323 322 326 327
4 328 324 325 329
4 327 326 330 331
4 332 328 329 333
4 331 330 334 335
4 150 332 333 336
4 335 334 153 337
4 164 166 338 339
4 340 167 165 341
4 161 164 339 342
4 341 165 163 343
4 162 161 342 344
4 343 163 162 344
4 166 151 345 338
4 346 152 167 340
4 151 150 336 345
4 337 153 152 346
4 158 173 347 348
4 349 174 159 350
4 168 154 351 352
4 353 156 170 354
4 173 168 352 347
4 354 170 174 349
4 154 158 348 351
4 350 159 156 353
4 351 348 355 356
4 357 350 353 358
4 347 352 359 360
4 361 354 349 362
4 352 351 356 359
4 358 353 354 361
4 348 347 360 355
4 362 349 350 357
4 355 360 363 364
4 365 362 357 366
4 359 356 367 368
4 369 358 361 370
4 360 359 368 363
4 370 361 362 365
4 356 355 364 367
4 366 357 358 369
4 367 364 363 368
4 365 366 369 370
4 317 316 371 372
4 371 316 319 373
4 321 317 372 374
4 373 319 323 375
4 325 321 374 376
4 375 323 327 377
4 329 325 376 378
4 377 327 331 379
4 333 329 378 380
4 379 331 335 381
4 336 333 380 382
4 381 335 337 383
4 339 338 384 385
4 386 340 341 387
4 342 339 385 388
4 387 341 343 389
4 344 342 388 390
4 389 343 344 390
4 338 345 391 384
4 392 346 340 386
4 345 336 382 391
4 383 337 346 392
4 380 378 393 394
4 395 379 381 396
4 393 397 398 394
4 399 400 395 396
4 397 401 402 398
4 402 401 400 399
4 394 398 403 404
4 405 399 396 406
4 398 402 407 403
4 407 402 399 405
4 404 403 408 409
4 410 405 406 411
4 403 407 412 408
4 412 407 405 410
4 413 401 397 414
4 400 401 413 415
4 371 416 417 372
4 418 416 371 373
4 416 413 414 417
4 415 413 416 418
4 376 419 393 378
4 395 420 377 379
4 393 419 414 397
4 415 420 395 400
4 414 419 421 417
4 422 420 415 418
4 374 421 419 376
4 420 422 375 377
4 372 417 421 374
4 422 418 373 375
4 423 424 425 426
4 427 428 429 430
4 424 431 432 425
4 432 431 428 427
4 412 431 424 408
4 428 431 412 410
4 409 408 424 423
4 428 410 411 429
3 404 433 394
3 396 434 406
4 382 433 435 391
4 436 434 383 392
4 433 404 409 435
4 411 406 434 436
4 384 437 438 385
4 439 440 386 387
4 437 423 426 438
4 430 429 440 439
4 391 435 437 384
4 440 436 392 386
4 435 409 423 437
4 429 411 436 440
4 388 441 442 390
4 442 443 389 390
4 441 425 432 442
4 432 427 443 442
4 385 438 441 388
4 443 439 387 389
4 438 426 425 441
4 427 430 439 443
4 394 433 382 380
4 383 434 396 381
4 444 445 446 447
4 448 449 450 451
4 452 444 447 453
4 451 450 454 455
4 456 452 453 457
4 455 454 456 457
4 458 459 460 461
4 462 463 464 465
4 459 466 467 460
4 468 469 463 462
4 466 470 471 467
4 471 470 469 468
4 447 446 472 473
4 474 448 451 475
4 453 447 473 476
4 475 451 455 477
4 457 453 476 478
4 477 455 457 478
4 461 460 479 480
4 481 462 465 482
4 460 467 483 479
4 484 468 462 481
4 467 471 485 483
4 485 471 468 484
4 486 487 488 489
4 490 491 492 493
4 494 486 489 495
4 493 492 496 497
4 498 494 495 499
4 497 496 498 499
4 487 445 500 488
4 501 449 491 490
4 452 456 502 503
4 502 456 454 504
4 444 452 503 505
4 504 454 450 506
4 445 444 505 500
4 506 450 449 501
4 488 500 505 489
4 506 501 490 493
4 489 505 503 495
4 504 506 493 497
4 495 503 502 499
4 502 504 497 499
4 309 312 507 508
4 509 313 311 510
4 312 301 511 507
4 512 302 313 509
4 310 309 508 513
4 510 311 310 513
4 301 300 514 511
4 514 300 302 512
4 515 516 517 518
4 519 520 521 522
4 516 523 524 517
4 525 526 520 519
4 527 515 518 528
4 522 521 527 528
4 523 529 530 524
4 530 529 526 525
4 531 528 518 517
4 522 528 531 519
4 250 249 532 533
4 534 251 252 535
4 254 253 536 537
4 538 255 256 539
4 249 257 540 532
4 541 258 251 534
4 259 254 537 542
4 539 256 260 543
4 253 261 544 536
4 545 262 255 538
4 263 250 533 546
4 535 252 264 547
4 266 259 542 548
4 543 260 268 549
4 270 266 548 550
4 549 268 272 551
4 229 552 553 230
4 553 554 231 230
4 552 232 233 553
4 233 234 554 553
4 232 552 555 261
4 556 554 234 262
4 552 229 263 555
4 264 231 554 556
4 261 555 557 544
4 558 556 262 545
4 555 263 546 557
4 547 264 556 558
4 533 532 559 560
4 561 534 535 562
4 532 540 563 559
4 564 541 534 561
4 565 566 567 568
4 569 570 571 572
4 573 565 568 574
4 572 571 575 576
4 566 577 578 567
4 579 580 570 569
4 577 581 582 578
4 583 584 580 579
4 585 573 574 586
4 576 575 587 588
4 560 559 589 590
4 591 561 562 592
4 559 563 593 589
4 594 564 561 591
4 560 590 582 581
4 583 592 562 584
4 563 585 586 593
4 588 587 564 594
4 536 595 596 537
4 597 598 538 539
4 595 566 565 596
4 571 570 598 597
4 537 596 599 542
4 600 597 539 543
4 596 565 573 599
4 575 571 597 600
4 544 601 595 536
4 598 602 545 538
4 601 577 566 595
4 570 580 602 598
4 557 603 601 544
4 602 604 558 545
4 603 581 577 601
4 580 584 604 602
4 542 599 605 548
4 606 600 543 549
4 599 573 585 605
4 587 575 600 606
4 540 605 585 563
4 587 606 541 564
4 533 603 557 546
4 558 604 535 547
4 533 560 581 603
4 584 562 535 604
4 257 270 550 540
4 551 272 258 541
4 548 605 540 550
4 541 606 549 551
4 332 607 608 328
4 609 610 334 330
4 607 175 176 608
4 178 177 610 609
4 328 608 611 324
4 612 609 330 326
4 608 176 179 611
4 180 178 609 612
4 181 613 614 182
4 614 615 183 182
4 613 494 498 614
4 498 496 615 614
4 184 616 613 181
4 615 617 185 183
4 616 486 494 613
4 496 492 617 615
4 186 618 616 184
4 617 619 187 185
4 618 487 486 616
4 492 491 619 617
4 188 620 611 179
4 612 621 189 180
4 620 320 324 611
4 326 322 621 612
4 190 622 620 188
4 621 623 191 189
4 622 314 320 620
4 322 318 623 621
4 192 624 622 190
4 623 624 192 191
4 624 315 314 622
4 318 315 624 623
4 473 472 625 626
4 627 474 475 628
4 476 473 626 629
4 628 475 477 630
4 478 476 629 631
4 630 477 478 631
4 480 479 632 633
4 634 481 482 635
4 479 483 636 632
4 637 484 481 634
4 483 485 638 636
4 638 485 484 637
4 122 639 640 123
4 641 642 125 124
4 639 643 644 640
4 645 646 642 641
4 123 640 647 138
4 648 641 124 139
4 640 644 649 647
4 650 645 641 648
4 146 651 652 150
4 653 654 149 153
4 651 459 458 652
4 464 463 654 653
4 141 655 651 146
4 654 656 145 149
4 655 466 459 651
4 463 469 656 654
4 140 657 655 141
4 656 657 140 145
4 657 470 466 655
4 469 470 657 656
4 212 658 659 213
4 659 660 215 213
4 658 661 662 659
4 662 663 660 659
4 220 664 658 212
4 660 665 221 215
4 664 666 661 658
4 663 667 665 660
4 226 668 664 220
4 665 669 227 221
4 668 670 666 664
4 667 671 669 665
4 175 672 639 122
4 642 673 177 125
4 672 674 643 639
4 646 675 673 642
4 225 676 668 226
4 669 677 228 227
4 676 678 670 668
4 671 679 677 669
4 138 647 680 223
4 681 648 139 224
4 647 649 682 680
4 683 650 648 681
4 265 684 676 225
4 677 685 267 228
4 684 686 678 676
4 679 687 685 677
4 269 688 684 265
4 685 689 271 267
4 688 690 686 684
4 687 691 689 685
4 223 680 688 269
4 689 681 224 271
4 680 682 690 688
4 691 683 681 689
4 150 652 692 332
4 693 653 153 334
4 652 458 694 692
4 695 464 653 693
4 607 696 672 175
4 673 697 610 177
4 696 698 674 672
4 675 699 697 673
4 332 692 696 607
4 697 693 334 610
4 692 694 698 696
4 699 695 693 697
4 531 517 700 701
4 702 519 531 701
4 524 530 703 704
4 703 530 525 705
4 517 524 704 700
4 705 525 519 702
4 700 704 706 707
4 708 705 702 709
4 704 703 710 706
4 710 703 705 708
4 701 700 707 711
4 709 702 701 711
4 710 711 707 706
4 709 711 710 708
4 514 712 713 511
4 714 712 514 512
4 508 715 716 513
4 716 717 510 513
4 511 713 718 507
4 719 714 512 509
4 507 718 715 508
4 717 719 509 510
4 712 720 721 713
4 722 720 712 714
4 720 529 523 721
4 526 529 720 722
4 715 723 724 716
4 724 725 717 716
4 723 515 527 724
4 527 521 725 724
4 713 721 726 718
4 727 722 714 719
4 721 523 516 726
4 520 526 722 727
4 718 726 723 715
4 725 727 719 717
4 726 516 515 723
4 521 520 727 725
4 728 729 730 731
4 732 733 734 735
4 736 737 738 739
4 740 741 742 743
4 739 738 744 745
4 746 740 743 747
4 731 730 748 749
4 750 732 735 751
4 643 752 753 644
4 754 755 646 645
4 752 109 108 753
4 111 110 755 754
4 127 756 753 108
4 754 757 129 111
4 756 649 644 753
4 645 650 757 754
4 283 758 759 196
4 760 761 287 200
4 758 661 666 759
4 667 663 761 760
4 282 762 758 283
4 761 762 282 287
4 762 662 661 758
4 663 662 762 761
4 674 763 752 643
4 755 764 675 646
4 763 186 109 752
4 110 187 764 755
4 201 765 756 127
4 757 766 203 129
4 765 682 649 756
4 650 683 766 757
4 193 767 768 194
4 769 770 199 198
4 767 670 678 768
4 679 671 770 769
4 239 771 765 201
4 766 772 242 203
4 771 690 682 765
4 683 691 772 766
4 235 773 771 239
4 772 774 238 242
4 773 686 690 771
4 691 687 774 772
4 194 768 773 235
4 774 769 198 238
4 768 678 686 773
4 687 679 769 774
4 458 775 776 694
4 777 778 464 695
4 775 445 487 776
4 491 449 778 777
4 445 775 779 446
4 780 778 449 448
4 775 458 461 779
4 465 464 778 780
4 446 779 781 472
4 782 780 448 474
4 779 461 480 781
4 482 465 780 782
4 698 783 763 674
4 764 784 699 675
4 783 618 186 763
4 187 619 784 764
4 694 776 783 698
4 784 777 695 699
4 776 487 618 783
4 619 491 777 784
4 472 781 785 625
4 786 782 474 627
4 781 480 633 785
4 635 482 782 786
4 737 787 788 738
4 789 790 741 740
4 787 728 731 788
4 735 734 790 789
4 729 791 792 730
4 793 794 733 732
4 791 736 739 792
4 743 742 794 793
4 730 792 795 748
4 796 793 732 750
4 792 739 745 795
4 747 743 793 796
4 738 788 797 744
4 798 789 740 746
4 788 731 749 797
4 751 735 789 798
4 748 795 797 749
4 798 796 750 751
4 795 745 744 797
4 746 747 796 798
4 670 799 800 666
4 801 802 671 667
4 799 737 736 800
4 742 741 802 801
4 803 193 196 804
4 200 199 805 806
4 804 729 728 803
4 734 733 806 805
4 759 807 804 196
4 806 808 760 200
4 807 791 729 804
4 733 794 808 806
4 666 800 807 759
4 808 801 667 760
4 800 736 791 807
4 794 742 801 808
4 767 809 799 670
4 802 810 770 671
4 809 787 737 799
4 741 790 810 802
4 193 803 809 767
4 810 805 199 770
4 803 728 787 809
4 790 734 805 810
