ply
format ascii 1.0
comment Created by Blender 2.61 (sub 0) - www.blender.org, source file: 'hand_02.blend'
element vertex 239
property float x
property float y
property float z
element face 235
property list uchar uint vertex_indices
end_header
-0.622675 -0.065016 -0.210012
-0.601463 0.153696 -0.236808
-0.500838 0.121187 -0.577196
-0.534552 -0.075885 -0.515152
0.097311 -0.139189 -0.317494
0.120209 -0.056404 -0.043067
-0.109639 -0.042709 -0.072220
-0.075075 -0.094477 -0.385233
-0.134719 -0.224400 -0.587777
0.211096 -0.265845 -0.719817
-0.338902 -0.075332 -0.355967
-0.328397 -0.045248 -0.100615
-0.381642 0.330162 -0.340831
-0.396367 0.261350 -0.082297
-0.073890 0.408373 -0.021487
-0.079183 0.387026 -0.380855
-0.081970 0.346052 -0.642896
0.151790 0.343221 -0.350207
0.220708 0.277926 -0.091195
0.433560 0.222254 0.044534
0.309042 0.164092 -0.772767
0.482414 -0.482559 1.497754
0.428422 -0.461420 1.300182
0.584381 -0.454149 1.273737
0.647195 -0.465484 1.443300
0.295621 -0.102832 0.941715
0.364841 0.044574 1.131793
0.344876 0.113617 1.027106
0.285248 -0.069277 0.909472
0.590326 0.021226 1.073920
0.575061 0.086920 0.969325
0.546972 -0.112805 0.908528
0.541793 -0.080735 0.876412
0.327920 0.138340 0.958065
0.267923 -0.062850 0.850801
0.562968 0.108280 0.899872
0.529850 -0.075743 0.817436
0.352421 -0.230411 1.146729
0.405397 -0.111326 1.289248
0.365056 -0.252737 1.187820
0.416291 -0.143007 1.328678
0.605464 -0.119480 1.233001
0.612039 -0.148007 1.272326
0.575561 -0.235415 1.115164
0.583427 -0.256437 1.156616
0.377256 -0.291138 1.204147
0.437948 -0.245068 1.384934
0.628067 -0.245907 1.328194
0.589439 -0.293160 1.173475
0.193707 0.000172 0.626393
0.238495 0.245146 0.669038
0.210261 0.301779 0.560860
0.178699 0.028661 0.588338
0.512271 0.188320 0.607478
0.484627 0.239423 0.494978
0.472252 -0.027222 0.586720
0.463872 -0.010113 0.536869
-0.552806 -0.154931 0.427798
-0.620648 0.075745 0.383380
-0.544390 -0.147907 0.513677
-0.624094 0.069944 0.498398
0.473272 0.237197 0.399128
0.454090 -0.020933 0.450575
0.310976 -0.119419 0.131119
-0.103487 0.004789 0.539023
0.146909 0.003339 0.488433
-0.078308 0.034550 0.618575
-0.335815 -0.067513 0.484002
-0.315396 -0.046523 0.573637
-0.077572 0.347228 0.467803
-0.354912 0.245928 0.453300
-0.404490 0.189957 0.550192
-0.082599 0.309829 0.612011
0.201810 0.302766 0.465243
0.265835 0.164264 1.020875
0.270455 -0.035785 0.931967
0.185665 0.028510 0.651454
0.240198 0.251335 0.687800
-0.013602 -0.053994 0.940674
-0.071106 0.005007 0.665734
0.004777 0.166804 1.060902
-0.066858 0.277696 0.727556
0.392134 -0.446138 1.618316
0.342012 -0.439603 1.430467
0.331357 -0.265808 1.322865
0.347556 -0.212312 1.491333
0.320634 -0.226963 1.303481
0.320180 -0.108649 1.428065
0.174809 -0.466593 1.443158
0.102246 -0.289005 1.331537
0.084610 -0.249093 1.311968
0.139244 -0.234505 1.530487
0.105245 -0.127300 1.467096
0.214172 -0.485067 1.660381
0.313270 -0.204894 1.257963
0.312702 -0.078408 1.384819
0.284896 -0.074519 1.031847
0.290420 0.072414 1.210644
0.071920 -0.226192 1.266267
0.012577 -0.094409 1.040833
0.092664 -0.094327 1.423732
0.040680 0.069081 1.250795
0.274653 0.142089 1.096486
0.277528 -0.040388 0.996348
-0.000536 -0.059459 1.005211
0.019371 0.141634 1.136560
-0.148580 -0.456618 1.627698
-0.147553 -0.448351 1.419493
-0.000528 -0.402397 1.435714
0.010917 -0.398646 1.618044
-0.302847 -0.126685 1.004480
-0.353800 0.034526 1.196167
-0.367867 0.097893 1.083690
-0.315870 -0.096160 0.967813
-0.121611 0.068547 1.199961
-0.130020 0.129885 1.088703
-0.059832 -0.073682 1.040228
-0.067501 -0.043207 1.004699
-0.372458 0.118288 1.010129
-0.316745 -0.093899 0.905723
-0.128718 0.148181 1.016341
-0.062790 -0.041008 0.943838
-0.261846 -0.238790 1.228588
-0.302525 -0.109250 1.371983
-0.253784 -0.257843 1.273953
-0.291857 -0.137835 1.415628
-0.100245 -0.067106 1.371337
-0.094786 -0.093764 1.413883
-0.047277 -0.188328 1.259608
-0.044185 -0.207271 1.303854
-0.232489 -0.292754 1.296690
-0.248802 -0.233094 1.484520
-0.058493 -0.186524 1.481361
-0.029335 -0.242051 1.325212
-0.297500 -0.053883 0.643426
-0.393426 0.192074 0.694735
-0.111940 0.256668 0.733497
-0.079281 0.027416 0.685735
-0.442191 0.026130 0.848458
-0.358243 -0.110686 0.788850
-0.319085 -0.078890 0.630512
-0.394751 0.088120 0.643911
-0.548282 -0.188167 0.742703
-0.543675 -0.162175 0.574303
-0.629375 -0.032982 0.829012
-0.620812 0.035647 0.614949
-0.285093 -0.410084 1.322428
-0.283349 -0.407209 1.175664
-0.323534 -0.280275 1.090316
-0.363441 -0.247127 1.215312
-0.339172 -0.254106 1.073397
-0.401953 -0.176407 1.161910
-0.391444 -0.464372 1.153012
-0.474439 -0.348923 1.054571
-0.495095 -0.323543 1.036198
-0.506619 -0.311918 1.205710
-0.550746 -0.240162 1.150890
-0.402689 -0.479614 1.319372
-0.341929 -0.237779 1.038348
-0.407811 -0.154400 1.128300
-0.356478 -0.140035 0.865280
-0.435096 -0.043313 0.993698
-0.501718 -0.307815 0.999998
-0.538021 -0.216083 0.821588
-0.560928 -0.217354 1.116179
-0.612715 -0.104071 0.976637
-0.444561 0.008501 0.905830
-0.365034 -0.115624 0.837263
-0.550735 -0.192376 0.792380
-0.626863 -0.051446 0.887583
0.634631 -0.156625 -0.352637
0.613453 0.007823 0.023962
0.635457 -0.151661 0.121050
0.754965 -0.330644 0.030969
0.477869 0.048939 -0.595155
0.524210 0.127976 -0.048599
0.433552 -0.357722 -0.319501
0.585507 -0.477445 0.044918
0.318380 -0.318137 -0.526496
0.429519 -0.214083 0.042552
0.434872 -0.303821 0.140856
0.378169 -0.171952 0.082025
0.203051 -0.182362 -0.277891
0.843782 -0.413986 0.704641
0.727156 -0.276782 0.601302
0.588653 -0.401504 0.586631
0.663051 -0.541413 0.668785
0.712097 -0.192571 0.322213
0.855842 -0.394898 0.299791
0.832721 -0.367343 0.184558
0.699910 -0.174858 0.293549
0.650841 -0.538096 0.289433
0.625556 -0.512556 0.182268
0.511289 -0.369277 0.319889
0.498150 -0.352721 0.297005
0.710397 -0.203237 0.387690
0.840322 -0.388076 0.449040
0.639092 -0.529272 0.433208
0.516837 -0.375178 0.383338
0.837178 -0.460503 0.723445
0.699387 -0.557655 0.696108
0.695172 -0.503833 0.470004
0.793825 -0.434611 0.477766
0.810627 -0.415250 0.467967
0.673888 -0.511194 0.457208
0.676604 -0.527272 0.627764
0.815846 -0.429097 0.655389
0.481604 -0.278600 1.393363
0.595060 -0.279101 1.359503
0.613645 -0.440940 1.439343
0.508277 -0.451859 1.474163
0.635072 -0.460847 1.461694
0.500011 -0.474843 1.506327
0.497734 -0.300555 1.408610
0.589357 -0.300959 1.381265
0.353918 -0.403304 1.607609
0.223641 -0.431801 1.638402
0.194564 -0.279463 1.556279
0.315586 -0.266569 1.533531
0.213465 -0.291992 1.567261
0.308968 -0.281817 1.549310
0.378942 -0.458128 1.644023
0.248666 -0.486625 1.674816
-0.187079 -0.271818 1.522895
-0.080776 -0.245805 1.521130
-0.031507 -0.376339 1.606098
-0.130773 -0.412420 1.612107
0.000691 -0.402165 1.637064
-0.133891 -0.451081 1.645210
-0.175828 -0.282618 1.543077
-0.082519 -0.259784 1.541528
-0.302766 -0.411669 1.327352
-0.392818 -0.464986 1.324903
-0.479085 -0.324991 1.225654
-0.368765 -0.276466 1.233614
-0.450980 -0.337020 1.248773
-0.374720 -0.303477 1.254276
-0.283459 -0.426315 1.349466
-0.389975 -0.489380 1.346569
4 0 1 2 3
4 4 5 6 7
4 4 7 8 9
4 10 7 6 11
4 10 11 0 3
4 7 10 3 8
4 12 13 14 15
4 12 15 16 2
4 13 12 2 1
4 17 15 14 18
4 19 20 17 18
4 20 16 15 17
4 21 22 23 24
4 25 26 27 28
4 26 29 30 27
4 31 25 28 32
4 29 31 32 30
4 28 27 33 34
4 27 30 35 33
4 32 28 34 36
4 30 32 36 35
4 37 38 26 25
4 39 40 38 37
4 38 41 29 26
4 40 42 41 38
4 43 37 25 31
4 44 39 37 43
4 41 43 31 29
4 42 44 43 41
4 45 46 40 39
4 22 21 46 45
4 46 47 42 40
4 48 45 39 44
4 23 22 45 48
4 47 48 44 42
4 24 23 48 47
4 49 50 51 52
4 34 33 50 49
4 50 53 54 51
4 33 35 53 50
4 55 49 52 56
4 36 34 49 55
4 53 55 56 54
4 35 36 55 53
4 57 58 1 0
4 59 60 58 57
4 61 62 63 19
4 54 56 62 61
4 64 65 52 66
4 6 5 65 64
4 65 62 56 52
4 5 63 62 65
4 57 67 68 59
4 0 11 67 57
4 67 64 66 68
4 11 6 64 67
4 69 70 71 72
4 14 13 70 69
4 70 58 60 71
4 13 1 58 70
4 61 73 51 54
4 19 18 73 61
4 73 69 72 51
4 18 14 69 73
4 74 75 76 77
4 77 76 52 51
4 75 78 79 76
4 76 79 66 52
4 80 74 77 81
4 81 77 51 72
4 78 80 81 79
4 79 81 72 66
4 82 83 84 85
4 85 84 86 87
4 83 88 89 84
4 84 89 90 86
4 91 85 87 92
4 88 93 91 89
4 89 91 92 90
4 87 86 94 95
4 95 94 96 97
4 86 90 98 94
4 94 98 99 96
4 92 87 95 100
4 100 95 97 101
4 90 92 100 98
4 98 100 101 99
4 102 103 75 74
4 103 104 78 75
4 105 102 74 80
4 104 105 80 78
4 97 96 103 102
4 96 99 104 103
4 101 97 102 105
4 99 101 105 104
4 93 88 83 82
4 106 107 108 109
4 110 111 112 113
4 111 114 115 112
4 116 110 113 117
4 114 116 117 115
4 113 112 118 119
4 112 115 120 118
4 117 113 119 121
4 115 117 121 120
4 122 123 111 110
4 124 125 123 122
4 123 126 114 111
4 125 127 126 123
4 128 122 110 116
4 129 124 122 128
4 126 128 116 114
4 127 129 128 126
4 130 131 125 124
4 107 106 131 130
4 131 132 127 125
4 133 130 124 129
4 108 107 130 133
4 132 133 129 127
4 109 108 133 132
4 134 135 71 68
4 119 118 135 134
4 135 136 72 71
4 118 120 136 135
4 137 134 68 66
4 121 119 134 137
4 136 137 66 72
4 120 121 137 136
4 138 139 140 141
4 141 140 68 71
4 139 142 143 140
4 140 143 59 68
4 144 138 141 145
4 145 141 71 60
4 142 144 145 143
4 143 145 60 59
4 146 147 148 149
4 149 148 150 151
4 147 152 153 148
4 148 153 154 150
4 155 149 151 156
4 152 157 155 153
4 153 155 156 154
4 151 150 158 159
4 159 158 160 161
4 150 154 162 158
4 158 162 163 160
4 156 151 159 164
4 164 159 161 165
4 154 156 164 162
4 162 164 165 163
4 166 167 139 138
4 167 168 142 139
4 169 166 138 144
4 168 169 144 142
4 161 160 167 166
4 160 163 168 167
4 165 161 166 169
4 163 165 169 168
4 157 152 147 146
4 170 171 172 173
4 174 175 171 170
4 20 19 175 174
4 176 170 173 177
4 178 174 170 176
4 9 20 174 178
4 179 176 177 180
4 181 178 176 179
4 171 179 180 172
4 175 181 179 171
4 19 63 181 175
4 4 182 63 5
4 178 181 63 182
4 182 4 9 178
4 183 184 185 186
4 187 188 189 190
4 188 191 192 189
4 193 187 190 194
4 191 193 194 192
4 195 196 188 187
4 184 183 196 195
4 196 197 191 188
4 198 195 187 193
4 185 184 195 198
4 197 198 193 191
4 186 185 198 197
4 172 180 194 190
4 173 172 190 189
4 177 173 189 192
4 180 177 192 194
4 199 200 201 202
4 196 203 204 197
4 203 202 201 204
4 197 204 205 186
4 204 201 200 205
4 183 206 203 196
4 206 199 202 203
4 186 205 206 183
4 205 200 199 206
4 47 46 207 208
4 24 47 208 209
4 46 21 210 207
4 21 24 209 210
4 210 209 211 212
4 207 210 212 213
4 209 208 214 211
4 208 207 213 214
4 212 211 214 213
4 93 82 215 216
4 91 93 216 217
4 82 85 218 215
4 85 91 217 218
4 218 217 219 220
4 215 218 220 221
4 217 216 222 219
4 216 215 221 222
4 222 221 220 219
4 132 131 223 224
4 109 132 224 225
4 131 106 226 223
4 106 109 225 226
4 226 225 227 228
4 223 226 228 229
4 225 224 230 227
4 224 223 229 230
4 228 227 230 229
4 157 146 231 232
4 155 157 232 233
4 146 149 234 231
4 149 155 233 234
4 234 233 235 236
4 231 234 236 237
4 233 232 238 235
4 232 231 237 238
4 238 237 236 235
