ply
format ascii 1.0
comment Created by Blender 2.61 (sub 0) - www.blender.org, source file: 'body02.blend'
element vertex 1036
property float x
property float y
property float z
element face 1034
property list uchar uint vertex_indices
end_header
0.818994 0.700810 2.422783
0.597351 0.721377 2.357250
0.714927 0.582488 2.752772
0.965148 0.648604 2.738380
-0.714927 0.582488 2.752772
-0.597351 0.721377 2.357250
-0.818994 0.700810 2.422783
-0.965148 0.648604 2.738380
0.275313 0.715396 2.265338
0.286720 0.613406 2.807710
-0.286720 0.613406 2.807710
-0.275313 0.715396 2.265338
0.000000 0.632604 2.277954
0.000000 0.535041 2.780316
0.000000 -0.495802 2.402067
0.309722 -0.552844 2.344857
0.274025 -0.330678 2.693255
0.000000 -0.346373 2.668375
-0.274025 -0.330678 2.693255
-0.309722 -0.552844 2.344857
0.613799 -0.407447 2.344584
0.747527 -0.151010 2.719062
-0.747527 -0.151010 2.719062
-0.613799 -0.407447 2.344584
0.810502 -0.125750 2.377869
1.006890 -0.027104 2.712725
-1.006890 -0.027104 2.712725
-0.810502 -0.125750 2.377869
0.932335 0.265406 2.922010
1.098794 0.301755 2.803485
-1.098794 0.301755 2.803485
-0.932335 0.265406 2.922010
0.000000 -0.413849 0.400203
0.000000 0.115103 0.322756
0.061209 0.196546 0.341023
0.130713 -0.413379 0.441254
-0.061209 0.196546 0.341023
-0.130713 -0.413379 0.441254
0.000000 0.396276 0.527299
0.127279 0.570318 0.517076
-0.127279 0.570318 0.517076
0.252816 0.113355 4.041750
0.213276 -0.160238 4.112146
0.392465 -0.126391 3.982821
0.381067 0.094237 3.974757
-0.392465 -0.126391 3.982821
-0.213276 -0.160238 4.112146
-0.252816 0.113355 4.041750
-0.381067 0.094237 3.974757
0.154195 -0.463562 3.950884
0.324079 -0.342156 3.876397
-0.324079 -0.342156 3.876397
-0.154195 -0.463562 3.950884
0.000000 0.135427 4.080468
0.000000 -0.179682 4.149714
0.000000 -0.463249 3.979012
0.100486 -0.210074 3.049006
0.116842 -0.366228 2.991722
0.000000 -0.401118 2.986438
0.000000 -0.243937 3.009881
-0.116842 -0.366228 2.991722
-0.100486 -0.210074 3.049006
0.182645 -0.121946 3.114595
0.190562 -0.222782 3.095954
-0.190562 -0.222782 3.095954
-0.182645 -0.121946 3.114595
0.000000 0.193385 3.290627
0.000000 0.305702 3.434800
0.127112 0.308892 3.423621
0.108243 0.227169 3.315655
-0.127112 0.308892 3.423621
-0.108243 0.227169 3.315655
0.000000 0.388505 3.563236
0.192314 0.365941 3.561482
-0.192314 0.365941 3.561482
0.000000 0.342238 3.850802
0.256878 0.306929 3.837727
-0.256878 0.306929 3.837727
0.288398 0.218705 3.414505
0.273370 0.187988 3.323541
-0.288398 0.218705 3.414505
-0.273370 0.187988 3.323541
0.359215 0.250168 3.532663
-0.359215 0.250168 3.532663
0.416254 0.203268 3.769291
-0.416254 0.203268 3.769291
0.309387 0.005959 3.252020
0.325044 -0.033756 3.321616
-0.325044 -0.033756 3.321616
-0.309387 0.005959 3.252020
0.404188 -0.051185 3.494396
-0.404188 -0.051185 3.494396
0.456257 -0.067431 3.715468
-0.456257 -0.067431 3.715468
0.157022 -0.505197 3.398072
0.154654 -0.479596 3.455948
0.000000 -0.586027 3.462434
0.000000 -0.601534 3.392682
-0.154654 -0.479596 3.455948
-0.157022 -0.505197 3.398072
0.156918 -0.503029 3.561665
0.000000 -0.580608 3.565200
-0.156918 -0.503029 3.561665
0.163897 -0.557642 3.629657
0.000000 -0.593826 3.609433
-0.163897 -0.557642 3.629657
0.304086 -0.334234 3.440461
0.257332 -0.383175 3.489990
-0.257332 -0.383175 3.489990
-0.304086 -0.334234 3.440461
0.269839 -0.415849 3.569827
-0.269839 -0.415849 3.569827
0.345775 -0.379462 3.655471
-0.345775 -0.379462 3.655471
0.157789 -0.569192 3.782065
0.000000 -0.582351 3.774188
-0.157789 -0.569192 3.782065
0.342693 -0.399274 3.757600
-0.342693 -0.399274 3.757600
0.225274 -0.286209 3.132735
0.243689 -0.342881 3.197363
0.179784 -0.463394 3.181177
0.121156 -0.410641 3.023297
-0.179784 -0.463394 3.181177
-0.243689 -0.342881 3.197363
-0.225274 -0.286209 3.132735
-0.121156 -0.410641 3.023297
0.297696 -0.345773 3.303437
0.166834 -0.496634 3.286195
-0.166834 -0.496634 3.286195
-0.297696 -0.345773 3.303437
0.000000 -0.447735 3.002768
0.356549 -0.166872 3.488781
0.322370 -0.124440 3.321331
-0.356549 -0.166872 3.488781
-0.322370 -0.124440 3.321331
0.433978 -0.204058 3.673293
-0.433978 -0.204058 3.673293
0.223194 0.351183 3.114821
0.152365 0.270190 3.219006
0.317910 0.235136 3.240533
0.485773 0.312602 3.086969
-0.317910 0.235136 3.240533
-0.152365 0.270190 3.219006
-0.223194 0.351183 3.114821
-0.485773 0.312602 3.086969
0.000000 0.298464 3.082260
0.000000 0.232824 3.195517
0.362418 -0.035437 2.969124
0.224138 -0.081821 3.059024
0.102673 -0.155703 3.016373
0.124490 -0.118407 2.891133
-0.102673 -0.155703 3.016373
-0.224138 -0.081821 3.059024
-0.362418 -0.035437 2.969124
-0.124490 -0.118407 2.891133
0.000000 -0.193698 2.982268
0.000000 -0.162371 2.896936
0.549317 0.165037 3.043665
0.361664 0.056312 3.141876
-0.361664 0.056312 3.141876
-0.549317 0.165037 3.043665
0.186337 -0.143579 2.813964
0.000000 -0.173655 2.799170
-0.186337 -0.143579 2.813964
0.524876 -0.063919 2.890620
-0.524876 -0.063919 2.890620
0.000000 0.464101 2.894617
0.235148 0.533076 2.926563
-0.235148 0.533076 2.926563
0.541191 0.483113 2.907456
-0.541191 0.483113 2.907456
0.649702 0.203989 2.975451
-0.649702 0.203989 2.975451
0.224433 -0.584216 1.935651
0.255582 -0.528847 2.173497
0.000000 -0.564962 2.150234
0.000000 -0.526025 1.926027
-0.255582 -0.528847 2.173497
-0.224433 -0.584216 1.935651
0.370384 -0.469374 1.831699
0.503558 -0.465481 2.105381
-0.503558 -0.465481 2.105381
-0.370384 -0.469374 1.831699
0.517879 -0.312538 1.793002
0.685524 -0.189458 2.131638
-0.685524 -0.189458 2.131638
-0.517879 -0.312538 1.793002
0.654616 0.415450 1.981915
0.544531 0.200853 1.735519
0.388073 0.349567 1.701503
0.480999 0.568870 1.939632
-0.388073 0.349567 1.701503
-0.544531 0.200853 1.735519
-0.654616 0.415450 1.981915
-0.480999 0.568870 1.939632
0.199103 0.380889 1.733727
0.226154 0.589836 1.929030
-0.226154 0.589836 1.929030
-0.199103 0.380889 1.733727
0.000000 0.292113 1.724428
0.000000 0.499879 1.941742
0.615762 -0.070541 1.808383
0.745310 0.142679 2.083138
-0.745310 0.142679 2.083138
-0.615762 -0.070541 1.808383
0.785497 0.231527 2.275153
-0.785497 0.231527 2.275153
0.551932 0.200152 1.426079
0.608387 0.192716 1.268515
0.429221 0.326040 1.257303
0.414072 0.312855 1.392811
-0.429221 0.326040 1.257303
-0.608387 0.192716 1.268515
-0.551932 0.200152 1.426079
-0.414072 0.312855 1.392811
0.162788 0.374774 1.226990
0.155907 0.328473 1.392955
-0.155907 0.328473 1.392955
-0.162788 0.374774 1.226990
0.000000 0.290759 1.182242
0.000000 0.245683 1.419358
0.402014 -0.377059 1.407154
0.421491 -0.385004 1.182922
0.615698 -0.249983 1.231948
0.546124 -0.262923 1.420351
-0.615698 -0.249983 1.231948
-0.421491 -0.385004 1.182922
-0.402014 -0.377059 1.407154
-0.546124 -0.262923 1.420351
0.216104 -0.518313 1.398686
0.241935 -0.505846 1.066950
-0.241935 -0.505846 1.066950
-0.216104 -0.518313 1.398686
0.000000 -0.518313 1.351282
0.000000 -0.506866 1.015139
0.645915 -0.057800 1.472941
0.706426 -0.054480 1.278709
-0.706426 -0.054480 1.278709
-0.645915 -0.057800 1.472941
0.989438 -0.021659 2.164809
1.146988 0.000621 1.735082
1.322633 0.032983 1.828744
1.195838 0.038912 2.213479
-1.322633 0.032983 1.828744
-1.146988 0.000621 1.735082
-0.989438 -0.021659 2.164809
-1.195838 0.038912 2.213479
1.227155 0.669196 2.301128
1.373850 0.619235 1.849262
1.136520 0.598201 1.708600
0.913394 0.626214 2.188468
-1.136520 0.598201 1.708600
-1.373850 0.619235 1.849262
-1.227155 0.669196 2.301128
-0.913394 0.626214 2.188468
1.460454 0.298326 1.893602
1.324528 0.304995 2.268200
-1.324528 0.304995 2.268200
-1.460454 0.298326 1.893602
1.085853 0.287009 1.643928
0.885773 0.265108 2.083768
-0.885773 0.265108 2.083768
-1.085853 0.287009 1.643928
0.882284 0.006373 2.296813
1.144206 0.037243 2.433855
-1.144206 0.037243 2.433855
-0.882284 0.006373 2.296813
1.160654 0.692521 2.466963
0.841634 0.677868 2.317122
-0.841634 0.677868 2.317122
-1.160654 0.692521 2.466963
1.228363 0.306694 2.461958
-1.228363 0.306694 2.461958
0.793258 0.245311 2.220791
-0.793258 0.245311 2.220791
1.497071 0.010886 1.129564
1.641528 -0.020697 0.888285
1.850270 -0.025868 0.930262
1.724963 0.010144 1.259089
-1.850270 -0.025868 0.930262
-1.641528 -0.020697 0.888285
-1.497071 0.010886 1.129564
-1.724963 0.010144 1.259089
1.712988 -0.056057 0.690084
1.886666 -0.097337 0.707943
-1.886666 -0.097337 0.707943
-1.712988 -0.056057 0.690084
1.782958 0.471277 1.228975
1.849165 0.339796 0.935798
1.683438 0.352261 0.901284
1.569076 0.478090 1.108890
-1.683438 0.352261 0.901284
-1.849165 0.339796 0.935798
-1.782958 0.471277 1.228975
-1.569076 0.478090 1.108890
1.869335 0.235466 0.657754
1.789725 0.251218 0.633974
-1.789725 0.251218 0.633974
-1.869335 0.235466 0.657754
1.960172 0.064589 0.669447
1.947659 0.133010 0.949388
-1.947659 0.133010 0.949388
-1.960172 0.064589 0.669447
1.889391 0.208696 1.307958
-1.889391 0.208696 1.307958
1.729730 0.087757 0.649122
1.625668 0.155368 0.862483
-1.625668 0.155368 0.862483
-1.729730 0.087757 0.649122
1.435169 0.225561 1.059424
-1.435169 0.225561 1.059424
1.261211 0.064211 1.462957
1.376965 0.038799 1.261176
1.594873 0.038776 1.482896
1.484858 0.064846 1.649114
-1.594873 0.038776 1.482896
-1.376965 0.038799 1.261176
-1.261211 0.064211 1.462957
-1.484858 0.064846 1.649114
1.475592 0.577101 1.615681
1.643326 0.522247 1.428309
1.495238 0.531870 1.253423
1.363065 0.586155 1.501729
-1.495238 0.531870 1.253423
-1.643326 0.522247 1.428309
-1.475592 0.577101 1.615681
-1.363065 0.586155 1.501729
1.752601 0.263766 1.536108
-1.752601 0.263766 1.536108
1.615605 0.296819 1.700128
-1.615605 0.296819 1.700128
1.278348 0.283223 1.181800
-1.278348 0.283223 1.181800
1.175369 0.314966 1.401721
-1.175369 0.314966 1.401721
1.256255 0.081018 1.575264
1.406511 0.094874 1.677366
-1.406511 0.094874 1.677366
-1.256255 0.081018 1.575264
1.449268 0.557096 1.709905
1.285978 0.552661 1.590284
-1.285978 0.552661 1.590284
-1.449268 0.557096 1.709905
1.538707 0.298436 1.769909
-1.538707 0.298436 1.769909
1.157833 0.302990 1.513019
-1.157833 0.302990 1.513019
0.483431 0.625268 0.443493
0.459778 0.500142 0.221492
0.156070 0.429310 0.211441
-0.156070 0.429310 0.211441
-0.459778 0.500142 0.221492
-0.483431 0.625268 0.443493
0.444110 0.454735 -0.239382
0.172821 0.428384 -0.268369
-0.172821 0.428384 -0.268369
-0.444110 0.454735 -0.239382
0.781494 0.354956 0.428217
0.761329 0.292881 0.203542
-0.761329 0.292881 0.203542
-0.781494 0.354956 0.428217
0.759156 0.260298 -0.211082
-0.759156 0.260298 -0.211082
0.109857 -0.342751 0.111573
0.486838 -0.491620 0.180657
0.493469 -0.459636 0.655819
-0.486838 -0.491620 0.180657
-0.109857 -0.342751 0.111573
-0.493469 -0.459636 0.655819
0.123800 -0.293954 -0.362460
0.455376 -0.484272 -0.288585
-0.455376 -0.484272 -0.288585
-0.123800 -0.293954 -0.362460
0.750327 -0.332566 0.243080
0.688892 -0.299495 0.731229
-0.750327 -0.332566 0.243080
-0.688892 -0.299495 0.731229
0.738721 -0.345902 -0.231538
-0.738721 -0.345902 -0.231538
0.025474 0.154520 0.070689
-0.025474 0.154520 0.070689
0.032304 0.090900 -0.271246
-0.032304 0.090900 -0.271246
0.792344 -0.027707 0.713826
0.869245 -0.057671 0.289245
-0.869245 -0.057671 0.289245
-0.792344 -0.027707 0.713826
0.856032 -0.091064 -0.197238
-0.856032 -0.091064 -0.197238
0.416030 -0.382274 0.983140
0.585927 -0.228247 1.099059
-0.585927 -0.228247 1.099059
-0.416030 -0.382274 0.983140
0.184977 -0.444890 0.718280
-0.184977 -0.444890 0.718280
0.000000 -0.451118 0.640798
0.634393 0.302006 1.027604
0.447482 0.514816 0.947384
-0.447482 0.514816 0.947384
-0.634393 0.302006 1.027604
0.174350 0.512633 0.897892
-0.174350 0.512633 0.897892
0.000000 0.452505 0.834923
0.674691 -0.031126 1.146584
-0.674691 -0.031126 1.146584
0.429997 0.409702 -0.548282
0.172232 0.372175 -0.628130
-0.172232 0.372175 -0.628130
-0.429997 0.409702 -0.548282
0.417147 0.351775 -0.804490
0.158279 0.291575 -0.808204
-0.158279 0.291575 -0.808204
-0.417147 0.351775 -0.804490
0.711811 0.245814 -0.627816
-0.711811 0.245814 -0.627816
0.603319 0.209952 -0.837226
-0.603319 0.209952 -0.837226
0.185281 -0.225777 -0.674230
0.436554 -0.362402 -0.659993
-0.436554 -0.362402 -0.659993
-0.185281 -0.225777 -0.674230
0.151585 -0.205121 -0.807526
0.420384 -0.367606 -0.854775
-0.420384 -0.367606 -0.854775
-0.151585 -0.205121 -0.807526
0.648383 -0.250760 -0.675864
-0.648383 -0.250760 -0.675864
0.588237 -0.251141 -0.846198
-0.588237 -0.251141 -0.846198
0.092533 0.063902 -0.616184
-0.092533 0.063902 -0.616184
0.113709 0.047119 -0.793700
-0.113709 0.047119 -0.793700
0.788374 -0.081150 -0.548769
-0.788374 -0.081150 -0.548769
0.706919 -0.070765 -0.818404
-0.706919 -0.070765 -0.818404
0.409172 -0.310465 -0.964528
0.556821 -0.206374 -0.970523
-0.556821 -0.206374 -0.970523
-0.409172 -0.310465 -0.964528
0.215695 -0.178085 -0.943549
-0.215695 -0.178085 -0.943549
0.620031 0.269828 -0.954213
0.406097 0.403948 -0.921940
-0.406097 0.403948 -0.921940
-0.620031 0.269828 -0.954213
0.157942 0.346231 -0.926648
-0.157942 0.346231 -0.926648
0.750548 -0.046444 -1.042395
-0.750548 -0.046444 -1.042395
0.054623 0.066598 -1.017493
-0.054623 0.066598 -1.017493
0.413423 -0.268449 -1.280861
0.583497 -0.156758 -1.285730
-0.583497 -0.156758 -1.285730
-0.413423 -0.268449 -1.280861
0.417541 -0.170812 -1.701950
0.595228 -0.081724 -1.704737
-0.595228 -0.081724 -1.704737
-0.417541 -0.170812 -1.701950
0.209182 -0.102869 -1.250307
-0.209182 -0.102869 -1.250307
0.245490 0.004081 -1.700317
-0.245490 0.004081 -1.700317
0.649614 0.362555 -1.275075
0.410223 0.505928 -1.255260
-0.410223 0.505928 -1.255260
-0.649614 0.362555 -1.275075
0.648225 0.392530 -1.615168
0.414689 0.505385 -1.615694
-0.414689 0.505385 -1.615694
-0.648225 0.392530 -1.615168
0.107098 0.432957 -1.283758
-0.107098 0.432957 -1.283758
0.147334 0.426240 -1.632411
-0.147334 0.426240 -1.632411
0.776624 0.014587 -1.279710
-0.776624 0.014587 -1.279710
0.727124 0.121336 -1.725553
-0.727124 0.121336 -1.725553
0.037448 0.143062 -1.295175
-0.037448 0.143062 -1.295175
0.122585 0.176663 -1.733712
-0.122585 0.176663 -1.733712
0.386342 -0.014809 -2.414193
0.430222 -0.013232 -2.763747
0.544596 0.090652 -2.771337
0.474599 0.059911 -2.415248
-0.544596 0.090652 -2.771337
-0.430222 -0.013232 -2.763747
-0.386342 -0.014809 -2.414193
-0.474599 0.059911 -2.415248
0.244823 0.080006 -2.402768
0.219531 0.053007 -2.763467
-0.219531 0.053007 -2.763467
-0.244823 0.080006 -2.402768
0.450992 0.352561 -2.388757
0.436361 0.382115 -2.752592
0.279827 0.395919 -2.752598
0.300387 0.392474 -2.389091
-0.279827 0.395919 -2.752598
-0.436361 0.382115 -2.752592
-0.450992 0.352561 -2.388757
-0.300387 0.392474 -2.389091
0.156722 0.305193 -2.752592
0.192124 0.334450 -2.382137
-0.156722 0.305193 -2.752592
-0.192124 0.334450 -2.382137
0.520939 0.230528 -2.420885
0.524216 0.274632 -2.786576
-0.524216 0.274632 -2.786576
-0.520939 0.230528 -2.420885
0.171668 0.180213 -2.382903
0.130979 0.144630 -2.782069
-0.130979 0.144630 -2.782069
-0.171668 0.180213 -2.382903
1.882467 0.287944 0.524316
1.794115 0.297424 0.514279
-1.794115 0.297424 0.514279
-1.882467 0.287944 0.524316
1.803127 0.095816 0.440766
1.797594 0.004345 0.420941
1.764152 0.003898 0.532184
1.782214 0.070886 0.565513
-1.764152 0.003898 0.532184
-1.797594 0.004345 0.420941
-1.803127 0.095816 0.440766
-1.782214 0.070886 0.565513
1.789948 0.178087 0.563025
1.802101 0.182850 0.459895
-1.789948 0.178087 0.563025
-1.802101 0.182850 0.459895
1.985347 0.083216 0.419091
1.925955 0.210848 0.454916
1.953753 0.195820 0.558438
1.976724 0.072693 0.563896
-1.953753 0.195820 0.558438
-1.925955 0.210848 0.454916
-1.985347 0.083216 0.419091
-1.976724 0.072693 0.563896
1.959028 -0.019177 0.543431
1.932652 -0.037792 0.436771
-1.959028 -0.019177 0.543431
-1.932652 -0.037792 0.436771
1.910162 -0.118671 0.374656
-1.910162 -0.118671 0.374656
1.636920 -0.136088 -0.125318
1.633983 -0.072395 -0.130469
1.625443 -0.087166 -0.211879
1.632341 -0.155396 -0.195766
-1.625443 -0.087166 -0.211879
-1.633983 -0.072395 -0.130469
-1.636920 -0.136088 -0.125318
-1.632341 -0.155396 -0.195766
1.866277 -0.048388 -0.017635
1.838386 -0.052737 -0.060466
1.778839 -0.031573 0.018463
1.792394 -0.028534 0.031804
-1.778839 -0.031573 0.018463
-1.838386 -0.052737 -0.060466
-1.866277 -0.048388 -0.017635
-1.792394 -0.028534 0.031804
1.855492 -0.143055 -0.002486
1.828954 -0.145516 -0.045116
-1.828954 -0.145516 -0.045116
-1.855492 -0.143055 -0.002486
1.774810 -0.133892 0.022969
1.787765 -0.132938 0.036075
-1.774810 -0.133892 0.022969
-1.787765 -0.132938 0.036075
1.876264 -0.043995 0.010746
1.794990 -0.023628 0.056024
-1.876264 -0.043995 0.010746
-1.794990 -0.023628 0.056024
1.864121 -0.140634 0.025889
-1.864121 -0.140634 0.025889
1.789782 -0.130209 0.060229
-1.789782 -0.130209 0.060229
1.775408 -0.063514 -0.125259
1.727302 -0.047213 -0.066040
-1.727302 -0.047213 -0.066040
-1.775408 -0.063514 -0.125259
1.762610 -0.066510 -0.141510
1.718283 -0.050851 -0.083021
-1.718283 -0.050851 -0.083021
-1.762610 -0.066510 -0.141510
1.772114 -0.146007 -0.109667
-1.772114 -0.146007 -0.109667
1.760590 -0.147268 -0.125724
-1.760590 -0.147268 -0.125724
1.725280 -0.138121 -0.061194
-1.725280 -0.138121 -0.061194
1.716788 -0.139828 -0.078152
-1.716788 -0.139828 -0.078152
1.721381 -0.073245 -0.164911
1.702770 -0.055186 -0.090021
-1.702770 -0.055186 -0.090021
-1.721381 -0.073245 -0.164911
1.721042 -0.151751 -0.148771
-1.721042 -0.151751 -0.148771
1.701954 -0.141653 -0.085148
-1.701954 -0.141653 -0.085148
1.942287 -0.010631 0.174735
1.919410 -0.018184 0.130207
1.820449 -0.001662 0.148945
1.831957 0.003038 0.164788
-1.820449 -0.001662 0.148945
-1.919410 -0.018184 0.130207
-1.942287 -0.010631 0.174735
-1.831957 0.003038 0.164788
1.917098 -0.123363 0.191587
1.896454 -0.130527 0.145341
-1.896454 -0.130527 0.145341
-1.917098 -0.123363 0.191587
1.809383 -0.115153 0.155104
1.816294 -0.113536 0.175460
-1.809383 -0.115153 0.155104
-1.816294 -0.113536 0.175460
1.850978 0.317500 0.275412
1.757793 0.291763 0.255148
-1.757793 0.291763 0.255148
-1.850978 0.317500 0.275412
1.848634 0.322936 0.229247
1.760630 0.291399 0.220292
-1.760630 0.291399 0.220292
-1.848634 0.322936 0.229247
1.772138 -0.066292 0.344127
1.811923 -0.112637 0.210531
1.916199 -0.122168 0.230560
-1.916199 -0.122168 0.230560
-1.811923 -0.112637 0.210531
-1.772138 -0.066292 0.344127
1.821728 0.012313 0.206112
1.822314 0.114861 0.194569
1.834336 0.107529 0.161668
-1.822314 0.114861 0.194569
-1.821728 0.012313 0.206112
-1.834336 0.107529 0.161668
1.801586 0.201357 0.188100
1.793107 0.206419 0.224890
-1.793107 0.206419 0.224890
-1.801586 0.201357 0.188100
1.897115 0.236385 0.200672
1.919725 0.213023 0.237918
1.960647 0.101924 0.222317
1.945539 0.109024 0.164461
-1.960647 0.101924 0.222317
-1.919725 0.213023 0.237918
-1.897115 0.236385 0.200672
-1.945539 0.109024 0.164461
1.942686 -0.010596 0.213511
-1.942686 -0.010596 0.213511
1.831896 0.002457 0.139143
1.805924 -0.021789 0.023272
1.886736 -0.016799 -0.012344
1.921910 -0.018209 0.122596
-1.886736 -0.016799 -0.012344
-1.805924 -0.021789 0.023272
-1.831896 0.002457 0.139143
-1.921910 -0.018209 0.122596
1.822402 0.106291 0.142437
1.798568 0.092830 0.029769
-1.798568 0.092830 0.029769
-1.822402 0.106291 0.142437
1.887762 0.089667 -0.019261
1.932559 0.106758 0.117408
-1.887762 0.089667 -0.019261
-1.932559 0.106758 0.117408
1.713003 -0.032535 -0.136180
1.642796 -0.033034 -0.179857
1.640156 -0.046591 -0.257217
1.734613 -0.033122 -0.204546
-1.640156 -0.046591 -0.257217
-1.642796 -0.033034 -0.179857
-1.713003 -0.032535 -0.136180
-1.734613 -0.033122 -0.204546
1.728695 -0.028902 -0.128002
1.776489 -0.024333 -0.178122
-1.728695 -0.028902 -0.128002
-1.776489 -0.024333 -0.178122
1.703632 0.059971 -0.131603
1.631893 0.034700 -0.179077
-1.631893 0.034700 -0.179077
-1.703632 0.059971 -0.131603
1.719755 0.066379 -0.123107
-1.719755 0.066379 -0.123107
1.624430 0.026507 -0.267880
1.725648 0.052086 -0.212969
-1.624430 0.026507 -0.267880
-1.725648 0.052086 -0.212969
1.768955 0.063537 -0.186262
-1.768955 0.063537 -0.186262
1.737610 -0.027541 -0.109425
1.788705 -0.022846 -0.160455
-1.737610 -0.027541 -0.109425
-1.788705 -0.022846 -0.160455
1.790277 -0.024084 -0.017431
1.849632 -0.020012 -0.089578
-1.790277 -0.024084 -0.017431
-1.849632 -0.020012 -0.089578
1.729006 0.069877 -0.104269
-1.729006 0.069877 -0.104269
1.782242 0.085821 -0.011459
-1.782242 0.085821 -0.011459
1.782275 0.067073 -0.168368
-1.782275 0.067073 -0.168368
1.848286 0.081904 -0.096943
-1.848286 0.081904 -0.096943
1.804064 -0.022368 -0.002886
1.877778 -0.017686 -0.043083
-1.877778 -0.017686 -0.043083
-1.804064 -0.022368 -0.002886
1.796360 0.089844 0.003338
-1.796360 0.089844 0.003338
1.877595 0.086457 -0.050222
-1.877595 0.086457 -0.050222
1.657826 0.104998 -0.169909
1.639262 0.163593 -0.158204
1.635923 0.171337 -0.241955
1.659341 0.106812 -0.243686
-1.635923 0.171337 -0.241955
-1.639262 0.163593 -0.158204
-1.657826 0.104998 -0.169909
-1.659341 0.106812 -0.243686
1.859925 0.240431 -0.015312
1.834327 0.238730 -0.061071
1.769203 0.211476 0.014275
1.781534 0.215426 0.029490
-1.769203 0.211476 0.014275
-1.834327 0.238730 -0.061071
-1.859925 0.240431 -0.015312
-1.781534 0.215426 0.029490
1.872848 0.144891 -0.025703
1.848070 0.145424 -0.070772
-1.848070 0.145424 -0.070772
-1.872848 0.144891 -0.025703
1.790614 0.114939 -0.008667
1.802925 0.116775 0.005901
-1.790614 0.114939 -0.008667
-1.802925 0.116775 0.005901
1.868163 0.239688 0.014453
1.782448 0.213592 0.054507
-1.868163 0.239688 0.014453
-1.782448 0.213592 0.054507
1.880239 0.141820 0.003372
-1.880239 0.141820 0.003372
1.803814 0.112736 0.030227
-1.803814 0.112736 0.030227
1.776247 0.224286 -0.133629
1.723917 0.202867 -0.077355
-1.723917 0.202867 -0.077355
-1.776247 0.224286 -0.133629
1.764699 0.221529 -0.151569
1.716220 0.201220 -0.095895
-1.716220 0.201220 -0.095895
-1.764699 0.221529 -0.151569
1.793271 0.142860 -0.140491
-1.793271 0.142860 -0.140491
1.782502 0.142161 -0.157805
-1.782502 0.142161 -0.157805
1.744302 0.117610 -0.097393
-1.744302 0.117610 -0.097393
1.736650 0.117924 -0.115308
-1.736650 0.117924 -0.115308
1.726218 0.206628 -0.180808
1.702117 0.193450 -0.105795
-1.702117 0.193450 -0.105795
-1.726218 0.206628 -0.180808
1.745031 0.129932 -0.186237
-1.745031 0.129932 -0.186237
1.722600 0.112700 -0.124426
-1.722600 0.112700 -0.124426
1.897970 0.237022 0.142114
1.798613 0.196613 0.159385
-1.798613 0.196613 0.159385
-1.897970 0.237022 0.142114
1.924064 0.125109 0.116605
-1.924064 0.125109 0.116605
1.831455 0.110285 0.134676
-1.831455 0.110285 0.134676
1.788511 0.204844 0.165342
1.775666 0.226177 0.103001
1.830935 0.262059 0.081969
1.855977 0.235766 0.162613
-1.830935 0.262059 0.081969
-1.775666 0.226177 0.103001
-1.788511 0.204844 0.165342
-1.855977 0.235766 0.162613
1.754867 0.293246 0.195869
1.744367 0.301029 0.128263
-1.744367 0.301029 0.128263
-1.754867 0.293246 0.195869
1.807056 0.336702 0.096385
1.834780 0.325719 0.182228
-1.807056 0.336702 0.096385
-1.834780 0.325719 0.182228
1.707158 0.222823 -0.019539
1.655882 0.209656 -0.055300
1.654720 0.215526 -0.114301
1.720549 0.243284 -0.068436
-1.654720 0.215526 -0.114301
-1.655882 0.209656 -0.055300
-1.707158 0.222823 -0.019539
-1.720549 0.243284 -0.068436
1.717730 0.228521 -0.012180
1.749117 0.256902 -0.045589
-1.717730 0.228521 -0.012180
-1.749117 0.256902 -0.045589
1.679427 0.282293 0.000159
1.632790 0.252359 -0.042379
-1.632790 0.252359 -0.042379
-1.679427 0.282293 0.000159
1.689680 0.289959 0.008280
-1.689680 0.289959 0.008280
1.626633 0.262742 -0.108930
1.694376 0.300564 -0.059531
-1.626633 0.262742 -0.108930
-1.694376 0.300564 -0.059531
1.723363 0.316392 -0.035916
-1.723363 0.316392 -0.035916
1.724326 0.228396 0.002022
1.758007 0.258076 -0.031857
-1.724326 0.228396 0.002022
-1.758007 0.258076 -0.031857
1.763810 0.228158 0.072181
1.802882 0.264317 0.023271
-1.763810 0.228158 0.072181
-1.802882 0.264317 0.023271
1.696033 0.291349 0.023081
-1.696033 0.291349 0.023081
1.733090 0.299677 0.096156
-1.733090 0.299677 0.096156
1.732576 0.319267 -0.021589
-1.732576 0.319267 -0.021589
1.778339 0.335195 0.036390
-1.778339 0.335195 0.036390
1.773672 0.230615 0.083757
1.823813 0.265032 0.058964
-1.823813 0.265032 0.058964
-1.773672 0.230615 0.083757
1.742666 0.303765 0.108358
-1.742666 0.303765 0.108358
1.799597 0.337753 0.072726
-1.799597 0.337753 0.072726
1.759114 -0.197226 0.336756
1.823540 -0.191789 0.376601
1.757109 -0.213571 0.527409
1.686811 -0.248490 0.368799
-1.757109 -0.213571 0.527409
-1.823540 -0.191789 0.376601
-1.759114 -0.197226 0.336756
-1.686811 -0.248490 0.368799
1.872077 -0.158430 0.408944
1.840149 -0.159024 0.630523
-1.840149 -0.159024 0.630523
-1.872077 -0.158430 0.408944
1.675873 -0.131485 0.521153
1.627509 -0.179805 0.369152
-1.675873 -0.131485 0.521153
-1.627509 -0.179805 0.369152
1.691863 -0.092424 0.608509
-1.691863 -0.092424 0.608509
1.733898 -0.117115 0.375596
1.697647 -0.115808 0.335847
-1.733898 -0.117115 0.375596
-1.697647 -0.115808 0.335847
1.750917 -0.095061 0.361519
-1.750917 -0.095061 0.361519
1.746712 -0.037260 0.512524
-1.746712 -0.037260 0.512524
1.658186 -0.161999 0.151041
1.708570 -0.217219 0.140261
1.653144 -0.260515 0.094568
1.601668 -0.189046 0.115361
-1.653144 -0.260515 0.094568
-1.708570 -0.217219 0.140261
-1.658186 -0.161999 0.151041
-1.601668 -0.189046 0.115361
1.671986 -0.274374 0.304253
1.660855 -0.279622 0.257066
1.742588 -0.220985 0.253104
1.749743 -0.217090 0.265068
-1.742588 -0.220985 0.253104
-1.660855 -0.279622 0.257066
-1.671986 -0.274374 0.304253
-1.749743 -0.217090 0.265068
1.613325 -0.191086 0.312468
1.603008 -0.197489 0.268452
-1.603008 -0.197489 0.268452
-1.613325 -0.191086 0.312468
1.671205 -0.140257 0.261109
1.677893 -0.135775 0.270781
-1.671205 -0.140257 0.261109
-1.677893 -0.135775 0.270781
1.663611 -0.268121 0.197551
1.738279 -0.217996 0.226814
-1.738279 -0.217996 0.226814
-1.663611 -0.268121 0.197551
1.606573 -0.187698 0.211007
-1.606573 -0.187698 0.211007
1.668821 -0.140256 0.235380
-1.668821 -0.140256 0.235380
0.440708 0.011857 -3.346261
0.365679 0.193356 -3.370250
0.521220 0.287520 -3.370250
0.610712 0.028969 -3.317773
-0.521220 0.287520 -3.370250
-0.365679 0.193356 -3.370250
-0.440708 0.011857 -3.346261
-0.610712 0.028969 -3.317773
0.255532 0.461143 -3.374110
0.426037 0.413011 -3.370250
-0.426037 0.413011 -3.370250
-0.255532 0.461143 -3.374110
0.229856 -0.032352 -3.240375
0.139832 0.191846 -3.374110
-0.139832 0.191846 -3.374110
-0.229856 -0.032352 -3.240375
0.158246 0.370417 -3.374110
-0.158246 0.370417 -3.374110
0.643728 -0.146680 -3.317773
0.499698 -0.181777 -3.346261
-0.499698 -0.181777 -3.346261
-0.643728 -0.146680 -3.317773
0.766188 -0.316750 -3.381206
0.527165 -0.433433 -3.385381
-0.527165 -0.433433 -3.385381
-0.766188 -0.316750 -3.381206
0.812913 -0.486820 -3.381206
0.575521 -0.629993 -3.385381
-0.575521 -0.629993 -3.385381
-0.812913 -0.486820 -3.381206
0.831058 -0.668522 -3.381206
0.594706 -0.836611 -3.385381
-0.594706 -0.836611 -3.385381
-0.831058 -0.668522 -3.381206
0.300775 -0.194234 -3.240375
-0.300775 -0.194234 -3.240375
0.339863 -0.404544 -3.385381
-0.339863 -0.404544 -3.385381
0.321231 -0.591852 -3.385381
-0.321231 -0.591852 -3.385381
0.374399 -0.766395 -3.385381
-0.374399 -0.766395 -3.385381
0.295571 -0.129635 -2.875903
0.507338 -0.183750 -2.879763
-0.507338 -0.183750 -2.879763
-0.295571 -0.129635 -2.875903
0.321966 -0.343827 -3.053708
0.520825 -0.421437 -3.053708
-0.520825 -0.421437 -3.053708
-0.321966 -0.343827 -3.053708
0.310838 -0.542086 -3.184489
0.570907 -0.604587 -3.184489
-0.570907 -0.604587 -3.184489
-0.310838 -0.542086 -3.184489
0.378707 -0.742420 -3.239289
0.599014 -0.812635 -3.239289
-0.599014 -0.812635 -3.239289
-0.378707 -0.742420 -3.239289
0.596267 -0.125625 -2.960857
-0.596267 -0.125625 -2.960857
0.678530 -0.304526 -3.119538
-0.678530 -0.304526 -3.119538
0.763800 -0.462643 -3.196337
-0.763800 -0.462643 -3.196337
0.834054 -0.644348 -3.233563
-0.834054 -0.644348 -3.233563
0.128025 0.366605 -3.147652
0.098566 0.165700 -3.169197
-0.098566 0.165700 -3.169197
-0.128025 0.366605 -3.147652
0.208217 -0.007655 -3.076963
-0.208217 -0.007655 -3.076963
0.543330 0.311372 -3.182215
0.451005 0.429840 -3.168964
-0.451005 0.429840 -3.168964
-0.543330 0.311372 -3.182215
0.614028 0.068542 -3.139384
-0.614028 0.068542 -3.139384
0.265007 0.462178 -3.130880
-0.265007 0.462178 -3.130880
0.375292 -0.771477 -3.313601
0.595599 -0.841693 -3.313601
-0.595599 -0.841693 -3.313601
-0.375292 -0.771477 -3.313601
0.832226 -0.673548 -3.307874
-0.832226 -0.673548 -3.307874
0.658090 -0.104793 -3.175342
-0.658090 -0.104793 -3.175342
0.753898 -0.293833 -3.250221
-0.753898 -0.293833 -3.250221
0.806184 -0.475006 -3.289372
-0.806184 -0.475006 -3.289372
0.292083 -0.167343 -3.093422
-0.292083 -0.167343 -3.093422
0.332883 -0.380864 -3.255948
-0.332883 -0.380864 -3.255948
0.317178 -0.579625 -3.295099
-0.317178 -0.579625 -3.295099
0.552785 0.200365 1.600602
0.405625 0.331211 1.561189
-0.405625 0.331211 1.561189
-0.552785 0.200365 1.600602
0.182058 0.354681 1.617845
-0.182058 0.354681 1.617845
0.000000 0.268289 1.623817
0.390752 -0.431649 1.624702
0.536554 -0.284401 1.620899
-0.536554 -0.284401 1.620899
-0.390752 -0.431649 1.624702
0.224822 -0.561846 1.673811
-0.224822 -0.561846 1.673811
0.000000 -0.508722 1.658041
0.635392 -0.062812 1.636246
-0.635392 -0.062812 1.636246
0.404125 -0.103731 -2.008215
0.543358 -0.020821 -2.010257
-0.543358 -0.020821 -2.010257
-0.404125 -0.103731 -2.008215
0.245203 0.036729 -2.002371
-0.245203 0.036729 -2.002371
0.563415 0.326357 -1.923318
0.365539 0.407847 -1.923762
-0.365539 0.407847 -1.923762
-0.563415 0.326357 -1.923318
0.166594 0.337784 -1.930300
-0.166594 0.337784 -1.930300
0.638464 0.168288 -1.993113
-0.638464 0.168288 -1.993113
0.143691 0.178190 -1.981431
-0.143691 0.178190 -1.981431
0.000000 -0.575603 3.263516
0.000000 -0.542364 3.158510
4 0 1 2 3
4 4 5 6 7
4 1 8 9 2
4 10 11 5 4
4 8 12 13 9
4 13 12 11 10
4 14 15 16 17
4 18 19 14 17
4 15 20 21 16
4 22 23 19 18
4 20 24 25 21
4 26 27 23 22
4 2 28 29 3
4 30 31 4 7
4 28 21 25 29
4 26 22 31 30
4 32 33 34 35
4 36 33 32 37
4 33 38 39 34
4 40 38 33 36
4 41 42 43 44
4 45 46 47 48
4 42 49 50 43
4 51 52 46 45
4 53 54 42 41
4 46 54 53 47
4 54 55 49 42
4 52 55 54 46
4 56 57 58 59
4 58 60 61 59
4 62 63 57 56
4 60 64 65 61
4 66 67 68 69
4 70 67 66 71
4 67 72 73 68
4 74 72 67 70
4 72 75 76 73
4 77 75 72 74
4 75 53 41 76
4 47 53 75 77
4 69 68 78 79
4 80 70 71 81
4 68 73 82 78
4 83 74 70 80
4 73 76 84 82
4 85 77 74 83
4 76 41 44 84
4 48 47 77 85
4 86 87 63 62
4 64 88 89 65
4 79 78 87 86
4 88 80 81 89
4 78 82 90 87
4 91 83 80 88
4 82 84 92 90
4 93 85 83 91
4 84 44 43 92
4 45 48 85 93
4 94 95 96 97
4 96 98 99 97
4 95 100 101 96
4 101 102 98 96
4 100 103 104 101
4 104 105 102 101
4 106 107 95 94
4 98 108 109 99
4 107 110 100 95
4 102 111 108 98
4 110 112 103 100
4 105 113 111 102
4 103 114 115 104
4 115 116 105 104
4 114 49 55 115
4 55 52 116 115
4 112 117 114 103
4 116 118 113 105
4 117 50 49 114
4 52 51 118 116
4 119 120 121 122
4 123 124 125 126
4 120 127 128 121
4 129 130 124 123
4 127 106 94 128
4 99 109 130 129
4 57 122 131 58
4 131 126 60 58
4 87 90 132 133
4 134 91 88 135
4 90 92 136 132
4 137 93 91 134
4 63 87 133 119
4 135 88 64 125
4 63 119 122 57
4 126 125 64 60
4 106 112 110 107
4 111 113 109 108
4 106 132 136 112
4 137 134 109 113
4 50 136 92 43
4 93 137 51 45
4 50 117 112 136
4 113 118 51 137
4 106 127 133 132
4 135 130 109 134
4 120 119 133 127
4 135 125 124 130
4 138 139 140 141
4 142 143 144 145
4 139 69 79 140
4 81 71 143 142
4 146 147 139 138
4 143 147 146 144
4 147 66 69 139
4 71 66 147 143
4 148 149 150 151
4 152 153 154 155
4 149 62 56 150
4 61 65 153 152
4 151 150 156 157
4 156 152 155 157
4 150 56 59 156
4 59 61 152 156
4 158 159 149 148
4 153 160 161 154
4 159 86 62 149
4 65 89 160 153
4 141 140 159 158
4 160 142 145 161
4 140 79 86 159
4 89 81 142 160
4 16 162 163 17
4 163 164 18 17
4 162 151 157 163
4 157 155 164 163
4 21 165 162 16
4 164 166 22 18
4 165 148 151 162
4 155 154 166 164
4 13 167 168 9
4 169 167 13 10
4 167 146 138 168
4 144 146 167 169
4 9 168 170 2
4 171 169 10 4
4 168 138 141 170
4 145 144 169 171
4 28 172 165 21
4 166 173 31 22
4 172 158 148 165
4 154 161 173 166
4 2 170 172 28
4 173 171 4 31
4 170 141 158 172
4 161 145 171 173
4 174 175 176 177
4 176 178 179 177
4 175 15 14 176
4 14 19 178 176
4 180 181 175 174
4 178 182 183 179
4 181 20 15 175
4 19 23 182 178
4 184 185 181 180
4 182 186 187 183
4 185 24 20 181
4 23 27 186 182
4 188 189 190 191
4 192 193 194 195
4 191 1 0 188
4 6 5 195 194
4 196 197 191 190
4 195 198 199 192
4 197 8 1 191
4 5 11 198 195
4 200 201 197 196
4 198 201 200 199
4 201 12 8 197
4 11 12 201 198
4 202 203 185 184
4 186 204 205 187
4 203 206 24 185
4 27 207 204 186
4 189 188 203 202
4 204 194 193 205
4 188 0 206 203
4 207 6 194 204
4 208 209 210 211
4 212 213 214 215
4 216 217 211 210
4 215 218 219 212
4 220 221 217 216
4 218 221 220 219
4 222 223 224 225
4 226 227 228 229
4 230 231 223 222
4 227 232 233 228
4 234 235 231 230
4 232 235 234 233
4 236 237 209 208
4 213 238 239 214
4 225 224 237 236
4 238 226 229 239
4 240 241 242 243
4 244 245 246 247
4 248 249 250 251
4 252 253 254 255
4 256 257 243 242
4 247 258 259 244
4 249 248 257 256
4 258 254 253 259
4 260 261 251 250
4 255 262 263 252
4 241 240 261 260
4 262 246 245 263
4 24 264 265 25
4 266 267 27 26
4 264 240 243 265
4 247 246 267 266
4 3 268 269 0
4 270 271 7 6
4 268 248 251 269
4 255 254 271 270
4 257 272 265 243
4 266 273 258 247
4 272 29 25 265
4 26 30 273 266
4 248 268 272 257
4 273 271 254 258
4 268 3 29 272
4 30 7 271 273
4 261 274 269 251
4 270 275 262 255
4 274 206 0 269
4 6 207 275 270
4 240 264 274 261
4 275 267 246 262
4 264 24 206 274
4 207 27 267 275
4 276 277 278 279
4 280 281 282 283
4 277 284 285 278
4 286 287 281 280
4 288 289 290 291
4 292 293 294 295
4 289 296 297 290
4 298 299 293 292
4 300 301 278 285
4 280 302 303 286
4 301 304 279 278
4 283 305 302 280
4 296 289 301 300
4 302 293 299 303
4 289 288 304 301
4 305 294 293 302
4 306 307 290 297
4 292 308 309 298
4 307 310 291 290
4 295 311 308 292
4 284 277 307 306
4 308 281 287 309
4 277 276 310 307
4 311 282 281 308
4 312 313 314 315
4 316 317 318 319
4 313 276 279 314
4 283 282 317 316
4 320 321 322 323
4 324 325 326 327
4 321 288 291 322
4 295 294 325 324
4 304 328 314 279
4 316 329 305 283
4 328 330 315 314
4 319 331 329 316
4 288 321 328 304
4 329 325 294 305
4 321 320 330 328
4 331 326 325 329
4 310 332 322 291
4 324 333 311 295
4 332 334 323 322
4 327 335 333 324
4 276 313 332 310
4 333 317 282 311
4 313 312 334 332
4 335 318 317 333
4 241 336 337 242
4 338 339 245 244
4 336 312 315 337
4 319 318 339 338
4 249 340 341 250
4 342 343 253 252
4 340 320 323 341
4 327 326 343 342
4 330 344 337 315
4 338 345 331 319
4 344 256 242 337
4 244 259 345 338
4 320 340 344 330
4 345 343 326 331
4 340 249 256 344
4 259 253 343 345
4 334 346 341 323
4 342 347 335 327
4 346 260 250 341
4 252 263 347 342
4 312 336 346 334
4 347 339 318 335
4 336 241 260 346
4 263 245 339 347
4 348 349 350 39
4 351 352 353 40
4 349 354 355 350
4 356 357 352 351
4 358 359 349 348
4 352 360 361 353
4 359 362 354 349
4 357 363 360 352
4 35 364 365 366
4 367 368 37 369
4 364 370 371 365
4 372 373 368 367
4 366 365 374 375
4 376 367 369 377
4 365 371 378 374
4 379 372 367 376
4 34 380 364 35
4 368 381 36 37
4 380 382 370 364
4 373 383 381 368
4 39 350 380 34
4 381 351 40 36
4 350 355 382 380
4 383 356 351 381
4 384 385 359 358
4 360 386 387 361
4 385 388 362 359
4 363 389 386 360
4 375 374 385 384
4 386 376 377 387
4 374 378 388 385
4 389 379 376 386
4 223 390 391 224
4 392 393 227 226
4 390 366 375 391
4 377 369 393 392
4 231 394 390 223
4 393 395 232 227
4 394 35 366 390
4 369 37 395 393
4 235 396 394 231
4 395 396 235 232
4 396 32 35 394
4 37 32 396 395
4 209 397 398 210
4 399 400 213 212
4 397 358 348 398
4 353 361 400 399
4 210 398 401 216
4 402 399 212 219
4 398 348 39 401
4 40 353 399 402
4 216 401 403 220
4 403 402 219 220
4 401 39 38 403
4 38 40 402 403
4 237 404 397 209
4 400 405 238 213
4 404 384 358 397
4 361 387 405 400
4 224 391 404 237
4 405 392 226 238
4 391 375 384 404
4 387 377 392 405
4 354 406 407 355
4 408 409 357 356
4 406 410 411 407
4 412 413 409 408
4 362 414 406 354
4 409 415 363 357
4 414 416 410 406
4 413 417 415 409
4 370 418 419 371
4 420 421 373 372
4 418 422 423 419
4 424 425 421 420
4 371 419 426 378
4 427 420 372 379
4 419 423 428 426
4 429 424 420 427
4 382 430 418 370
4 421 431 383 373
4 430 432 422 418
4 425 433 431 421
4 355 407 430 382
4 431 408 356 383
4 407 411 432 430
4 433 412 408 431
4 388 434 414 362
4 415 435 389 363
4 434 436 416 414
4 417 437 435 415
4 378 426 434 388
4 435 427 379 389
4 426 428 436 434
4 437 429 427 435
4 423 438 439 428
4 440 441 424 429
4 422 442 438 423
4 441 443 425 424
4 416 444 445 410
4 446 447 417 413
4 410 445 448 411
4 449 446 413 412
4 436 450 444 416
4 447 451 437 417
4 428 439 450 436
4 451 440 429 437
4 432 452 442 422
4 443 453 433 425
4 411 448 452 432
4 453 449 412 433
4 438 454 455 439
4 456 457 441 440
4 454 458 459 455
4 460 461 457 456
4 442 462 454 438
4 457 463 443 441
4 462 464 458 454
4 461 465 463 457
4 444 466 467 445
4 468 469 447 446
4 466 470 471 467
4 472 473 469 468
4 445 467 474 448
4 475 468 446 449
4 467 471 476 474
4 477 472 468 475
4 450 478 466 444
4 469 479 451 447
4 478 480 470 466
4 473 481 479 469
4 439 455 478 450
4 479 456 440 451
4 455 459 480 478
4 481 460 456 479
4 452 482 462 442
4 463 483 453 443
4 482 484 464 462
4 465 485 483 463
4 448 474 482 452
4 483 475 449 453
4 474 476 484 482
4 485 477 475 483
4 486 487 488 489
4 490 491 492 493
4 494 495 487 486
4 491 496 497 492
4 498 499 500 501
4 502 503 504 505
4 501 500 506 507
4 508 502 505 509
4 510 511 499 498
4 503 512 513 504
4 489 488 511 510
4 512 490 493 513
4 514 515 495 494
4 496 516 517 497
4 507 506 515 514
4 516 508 509 517
4 296 518 519 297
4 520 521 299 298
4 522 523 524 525
4 526 527 528 529
4 306 525 524 284
4 526 529 309 287
4 522 525 530 531
4 532 529 528 533
4 519 531 530 297
4 532 533 520 298
4 297 530 525 306
4 529 532 298 309
4 534 535 536 537
4 538 539 540 541
4 300 537 536 296
4 538 541 303 299
4 296 536 535 518
4 539 538 299 521
4 534 537 542 543
4 544 541 540 545
4 546 543 542 285
4 544 545 547 286
4 285 542 537 300
4 541 544 286 303
4 548 549 550 551
4 552 553 554 555
4 556 557 558 559
4 560 561 562 563
4 564 565 557 556
4 561 566 567 562
4 559 558 568 569
4 570 560 563 571
4 569 568 565 564
4 566 570 571 567
4 572 556 559 573
4 563 562 574 575
4 576 564 556 572
4 562 567 577 574
4 573 559 569 578
4 571 563 575 579
4 578 569 564 576
4 567 571 579 577
4 557 580 581 558
4 582 583 561 560
4 580 584 585 581
4 586 587 583 582
4 565 588 580 557
4 583 589 566 561
4 588 590 584 580
4 587 591 589 583
4 558 581 592 568
4 593 582 560 570
4 581 585 594 592
4 595 586 582 593
4 568 592 588 565
4 589 593 570 566
4 592 594 590 588
4 591 595 593 589
4 584 596 597 585
4 598 599 587 586
4 596 550 549 597
4 553 552 599 598
4 590 600 596 584
4 599 601 591 587
4 600 551 550 596
4 552 555 601 599
4 585 597 602 594
4 603 598 586 595
4 597 549 548 602
4 554 553 598 603
4 594 602 600 590
4 601 603 595 591
4 602 548 551 600
4 555 554 603 601
4 604 605 606 607
4 608 609 610 611
4 605 572 573 606
4 575 574 609 608
4 612 613 605 604
4 609 614 615 610
4 613 576 572 605
4 574 577 614 609
4 607 606 616 617
4 618 608 611 619
4 606 573 578 616
4 579 575 608 618
4 617 616 613 612
4 614 618 619 615
4 616 578 576 613
4 577 579 618 614
4 518 620 621 519
4 622 623 521 520
4 620 624 625 621
4 626 627 623 622
4 628 629 630 546
4 631 632 633 547
4 629 617 612 630
4 615 619 632 631
4 607 634 635 636
4 637 638 611 639
4 634 523 522 635
4 528 527 638 637
4 617 629 634 607
4 638 632 619 611
4 629 628 523 634
4 527 633 632 638
4 640 641 621 625
4 622 642 643 626
4 641 531 519 621
4 520 533 642 622
4 636 635 641 640
4 642 637 639 643
4 635 522 531 641
4 533 528 637 642
4 644 645 646 647
4 648 649 650 651
4 645 535 534 646
4 540 539 649 648
4 624 620 645 644
4 649 623 627 650
4 620 518 535 645
4 539 521 623 649
4 604 652 630 612
4 631 653 610 615
4 652 543 546 630
4 547 545 653 631
4 647 646 652 604
4 653 648 651 610
4 646 534 543 652
4 545 540 648 653
4 654 655 656 657
4 658 659 660 661
4 607 654 657 604
4 661 660 611 610
4 662 663 655 654
4 659 664 665 660
4 636 662 654 607
4 660 665 639 611
4 657 656 666 667
4 668 658 661 669
4 604 657 667 647
4 669 661 610 651
4 667 666 663 662
4 664 668 669 665
4 647 667 662 636
4 665 669 651 639
4 670 671 672 673
4 674 675 676 677
4 678 670 673 679
4 677 676 680 681
4 682 683 671 670
4 675 684 685 676
4 686 682 670 678
4 676 685 687 680
4 673 672 688 689
4 690 674 677 691
4 679 673 689 692
4 691 677 681 693
4 689 688 683 682
4 684 690 691 685
4 692 689 682 686
4 685 691 693 687
4 694 678 679 695
4 681 680 696 697
4 698 694 695 699
4 697 696 700 701
4 702 686 678 694
4 680 687 703 696
4 704 702 694 698
4 696 703 705 700
4 695 679 692 706
4 693 681 697 707
4 699 695 706 708
4 707 697 701 709
4 706 692 686 702
4 687 693 707 703
4 708 706 702 704
4 703 707 709 705
4 655 710 711 656
4 712 713 659 658
4 663 714 710 655
4 713 715 664 659
4 656 711 716 666
4 717 712 658 668
4 666 716 714 663
4 715 717 668 664
4 710 698 699 711
4 701 700 713 712
4 714 704 698 710
4 700 705 715 713
4 711 699 708 716
4 709 701 712 717
4 716 708 704 714
4 705 709 717 715
4 671 683 688 672
4 690 684 675 674
4 718 719 720 721
4 722 723 724 725
4 726 727 728 729
4 730 731 732 733
4 734 735 727 726
4 731 736 737 732
4 729 728 738 739
4 740 730 733 741
4 739 738 735 734
4 736 740 741 737
4 742 726 729 743
4 733 732 744 745
4 746 734 726 742
4 732 737 747 744
4 743 729 739 748
4 741 733 745 749
4 748 739 734 746
4 737 741 749 747
4 727 750 751 728
4 752 753 731 730
4 750 754 755 751
4 756 757 753 752
4 735 758 750 727
4 753 759 736 731
4 758 760 754 750
4 757 761 759 753
4 728 751 762 738
4 763 752 730 740
4 751 755 764 762
4 765 756 752 763
4 738 762 758 735
4 759 763 740 736
4 762 764 760 758
4 761 765 763 759
4 754 766 767 755
4 768 769 757 756
4 766 720 719 767
4 723 722 769 768
4 760 770 766 754
4 769 771 761 757
4 770 721 720 766
4 722 725 771 769
4 755 767 772 764
4 773 768 756 765
4 767 719 718 772
4 724 723 768 773
4 764 772 770 760
4 771 773 765 761
4 772 718 721 770
4 725 724 773 771
4 644 774 775 640
4 776 777 650 643
4 774 742 743 775
4 745 744 777 776
4 647 778 774 644
4 777 779 651 650
4 778 746 742 774
4 744 747 779 777
4 640 775 780 636
4 781 776 643 639
4 775 743 748 780
4 749 745 776 781
4 636 780 778 647
4 779 781 639 651
4 780 748 746 778
4 747 749 781 779
4 782 783 784 785
4 786 787 788 789
4 640 782 785 644
4 789 788 643 650
4 790 791 783 782
4 787 792 793 788
4 625 790 782 640
4 788 793 626 643
4 785 784 794 795
4 796 786 789 797
4 644 785 795 624
4 797 789 650 627
4 795 794 791 790
4 792 796 797 793
4 624 795 790 625
4 793 797 627 626
4 798 799 800 801
4 802 803 804 805
4 806 798 801 807
4 805 804 808 809
4 810 811 799 798
4 803 812 813 804
4 814 810 798 806
4 804 813 815 808
4 801 800 816 817
4 818 802 805 819
4 807 801 817 820
4 819 805 809 821
4 817 816 811 810
4 812 818 819 813
4 820 817 810 814
4 813 819 821 815
4 822 806 807 823
4 809 808 824 825
4 826 822 823 827
4 825 824 828 829
4 830 814 806 822
4 808 815 831 824
4 832 830 822 826
4 824 831 833 828
4 823 807 820 834
4 821 809 825 835
4 827 823 834 836
4 835 825 829 837
4 834 820 814 830
4 815 821 835 831
4 836 834 830 832
4 831 835 837 833
4 783 838 839 784
4 840 841 787 786
4 791 842 838 783
4 841 843 792 787
4 784 839 844 794
4 845 840 786 796
4 794 844 842 791
4 843 845 796 792
4 838 826 827 839
4 829 828 841 840
4 842 832 826 838
4 828 833 843 841
4 839 827 836 844
4 837 829 840 845
4 844 836 832 842
4 833 837 845 843
4 799 811 816 800
4 818 812 803 802
4 846 847 848 849
4 850 851 852 853
4 847 854 855 848
4 856 857 851 850
4 854 546 285 855
4 286 547 857 856
4 849 848 858 859
4 860 850 853 861
4 848 855 862 858
4 863 856 850 860
4 855 285 284 862
4 287 286 856 863
4 859 858 864 865
4 866 860 861 867
4 858 862 868 864
4 869 863 860 866
4 865 864 847 846
4 851 866 867 852
4 864 868 854 847
4 857 869 866 851
4 868 628 546 854
4 547 633 869 857
4 628 870 524 523
4 526 871 633 527
4 628 868 862 870
4 863 869 633 871
4 284 524 870 862
4 871 526 287 863
4 872 873 874 875
4 876 877 878 879
4 880 881 882 883
4 884 885 886 887
4 888 889 881 880
4 885 890 891 886
4 883 882 892 893
4 894 884 887 895
4 893 892 889 888
4 890 894 895 891
4 881 896 897 882
4 898 899 885 884
4 896 874 873 897
4 877 876 899 898
4 889 900 896 881
4 899 901 890 885
4 900 875 874 896
4 876 879 901 899
4 882 897 902 892
4 903 898 884 894
4 897 873 872 902
4 878 877 898 903
4 892 902 900 889
4 901 903 894 890
4 902 872 875 900
4 879 878 903 901
4 893 865 846 883
4 852 867 895 887
4 883 846 849 880
4 853 852 887 886
4 880 849 859 888
4 861 853 886 891
4 888 859 865 893
4 867 861 891 895
4 904 905 906 907
4 908 909 910 911
4 905 912 913 906
4 914 915 909 908
4 916 917 905 904
4 909 918 919 910
4 917 920 912 905
4 915 921 918 909
4 907 922 923 904
4 924 925 911 910
4 922 926 927 923
4 928 929 925 924
4 926 930 931 927
4 932 933 929 928
4 930 934 935 931
4 936 937 933 932
4 904 923 938 916
4 939 924 910 919
4 923 927 940 938
4 941 928 924 939
4 927 931 942 940
4 943 932 928 941
4 931 935 944 942
4 945 936 932 943
4 495 946 947 487
4 948 949 496 491
4 946 950 951 947
4 952 953 949 948
4 950 954 955 951
4 956 957 953 952
4 954 958 959 955
4 960 961 957 956
4 487 947 962 488
4 963 948 491 490
4 947 951 964 962
4 965 952 948 963
4 951 955 966 964
4 967 956 952 965
4 955 959 968 966
4 969 960 956 967
4 506 970 971 515
4 972 973 508 516
4 970 920 917 971
4 918 921 973 972
4 515 971 974 495
4 975 972 516 496
4 971 917 916 974
4 919 918 972 975
4 511 976 977 499
4 978 979 512 503
4 976 906 913 977
4 914 908 979 978
4 488 980 976 511
4 979 981 490 512
4 980 907 906 976
4 908 911 981 979
4 500 982 970 506
4 973 983 502 508
4 982 912 920 970
4 921 915 983 973
4 499 977 982 500
4 983 978 503 502
4 977 913 912 982
4 915 914 978 983
4 958 984 985 959
4 986 987 961 960
4 984 944 935 985
4 936 945 987 986
4 959 985 988 968
4 989 986 960 969
4 985 935 934 988
4 937 936 986 989
4 962 990 980 488
4 981 991 963 490
4 990 922 907 980
4 911 925 991 981
4 964 992 990 962
4 991 993 965 963
4 992 926 922 990
4 925 929 993 991
4 966 994 992 964
4 993 995 967 965
4 994 930 926 992
4 929 933 995 993
4 968 988 994 966
4 995 989 969 967
4 988 934 930 994
4 933 937 989 995
4 938 996 974 916
4 975 997 939 919
4 996 946 495 974
4 496 949 997 975
4 940 998 996 938
4 997 999 941 939
4 998 950 946 996
4 949 953 999 997
4 942 1000 998 940
4 999 1001 943 941
4 1000 954 950 998
4 953 957 1001 999
4 944 984 1000 942
4 1001 987 945 943
4 984 958 954 1000
4 957 961 987 1001
4 189 1002 1003 190
4 1004 1005 193 192
4 1002 208 211 1003
4 215 214 1005 1004
4 217 1006 1003 211
4 1004 1007 218 215
4 1006 196 190 1003
4 192 199 1007 1004
4 221 1008 1006 217
4 1007 1008 221 218
4 1008 200 196 1006
4 199 200 1008 1007
4 180 1009 1010 184
4 1011 1012 183 187
4 1009 222 225 1010
4 229 228 1012 1011
4 174 1013 1009 180
4 1012 1014 179 183
4 1013 230 222 1009
4 228 233 1014 1012
4 177 1015 1013 174
4 1014 1015 177 179
4 1015 234 230 1013
4 233 234 1015 1014
4 208 1002 1016 236
4 1017 1005 214 239
4 1002 189 202 1016
4 205 193 1005 1017
4 184 1010 1016 202
4 1017 1011 187 205
4 1010 225 236 1016
4 239 229 1011 1017
4 458 1018 1019 459
4 1020 1021 461 460
4 1018 486 489 1019
4 493 492 1021 1020
4 464 1022 1018 458
4 1021 1023 465 461
4 1022 494 486 1018
4 492 497 1023 1021
4 470 1024 1025 471
4 1026 1027 473 472
4 1024 498 501 1025
4 505 504 1027 1026
4 471 1025 1028 476
4 1029 1026 472 477
4 1025 501 507 1028
4 509 505 1026 1029
4 480 1030 1024 470
4 1027 1031 481 473
4 1030 510 498 1024
4 504 513 1031 1027
4 459 1019 1030 480
4 1031 1020 460 481
4 1019 489 510 1030
4 513 493 1020 1031
4 484 1032 1022 464
4 1023 1033 485 465
4 1032 514 494 1022
4 497 517 1033 1023
4 476 1028 1032 484
4 1033 1029 477 485
4 1028 507 514 1032
4 517 509 1029 1033
4 121 128 1034 1035
4 1034 129 123 1035
4 94 97 1034 128
4 1034 97 99 129
4 121 1035 131 122
4 131 1035 123 126
