ply
format ascii 1.0
comment Created by Blender 2.61 (sub 0) - www.blender.org, source file: 'hand_02.blend'
element vertex 209
property float x
property float y
property float z
element face 205
property list uchar uint vertex_indices
end_header
-0.529033 -0.076661 -0.171214
-0.551127 0.133571 -0.228234
-0.500838 0.121187 -0.577196
-0.473612 -0.068187 -0.489223
0.054801 -0.193760 -0.310470
0.102003 -0.104505 -0.032701
-0.109639 -0.042709 -0.072220
-0.145939 -0.113364 -0.357904
-0.141373 -0.154885 -0.590895
0.173490 -0.225749 -0.721896
-0.338902 -0.075332 -0.355967
-0.328397 -0.045248 -0.100615
-0.374147 0.294479 -0.337244
-0.407397 0.285317 -0.064275
-0.073890 0.408373 -0.021487
-0.079183 0.387026 -0.380855
-0.081970 0.346052 -0.642896
0.151790 0.343221 -0.350207
0.202554 0.345748 -0.075149
0.433560 0.222254 0.044534
0.309042 0.164092 -0.772767
0.482414 -0.482559 1.497754
0.428422 -0.461420 1.300182
0.584381 -0.454149 1.273737
0.647195 -0.465484 1.443300
0.295621 -0.102832 0.941715
0.364841 0.044574 1.131793
0.344876 0.113617 1.027106
0.285248 -0.069277 0.909472
0.590326 0.021226 1.073920
0.575061 0.086920 0.969325
0.546972 -0.112805 0.908528
0.541793 -0.080735 0.876412
0.327920 0.138340 0.958065
0.267923 -0.062850 0.850801
0.562968 0.108280 0.899872
0.529850 -0.075743 0.817436
0.352421 -0.230411 1.146729
0.405397 -0.111326 1.289248
0.365056 -0.252737 1.187820
0.416291 -0.143007 1.328678
0.605464 -0.119480 1.233001
0.612039 -0.148007 1.272326
0.575561 -0.235415 1.115164
0.583427 -0.256437 1.156616
0.377256 -0.291138 1.204147
0.437948 -0.245068 1.384934
0.628067 -0.245907 1.328194
0.589439 -0.293160 1.173475
0.193707 0.000172 0.626393
0.238495 0.245146 0.669038
0.210261 0.301779 0.560860
0.178699 0.028661 0.588338
0.512271 0.188320 0.607478
0.484627 0.239423 0.494978
0.472252 -0.027222 0.586720
0.463872 -0.010113 0.536869
-0.540417 -0.144923 0.492910
-0.624094 0.069944 0.498398
-0.620648 0.075745 0.383380
-0.535588 -0.144896 0.421594
0.429361 -0.002240 0.446824
0.473272 0.237197 0.399128
-0.100407 -0.010176 0.539023
0.149989 -0.011625 0.488433
-0.078308 0.034550 0.618575
-0.332735 -0.082478 0.484002
-0.322269 -0.054509 0.560521
-0.077572 0.347228 0.467803
-0.401271 0.238070 0.447095
-0.404490 0.189957 0.550192
-0.082599 0.309829 0.612011
0.212775 0.326994 0.469041
0.265835 0.164264 1.020875
0.270455 -0.035785 0.931967
0.185665 0.028510 0.651454
0.240198 0.251335 0.687800
-0.013602 -0.053994 0.940674
-0.071106 0.005007 0.665734
0.004777 0.166804 1.060902
-0.066858 0.277696 0.727556
0.392134 -0.446138 1.618316
0.342012 -0.439603 1.430467
0.331357 -0.265808 1.322865
0.347556 -0.212312 1.491333
0.320634 -0.226963 1.303481
0.320180 -0.108649 1.428065
0.174809 -0.466593 1.443158
0.102246 -0.289005 1.331537
0.084610 -0.249093 1.311968
0.214172 -0.485067 1.660381
0.139244 -0.234505 1.530487
0.105245 -0.127300 1.467096
0.313270 -0.204894 1.257963
0.312702 -0.078408 1.384819
0.284896 -0.074519 1.031847
0.290420 0.072414 1.210644
0.071920 -0.226192 1.266267
0.012577 -0.094409 1.040833
0.092664 -0.094327 1.423732
0.040680 0.069081 1.250795
0.274653 0.142089 1.096486
0.277528 -0.040388 0.996348
-0.000536 -0.059459 1.005211
0.019371 0.141634 1.136560
-0.148580 -0.456618 1.627698
-0.147553 -0.448351 1.419493
-0.000528 -0.402397 1.435714
0.010917 -0.398646 1.618044
-0.302847 -0.126685 1.004480
-0.353800 0.034526 1.196167
-0.367867 0.097893 1.083690
-0.315870 -0.096160 0.967813
-0.121611 0.068547 1.199961
-0.130020 0.129885 1.088703
-0.059832 -0.073682 1.040228
-0.067501 -0.043207 1.004699
-0.372458 0.118288 1.010129
-0.316745 -0.093899 0.905723
-0.128718 0.148181 1.016341
-0.062790 -0.041008 0.943838
-0.261846 -0.238790 1.228588
-0.302525 -0.109250 1.371983
-0.253784 -0.257843 1.273953
-0.291857 -0.137835 1.415628
-0.100245 -0.067106 1.371337
-0.094786 -0.093764 1.413883
-0.047277 -0.188328 1.259608
-0.044185 -0.207271 1.303854
-0.232489 -0.292754 1.296690
-0.248802 -0.233094 1.484520
-0.058493 -0.186524 1.481361
-0.029335 -0.242051 1.325212
-0.297500 -0.053883 0.643426
-0.393426 0.192074 0.694735
-0.111940 0.256668 0.733497
-0.079281 0.027416 0.685735
-0.446532 -0.099139 0.838374
-0.351183 -0.175317 0.732492
-0.320691 -0.068297 0.597791
-0.421669 0.103571 0.672774
-0.542193 -0.238619 0.637481
-0.537208 -0.156560 0.541131
-0.606495 -0.144452 0.803907
-0.616249 0.044164 0.624054
-0.247191 -0.702998 0.603633
-0.284171 -0.564568 0.571680
-0.313128 -0.454371 0.681359
-0.321824 -0.570179 0.750374
-0.328818 -0.448575 0.702779
-0.331104 -0.516086 0.797767
-0.405017 -0.580999 0.547359
-0.480186 -0.470115 0.656728
-0.485826 -0.464495 0.663270
-0.374688 -0.743255 0.575415
-0.451982 -0.602515 0.739680
-0.488148 -0.553247 0.780987
-0.317172 -0.432743 0.710622
-0.373699 -0.470741 0.834696
-0.344048 -0.201467 0.726654
-0.425674 -0.261703 0.853968
-0.486933 -0.453287 0.658973
-0.543832 -0.257834 0.647847
-0.501055 -0.500553 0.811573
-0.578420 -0.292214 0.831835
-0.420275 -0.188468 0.858466
-0.356649 -0.192674 0.741052
-0.536943 -0.244662 0.651778
-0.606021 -0.226506 0.823646
0.634631 -0.156625 -0.352637
0.613453 0.007823 0.023962
0.635457 -0.151661 0.121050
0.754965 -0.330644 0.030969
0.477869 0.048939 -0.595155
0.524210 0.127976 -0.048599
0.433552 -0.357722 -0.319501
0.585507 -0.477445 0.044918
0.318380 -0.318137 -0.526496
0.414566 -0.240814 0.046856
0.434872 -0.303821 0.140856
0.378169 -0.171952 0.082025
0.308940 -0.095826 0.114548
0.208614 -0.214667 -0.268213
0.843782 -0.413986 0.704641
0.727156 -0.276782 0.601302
0.588653 -0.401504 0.586631
0.663051 -0.541413 0.668785
0.712097 -0.192571 0.322213
0.855842 -0.394898 0.299791
0.832721 -0.367343 0.184558
0.699910 -0.174858 0.293549
0.650841 -0.538096 0.289433
0.625556 -0.512556 0.182268
0.511289 -0.369277 0.319889
0.498150 -0.352721 0.297005
0.710397 -0.203237 0.387690
0.840322 -0.388076 0.449040
0.639092 -0.529272 0.433208
0.516837 -0.375178 0.383338
-0.588729 0.100440 0.189954
-0.535418 -0.147675 0.248691
0.371276 -0.041451 0.288869
0.455929 0.220193 0.287461
0.138305 -0.015913 0.317160
-0.105470 -0.010517 0.342053
-0.333425 -0.060338 0.295612
-0.388783 0.252448 0.283820
-0.078091 0.355417 0.310131
0.198090 0.325964 0.302581
4 0 1 2 3
4 4 5 6 7
4 4 7 8 9
4 10 7 6 11
4 10 11 0 3
4 7 10 3 8
4 12 13 14 15
4 12 15 16 2
4 13 12 2 1
4 17 15 14 18
4 19 20 17 18
4 20 16 15 17
4 21 22 23 24
4 25 26 27 28
4 26 29 30 27
4 31 25 28 32
4 29 31 32 30
4 28 27 33 34
4 27 30 35 33
4 32 28 34 36
4 30 32 36 35
4 37 38 26 25
4 39 40 38 37
4 38 41 29 26
4 40 42 41 38
4 43 37 25 31
4 44 39 37 43
4 41 43 31 29
4 42 44 43 41
4 45 46 40 39
4 22 21 46 45
4 46 47 42 40
4 21 24 47 46
4 48 45 39 44
4 23 22 45 48
4 47 48 44 42
4 24 23 48 47
4 49 50 51 52
4 34 33 50 49
4 50 53 54 51
4 33 35 53 50
4 55 49 52 56
4 36 34 49 55
4 53 55 56 54
4 35 36 55 53
4 57 58 59 60
4 54 56 61 62
4 63 64 52 65
4 64 61 56 52
4 60 66 67 57
4 66 63 65 67
4 68 69 70 71
4 69 59 58 70
4 62 72 51 54
4 72 68 71 51
4 73 74 75 76
4 76 75 52 51
4 74 77 78 75
4 75 78 65 52
4 79 73 76 80
4 80 76 51 71
4 77 79 80 78
4 78 80 71 65
4 81 82 83 84
4 84 83 85 86
4 82 87 88 83
4 83 88 89 85
4 90 81 84 91
4 91 84 86 92
4 87 90 91 88
4 88 91 92 89
4 86 85 93 94
4 94 93 95 96
4 85 89 97 93
4 93 97 98 95
4 92 86 94 99
4 99 94 96 100
4 89 92 99 97
4 97 99 100 98
4 101 102 74 73
4 102 103 77 74
4 104 101 73 79
4 103 104 79 77
4 96 95 102 101
4 95 98 103 102
4 100 96 101 104
4 98 100 104 103
4 90 87 82 81
4 105 106 107 108
4 109 110 111 112
4 110 113 114 111
4 115 109 112 116
4 113 115 116 114
4 112 111 117 118
4 111 114 119 117
4 116 112 118 120
4 114 116 120 119
4 121 122 110 109
4 123 124 122 121
4 122 125 113 110
4 124 126 125 122
4 127 121 109 115
4 128 123 121 127
4 125 127 115 113
4 126 128 127 125
4 129 130 124 123
4 106 105 130 129
4 130 131 126 124
4 105 108 131 130
4 132 129 123 128
4 107 106 129 132
4 131 132 128 126
4 108 107 132 131
4 133 134 70 67
4 118 117 134 133
4 134 135 71 70
4 117 119 135 134
4 136 133 67 65
4 120 118 133 136
4 135 136 65 71
4 119 120 136 135
4 137 138 139 140
4 140 139 67 70
4 138 141 142 139
4 139 142 57 67
4 143 137 140 144
4 144 140 70 58
4 141 143 144 142
4 142 144 58 57
4 145 146 147 148
4 148 147 149 150
4 146 151 152 147
4 147 152 153 149
4 154 145 148 155
4 155 148 150 156
4 151 154 155 152
4 152 155 156 153
4 150 149 157 158
4 158 157 159 160
4 149 153 161 157
4 157 161 162 159
4 156 150 158 163
4 163 158 160 164
4 153 156 163 161
4 161 163 164 162
4 165 166 138 137
4 166 167 141 138
4 168 165 137 143
4 167 168 143 141
4 160 159 166 165
4 159 162 167 166
4 164 160 165 168
4 162 164 168 167
4 154 151 146 145
4 169 170 171 172
4 173 174 170 169
4 20 19 174 173
4 175 169 172 176
4 177 173 169 175
4 9 20 173 177
4 178 175 176 179
4 180 177 175 178
4 170 178 179 171
4 174 180 178 170
4 19 181 180 174
4 4 182 181 5
4 177 180 181 182
4 182 4 9 177
4 183 184 185 186
4 187 188 189 190
4 188 191 192 189
4 193 187 190 194
4 191 193 194 192
4 195 196 188 187
4 184 183 196 195
4 196 197 191 188
4 183 186 197 196
4 198 195 187 193
4 185 184 195 198
4 197 198 193 191
4 186 185 198 197
4 171 179 194 190
4 172 171 190 189
4 176 172 189 192
4 179 176 192 194
4 59 199 200 60
4 199 1 0 200
4 61 201 202 62
4 201 181 19 202
4 5 203 204 6
4 203 64 63 204
4 181 201 203 5
4 201 61 64 203
4 11 205 200 0
4 205 66 60 200
4 6 204 205 11
4 204 63 66 205
4 13 206 207 14
4 206 69 68 207
4 1 199 206 13
4 199 59 69 206
4 18 208 202 19
4 208 72 62 202
4 14 207 208 18
4 207 68 72 208
