ply
format ascii 1.0
comment Created by Blender 2.60 (sub 0) - www.blender.org, source file: 'hand.blend'
element vertex 135
property float x
property float y
property float z
element face 131
property list uchar uint vertex_indices
end_header
-0.622675 -0.065016 -0.210012
-0.601463 0.153696 -0.236808
-0.500838 0.121187 -0.577196
-0.534552 -0.075885 -0.515152
0.097311 -0.139189 -0.317494
0.120209 -0.056404 -0.043067
-0.109639 -0.042709 -0.072220
-0.075075 -0.094477 -0.385233
-0.134719 -0.224400 -0.587777
0.211096 -0.265845 -0.719817
-0.338902 -0.075332 -0.355967
-0.328397 -0.045248 -0.100615
-0.381642 0.330162 -0.340831
-0.396367 0.261350 -0.082297
-0.073890 0.408373 -0.021487
-0.079183 0.387026 -0.380855
-0.081970 0.346052 -0.642896
0.151790 0.343221 -0.350207
0.220708 0.277926 -0.091195
0.433560 0.222254 0.044534
0.309042 0.164092 -0.772767
-0.552806 -0.154931 0.427798
-0.620648 0.075745 0.383380
-0.544390 -0.147907 0.513677
-0.624094 0.069944 0.498398
0.473272 0.237197 0.399128
0.454090 -0.020933 0.450575
0.310976 -0.119419 0.131119
0.484627 0.239423 0.494978
0.463872 -0.010113 0.536869
-0.103487 0.004789 0.539023
0.146909 0.003339 0.488433
0.178699 0.028661 0.588338
-0.078308 0.034550 0.618575
-0.335815 -0.067513 0.484002
-0.315396 -0.046523 0.573637
-0.077572 0.347228 0.467803
-0.354912 0.245928 0.453300
-0.404490 0.189957 0.550192
-0.082599 0.309829 0.612011
0.201810 0.302766 0.465243
0.210261 0.301779 0.560860
-0.148580 -0.456618 1.627698
-0.147553 -0.448351 1.419493
-0.000528 -0.402397 1.435714
0.010917 -0.398646 1.618044
-0.302847 -0.126685 1.004480
-0.353800 0.034526 1.196167
-0.367867 0.097893 1.083690
-0.315870 -0.096160 0.967813
-0.121611 0.068547 1.199961
-0.130020 0.129885 1.088703
-0.059832 -0.073682 1.040228
-0.067501 -0.043207 1.004699
-0.372458 0.118288 1.010129
-0.316745 -0.093899 0.905723
-0.128718 0.148181 1.016341
-0.062790 -0.041008 0.943838
-0.261846 -0.238790 1.228588
-0.302525 -0.109250 1.371983
-0.253784 -0.257843 1.273953
-0.291857 -0.137835 1.415628
-0.100245 -0.067106 1.371337
-0.094786 -0.093764 1.413883
-0.047277 -0.188328 1.259608
-0.044185 -0.207271 1.303854
-0.232489 -0.292754 1.296690
-0.248802 -0.233094 1.484520
-0.058493 -0.186524 1.481361
-0.029335 -0.242051 1.325212
-0.297500 -0.053883 0.643426
-0.393426 0.192074 0.694735
-0.111940 0.256668 0.733497
-0.079281 0.027416 0.685735
-0.442191 0.026130 0.848458
-0.358243 -0.110686 0.788850
-0.319085 -0.078890 0.630512
-0.394751 0.088120 0.643911
-0.548282 -0.188167 0.742703
-0.543675 -0.162175 0.574303
-0.629375 -0.032982 0.829012
-0.620812 0.035647 0.614949
-0.285093 -0.410084 1.322428
-0.283349 -0.407209 1.175664
-0.323534 -0.280275 1.090316
-0.363441 -0.247127 1.215312
-0.339172 -0.254106 1.073397
-0.401953 -0.176407 1.161910
-0.391444 -0.464372 1.153012
-0.474439 -0.348923 1.054571
-0.495095 -0.323543 1.036198
-0.402689 -0.479614 1.319372
-0.506619 -0.311918 1.205710
-0.550746 -0.240162 1.150890
-0.341929 -0.237779 1.038348
-0.407811 -0.154400 1.128300
-0.356478 -0.140035 0.865280
-0.435096 -0.043313 0.993698
-0.501718 -0.307815 0.999998
-0.538021 -0.216083 0.821588
-0.560928 -0.217354 1.116179
-0.612715 -0.104071 0.976637
-0.444561 0.008501 0.905830
-0.365034 -0.115624 0.837263
-0.550735 -0.192376 0.792380
-0.626863 -0.051446 0.887583
0.634631 -0.156625 -0.352637
0.613453 0.007823 0.023962
0.635457 -0.151661 0.121050
0.754965 -0.330644 0.030969
0.477869 0.048939 -0.595155
0.524210 0.127976 -0.048599
0.433552 -0.357722 -0.319501
0.585507 -0.477445 0.044918
0.318380 -0.318137 -0.526496
0.429519 -0.214083 0.042552
0.434872 -0.303821 0.140856
0.378169 -0.171952 0.082025
0.203051 -0.182362 -0.277891
0.843782 -0.413986 0.704641
0.727156 -0.276782 0.601302
0.588653 -0.401504 0.586631
0.663051 -0.541413 0.668785
0.712097 -0.192571 0.322213
0.855842 -0.394898 0.299791
0.832721 -0.367343 0.184558
0.699910 -0.174858 0.293549
0.650841 -0.538096 0.289433
0.625556 -0.512556 0.182268
0.511289 -0.369277 0.319889
0.498150 -0.352721 0.297005
0.710397 -0.203237 0.387690
0.840322 -0.388076 0.449040
0.639092 -0.529272 0.433208
0.516837 -0.375178 0.383338
4 0 1 2 3
4 4 5 6 7
4 4 7 8 9
4 10 7 6 11
4 10 11 0 3
4 7 10 3 8
4 12 13 14 15
4 12 15 16 2
4 13 12 2 1
4 17 15 14 18
4 19 20 17 18
4 20 16 15 17
4 21 22 1 0
4 23 24 22 21
4 25 26 27 19
4 28 29 26 25
4 30 31 32 33
4 6 5 31 30
4 31 26 29 32
4 5 27 26 31
4 21 34 35 23
4 0 11 34 21
4 34 30 33 35
4 11 6 30 34
4 36 37 38 39
4 14 13 37 36
4 37 22 24 38
4 13 1 22 37
4 25 40 41 28
4 19 18 40 25
4 40 36 39 41
4 18 14 36 40
4 42 43 44 45
4 46 47 48 49
4 47 50 51 48
4 52 46 49 53
4 50 52 53 51
4 49 48 54 55
4 48 51 56 54
4 53 49 55 57
4 51 53 57 56
4 58 59 47 46
4 60 61 59 58
4 59 62 50 47
4 61 63 62 59
4 64 58 46 52
4 65 60 58 64
4 62 64 52 50
4 63 65 64 62
4 66 67 61 60
4 43 42 67 66
4 67 68 63 61
4 42 45 68 67
4 69 66 60 65
4 44 43 66 69
4 68 69 65 63
4 45 44 69 68
4 70 71 38 35
4 55 54 71 70
4 71 72 39 38
4 54 56 72 71
4 73 70 35 33
4 57 55 70 73
4 72 73 33 39
4 56 57 73 72
4 74 75 76 77
4 77 76 35 38
4 75 78 79 76
4 76 79 23 35
4 80 74 77 81
4 81 77 38 24
4 78 80 81 79
4 79 81 24 23
4 82 83 84 85
4 85 84 86 87
4 83 88 89 84
4 84 89 90 86
4 91 82 85 92
4 92 85 87 93
4 88 91 92 89
4 89 92 93 90
4 87 86 94 95
4 95 94 96 97
4 86 90 98 94
4 94 98 99 96
4 93 87 95 100
4 100 95 97 101
4 90 93 100 98
4 98 100 101 99
4 102 103 75 74
4 103 104 78 75
4 105 102 74 80
4 104 105 80 78
4 97 96 103 102
4 96 99 104 103
4 101 97 102 105
4 99 101 105 104
4 91 88 83 82
4 106 107 108 109
4 110 111 107 106
4 20 19 111 110
4 112 106 109 113
4 114 110 106 112
4 9 20 110 114
4 115 112 113 116
4 117 114 112 115
4 107 115 116 108
4 111 117 115 107
4 19 27 117 111
4 4 118 27 5
4 114 117 27 118
4 118 4 9 114
4 119 120 121 122
4 123 124 125 126
4 124 127 128 125
4 129 123 126 130
4 127 129 130 128
4 131 132 124 123
4 120 119 132 131
4 132 133 127 124
4 119 122 133 132
4 134 131 123 129
4 121 120 131 134
4 133 134 129 127
4 122 121 134 133
4 108 116 130 126
4 109 108 126 125
4 113 109 125 128
4 116 113 128 130
4 39 33 32 41
4 29 28 41 32
