\relax 
\ifx\hyper@anchor\@undefined
\global \let \oldcontentsline\contentsline
\gdef \contentsline#1#2#3#4{\oldcontentsline{#1}{#2}{#3}}
\global \let \oldnewlabel\newlabel
\gdef \newlabel#1#2{\newlabelxx{#1}#2}
\gdef \newlabelxx#1#2#3#4#5#6{\oldnewlabel{#1}{{#2}{#3}}}
\AtEndDocument{\let \contentsline\oldcontentsline
\let \newlabel\oldnewlabel}
\else
\global \let \hyper@last\relax 
\fi

\citation{eppstein09}
\citation{cour06}
\citation{kim11}
\bibstyle{acmsiggraph}
\bibdata{bib}
\bibcite{model:office0}{\citename {{``BAM''} }2009a}
\bibcite{model:office1}{\citename {{``BAM''} }2009b}
\bibcite{model:sintel}{\citename {{Blender Foundation} }2011}
\bibcite{model:dragon}{\citename {B\"{o}hler }2012}
\@writefile{toc}{\contentsline {section}{\numberline {1}Details: Backtracking Step and $\alpha $ Weight}{1}{section.1}}
\@writefile{toc}{\contentsline {section}{\numberline {2}Additional Results}{1}{section.2}}
\bibcite{cour06}{\citename {Cour et\nobreakspace  {}al\unhbox \voidb@x \hbox {.} }2006}
\bibcite{eppstein09}{\citename {Eppstein et\nobreakspace  {}al\unhbox \voidb@x \hbox {.} }2009}
\bibcite{model:tanner1}{\citename {{``Gillan''} }2010a}
\bibcite{model:tanner2}{\citename {{``Gillan''} }2010b}
\bibcite{kim11}{\citename {Kim et\nobreakspace  {}al\unhbox \voidb@x \hbox {.} }2011}
\bibcite{model:shuttle0}{\citename {Kuhn }2012a}
\bibcite{model:shuttle1}{\citename {Kuhn }2012b}
\bibcite{model:woman2}{\citename {Nyman }2010a}
\bibcite{model:woman1}{\citename {Nyman }2010b}
\bibcite{model:woman3}{\citename {Nyman }2010c}
\bibcite{model:head1}{\citename {W }2012a}
\bibcite{model:head0}{\citename {W }2012b}
\bibcite{model:woman0}{\citename {Williamson }2010a}
\bibcite{model:tanner0}{\citename {Williamson }2010b}
\citation{model:dragon}
\citation{model:head0,model:head1}
\citation{model:office0,model:office1}
\citation{model:shuttle0,model:shuttle1}
\citation{model:sintel}
\citation{model:tanner0,model:tanner1,model:tanner2}
\citation{model:woman0,model:woman1}
\citation{model:woman2,model:woman3}
\@writefile{lot}{\contentsline {table}{\numberline {1}{\ignorespaces Statistics of input meshes and computing the mesh edit distance. The right column shows the matching time of the iterative greedy algorithm to compute the mesh edit distance between the original mesh and a derivative (or between ver.\nobreakspace  {}1 and ver.\nobreakspace  {}2). The first time for Head model is for greedy step only, and the second time is for full iterative greedy algorithm.\relax }}{2}{table.caption.2}}
\providecommand*\caption@xref[2]{\@setref\relax\@undefined{#1}}
\newlabel{tbl:modelstats}{{[table][1][]1}{2}{Statistics of input meshes and computing the mesh edit distance. The right column shows the matching time of the iterative greedy algorithm to compute the mesh edit distance between the original mesh and a derivative (or between ver.~1 and ver.~2). The first time for Head model is for greedy step only, and the second time is for full iterative greedy algorithm.\relax \relax }{table.caption.2}{}}
\@writefile{lof}{\contentsline {figure}{\numberline {1}{\ignorespaces Tanner: the effect on matching of varying how much $\alpha $ is reduced each iteration ($\alpha _{n+1} = m_\alpha * \alpha _{n}$). The derivative mesh (version\nobreakspace  {}2) has been heavily sculpted. Despite the neck region self-intersecting in the derivative mesh, \emph  {MeshGit}\xspace  {} is able to intuitively match this region when the geometric terms are reduced (small $\alpha $ value).\relax }}{3}{figure.caption.3}}
\newlabel{fig:tannerneck}{{[figure][1][]1}{3}{Tanner: the effect on matching of varying how much $\alpha $ is reduced each iteration ($\alpha _{n+1} = m_\alpha * \alpha _{n}$). The derivative mesh (version~2) has been heavily sculpted. Despite the neck region self-intersecting in the derivative mesh, \MeshGit {} is able to intuitively match this region when the geometric terms are reduced (small $\alpha $ value).\relax \relax }{figure.caption.3}{}}
\@writefile{lof}{\contentsline {figure}{\numberline {2}{\ignorespaces Sintel: the effect on matching after greedy algorithm (only) by varying the $\alpha $ value. When $\alpha $ is too low, the greedy algorithm weights too heavily the adjacencies and has trouble matching well the irregular points on the mesh (extraordinary vertices).\relax }}{4}{figure.caption.4}}
\newlabel{fig:sintel}{{[figure][2][]2}{4}{Sintel: the effect on matching after greedy algorithm (only) by varying the $\alpha $ value. When $\alpha $ is too low, the greedy algorithm weights too heavily the adjacencies and has trouble matching well the irregular points on the mesh (extraordinary vertices).\relax \relax }{figure.caption.4}{}}
\@writefile{lof}{\contentsline {figure}{\numberline {3}{\ignorespaces Dragon: example of two meshes with similar shape but different adjacencies.\relax }}{5}{figure.caption.5}}
\newlabel{fig:dragon}{{[figure][3][]3}{5}{Dragon: example of two meshes with similar shape but different adjacencies.\relax \relax }{figure.caption.5}{}}
\@writefile{lof}{\contentsline {figure}{\numberline {4}{\ignorespaces Head: example of two meshes with similar shape but different adjacencies. This figure shows the matching after the greedy step only. The derivative mesh is a retopology of the original. \emph  {MeshGit}\xspace  {} does not handle such global modifications, but instead matches local patches that have similar adjacencies. The backtracking step removes all of the matches, because the size of the patches are small relative to the entire head.\relax }}{5}{figure.caption.6}}
\newlabel{fig:head}{{[figure][4][]4}{5}{Head: example of two meshes with similar shape but different adjacencies. This figure shows the matching after the greedy step only. The derivative mesh is a retopology of the original. \MeshGit {} does not handle such global modifications, but instead matches local patches that have similar adjacencies. The backtracking step removes all of the matches, because the size of the patches are small relative to the entire head.\relax \relax }{figure.caption.6}{}}
\@writefile{lof}{\contentsline {figure}{\numberline {5}{\ignorespaces Office: mesh diff between two large meshes of 57k and 65k triangles, respectively. In the derivative mesh, the artist added a section to the building, seen in the second row, as well as corrected the ``topology'' of inside regions, seen on the walkway of bottom row.\relax }}{6}{figure.caption.7}}
\newlabel{fig:office}{{[figure][5][]5}{6}{Office: mesh diff between two large meshes of 57k and 65k triangles, respectively. In the derivative mesh, the artist added a section to the building, seen in the second row, as well as corrected the ``topology'' of inside regions, seen on the walkway of bottom row.\relax \relax }{figure.caption.7}{}}
\@writefile{lof}{\contentsline {figure}{\numberline {6}{\ignorespaces Shuttle: mesh diff between the two largest meshes of 167k and 194k polygons. The meshes comprise 2254 and 3352 individual components, respectively. \relax }}{7}{figure.caption.8}}
\newlabel{fig:shuttle}{{[figure][6][]6}{7}{Shuttle: mesh diff between the two largest meshes of 167k and 194k polygons. The meshes comprise 2254 and 3352 individual components, respectively. \relax \relax }{figure.caption.8}{}}
\@writefile{lof}{\contentsline {figure}{\numberline {7}{\ignorespaces Tanner\relax }}{8}{figure.caption.9}}
\newlabel{fig:tanner}{{[figure][7][]7}{8}{Tanner\relax \relax }{figure.caption.9}{}}
\@writefile{lof}{\contentsline {figure}{\numberline {8}{\ignorespaces Ishtarian Woman 0 and 1\relax }}{9}{figure.caption.10}}
\newlabel{fig:woman01}{{[figure][8][]8}{9}{Ishtarian Woman 0 and 1\relax \relax }{figure.caption.10}{}}
\@writefile{lof}{\contentsline {figure}{\numberline {9}{\ignorespaces Ishtarian Woman 2 and 3\relax }}{10}{figure.caption.11}}
\newlabel{fig:woman23}{{[figure][9][]9}{10}{Ishtarian Woman 2 and 3\relax \relax }{figure.caption.11}{}}
