ply
format ascii 1.0
comment Created by Blender 2.61 (sub 0) - www.blender.org, source file: 'heads.blend'
element vertex 1913
property float x
property float y
property float z
element face 1810
property list uchar uint vertex_indices
end_header
0.041740 -0.547192 -0.215250
0.043225 -0.542500 -0.191945
0.031585 -0.548205 -0.194629
0.028101 -0.553143 -0.211785
-0.031585 -0.548205 -0.194629
-0.043225 -0.542500 -0.191945
-0.041740 -0.547192 -0.215250
-0.028101 -0.553143 -0.211785
0.067888 -0.564175 -0.195749
0.046973 -0.592257 -0.197484
0.040160 -0.582010 -0.183315
0.059275 -0.557521 -0.185039
-0.040160 -0.582010 -0.183315
-0.046973 -0.592257 -0.197484
-0.067888 -0.564175 -0.195749
-0.059275 -0.557521 -0.185039
0.074485 -0.605068 -0.164829
0.099550 -0.560948 -0.168605
0.093047 -0.558103 -0.127899
0.069599 -0.600222 -0.130211
-0.093047 -0.558103 -0.127899
-0.099550 -0.560948 -0.168605
-0.074485 -0.605068 -0.164829
-0.069599 -0.600222 -0.130211
0.058982 -0.600216 -0.184557
0.092363 -0.562877 -0.185022
-0.092363 -0.562877 -0.185022
-0.058982 -0.600216 -0.184557
0.055609 -0.541657 -0.212056
0.050364 -0.545912 -0.196256
-0.050364 -0.545912 -0.196256
-0.055609 -0.541657 -0.212056
0.100279 -0.522036 -0.188489
0.109116 -0.520622 -0.206412
0.122692 -0.517861 -0.164986
0.108979 -0.520400 -0.157981
-0.122692 -0.517861 -0.164986
-0.109116 -0.520622 -0.206412
-0.100279 -0.522036 -0.188489
-0.108979 -0.520400 -0.157981
0.069731 -0.544074 -0.203674
0.065260 -0.543632 -0.185864
-0.065260 -0.543632 -0.185864
-0.069731 -0.544074 -0.203674
0.104437 -0.531672 -0.171757
0.104342 -0.531761 -0.136813
-0.104342 -0.531761 -0.136813
-0.104437 -0.531672 -0.171757
0.094559 -0.536092 -0.195884
-0.094559 -0.536092 -0.195884
0.080999 -0.531190 -0.214009
-0.080999 -0.531190 -0.214009
0.086888 -0.530915 -0.232277
-0.086888 -0.530915 -0.232277
0.026577 -0.549973 -0.233074
0.028424 -0.550173 -0.247252
0.051590 -0.542220 -0.241404
0.044742 -0.545717 -0.228597
-0.051590 -0.542220 -0.241404
-0.028424 -0.550173 -0.247252
-0.026577 -0.549973 -0.233074
-0.044742 -0.545717 -0.228597
0.029811 -0.607932 -0.214274
0.023769 -0.591247 -0.201442
-0.023769 -0.591247 -0.201442
-0.029811 -0.607932 -0.214274
0.057543 -0.657264 -0.164876
0.052212 -0.650508 -0.130977
-0.057543 -0.657264 -0.164876
-0.052212 -0.650508 -0.130977
0.039057 -0.641326 -0.193420
-0.039057 -0.641326 -0.193420
0.024410 -0.571484 -0.212463
0.022383 -0.569703 -0.193431
-0.022383 -0.569703 -0.193431
-0.024410 -0.571484 -0.212463
0.103302 -0.530482 -0.119488
0.081958 -0.554825 -0.103062
-0.103302 -0.530482 -0.119488
-0.081958 -0.554825 -0.103062
0.038106 -0.625317 -0.100475
0.062029 -0.590732 -0.105438
0.059753 -0.578023 -0.068673
0.032395 -0.607022 -0.063441
-0.059753 -0.578023 -0.068673
-0.062029 -0.590732 -0.105438
-0.038106 -0.625317 -0.100475
-0.032395 -0.607022 -0.063441
0.058738 -0.562966 -0.031136
0.032207 -0.584784 -0.016757
-0.032207 -0.584784 -0.016757
-0.058738 -0.562966 -0.031136
0.045121 -0.528552 -0.146353
0.026235 -0.537652 -0.134150
-0.045121 -0.528552 -0.146353
-0.026235 -0.537652 -0.134150
0.039837 -0.572303 -0.150628
0.065343 -0.543297 -0.141378
-0.039837 -0.572303 -0.150628
-0.065343 -0.543297 -0.141378
0.060088 -0.528032 -0.154179
-0.060088 -0.528032 -0.154179
0.072290 -0.534689 -0.149681
-0.072290 -0.534689 -0.149681
0.027014 -0.579099 -0.148234
-0.027014 -0.579099 -0.148234
0.014934 -0.559347 -0.133919
-0.014934 -0.559347 -0.133919
0.030215 -0.555608 -0.263640
0.060414 -0.543418 -0.258905
-0.030215 -0.555608 -0.263640
-0.060414 -0.543418 -0.258905
0.081562 -0.550275 -0.079377
0.084995 -0.541139 -0.050103
-0.084995 -0.541139 -0.050103
-0.081562 -0.550275 -0.079377
0.106293 -0.529688 -0.100880
0.119214 -0.523809 -0.078522
-0.119214 -0.523809 -0.078522
-0.106293 -0.529688 -0.100880
0.000000 -0.676502 -0.167626
0.000000 -0.663681 -0.130195
0.000000 -0.661067 -0.198095
0.000000 -0.584031 -0.229456
0.000000 -0.625606 -0.224176
0.000000 -0.564248 -0.227070
0.000000 -0.639304 -0.099253
0.000000 -0.621733 -0.062098
0.000000 -0.596716 -0.008098
0.000000 -0.552840 -0.264106
0.000000 -0.554944 -0.249213
0.000000 -0.556621 -0.237355
0.548982 0.164698 -0.106339
0.560965 0.245190 -0.078604
0.581414 0.219386 -0.052933
0.551916 0.173422 -0.061412
-0.581414 0.219386 -0.052933
-0.560965 0.245190 -0.078604
-0.548982 0.164698 -0.106339
-0.551916 0.173422 -0.061412
0.606757 0.285757 -0.006928
0.592302 0.257280 -0.007350
-0.606757 0.285757 -0.006928
-0.592302 0.257280 -0.007350
0.643355 0.358221 0.068409
0.615396 0.327882 0.082956
-0.643355 0.358221 0.068409
-0.615396 0.327882 0.082956
0.671674 0.366150 0.155707
0.649352 0.333010 0.158976
-0.671674 0.366150 0.155707
-0.649352 0.333010 0.158976
0.646712 0.284407 0.275147
0.675848 0.322411 0.300492
0.664083 0.244667 0.334729
0.650560 0.243904 0.292651
-0.664083 0.244667 0.334729
-0.675848 0.322411 0.300492
-0.646712 0.284407 0.275147
-0.650560 0.243904 0.292651
0.548653 0.183940 0.158043
0.544851 0.173131 0.142581
0.523396 0.213271 0.096073
0.528197 0.236923 0.116900
-0.523396 0.213271 0.096073
-0.544851 0.173131 0.142581
-0.548653 0.183940 0.158043
-0.528197 0.236923 0.116900
0.539204 0.158010 -0.026854
0.521945 0.125192 -0.039133
-0.539204 0.158010 -0.026854
-0.521945 0.125192 -0.039133
0.557127 0.242272 0.004289
0.603970 0.309082 0.093312
0.573805 0.281741 0.107358
0.553107 0.228208 0.023070
-0.573805 0.281741 0.107358
-0.603970 0.309082 0.093312
-0.557127 0.242272 0.004289
-0.553107 0.228208 0.023070
0.541733 0.256439 0.112744
0.537164 0.223318 0.047795
-0.541733 0.256439 0.112744
-0.537164 0.223318 0.047795
0.572526 0.267388 0.168011
0.550410 0.250519 0.157905
-0.572526 0.267388 0.168011
-0.550410 0.250519 0.157905
0.561996 0.222309 0.180879
0.567273 0.233926 0.200861
0.572834 0.203405 0.219370
0.560302 0.180262 0.203524
-0.572834 0.203405 0.219370
-0.567273 0.233926 0.200861
-0.561996 0.222309 0.180879
-0.560302 0.180262 0.203524
0.533703 0.219137 0.179505
0.534020 0.171313 0.200953
-0.533703 0.219137 0.179505
-0.534020 0.171313 0.200953
0.620693 0.256357 0.233501
0.612418 0.231097 0.259469
0.572016 0.228265 0.237871
0.568283 0.246373 0.221731
-0.572016 0.228265 0.237871
-0.612418 0.231097 0.259469
-0.620693 0.256357 0.233501
-0.568283 0.246373 0.221731
0.638379 0.296934 0.147540
0.599311 0.281642 0.162534
-0.599311 0.281642 0.162534
-0.638379 0.296934 0.147540
0.639560 0.314868 0.163900
-0.639560 0.314868 0.163900
0.580879 0.207962 -0.022942
0.565686 0.189068 -0.037154
-0.565686 0.189068 -0.037154
-0.580879 0.207962 -0.022942
0.566359 0.199533 -0.006210
0.557286 0.180419 -0.017476
-0.557286 0.180419 -0.017476
-0.566359 0.199533 -0.006210
0.581082 0.242656 0.002641
-0.581082 0.242656 0.002641
0.589289 0.313584 0.090231
-0.589289 0.313584 0.090231
0.637254 0.344915 0.159444
-0.637254 0.344915 0.159444
0.631116 0.244677 0.294736
0.632683 0.288056 0.282091
-0.632683 0.288056 0.282091
-0.631116 0.244677 0.294736
0.525708 0.232389 0.148231
0.530910 0.195535 0.167453
-0.530910 0.195535 0.167453
-0.525708 0.232389 0.148231
0.534949 0.242090 0.153946
-0.534949 0.242090 0.153946
0.549012 0.190339 0.027710
0.560841 0.194346 0.012757
-0.549012 0.190339 0.027710
-0.560841 0.194346 0.012757
0.540846 0.171793 0.015597
0.546340 0.176353 0.002391
-0.540846 0.171793 0.015597
-0.546340 0.176353 0.002391
0.498084 0.156916 -0.130928
0.502840 0.240129 -0.102569
-0.498084 0.156916 -0.130928
-0.502840 0.240129 -0.102569
0.566126 0.299866 -0.004811
-0.566126 0.299866 -0.004811
0.600916 0.368085 0.095330
-0.600916 0.368085 0.095330
0.619035 0.374587 0.167773
-0.619035 0.374587 0.167773
0.624456 0.329967 0.323913
0.631871 0.248746 0.343108
-0.624456 0.329967 0.323913
-0.631871 0.248746 0.343108
0.557002 0.136450 0.167503
0.557633 0.163958 0.178644
-0.557002 0.136450 0.167503
-0.557633 0.163958 0.178644
0.533377 0.168499 0.187929
-0.533377 0.168499 0.187929
0.548537 0.149709 0.096778
0.545643 0.121349 0.115298
0.544425 0.134058 0.073735
0.548966 0.156269 0.062173
-0.544425 0.134058 0.073735
-0.545643 0.121349 0.115298
-0.548537 0.149709 0.096778
-0.548966 0.156269 0.062173
0.532881 0.148553 0.046081
0.525303 0.155319 0.042002
-0.532881 0.148553 0.046081
-0.525303 0.155319 0.042002
0.521173 0.141503 0.017669
0.523957 0.156931 0.012959
-0.521173 0.141503 0.017669
-0.523957 0.156931 0.012959
0.528958 0.153118 -0.004501
-0.528958 0.153118 -0.004501
0.542462 0.144163 0.124921
0.527440 0.153283 0.099596
0.523998 0.149090 0.121618
-0.527440 0.153283 0.099596
-0.542462 0.144163 0.124921
-0.523998 0.149090 0.121618
0.527413 0.167015 0.068349
-0.527413 0.167015 0.068349
0.502578 0.155672 0.037919
-0.502578 0.155672 0.037919
0.508140 0.162627 0.021354
-0.508140 0.162627 0.021354
0.509382 0.141989 0.105538
0.512082 0.136719 0.130256
-0.509382 0.141989 0.105538
-0.512082 0.136719 0.130256
0.504417 0.156360 0.071457
-0.504417 0.156360 0.071457
0.522507 0.224280 0.068686
0.531363 0.246520 0.115811
-0.531363 0.246520 0.115811
-0.522507 0.224280 0.068686
0.515487 0.194176 0.034619
-0.515487 0.194176 0.034619
0.515043 0.200923 0.101917
0.516871 0.204806 0.070521
-0.515043 0.200923 0.101917
-0.516871 0.204806 0.070521
0.513840 0.175718 0.025819
-0.513840 0.175718 0.025819
0.492918 0.190683 0.078947
0.504359 0.192699 0.049463
-0.492918 0.190683 0.078947
-0.504359 0.192699 0.049463
0.484199 0.179104 0.037741
-0.484199 0.179104 0.037741
0.486174 0.167165 0.017448
-0.486174 0.167165 0.017448
0.497543 0.179086 0.060689
-0.497543 0.179086 0.060689
0.552724 0.124716 0.152722
0.541457 0.153655 0.140202
-0.541457 0.153655 0.140202
-0.552724 0.124716 0.152722
0.524464 0.157706 0.134163
-0.524464 0.157706 0.134163
0.506338 0.166377 0.106960
-0.506338 0.166377 0.106960
0.484984 0.135386 0.096745
0.489638 0.135341 0.118003
-0.489638 0.135341 0.118003
-0.484984 0.135386 0.096745
0.489757 0.145243 0.049344
-0.489757 0.145243 0.049344
0.483253 0.145950 0.117037
-0.483253 0.145950 0.117037
0.451733 0.159570 0.022145
0.471081 0.144616 0.009599
-0.471081 0.144616 0.009599
-0.451733 0.159570 0.022145
0.462611 0.157347 0.067237
-0.462611 0.157347 0.067237
0.676790 0.349376 0.239292
0.653876 0.314912 0.243140
-0.653876 0.314912 0.243140
-0.676790 0.349376 0.239292
0.626054 0.294639 0.225195
0.607332 0.277331 0.202893
-0.607332 0.277331 0.202893
-0.626054 0.294639 0.225195
0.619908 0.283951 0.266460
-0.619908 0.283951 0.266460
0.628558 0.306177 0.246745
-0.628558 0.306177 0.246745
0.625959 0.291006 0.281113
-0.625959 0.291006 0.281113
0.632686 0.307941 0.252055
-0.632686 0.307941 0.252055
0.623372 0.357119 0.266934
-0.623372 0.357119 0.266934
0.598466 0.111616 0.230800
0.569968 0.116883 0.183282
0.571087 0.158911 0.198067
0.595607 0.167728 0.227246
-0.571087 0.158911 0.198067
-0.569968 0.116883 0.183282
-0.598466 0.111616 0.230800
-0.595607 0.167728 0.227246
0.542000 0.147405 0.211022
0.576484 0.173638 0.251458
-0.576484 0.173638 0.251458
-0.542000 0.147405 0.211022
0.625210 0.151962 0.302221
0.625692 0.197518 0.273110
-0.625210 0.151962 0.302221
-0.625692 0.197518 0.273110
0.599579 0.197467 0.281111
-0.599579 0.197467 0.281111
0.598447 0.171004 0.318925
0.561661 0.133710 0.258056
-0.598447 0.171004 0.318925
-0.561661 0.133710 0.258056
0.511264 0.230587 -0.029892
0.546499 0.279290 0.006961
-0.511264 0.230587 -0.029892
-0.546499 0.279290 0.006961
0.588505 0.346444 0.097511
-0.588505 0.346444 0.097511
0.611452 0.329966 0.166893
-0.611452 0.329966 0.166893
0.615644 0.287148 0.299366
0.609087 0.238525 0.299745
-0.615644 0.287148 0.299366
-0.609087 0.238525 0.299745
0.615891 0.317569 0.252114
-0.615891 0.317569 0.252114
0.518137 0.211100 -0.008775
0.535267 0.264621 0.012487
-0.518137 0.211100 -0.008775
-0.535267 0.264621 0.012487
0.569383 0.308202 0.097602
-0.569383 0.308202 0.097602
0.596894 0.301281 0.180895
-0.596894 0.301281 0.180895
0.606000 0.289043 0.240135
-0.606000 0.289043 0.240135
0.608642 0.267365 0.264456
-0.608642 0.267365 0.264456
0.480606 0.216784 -0.013332
0.507069 0.262556 0.019394
-0.480606 0.216784 -0.013332
-0.507069 0.262556 0.019394
0.545396 0.303292 0.110410
-0.545396 0.303292 0.110410
0.569630 0.296860 0.193324
-0.569630 0.296860 0.193324
0.462448 0.227163 -0.014417
0.470346 0.255551 0.039464
-0.462448 0.227163 -0.014417
-0.470346 0.255551 0.039464
0.513435 0.279511 0.134546
-0.513435 0.279511 0.134546
0.530243 0.279502 0.205617
-0.530243 0.279502 0.205617
0.552995 0.101640 0.162231
-0.552995 0.101640 0.162231
0.538352 0.098079 0.132707
0.535011 0.126968 0.068303
-0.535011 0.126968 0.068303
-0.538352 0.098079 0.132707
0.555103 0.078958 0.188438
-0.555103 0.078958 0.188438
0.554553 0.084623 0.252369
-0.554553 0.084623 0.252369
0.526544 0.370594 0.209117
0.552863 0.383262 0.301103
0.547761 0.254013 0.256630
-0.547761 0.254013 0.256630
-0.552863 0.383262 0.301103
-0.526544 0.370594 0.209117
0.501653 0.352081 0.121933
-0.501653 0.352081 0.121933
0.466695 0.325816 0.033853
-0.466695 0.325816 0.033853
0.442674 0.297477 -0.034981
-0.442674 0.297477 -0.034981
0.530216 0.175983 0.132673
-0.530216 0.175983 0.132673
0.505405 0.183415 0.111035
-0.505405 0.183415 0.111035
0.475887 0.142530 0.020738
-0.475887 0.142530 0.020738
0.498414 0.187541 -0.044533
0.477724 0.188394 -0.034100
-0.477724 0.188394 -0.034100
-0.498414 0.187541 -0.044533
0.474066 0.181236 -0.057630
-0.474066 0.181236 -0.057630
0.581175 0.278477 0.242636
-0.581175 0.278477 0.242636
0.585392 0.259547 0.259922
-0.585392 0.259547 0.259922
0.573712 0.270810 0.199751
-0.573712 0.270810 0.199751
0.583826 0.201459 0.259076
0.574254 0.195047 0.239966
-0.583826 0.201459 0.259076
-0.574254 0.195047 0.239966
0.566446 0.174021 0.231042
0.547419 0.158948 0.218803
-0.566446 0.174021 0.231042
-0.547419 0.158948 0.218803
0.605617 0.212873 0.277387
-0.605617 0.212873 0.277387
0.622171 0.247335 0.288248
-0.622171 0.247335 0.288248
0.617764 0.247893 0.281409
-0.617764 0.247893 0.281409
0.589356 0.185095 0.291195
-0.589356 0.185095 0.291195
0.568802 0.161820 0.260424
-0.568802 0.161820 0.260424
0.604171 0.239515 0.281688
-0.604171 0.239515 0.281688
0.590809 0.242014 0.265128
-0.590809 0.242014 0.265128
0.586267 0.205243 0.281099
-0.586267 0.205243 0.281099
0.577791 0.215633 0.270454
-0.577791 0.215633 0.270454
0.552264 0.233864 0.262536
0.550321 0.165069 0.272356
-0.550321 0.165069 0.272356
-0.552264 0.233864 0.262536
0.490894 0.162507 -0.070479
-0.490894 0.162507 -0.070479
0.408647 0.271773 -0.155401
0.426658 0.222434 -0.167827
-0.408647 0.271773 -0.155401
-0.426658 0.222434 -0.167827
0.449074 0.170220 -0.187142
-0.449074 0.170220 -0.187142
0.508349 0.100562 -0.047731
-0.508349 0.100562 -0.047731
0.480824 0.139358 -0.106637
-0.480824 0.139358 -0.106637
0.507170 0.128833 -0.001974
-0.507170 0.128833 -0.001974
0.515843 0.109205 0.034877
-0.515843 0.109205 0.034877
0.582455 0.097749 0.423468
0.568560 0.225157 0.435131
-0.582455 0.097749 0.423468
-0.568560 0.225157 0.435131
0.557031 0.343143 0.392511
-0.557031 0.343143 0.392511
0.540449 0.060065 0.162600
-0.540449 0.060065 0.162600
0.504826 0.051358 -0.047809
0.485032 0.078108 -0.145423
-0.485032 0.078108 -0.145423
-0.504826 0.051358 -0.047809
0.443268 0.098635 -0.236864
-0.443268 0.098635 -0.236864
0.514630 0.035492 0.065594
-0.514630 0.035492 0.065594
0.539553 0.013726 0.213679
-0.539553 0.013726 0.213679
0.563955 -0.029971 0.384991
-0.563955 -0.029971 0.384991
0.549373 0.120254 0.139909
-0.549373 0.120254 0.139909
0.373810 0.399131 -0.069692
0.414854 0.347022 -0.056147
0.384927 0.318037 -0.150340
0.351614 0.364521 -0.148173
-0.384927 0.318037 -0.150340
-0.414854 0.347022 -0.056147
-0.373810 0.399131 -0.069692
-0.351614 0.364521 -0.148173
0.398764 0.441386 -0.001911
0.443866 0.382594 0.018257
-0.398764 0.441386 -0.001911
-0.443866 0.382594 0.018257
0.232922 0.471812 -0.162197
0.158077 0.508730 -0.180660
0.168266 0.536408 -0.136972
0.248032 0.502481 -0.119692
-0.168266 0.536408 -0.136972
-0.158077 0.508730 -0.180660
-0.232922 0.471812 -0.162197
-0.248032 0.502481 -0.119692
0.299656 0.416147 -0.157398
0.317936 0.451959 -0.090984
-0.317936 0.451959 -0.090984
-0.299656 0.416147 -0.157398
0.000000 0.011465 -0.740786
0.071114 0.025574 -0.728732
0.067128 -0.013594 -0.662417
0.000000 -0.025785 -0.676529
-0.067128 -0.013594 -0.662417
-0.071114 0.025574 -0.728732
0.204379 0.441074 -0.322808
0.181380 0.439473 -0.430595
0.126201 0.500875 -0.429285
0.137202 0.498156 -0.315896
-0.126201 0.500875 -0.429285
-0.181380 0.439473 -0.430595
-0.204379 0.441074 -0.322808
-0.137202 0.498156 -0.315896
0.259241 0.359807 -0.333995
0.224672 0.356288 -0.450084
-0.224672 0.356288 -0.450084
-0.259241 0.359807 -0.333995
0.292219 0.304073 -0.350952
0.251546 0.288281 -0.501431
-0.251546 0.288281 -0.501431
-0.292219 0.304073 -0.350952
0.091010 0.058083 -0.811749
0.000000 0.030240 -0.828036
-0.091010 0.058083 -0.811749
0.128917 0.081258 -0.787165
0.125715 0.051575 -0.699176
-0.128917 0.081258 -0.787165
-0.125715 0.051575 -0.699176
0.130224 0.020079 -0.625102
-0.130224 0.020079 -0.625102
0.305419 0.260263 -0.373608
0.251235 0.237907 -0.526825
-0.305419 0.260263 -0.373608
-0.251235 0.237907 -0.526825
0.280665 0.166053 -0.424461
0.220790 0.137314 -0.588413
0.238420 0.182422 -0.553991
0.303506 0.215866 -0.393654
-0.238420 0.182422 -0.553991
-0.220790 0.137314 -0.588413
-0.280665 0.166053 -0.424461
-0.303506 0.215866 -0.393654
0.174672 0.087659 -0.650481
0.195020 0.090971 -0.544990
-0.174672 0.087659 -0.650481
-0.195020 0.090971 -0.544990
0.405288 0.424580 -0.923938
0.372195 0.607143 -0.896253
0.242280 0.579905 -0.842160
0.325548 0.394390 -0.866829
-0.242280 0.579905 -0.842160
-0.372195 0.607143 -0.896253
-0.405288 0.424580 -0.923938
-0.325548 0.394390 -0.866829
0.459109 0.331868 -0.989324
0.380872 0.295290 -0.966129
-0.459109 0.331868 -0.989324
-0.380872 0.295290 -0.966129
0.558331 0.354077 -1.000717
0.525936 0.454981 -0.967335
-0.558331 0.354077 -1.000717
-0.525936 0.454981 -0.967335
0.524492 0.616847 -0.946042
-0.524492 0.616847 -0.946042
0.672909 0.460012 -0.966278
0.676562 0.620857 -0.972835
-0.676562 0.620857 -0.972835
-0.672909 0.460012 -0.966278
0.271556 0.368245 -0.785122
0.217985 0.498014 -0.743675
-0.271556 0.368245 -0.785122
-0.217985 0.498014 -0.743675
0.340489 0.260674 -0.923314
-0.340489 0.260674 -0.923314
0.171718 0.667641 -0.855948
0.163163 0.592054 -0.738092
-0.171718 0.667641 -0.855948
-0.163163 0.592054 -0.738092
0.496523 0.268519 -1.015722
0.397867 0.222328 -0.998309
-0.496523 0.268519 -1.015722
-0.397867 0.222328 -0.998309
0.224038 0.365766 -0.562975
0.178003 0.450129 -0.546144
-0.178003 0.450129 -0.546144
-0.224038 0.365766 -0.562975
0.247063 0.288503 -0.642888
-0.247063 0.288503 -0.642888
0.131543 0.514947 -0.546462
-0.131543 0.514947 -0.546462
0.239765 0.224913 -0.680402
-0.239765 0.224913 -0.680402
0.196950 0.129424 -0.736446
0.225150 0.159429 -0.714728
-0.196950 0.129424 -0.736446
-0.225150 0.159429 -0.714728
0.158916 0.099523 -0.762752
-0.158916 0.099523 -0.762752
0.326618 0.335189 -0.240887
0.351407 0.288296 -0.263698
-0.351407 0.288296 -0.263698
-0.326618 0.335189 -0.240887
0.219041 0.453747 -0.221904
0.147523 0.495217 -0.240298
-0.147523 0.495217 -0.240298
-0.219041 0.453747 -0.221904
0.287954 0.382548 -0.224002
-0.287954 0.382548 -0.224002
0.366169 0.243399 -0.278851
0.372666 0.198612 -0.293650
-0.372666 0.198612 -0.293650
-0.366169 0.243399 -0.278851
0.383656 0.155854 -0.304035
-0.383656 0.155854 -0.304035
0.296447 0.132464 -0.394831
-0.296447 0.132464 -0.394831
0.235555 0.365091 -0.672731
0.197927 0.457142 -0.655786
-0.197927 0.457142 -0.655786
-0.235555 0.365091 -0.672731
0.284569 0.264754 -0.812617
-0.284569 0.264754 -0.812617
0.267548 0.204505 -0.853855
-0.267548 0.204505 -0.853855
0.309352 0.174958 -0.979761
-0.309352 0.174958 -0.979761
0.147363 0.550385 -0.649785
-0.147363 0.550385 -0.649785
0.115016 0.063319 -0.978742
0.142670 0.085334 -0.886791
0.102864 0.073750 -0.899289
0.080429 0.053125 -0.994151
-0.102864 0.073750 -0.899289
-0.142670 0.085334 -0.886791
-0.115016 0.063319 -0.978742
-0.080429 0.053125 -0.994151
0.158361 0.073647 -0.966799
0.185647 0.104876 -0.878356
-0.185647 0.104876 -0.878356
-0.158361 0.073647 -0.966799
0.217851 0.100875 -0.953757
0.230937 0.124517 -0.868841
-0.230937 0.124517 -0.868841
-0.217851 0.100875 -0.953757
0.049527 0.043420 -1.007799
0.067655 0.057855 -0.910267
0.000000 0.035897 -0.915714
0.000000 0.031544 -1.017540
-0.067655 0.057855 -0.910267
-0.049527 0.043420 -1.007799
0.511540 0.231356 -1.036317
0.402259 0.157419 -1.030335
-0.511540 0.231356 -1.036317
-0.402259 0.157419 -1.030335
0.129201 0.027664 -1.035653
0.084041 0.018148 -1.055297
-0.129201 0.027664 -1.035653
-0.084041 0.018148 -1.055297
0.208072 0.075742 -1.025664
-0.208072 0.075742 -1.025664
0.061408 0.019947 -1.067306
-0.061408 0.019947 -1.067306
0.033686 0.007998 -1.079974
0.000000 0.000422 -1.088318
-0.033686 0.007998 -1.079974
0.303660 0.117316 -1.028699
-0.303660 0.117316 -1.028699
0.588047 0.260040 -1.034810
0.574761 0.297546 -1.017973
-0.574761 0.297546 -1.017973
-0.588047 0.260040 -1.034810
0.641924 0.275579 -1.033990
0.633354 0.313735 -1.017300
-0.633354 0.313735 -1.017300
-0.641924 0.275579 -1.033990
0.684290 0.348833 -0.992519
-0.684290 0.348833 -0.992519
0.249112 0.747684 -0.958970
0.171143 0.754100 -0.980202
-0.171143 0.754100 -0.980202
-0.249112 0.747684 -0.958970
0.491473 0.810980 -1.029496
0.369314 0.767372 -0.960355
-0.491473 0.810980 -1.029496
-0.369314 0.767372 -0.960355
0.652609 0.817581 -1.051122
-0.652609 0.817581 -1.051122
0.155498 -0.461662 0.149599
0.149126 -0.462773 0.156489
0.125074 -0.452248 0.119526
0.142489 -0.451340 0.106758
-0.125074 -0.452248 0.119526
-0.149126 -0.462773 0.156489
-0.155498 -0.461662 0.149599
-0.142489 -0.451340 0.106758
0.207839 -0.482241 0.198623
0.206044 -0.483715 0.203087
-0.206044 -0.483715 0.203087
-0.207839 -0.482241 0.198623
0.282235 -0.480618 0.223573
0.282853 -0.484609 0.228786
-0.282853 -0.484609 0.228786
-0.282235 -0.480618 0.223573
0.348477 -0.445123 0.216237
0.349208 -0.446362 0.221180
-0.349208 -0.446362 0.221180
-0.348477 -0.445123 0.216237
0.411550 -0.393816 0.191174
0.415596 -0.394040 0.195991
-0.415596 -0.394040 0.195991
-0.411550 -0.393816 0.191174
0.419459 -0.367448 0.168678
0.427412 -0.365784 0.174830
-0.427412 -0.365784 0.174830
-0.419459 -0.367448 0.168678
0.142674 -0.450859 0.068083
0.122806 -0.456287 0.061366
0.188986 -0.459589 0.042417
0.198010 -0.460592 0.068720
-0.188986 -0.459589 0.042417
-0.122806 -0.456287 0.061366
-0.142674 -0.450859 0.068083
-0.198010 -0.460592 0.068720
0.136581 -0.452028 0.083986
0.127138 -0.450079 0.081678
-0.127138 -0.450079 0.081678
-0.136581 -0.452028 0.083986
0.246390 -0.458475 0.015357
0.252159 -0.459625 0.050310
-0.246390 -0.458475 0.015357
-0.252159 -0.459625 0.050310
0.307561 -0.444139 0.002506
0.309869 -0.445501 0.042656
-0.307561 -0.444139 0.002506
-0.309869 -0.445501 0.042656
0.357115 -0.420483 0.053485
0.359219 -0.416139 0.014517
0.402559 -0.374923 0.048706
0.400459 -0.384466 0.081626
-0.402559 -0.374923 0.048706
-0.359219 -0.416139 0.014517
-0.357115 -0.420483 0.053485
-0.400459 -0.384466 0.081626
0.421564 -0.355891 0.155492
0.430656 -0.347777 0.155903
-0.430656 -0.347777 0.155903
-0.421564 -0.355891 0.155492
0.151031 -0.443602 0.101552
0.146399 -0.435869 0.099622
0.158856 -0.443703 0.126699
0.160585 -0.454448 0.132857
-0.158856 -0.443703 0.126699
-0.146399 -0.435869 0.099622
-0.151031 -0.443602 0.101552
-0.160585 -0.454448 0.132857
0.211990 -0.472697 0.181446
0.209477 -0.485521 0.183813
-0.211990 -0.472697 0.181446
-0.209477 -0.485521 0.183813
0.283465 -0.465924 0.204289
0.284303 -0.478632 0.209471
-0.283465 -0.465924 0.204289
-0.284303 -0.478632 0.209471
0.339020 -0.428781 0.192816
0.347186 -0.443044 0.200340
-0.339020 -0.428781 0.192816
-0.347186 -0.443044 0.200340
0.385055 -0.389641 0.175366
0.399134 -0.397256 0.178838
-0.385055 -0.389641 0.175366
-0.399134 -0.397256 0.178838
0.399488 -0.364652 0.157684
0.408316 -0.367206 0.158154
-0.399488 -0.364652 0.157684
-0.408316 -0.367206 0.158154
0.184694 -0.452476 0.091804
0.169962 -0.438434 0.091058
0.155816 -0.430772 0.072711
0.151287 -0.438799 0.077405
-0.155816 -0.430772 0.072711
-0.169962 -0.438434 0.091058
-0.184694 -0.452476 0.091804
-0.151287 -0.438799 0.077405
0.144099 -0.431866 0.084746
0.145643 -0.439497 0.086500
-0.144099 -0.431866 0.084746
-0.145643 -0.439497 0.086500
0.250242 -0.465140 0.089323
0.250136 -0.456044 0.093486
-0.250136 -0.456044 0.093486
-0.250242 -0.465140 0.089323
0.389841 -0.393143 0.117378
0.381520 -0.390459 0.118932
0.347988 -0.419808 0.100217
0.353356 -0.430024 0.097818
-0.347988 -0.419808 0.100217
-0.381520 -0.390459 0.118932
-0.389841 -0.393143 0.117378
-0.353356 -0.430024 0.097818
0.301122 -0.446501 0.090028
0.308382 -0.455803 0.085358
-0.301122 -0.446501 0.090028
-0.308382 -0.455803 0.085358
0.423162 -0.349881 0.088618
0.415158 -0.362648 0.111714
-0.415158 -0.362648 0.111714
-0.423162 -0.349881 0.088618
0.391965 -0.377065 0.132876
0.400253 -0.378010 0.133648
-0.391965 -0.377065 0.132876
-0.400253 -0.378010 0.133648
0.148345 -0.431694 0.096577
0.155199 -0.436029 0.106249
-0.155199 -0.436029 0.106249
-0.148345 -0.431694 0.096577
0.149214 -0.433047 0.087718
0.154926 -0.425754 0.088209
-0.154926 -0.425754 0.088209
-0.149214 -0.433047 0.087718
0.151324 -0.425811 0.079045
0.159776 -0.430281 0.086118
-0.159776 -0.430281 0.086118
-0.151324 -0.425811 0.079045
0.400095 -0.361456 0.155086
0.409197 -0.363571 0.154606
-0.400095 -0.361456 0.155086
-0.409197 -0.363571 0.154606
0.318435 0.688698 0.191952
0.344270 0.754218 0.480848
0.429070 0.670270 0.453067
0.403325 0.623062 0.202644
-0.429070 0.670270 0.453067
-0.344270 0.754218 0.480848
-0.318435 0.688698 0.191952
-0.403325 0.623062 0.202644
0.334649 0.627682 0.789715
0.427289 0.570020 0.722778
-0.427289 0.570020 0.722778
-0.334649 0.627682 0.789715
0.296862 0.319168 0.968448
0.405364 0.316211 0.895599
-0.405364 0.316211 0.895599
-0.296862 0.319168 0.968448
0.305744 -0.054811 0.955011
0.295548 -0.382631 0.808094
0.385585 -0.309486 0.771008
0.407241 -0.013257 0.880587
-0.385585 -0.309486 0.771008
-0.295548 -0.382631 0.808094
-0.305744 -0.054811 0.955011
-0.407241 -0.013257 0.880587
0.196767 -0.078356 0.994213
0.195878 -0.421913 0.833856
-0.195878 -0.421913 0.833856
-0.196767 -0.078356 0.994213
0.153817 -0.507324 -0.206947
0.177729 -0.505095 -0.181206
0.141580 -0.516776 -0.137238
-0.141580 -0.516776 -0.137238
-0.177729 -0.505095 -0.181206
-0.153817 -0.507324 -0.206947
0.143605 -0.479579 -0.365402
0.140648 -0.482819 -0.366975
0.150600 -0.479195 -0.378273
0.153408 -0.480324 -0.369439
-0.150600 -0.479195 -0.378273
-0.140648 -0.482819 -0.366975
-0.143605 -0.479579 -0.365402
-0.153408 -0.480324 -0.369439
0.141957 -0.482436 -0.362418
0.151630 -0.485998 -0.361614
-0.141957 -0.482436 -0.362418
-0.151630 -0.485998 -0.361614
0.041358 -0.544628 0.129243
0.066292 -0.518787 0.117418
0.083562 -0.520029 0.169222
0.055443 -0.541886 0.175668
-0.083562 -0.520029 0.169222
-0.066292 -0.518787 0.117418
-0.041358 -0.544628 0.129243
-0.055443 -0.541886 0.175668
0.060816 -0.529472 0.069413
0.037977 -0.550836 0.082570
-0.060816 -0.529472 0.069413
-0.037977 -0.550836 0.082570
0.268341 -0.460173 -0.247740
0.242046 -0.487925 -0.198960
0.208968 -0.494757 -0.226259
0.233576 -0.472643 -0.273868
-0.208968 -0.494757 -0.226259
-0.242046 -0.487925 -0.198960
-0.268341 -0.460173 -0.247740
-0.233576 -0.472643 -0.273868
0.126063 -0.543791 0.245528
0.070650 -0.563607 0.238931
-0.070650 -0.563607 0.238931
-0.126063 -0.543791 0.245528
0.280053 -0.474168 -0.162344
0.236943 -0.492941 -0.118255
0.203915 -0.502629 -0.152672
-0.236943 -0.492941 -0.118255
-0.280053 -0.474168 -0.162344
-0.203915 -0.502629 -0.152672
0.189062 -0.502947 -0.080719
0.161948 -0.513030 -0.110626
-0.189062 -0.502947 -0.080719
-0.161948 -0.513030 -0.110626
0.102333 -0.532587 -0.320424
0.122035 -0.512625 -0.343074
0.128756 -0.512332 -0.320906
0.103002 -0.531838 -0.293513
-0.128756 -0.512332 -0.320906
-0.122035 -0.512625 -0.343074
-0.102333 -0.532587 -0.320424
-0.103002 -0.531838 -0.293513
0.138503 -0.510360 -0.297601
0.101075 -0.528221 -0.261116
-0.101075 -0.528221 -0.261116
-0.138503 -0.510360 -0.297601
0.135228 -0.494207 -0.358665
0.146790 -0.495691 -0.347673
-0.146790 -0.495691 -0.347673
-0.135228 -0.494207 -0.358665
0.169183 -0.483577 -0.354895
0.160477 -0.494978 -0.332340
-0.160477 -0.494978 -0.332340
-0.169183 -0.483577 -0.354895
0.000000 -0.517050 -0.419208
0.045610 -0.511860 -0.417760
0.053670 -0.526589 -0.415990
0.000000 -0.535911 -0.418218
-0.053670 -0.526589 -0.415990
-0.045610 -0.511860 -0.417760
0.000000 -0.495484 -0.427419
0.044964 -0.489056 -0.425496
-0.044964 -0.489056 -0.425496
0.000000 -0.464183 -0.569082
0.075866 -0.457742 -0.565349
0.061273 -0.462104 -0.503227
0.000000 -0.471390 -0.501278
-0.061273 -0.462104 -0.503227
-0.075866 -0.457742 -0.565349
0.000000 -0.467978 -0.449710
0.044024 -0.465372 -0.449314
-0.044024 -0.465372 -0.449314
0.121410 -0.494409 -0.384987
0.101482 -0.504826 -0.395113
0.103929 -0.491410 -0.409636
0.128431 -0.484567 -0.399885
-0.103929 -0.491410 -0.409636
-0.101482 -0.504826 -0.395113
-0.121410 -0.494409 -0.384987
-0.128431 -0.484567 -0.399885
0.133417 -0.487556 -0.376425
0.143050 -0.480648 -0.389214
-0.143050 -0.480648 -0.389214
-0.133417 -0.487556 -0.376425
0.062413 -0.301483 -0.623100
0.066062 -0.401557 -0.627419
0.000000 -0.402798 -0.638031
0.000000 -0.301589 -0.642321
-0.066062 -0.401557 -0.627419
-0.062413 -0.301483 -0.623100
0.308660 -0.439922 -0.214725
-0.308660 -0.439922 -0.214725
0.180545 -0.490329 -0.315990
0.205268 -0.482311 -0.296491
0.182866 -0.499850 -0.249907
0.157843 -0.506489 -0.273770
-0.182866 -0.499850 -0.249907
-0.205268 -0.482311 -0.296491
-0.180545 -0.490329 -0.315990
-0.157843 -0.506489 -0.273770
0.034625 -0.569083 -0.296460
0.073680 -0.554641 -0.296187
0.070077 -0.547986 -0.276569
0.032051 -0.562844 -0.280929
-0.070077 -0.547986 -0.276569
-0.073680 -0.554641 -0.296187
-0.034625 -0.569083 -0.296460
-0.032051 -0.562844 -0.280929
0.078084 -0.501238 -0.416996
0.080412 -0.515054 -0.407013
-0.080412 -0.515054 -0.407013
-0.078084 -0.501238 -0.416996
0.117736 -0.427149 -0.546451
0.100082 -0.447910 -0.497373
-0.100082 -0.447910 -0.497373
-0.117736 -0.427149 -0.546451
0.081892 -0.461967 -0.455913
0.077089 -0.481529 -0.430130
-0.077089 -0.481529 -0.430130
-0.081892 -0.461967 -0.455913
0.121652 -0.381931 -0.587930
0.125331 -0.294200 -0.594089
-0.121652 -0.381931 -0.587930
-0.125331 -0.294200 -0.594089
0.129232 -0.515697 -0.234601
-0.129232 -0.515697 -0.234601
0.214551 -0.487911 -0.054396
0.270876 -0.478946 -0.080853
-0.214551 -0.487911 -0.054396
-0.270876 -0.478946 -0.080853
0.152127 -0.407821 -0.518881
0.133525 -0.437050 -0.483752
-0.133525 -0.437050 -0.483752
-0.152127 -0.407821 -0.518881
0.192734 -0.401750 -0.479547
0.171205 -0.432663 -0.458589
-0.171205 -0.432663 -0.458589
-0.192734 -0.401750 -0.479547
0.116602 -0.455976 -0.452170
0.108497 -0.474117 -0.428037
-0.108497 -0.474117 -0.428037
-0.116602 -0.455976 -0.452170
0.151829 -0.452722 -0.436052
0.138729 -0.469467 -0.416692
-0.138729 -0.469467 -0.416692
-0.151829 -0.452722 -0.436052
0.213313 -0.352338 -0.497288
0.168243 -0.357628 -0.544073
0.176579 -0.285052 -0.556128
0.228219 -0.281795 -0.504527
-0.176579 -0.285052 -0.556128
-0.168243 -0.357628 -0.544073
-0.213313 -0.352338 -0.497288
-0.228219 -0.281795 -0.504527
0.056675 -0.545198 0.014419
0.034501 -0.567672 0.028860
-0.034501 -0.567672 0.028860
-0.056675 -0.545198 0.014419
0.083634 -0.521327 -0.006019
-0.083634 -0.521327 -0.006019
0.083995 -0.496245 0.038836
-0.083995 -0.496245 0.038836
0.139273 -0.507315 -0.042604
-0.139273 -0.507315 -0.042604
0.157834 -0.489385 -0.013799
-0.157834 -0.489385 -0.013799
0.222299 -0.530854 0.289153
0.213332 -0.517989 0.248089
0.302845 -0.498380 0.281007
0.312960 -0.492489 0.332546
-0.302845 -0.498380 0.281007
-0.213332 -0.517989 0.248089
-0.222299 -0.530854 0.289153
-0.312960 -0.492489 0.332546
0.383699 -0.460169 0.306082
0.396233 -0.443663 0.357904
-0.383699 -0.460169 0.306082
-0.396233 -0.443663 0.357904
0.132618 -0.515955 0.201880
-0.132618 -0.515955 0.201880
0.079864 -0.487477 0.102300
0.095044 -0.495660 0.158512
-0.095044 -0.495660 0.158512
-0.079864 -0.487477 0.102300
0.444394 -0.405772 0.285683
0.452135 -0.364804 0.331402
-0.452135 -0.364804 0.331402
-0.444394 -0.405772 0.285683
0.486237 -0.312583 0.214404
0.492539 -0.285680 0.257574
-0.492539 -0.285680 0.257574
-0.486237 -0.312583 0.214404
0.487255 0.581900 0.411776
0.469691 0.546634 0.205534
-0.469691 0.546634 0.205534
-0.487255 0.581900 0.411776
0.531562 0.488616 0.357818
0.513274 0.462677 0.204605
-0.513274 0.462677 0.204605
-0.531562 0.488616 0.357818
0.478450 0.502949 0.633108
-0.478450 0.502949 0.633108
0.528467 0.436641 0.524785
-0.528467 0.436641 0.524785
0.490506 0.302245 0.770387
-0.490506 0.302245 0.770387
0.537375 0.272922 0.615235
-0.537375 0.272922 0.615235
0.479720 -0.181988 0.671363
0.499469 0.038184 0.762037
-0.499469 0.038184 0.762037
-0.479720 -0.181988 0.671363
0.544989 -0.095214 0.546299
0.565476 0.077933 0.609429
-0.565476 0.077933 0.609429
-0.544989 -0.095214 0.546299
0.253349 -0.499536 0.583428
0.354214 -0.440201 0.588020
-0.354214 -0.440201 0.588020
-0.253349 -0.499536 0.583428
0.092416 -0.448415 0.841249
0.081766 -0.559324 0.580169
0.170487 -0.536255 0.578394
-0.170487 -0.536255 0.578394
-0.081766 -0.559324 0.580169
-0.092416 -0.448415 0.841249
0.451844 -0.348598 0.560330
-0.451844 -0.348598 0.560330
0.511910 -0.228895 0.481704
-0.511910 -0.228895 0.481704
0.138936 -0.482246 0.176397
0.106466 -0.468033 0.140644
-0.138936 -0.482246 0.176397
-0.106466 -0.468033 0.140644
0.205684 -0.497236 0.216119
-0.205684 -0.497236 0.216119
0.289284 -0.494155 0.243522
-0.289284 -0.494155 0.243522
0.372665 -0.457485 0.250522
-0.372665 -0.457485 0.250522
0.444018 -0.391519 0.228671
-0.444018 -0.391519 0.228671
0.460717 -0.341387 0.187198
-0.460717 -0.341387 0.187198
0.104831 -0.476103 0.054051
0.174986 -0.472116 0.010197
-0.104831 -0.476103 0.054051
-0.174986 -0.472116 0.010197
0.101276 -0.463816 0.087813
-0.101276 -0.463816 0.087813
0.234258 -0.471679 -0.025240
-0.234258 -0.471679 -0.025240
0.300375 -0.462610 -0.044692
-0.300375 -0.462610 -0.044692
0.451905 -0.323746 0.157098
0.478794 -0.285823 0.168127
-0.478794 -0.285823 0.168127
-0.451905 -0.323746 0.157098
0.460211 -0.287593 0.015279
0.437841 -0.330370 0.054637
0.420710 -0.366464 -0.001001
0.439515 -0.332075 -0.061360
-0.420710 -0.366464 -0.001001
-0.437841 -0.330370 0.054637
-0.460211 -0.287593 0.015279
-0.439515 -0.332075 -0.061360
0.322649 -0.454790 -0.114220
0.370174 -0.427296 -0.051782
-0.370174 -0.427296 -0.051782
-0.322649 -0.454790 -0.114220
0.400588 -0.387897 -0.123684
-0.400588 -0.387897 -0.123684
0.353291 -0.416560 -0.172150
-0.353291 -0.416560 -0.172150
0.166898 -0.470234 -0.386452
0.170826 -0.475051 -0.370886
-0.166898 -0.470234 -0.386452
-0.170826 -0.475051 -0.370886
0.156651 -0.468207 -0.402082
-0.156651 -0.468207 -0.402082
0.218219 -0.463368 -0.332925
0.246895 -0.448192 -0.316143
-0.246895 -0.448192 -0.316143
-0.218219 -0.463368 -0.332925
0.220611 -0.448789 -0.364478
0.249871 -0.428315 -0.355674
-0.249871 -0.428315 -0.355674
-0.220611 -0.448789 -0.364478
0.191964 -0.475531 -0.345639
-0.191964 -0.475531 -0.345639
0.193904 -0.464288 -0.369409
-0.193904 -0.464288 -0.369409
0.214902 -0.438881 -0.395811
0.243354 -0.414716 -0.395491
-0.243354 -0.414716 -0.395491
-0.214902 -0.438881 -0.395811
0.198660 -0.433274 -0.427494
0.225169 -0.405949 -0.437227
-0.225169 -0.405949 -0.437227
-0.198660 -0.433274 -0.427494
0.188832 -0.456892 -0.392472
-0.188832 -0.456892 -0.392472
0.174945 -0.452802 -0.414936
-0.174945 -0.452802 -0.414936
0.280135 -0.400284 -0.343011
0.279769 -0.428138 -0.295624
-0.280135 -0.400284 -0.343011
-0.279769 -0.428138 -0.295624
0.269971 -0.378937 -0.392311
-0.269971 -0.378937 -0.392311
0.248516 -0.362896 -0.444486
-0.248516 -0.362896 -0.444486
0.319270 -0.398911 -0.269706
0.368573 -0.362602 -0.234352
-0.319270 -0.398911 -0.269706
-0.368573 -0.362602 -0.234352
0.415003 -0.308325 -0.187192
-0.415003 -0.308325 -0.187192
0.315524 -0.358964 -0.325731
0.361748 -0.302501 -0.297915
-0.315524 -0.358964 -0.325731
-0.361748 -0.302501 -0.297915
0.299161 -0.324374 -0.384377
0.337573 -0.248998 -0.367525
-0.299161 -0.324374 -0.384377
-0.337573 -0.248998 -0.367525
0.269739 -0.297305 -0.444656
0.294304 -0.215549 -0.434509
-0.269739 -0.297305 -0.444656
-0.294304 -0.215549 -0.434509
0.412600 -0.228756 -0.254441
-0.412600 -0.228756 -0.254441
0.139097 -0.475732 -0.362850
0.136013 -0.480887 -0.363184
-0.136013 -0.480887 -0.363184
-0.139097 -0.475732 -0.362850
0.135356 -0.467944 -0.360431
0.132415 -0.474480 -0.359537
-0.132415 -0.474480 -0.359537
-0.135356 -0.467944 -0.360431
0.137598 -0.479300 -0.362397
-0.137598 -0.479300 -0.362397
0.133553 -0.469815 -0.361130
-0.133553 -0.469815 -0.361130
0.100435 -0.529921 -0.335822
0.116983 -0.510112 -0.353162
-0.116983 -0.510112 -0.353162
-0.100435 -0.529921 -0.335822
0.095497 -0.524418 -0.347155
0.111789 -0.502874 -0.356951
-0.111789 -0.502874 -0.356951
-0.095497 -0.524418 -0.347155
0.129505 -0.490029 -0.362172
-0.129505 -0.490029 -0.362172
0.124178 -0.484888 -0.360858
-0.124178 -0.484888 -0.360858
0.056134 -0.536785 -0.409896
0.000000 -0.544023 -0.412117
-0.056134 -0.536785 -0.409896
0.056816 -0.546997 -0.392367
0.000000 -0.556338 -0.397504
-0.056816 -0.546997 -0.392367
0.116952 -0.498258 -0.371763
0.099098 -0.511895 -0.383286
-0.099098 -0.511895 -0.383286
-0.116952 -0.498258 -0.371763
0.110906 -0.499910 -0.362350
0.096548 -0.515494 -0.370641
-0.096548 -0.515494 -0.370641
-0.110906 -0.499910 -0.362350
0.127409 -0.488546 -0.366630
-0.127409 -0.488546 -0.366630
0.123369 -0.485049 -0.360912
-0.123369 -0.485049 -0.360912
0.077794 -0.559708 -0.316661
-0.077794 -0.559708 -0.316661
0.072512 -0.552068 -0.340185
-0.072512 -0.552068 -0.340185
0.040873 -0.581480 -0.308239
-0.040873 -0.581480 -0.308239
0.044852 -0.568630 -0.334417
-0.044852 -0.568630 -0.334417
0.081610 -0.524419 -0.398607
-0.081610 -0.524419 -0.398607
0.080173 -0.531628 -0.383548
-0.080173 -0.531628 -0.383548
0.187960 0.325008 1.018268
0.226324 0.675131 0.828929
-0.187960 0.325008 1.018268
-0.226324 0.675131 0.828929
0.216834 0.755952 0.182552
0.227450 0.812453 0.493235
-0.227450 0.812453 0.493235
-0.216834 0.755952 0.182552
0.380417 0.103053 -0.325358
-0.380417 0.103053 -0.325358
0.299323 0.093110 -0.399378
-0.299323 0.093110 -0.399378
0.133227 -0.225088 -0.582577
0.185209 -0.217533 -0.546936
-0.185209 -0.217533 -0.546936
-0.133227 -0.225088 -0.582577
0.136795 -0.171282 -0.572472
0.196296 -0.146901 -0.531919
-0.196296 -0.146901 -0.531919
-0.136795 -0.171282 -0.572472
0.065201 -0.232025 -0.606556
0.000000 -0.233834 -0.623416
-0.065201 -0.232025 -0.606556
0.069802 -0.189456 -0.599913
0.000000 -0.195114 -0.617508
-0.069802 -0.189456 -0.599913
0.240687 -0.212460 -0.498116
-0.240687 -0.212460 -0.498116
0.284578 0.616332 0.029003
0.364420 0.557588 0.052741
-0.284578 0.616332 0.029003
-0.364420 0.557588 0.052741
0.191281 0.661824 0.011270
-0.191281 0.661824 0.011270
0.259589 -0.123892 -0.484178
0.321306 -0.124191 -0.421824
-0.321306 -0.124191 -0.421824
-0.259589 -0.123892 -0.484178
0.374975 -0.163377 -0.341924
-0.374975 -0.163377 -0.341924
0.079997 0.524138 -0.189964
0.085229 0.553819 -0.146088
-0.085229 0.553819 -0.146088
-0.079997 0.524138 -0.189964
0.000000 0.519347 -0.192537
0.000000 0.556559 -0.149512
0.064587 0.524548 -0.428725
0.059493 0.508164 -0.324813
-0.059493 0.508164 -0.324813
-0.064587 0.524548 -0.428725
0.000000 0.544515 -0.436685
0.000000 0.502533 -0.340811
0.090972 0.709634 -0.861763
0.085096 0.634263 -0.739944
-0.085096 0.634263 -0.739944
-0.090972 0.709634 -0.861763
0.000000 0.743680 -0.867375
0.000000 0.634055 -0.741096
0.070565 0.544740 -0.546008
-0.070565 0.544740 -0.546008
0.000000 0.555605 -0.549684
0.072890 0.510715 -0.246149
-0.072890 0.510715 -0.246149
0.000000 0.503043 -0.244355
0.073956 0.582127 -0.650270
-0.073956 0.582127 -0.650270
0.000000 0.615544 -0.651347
0.096150 0.776531 -1.001273
-0.096150 0.776531 -1.001273
0.000000 0.789623 -1.006900
0.000000 -0.557407 0.177641
0.000000 -0.557566 0.134526
0.000000 -0.565665 -0.299510
0.000000 -0.553017 -0.283866
0.000000 -0.563050 0.086999
0.000000 -0.577160 0.239561
0.000000 -0.578645 0.034868
0.000000 -0.460619 0.843210
0.000000 -0.563399 0.582486
0.000000 -0.572763 -0.327974
0.000000 -0.564400 -0.346455
0.000000 0.332325 1.052583
0.086748 0.328998 1.046443
0.109575 0.698095 0.843816
0.000000 0.705846 0.845904
-0.109575 0.698095 0.843816
-0.086748 0.328998 1.046443
0.101693 0.798294 0.173373
0.105041 0.845276 0.493050
-0.105041 0.845276 0.493050
-0.101693 0.798294 0.173373
0.000000 0.808986 0.170911
0.000000 0.852752 0.489917
0.095016 0.690967 0.002226
0.000000 0.706038 -0.001107
-0.095016 0.690967 0.002226
0.460433 -0.155856 -0.172907
0.411090 -0.076604 -0.303642
-0.460433 -0.155856 -0.172907
-0.411090 -0.076604 -0.303642
0.477406 0.421566 0.096310
0.428496 0.491626 0.075288
-0.428496 0.491626 0.075288
-0.477406 0.421566 0.096310
0.263175 0.545597 -0.060261
0.338406 0.496150 -0.029018
-0.338406 0.496150 -0.029018
-0.263175 0.545597 -0.060261
0.178158 0.579478 -0.084122
-0.178158 0.579478 -0.084122
0.089164 0.599090 -0.092163
0.000000 0.602865 -0.096088
-0.089164 0.599090 -0.092163
0.233064 -0.539910 0.361496
0.152497 -0.563864 0.324104
-0.152497 -0.563864 0.324104
-0.233064 -0.539910 0.361496
0.323729 -0.493983 0.398767
-0.323729 -0.493983 0.398767
0.409613 -0.426775 0.415444
-0.409613 -0.426775 0.415444
0.468202 -0.333198 0.379556
-0.468202 -0.333198 0.379556
0.078660 -0.585527 0.318273
-0.078660 -0.585527 0.318273
0.000000 -0.595192 0.323620
0.350131 -0.032590 -0.385390
0.278113 -0.035815 -0.454355
-0.350131 -0.032590 -0.385390
-0.278113 -0.035815 -0.454355
0.069231 -0.155573 -0.597398
0.000000 -0.165644 -0.615557
-0.069231 -0.155573 -0.597398
0.134652 -0.127575 -0.562706
-0.134652 -0.127575 -0.562706
0.201966 -0.075532 -0.515579
-0.201966 -0.075532 -0.515579
0.134171 -0.007251 -0.580381
0.067426 -0.049044 -0.621187
-0.067426 -0.049044 -0.621187
-0.134171 -0.007251 -0.580381
0.135531 -0.041386 -0.560986
0.068193 -0.084072 -0.601353
-0.068193 -0.084072 -0.601353
-0.135531 -0.041386 -0.560986
0.000000 -0.062340 -0.637502
0.000000 -0.098797 -0.619449
0.208046 0.079224 -0.497993
-0.208046 0.079224 -0.497993
0.211742 0.044422 -0.486507
-0.211742 0.044422 -0.486507
0.132943 -0.459452 -0.357003
0.129754 -0.466172 -0.356329
-0.129754 -0.466172 -0.356329
-0.132943 -0.459452 -0.357003
0.132294 -0.452715 -0.352405
0.128156 -0.457423 -0.353577
-0.128156 -0.457423 -0.353577
-0.132294 -0.452715 -0.352405
0.131541 -0.461293 -0.358482
-0.131541 -0.461293 -0.358482
0.130637 -0.453150 -0.351621
-0.130637 -0.453150 -0.351621
0.088162 -0.514011 -0.354060
0.110280 -0.497748 -0.358751
-0.110280 -0.497748 -0.358751
-0.088162 -0.514011 -0.354060
0.087487 -0.509668 -0.356727
0.108098 -0.488459 -0.359585
-0.108098 -0.488459 -0.359585
-0.087487 -0.509668 -0.356727
0.120878 -0.480279 -0.359743
-0.120878 -0.480279 -0.359743
0.118475 -0.473474 -0.356046
-0.118475 -0.473474 -0.356046
0.045928 -0.540136 -0.357779
0.000000 -0.550412 -0.360995
-0.045928 -0.540136 -0.357779
0.036993 -0.534263 -0.345460
0.000000 -0.541865 -0.351853
-0.036993 -0.534263 -0.345460
0.107775 -0.492708 -0.355760
0.090686 -0.515243 -0.355286
-0.090686 -0.515243 -0.355286
-0.107775 -0.492708 -0.355760
0.105494 -0.486937 -0.352595
0.087605 -0.506297 -0.351744
-0.087605 -0.506297 -0.351744
-0.105494 -0.486937 -0.352595
0.120074 -0.476832 -0.356516
-0.120074 -0.476832 -0.356516
0.118778 -0.471602 -0.353770
-0.118778 -0.471602 -0.353770
0.064845 -0.535202 -0.352695
-0.064845 -0.535202 -0.352695
0.059612 -0.526936 -0.353065
-0.059612 -0.526936 -0.353065
0.039120 -0.547301 -0.346548
-0.039120 -0.547301 -0.346548
0.030962 -0.533010 -0.346175
-0.030962 -0.533010 -0.346175
0.072611 -0.529218 -0.355800
-0.072611 -0.529218 -0.355800
0.060410 -0.524880 -0.346093
-0.060410 -0.524880 -0.346093
0.000000 -0.548054 -0.357157
0.000000 -0.529961 -0.354260
0.430617 -0.339003 0.124785
0.420626 -0.354041 0.135727
-0.420626 -0.354041 0.135727
-0.430617 -0.339003 0.124785
0.398312 -0.365672 0.146351
0.407700 -0.365795 0.146931
-0.407700 -0.365795 0.146931
-0.398312 -0.365672 0.146351
0.473089 -0.273417 0.098086
0.448724 -0.311431 0.110617
-0.448724 -0.311431 0.110617
-0.473089 -0.273417 0.098086
0.095259 -0.092288 1.019528
0.000000 -0.101844 1.028040
-0.095259 -0.092288 1.019528
0.499343 -0.252968 0.297831
-0.499343 -0.252968 0.297831
0.474752 -0.223945 -0.012619
0.488777 -0.223514 0.089020
-0.474752 -0.223945 -0.012619
-0.488777 -0.223514 0.089020
0.491685 -0.244568 0.185020
-0.491685 -0.244568 0.185020
0.484524 -0.153702 -0.035364
0.498803 -0.165997 0.082737
-0.484524 -0.153702 -0.035364
-0.498803 -0.165997 0.082737
0.503135 -0.196296 0.195654
-0.503135 -0.196296 0.195654
0.455871 -0.248514 -0.114331
-0.455871 -0.248514 -0.114331
0.541819 -0.127242 0.355877
-0.541819 -0.127242 0.355877
0.509120 -0.036448 0.075590
0.524415 -0.068813 0.213569
-0.509120 -0.036448 0.075590
-0.524415 -0.068813 0.213569
0.501940 -0.014485 -0.048544
-0.501940 -0.014485 -0.048544
0.482742 0.008301 -0.165972
0.435587 0.037435 -0.269303
-0.435587 0.037435 -0.269303
-0.482742 0.008301 -0.165972
0.369902 0.056172 -0.348964
0.292463 0.046920 -0.418616
-0.292463 0.046920 -0.418616
-0.369902 0.056172 -0.348964
0.068764 -0.120497 -0.595537
0.000000 -0.134072 -0.614551
-0.068764 -0.120497 -0.595537
0.135476 -0.082937 -0.557635
-0.135476 -0.082937 -0.557635
0.208125 -0.008085 -0.497247
-0.208125 -0.008085 -0.497247
0.159601 -0.458833 0.136580
0.157419 -0.460726 0.143544
0.145996 -0.450457 0.105611
0.149796 -0.448444 0.103900
-0.145996 -0.450457 0.105611
-0.157419 -0.460726 0.143544
-0.159601 -0.458833 0.136580
-0.149796 -0.448444 0.103900
0.208706 -0.484025 0.189808
0.208180 -0.482956 0.194932
-0.208180 -0.482956 0.194932
-0.208706 -0.484025 0.189808
0.283742 -0.479277 0.215451
0.282920 -0.480027 0.220222
-0.282920 -0.480027 0.220222
-0.283742 -0.479277 0.215451
0.347379 -0.443514 0.206903
0.347948 -0.444373 0.212348
-0.347948 -0.444373 0.212348
-0.347379 -0.443514 0.206903
0.404317 -0.395893 0.184361
0.408553 -0.394698 0.188421
-0.408553 -0.394698 0.188421
-0.404317 -0.395893 0.184361
0.412399 -0.367832 0.162247
0.416340 -0.367662 0.165933
-0.416340 -0.367662 0.165933
-0.412399 -0.367832 0.162247
0.150184 -0.443137 0.076677
0.146286 -0.447399 0.072310
0.197784 -0.461543 0.077711
0.195076 -0.460584 0.087511
-0.197784 -0.461543 0.077711
-0.146286 -0.447399 0.072310
-0.150184 -0.443137 0.076677
-0.195076 -0.460584 0.087511
0.144909 -0.443768 0.086864
0.140652 -0.448348 0.085480
-0.140652 -0.448348 0.085480
-0.144909 -0.443768 0.086864
0.252419 -0.461947 0.066284
0.251636 -0.463709 0.080120
-0.252419 -0.461947 0.066284
-0.251636 -0.463709 0.080120
0.309660 -0.451680 0.063259
0.308709 -0.455767 0.080193
-0.309660 -0.451680 0.063259
-0.308709 -0.455767 0.080193
0.353777 -0.430458 0.092456
0.355640 -0.429047 0.073825
0.395922 -0.390957 0.098059
0.391035 -0.394724 0.110216
-0.395922 -0.390957 0.098059
-0.355640 -0.429047 0.073825
-0.353777 -0.430458 0.092456
-0.391035 -0.394724 0.110216
0.413232 -0.361909 0.155037
0.417529 -0.359074 0.155362
-0.417529 -0.359074 0.155362
-0.413232 -0.361909 0.155037
0.410872 -0.371037 0.121587
-0.410872 -0.371037 0.121587
0.404479 -0.376375 0.129102
-0.404479 -0.376375 0.129102
0.416481 -0.359704 0.140596
-0.416481 -0.359704 0.140596
0.411465 -0.364328 0.144353
-0.411465 -0.364328 0.144353
0.242785 -0.541137 0.457395
0.336335 -0.479245 0.479612
-0.336335 -0.479245 0.479612
-0.242785 -0.541137 0.457395
0.079970 -0.586659 0.432298
0.159668 -0.566378 0.434594
-0.159668 -0.566378 0.434594
-0.079970 -0.586659 0.432298
0.426987 -0.393202 0.478451
-0.426987 -0.393202 0.478451
0.487386 -0.289986 0.428112
-0.487386 -0.289986 0.428112
0.000000 -0.594012 0.435217
0.518468 -0.197324 0.325632
-0.518468 -0.197324 0.325632
0.504080 -0.103217 0.079341
0.513359 -0.136754 0.205305
-0.513359 -0.136754 0.205305
-0.504080 -0.103217 0.079341
0.493566 -0.084431 -0.044966
-0.493566 -0.084431 -0.044966
0.471430 -0.069609 -0.173430
0.423978 -0.023059 -0.288699
-0.423978 -0.023059 -0.288699
-0.471430 -0.069609 -0.173430
0.359893 0.012631 -0.369521
0.284948 -0.000139 -0.438865
-0.284948 -0.000139 -0.438865
-0.359893 0.012631 -0.369521
0.069016 -0.138874 -0.596458
0.000000 -0.150630 -0.614968
-0.069016 -0.138874 -0.596458
0.135073 -0.106393 -0.560204
-0.135073 -0.106393 -0.560204
0.204955 -0.043685 -0.507204
-0.204955 -0.043685 -0.507204
0.131198 -0.444410 -0.361339
0.127257 -0.447965 -0.359286
-0.127257 -0.447965 -0.359286
-0.131198 -0.444410 -0.361339
0.127126 -0.429546 -0.342187
0.124301 -0.430253 -0.347298
-0.124301 -0.430253 -0.347298
-0.127126 -0.429546 -0.342187
0.130225 -0.445527 -0.362388
-0.130225 -0.445527 -0.362388
0.126845 -0.432434 -0.338181
-0.126845 -0.432434 -0.338181
0.106279 -0.473788 -0.358038
0.119415 -0.460490 -0.359999
-0.119415 -0.460490 -0.359999
-0.106279 -0.473788 -0.358038
0.101592 -0.445858 -0.331556
0.119892 -0.436303 -0.335018
-0.119892 -0.436303 -0.335018
-0.101592 -0.445858 -0.331556
0.118644 -0.457789 -0.357305
0.103621 -0.468987 -0.355874
-0.103621 -0.468987 -0.355874
-0.118644 -0.457789 -0.357305
0.118212 -0.431129 -0.351944
0.099859 -0.434380 -0.354437
-0.099859 -0.434380 -0.354437
-0.118212 -0.431129 -0.351944
0.058696 -0.502278 -0.351243
0.087068 -0.489215 -0.355922
-0.087068 -0.489215 -0.355922
-0.058696 -0.502278 -0.351243
0.057980 -0.453743 -0.325622
0.086111 -0.449348 -0.327918
-0.086111 -0.449348 -0.327918
-0.057980 -0.453743 -0.325622
0.029121 -0.511012 -0.352748
-0.029121 -0.511012 -0.352748
0.024384 -0.456963 -0.323968
-0.024384 -0.456963 -0.323968
0.055343 -0.498333 -0.347286
0.030368 -0.506417 -0.345848
-0.030368 -0.506417 -0.345848
-0.055343 -0.498333 -0.347286
0.050072 -0.444264 -0.358521
0.021648 -0.448851 -0.360450
-0.021648 -0.448851 -0.360450
-0.050072 -0.444264 -0.358521
0.083474 -0.484073 -0.351946
-0.083474 -0.484073 -0.351946
0.078232 -0.439342 -0.356761
-0.078232 -0.439342 -0.356761
0.000000 -0.513391 -0.346631
0.000000 -0.453881 -0.362674
0.000000 -0.510086 -0.353483
0.000000 -0.458904 -0.324014
0.153748 -0.437730 0.125980
0.208909 -0.467851 0.182854
-0.153748 -0.437730 0.125980
-0.208909 -0.467851 0.182854
0.283177 -0.460825 0.206586
-0.283177 -0.460825 0.206586
0.341029 -0.422317 0.194677
-0.341029 -0.422317 0.194677
0.388693 -0.381559 0.176543
-0.388693 -0.381559 0.176543
0.403425 -0.355445 0.158158
-0.403425 -0.355445 0.158158
0.248537 -0.450550 0.091476
0.165286 -0.432256 0.088953
-0.248537 -0.450550 0.091476
-0.165286 -0.432256 0.088953
0.385023 -0.382411 0.117915
0.350303 -0.412969 0.098478
-0.385023 -0.382411 0.117915
-0.350303 -0.412969 0.098478
0.301568 -0.440666 0.087887
-0.301568 -0.440666 0.087887
0.404020 -0.352104 0.155457
-0.404020 -0.352104 0.155457
0.395762 -0.368429 0.132395
-0.395762 -0.368429 0.132395
0.149961 -0.429758 0.104734
-0.149961 -0.429758 0.104734
0.149692 -0.419084 0.085994
-0.149692 -0.419084 0.085994
0.154722 -0.423786 0.083821
-0.154722 -0.423786 0.083821
0.402225 -0.356517 0.146386
-0.402225 -0.356517 0.146386
0.136533 -0.435498 0.146174
0.187327 -0.449427 0.227389
-0.136533 -0.435498 0.146174
-0.187327 -0.449427 0.227389
0.284151 -0.429192 0.260328
-0.284151 -0.429192 0.260328
0.347208 -0.401123 0.254435
-0.347208 -0.401123 0.254435
0.407815 -0.338788 0.225195
-0.407815 -0.338788 0.225195
0.422542 -0.306708 0.184245
-0.422542 -0.306708 0.184245
0.241393 -0.417871 0.039436
0.176057 -0.414008 0.049240
-0.241393 -0.417871 0.039436
-0.176057 -0.414008 0.049240
0.389831 -0.346501 0.075412
0.357002 -0.376001 0.056530
-0.389831 -0.346501 0.075412
-0.357002 -0.376001 0.056530
0.303240 -0.402139 0.041415
-0.303240 -0.402139 0.041415
0.424931 -0.303422 0.155365
-0.424931 -0.303422 0.155365
0.409051 -0.319559 0.094250
-0.409051 -0.319559 0.094250
0.134113 -0.412556 0.105156
-0.134113 -0.412556 0.105156
0.135865 -0.410720 0.085994
-0.135865 -0.410720 0.085994
0.150608 -0.404136 0.058049
-0.150608 -0.404136 0.058049
0.420269 -0.307779 0.125591
-0.420269 -0.307779 0.125591
0.457948 -0.381631 0.265779
0.462915 -0.383385 0.279160
0.396375 -0.463435 0.326966
0.391490 -0.461809 0.310313
-0.396375 -0.463435 0.326966
-0.462915 -0.383385 0.279160
-0.457948 -0.381631 0.265779
-0.391490 -0.461809 0.310313
0.118312 -0.559941 0.236022
0.127026 -0.531256 0.204017
0.226661 -0.518036 0.245503
0.212534 -0.539428 0.300930
-0.226661 -0.518036 0.245503
-0.127026 -0.531256 0.204017
-0.118312 -0.559941 0.236022
-0.212534 -0.539428 0.300930
0.296779 -0.520511 0.327658
0.305318 -0.501965 0.269199
-0.305318 -0.501965 0.269199
-0.296779 -0.520511 0.327658
0.423368 -0.363851 0.139400
0.415591 -0.365264 0.144427
0.407331 -0.380380 0.132132
0.416835 -0.377324 0.122236
-0.407331 -0.380380 0.132132
-0.415591 -0.365264 0.144427
-0.423368 -0.363851 0.139400
-0.416835 -0.377324 0.122236
0.407710 -0.365470 0.147571
0.400094 -0.375814 0.133746
-0.400094 -0.375814 0.133746
-0.407710 -0.365470 0.147571
0.393838 -0.397561 0.114435
0.401846 -0.393851 0.102637
-0.401846 -0.393851 0.102637
-0.393838 -0.397561 0.114435
0.389842 -0.390515 0.117318
-0.389842 -0.390515 0.117318
0.250689 -0.464837 0.091274
0.249867 -0.465845 0.085160
0.312872 -0.456636 0.076294
0.308910 -0.454974 0.086942
-0.312872 -0.456636 0.076294
-0.249867 -0.465845 0.085160
-0.250689 -0.464837 0.091274
-0.308910 -0.454974 0.086942
0.251462 -0.460302 0.088903
0.308695 -0.449838 0.084497
-0.251462 -0.460302 0.088903
-0.308695 -0.449838 0.084497
0.364088 -0.433451 0.085327
0.357172 -0.433657 0.096711
-0.364088 -0.433451 0.085327
-0.357172 -0.433657 0.096711
0.353415 -0.427153 0.097362
-0.353415 -0.427153 0.097362
0.193351 -0.451659 0.089717
0.198138 -0.455279 0.089553
-0.198138 -0.455279 0.089553
-0.193351 -0.451659 0.089717
0.190882 -0.449818 0.091482
-0.190882 -0.449818 0.091482
0.457945 -0.365280 0.182655
0.419837 -0.368239 0.161947
0.408004 -0.398848 0.181166
0.422348 -0.399236 0.186198
-0.408004 -0.398848 0.181166
-0.419837 -0.368239 0.161947
-0.457945 -0.365280 0.182655
-0.422348 -0.399236 0.186198
0.408025 -0.362731 0.158322
0.399254 -0.393712 0.178759
-0.399254 -0.393712 0.178759
-0.408025 -0.362731 0.158322
0.350827 -0.445570 0.202451
0.358718 -0.457661 0.216490
-0.358718 -0.457661 0.216490
-0.350827 -0.445570 0.202451
0.347403 -0.438527 0.200082
-0.347403 -0.438527 0.200082
0.284265 -0.485339 0.207887
0.287650 -0.494147 0.223756
-0.287650 -0.494147 0.223756
-0.284265 -0.485339 0.207887
0.284177 -0.474202 0.209391
-0.284177 -0.474202 0.209391
0.207920 -0.488520 0.181716
0.207089 -0.499018 0.195553
-0.207089 -0.499018 0.195553
-0.207920 -0.488520 0.181716
0.209471 -0.481254 0.183757
-0.209471 -0.481254 0.183757
0.158743 -0.456891 0.129974
0.156241 -0.463580 0.132837
-0.156241 -0.463580 0.132837
-0.158743 -0.456891 0.129974
0.161406 -0.450359 0.132671
-0.161406 -0.450359 0.132671
0.149041 -0.449210 0.098360
0.147355 -0.451994 0.100660
-0.147355 -0.451994 0.100660
-0.149041 -0.449210 0.098360
0.150648 -0.446206 0.101695
-0.150648 -0.446206 0.101695
4 0 1 2 3
4 4 5 6 7
4 8 9 10 11
4 12 13 14 15
4 16 17 18 19
4 20 21 22 23
4 24 25 17 16
4 21 26 27 22
4 0 28 29 1
4 30 31 6 5
4 32 33 34 35
4 36 37 38 39
4 28 40 41 29
4 42 43 31 30
4 40 8 11 41
4 15 14 43 42
4 17 44 45 18
4 46 47 21 20
4 44 32 35 45
4 39 38 47 46
4 25 48 44 17
4 47 49 26 21
4 48 50 32 44
4 38 51 49 47
4 33 32 50 52
4 51 38 37 53
4 54 55 56 57
4 58 59 60 61
4 57 56 52 50
4 53 58 61 51
4 9 62 63 10
4 64 65 13 12
4 66 16 19 67
4 23 22 68 69
4 70 24 16 66
4 22 27 71 68
4 62 72 73 63
4 74 75 65 64
4 72 3 2 73
4 4 7 75 74
4 18 45 76 77
4 78 46 20 79
4 35 34 76 45
4 78 36 39 46
4 80 81 82 83
4 84 85 86 87
4 80 67 19 81
4 23 69 86 85
4 18 77 81 19
4 85 79 20 23
4 82 88 89 83
4 90 91 84 87
4 2 1 92 93
4 94 5 4 95
4 11 10 96 97
4 98 12 15 99
4 1 29 100 92
4 101 30 5 94
4 41 11 97 102
4 99 15 42 103
4 29 41 102 100
4 103 42 30 101
4 10 63 104 96
4 105 64 12 98
4 106 104 63 73
4 64 105 107 74
4 93 106 73 2
4 74 107 95 4
4 104 106 93 96
4 95 107 105 98
4 93 92 97 96
4 99 94 95 98
4 92 100 102 97
4 103 101 94 99
4 56 55 108 109
4 110 59 58 111
4 82 112 113 88
4 114 115 84 91
4 112 116 117 113
4 118 119 115 114
4 77 112 82 81
4 84 115 79 85
4 77 76 116 112
4 119 78 79 115
4 120 66 67 121
4 69 68 120 121
4 122 70 66 120
4 68 71 122 120
4 123 72 62 124
4 65 75 123 124
4 125 3 72 123
4 75 7 125 123
4 80 126 121 67
4 121 126 86 69
4 126 80 83 127
4 87 86 126 127
4 127 83 89 128
4 90 87 127 128
4 129 108 55 130
4 59 110 129 130
4 130 55 54 131
4 60 59 130 131
4 3 54 57 0
4 61 60 7 6
4 24 9 8 25
4 14 13 27 26
4 0 57 50 28
4 51 61 6 31
4 40 48 25 8
4 26 49 43 14
4 28 50 48 40
4 49 51 31 43
4 70 62 9 24
4 13 65 71 27
4 122 124 62 70
4 65 124 122 71
4 54 3 125 131
4 125 7 60 131
4 132 133 134 135
4 136 137 138 139
4 134 133 140 141
4 142 137 136 143
4 141 140 144 145
4 146 142 143 147
4 145 144 148 149
4 150 146 147 151
4 152 153 154 155
4 156 157 158 159
4 160 161 162 163
4 164 165 166 167
4 132 135 168 169
4 170 139 138 171
4 172 173 174 175
4 176 177 178 179
4 175 174 180 181
4 182 176 179 183
4 180 174 184 185
4 186 176 182 187
4 188 189 190 191
4 192 193 194 195
4 196 188 191 197
4 195 194 198 199
4 200 201 202 203
4 204 205 206 207
4 174 208 209 184
4 210 211 176 186
4 173 212 208 174
4 211 213 177 176
4 134 214 215 135
4 216 217 136 139
4 214 218 219 215
4 220 221 217 216
4 141 222 214 134
4 217 223 143 136
4 222 172 218 214
4 221 178 223 217
4 145 224 222 141
4 223 225 147 143
4 224 173 172 222
4 178 177 225 223
4 149 226 224 145
4 225 227 151 147
4 226 212 173 224
4 177 213 227 225
4 155 228 229 152
4 230 231 159 158
4 163 232 233 160
4 234 235 167 166
4 232 236 196 233
4 198 237 235 234
4 175 181 238 239
4 240 183 179 241
4 218 172 175 239
4 179 178 221 241
4 239 238 242 243
4 244 240 241 245
4 218 239 243 219
4 245 241 221 220
4 133 132 246 247
4 248 138 137 249
4 140 133 247 250
4 249 137 142 251
4 144 140 250 252
4 251 142 146 253
4 148 144 252 254
4 253 146 150 255
4 154 153 256 257
4 258 157 156 259
4 260 161 160 261
4 166 165 262 263
4 233 264 261 160
4 263 265 234 166
4 266 267 268 269
4 270 271 272 273
4 269 268 274 275
4 276 270 273 277
4 275 274 278 279
4 280 276 277 281
4 242 279 282 243
4 283 281 244 245
4 219 243 282 168
4 283 245 220 170
4 284 266 285 286
4 287 272 288 289
4 266 269 290 285
4 291 273 272 287
4 269 275 292 290
4 293 277 273 291
4 275 279 294 292
4 295 281 277 293
4 286 285 296 297
4 298 287 289 299
4 285 290 300 296
4 301 291 287 298
4 162 302 303 163
4 304 305 164 167
4 302 181 180 303
4 182 183 305 304
4 180 185 236 303
4 237 187 182 304
4 181 302 306 238
4 307 305 183 240
4 302 162 308 309
4 310 164 305 311
4 238 306 312 242
4 313 307 240 244
4 242 312 294 279
4 295 313 244 281
4 309 308 314 315
4 316 310 311 317
4 302 309 315 306
4 317 311 305 307
4 306 315 318 312
4 319 317 307 313
4 294 312 318 320
4 319 313 295 321
4 318 315 314 322
4 316 317 319 323
4 260 324 325 161
4 326 327 262 165
4 325 284 286 328
4 289 288 326 329
4 286 297 330 328
4 331 299 289 329
4 296 332 333 297
4 334 335 298 299
4 300 336 332 296
4 335 337 301 298
4 297 333 338 330
4 339 334 299 331
4 318 340 341 320
4 342 343 319 321
4 322 344 340 318
4 343 345 323 319
4 330 338 344 322
4 345 339 331 323
4 163 303 236 232
4 237 304 167 235
4 148 346 347 149
4 348 349 150 151
4 346 153 152 347
4 158 157 349 348
4 184 189 188 185
4 194 193 186 187
4 185 188 196 236
4 198 194 187 237
4 208 350 351 209
4 352 353 211 210
4 350 354 200 351
4 206 355 353 352
4 212 356 350 208
4 353 357 213 211
4 356 358 354 350
4 355 359 357 353
4 229 360 347 152
4 348 361 230 158
4 360 226 149 347
4 151 227 361 348
4 153 346 362 256
4 363 349 157 258
4 346 148 254 362
4 255 150 349 363
4 364 365 366 367
4 368 369 370 371
4 372 373 367 366
4 371 374 375 368
4 365 260 261 366
4 263 262 369 368
4 264 372 366 261
4 368 375 265 263
4 376 364 367 377
4 371 370 378 379
4 373 380 377 367
4 379 381 374 371
4 364 376 382 383
4 384 378 370 385
4 250 247 386 387
4 388 249 251 389
4 252 250 387 390
4 389 251 253 391
4 254 252 390 392
4 391 253 255 393
4 257 256 394 395
4 396 258 259 397
4 362 254 392 398
4 393 255 363 399
4 256 362 398 394
4 399 363 258 396
4 387 386 400 401
4 402 388 389 403
4 390 387 401 404
4 403 389 391 405
4 392 390 404 406
4 405 391 393 407
4 398 392 406 408
4 407 393 399 409
4 394 398 408 410
4 409 399 396 411
4 401 400 412 413
4 414 402 403 415
4 404 401 413 416
4 415 403 405 417
4 406 404 416 418
4 417 405 407 419
4 413 412 420 421
4 422 414 415 423
4 416 413 421 424
4 423 415 417 425
4 418 416 424 426
4 425 417 419 427
4 428 324 260 365
4 262 327 429 369
4 430 431 268 267
4 270 432 433 271
4 434 428 365 364
4 369 429 435 370
4 436 434 364 383
4 370 435 437 385
4 438 439 440 426
4 441 442 443 427
4 438 426 424 444
4 425 427 443 445
4 444 424 421 446
4 423 425 445 447
4 446 421 420 448
4 422 423 447 449
4 135 215 219 168
4 220 216 139 170
4 161 325 328 450
4 329 326 165 451
4 161 450 308 162
4 310 451 165 164
4 308 450 452 314
4 453 451 310 316
4 330 452 450 328
4 451 453 331 329
4 330 322 314 452
4 316 323 331 453
4 338 333 332 344
4 335 334 339 345
4 340 344 332 336
4 335 345 343 337
4 336 454 341 340
4 342 455 337 343
4 400 456 457 412
4 458 459 402 414
4 412 457 460 420
4 461 458 414 422
4 406 418 462 408
4 463 419 407 409
4 410 408 462 464
4 463 409 411 465
4 200 203 466 351
4 467 207 206 352
4 184 209 351 466
4 352 210 186 467
4 189 184 466 203
4 467 186 193 207
4 189 203 202 190
4 204 207 193 192
4 196 197 264 233
4 265 199 198 234
4 190 202 468 469
4 470 204 192 471
4 197 191 472 473
4 474 195 199 475
4 191 190 469 472
4 471 192 195 474
4 373 372 473 472
4 475 375 374 474
4 264 197 473 372
4 475 199 265 375
4 154 376 377 155
4 379 378 156 159
4 376 154 257 382
4 259 156 378 384
4 373 472 469 468
4 471 474 374 470
4 155 377 380 228
4 381 379 159 231
4 380 373 468 476
4 470 374 381 477
4 201 476 468 202
4 470 477 205 204
4 228 380 476 478
4 477 381 231 479
4 358 229 228 478
4 231 230 359 479
4 354 480 201 200
4 205 481 355 206
4 201 480 478 476
4 479 481 205 477
4 358 478 480 354
4 481 479 359 355
4 257 395 482 382
4 483 397 259 384
4 383 382 482 484
4 483 384 385 485
4 394 410 486 395
4 487 411 396 397
4 410 464 488 486
4 489 465 411 487
4 395 486 490 482
4 491 487 397 483
4 486 488 492 490
4 493 489 487 491
4 418 426 440 462
4 441 427 419 463
4 482 490 492 484
4 493 491 483 485
4 494 495 484 492
4 485 496 497 493
4 383 484 495 436
4 496 485 385 437
4 247 246 498 386
4 499 248 249 388
4 400 386 498 456
4 499 388 402 459
4 456 498 460 457
4 461 499 459 458
4 500 448 420 501
4 422 449 502 503
4 504 501 420 460
4 422 503 505 461
4 169 506 246 132
4 248 507 171 138
4 246 506 508 498
4 509 507 248 499
4 431 278 274 268
4 276 280 432 270
4 279 278 510 282
4 511 280 281 283
4 169 168 282 510
4 283 170 171 511
4 431 512 510 278
4 511 513 432 280
4 169 510 512 506
4 513 511 171 507
4 514 436 495 515
4 496 437 516 517
4 494 492 488 464
4 489 493 497 465
4 494 464 462 440
4 463 465 497 441
4 439 518 494 440
4 497 519 442 441
4 494 518 515 495
4 517 519 497 496
4 460 498 508 504
4 509 499 461 505
4 430 520 512 431
4 513 521 433 432
4 506 522 523 508
4 524 525 507 509
4 526 504 508 523
4 509 505 527 524
4 512 528 522 506
4 525 529 513 507
4 512 520 530 528
4 531 521 513 529
4 514 532 530 436
4 531 533 516 437
4 434 436 530 520
4 531 437 435 521
4 284 325 324 534
4 327 326 288 535
4 284 534 267 266
4 271 535 288 272
4 434 520 430 428
4 433 521 435 429
3 324 428 534
3 535 429 327
4 267 534 428 430
4 429 535 271 433
4 358 356 360 229
4 361 357 359 230
4 212 226 360 356
4 361 227 213 357
4 536 537 538 539
4 540 541 542 543
4 537 536 544 545
4 546 542 541 547
4 548 549 550 551
4 552 553 554 555
4 539 556 557 536
4 558 559 543 542
4 556 548 551 557
4 555 554 559 558
4 560 561 562 563
4 564 565 560 563
4 566 567 568 569
4 570 571 572 573
4 574 575 567 566
4 571 576 577 572
4 578 579 575 574
4 576 580 581 577
4 582 561 560 583
4 560 565 584 583
4 561 582 585 586
4 587 584 565 588
4 589 562 561 586
4 565 564 590 588
4 579 578 591 592
4 593 581 580 594
4 595 596 597 598
4 599 600 601 602
4 589 586 603 604
4 605 588 590 606
4 604 603 596 595
4 600 605 606 601
4 607 608 609 610
4 611 612 613 614
4 615 607 610 616
4 614 613 617 618
4 607 615 619 620
4 621 617 613 622
4 607 620 623 608
4 624 622 613 612
4 625 626 623 620
4 624 627 628 622
4 629 610 609 630
4 611 614 631 632
4 633 616 610 629
4 614 618 634 631
4 630 609 635 636
4 637 611 632 638
4 639 615 616 640
4 618 617 641 642
4 575 643 644 567
4 645 646 576 571
4 579 647 643 575
4 646 648 580 576
4 567 644 649 568
4 650 645 571 570
4 592 651 647 579
4 648 652 594 580
4 597 596 653 654
4 655 600 599 656
4 603 657 653 596
4 655 658 605 600
4 586 585 657 603
4 658 587 588 605
4 578 659 660 591
4 661 662 581 593
4 659 539 538 660
4 540 543 662 661
4 548 663 664 549
4 665 666 554 553
4 663 566 569 664
4 573 572 666 665
4 556 667 663 548
4 666 668 559 554
4 667 574 566 663
4 572 577 668 666
4 539 659 667 556
4 668 662 543 559
4 659 578 574 667
4 577 581 662 668
4 598 669 670 595
4 671 672 602 601
4 669 500 501 670
4 503 502 672 671
4 504 673 670 501
4 671 674 505 503
4 595 670 673 675
4 674 671 601 676
4 643 677 678 644
4 679 680 646 645
4 677 629 630 678
4 632 631 680 679
4 647 681 677 643
4 680 682 648 646
4 681 633 629 677
4 631 634 682 680
4 651 683 681 647
4 682 684 652 648
4 683 685 633 681
4 634 686 684 682
4 644 678 687 649
4 688 679 645 650
4 678 630 636 687
4 638 632 679 688
4 689 690 691 692
4 693 694 695 696
4 690 657 585 691
4 587 658 694 693
4 697 698 690 689
4 694 699 700 695
4 698 653 657 690
4 658 655 699 694
4 701 702 698 697
4 699 703 704 700
4 702 654 653 698
4 655 656 703 699
4 705 706 707 708
4 707 709 710 708
4 706 582 583 707
4 583 584 709 707
4 582 706 691 585
4 693 709 584 587
4 706 705 692 691
4 696 710 709 693
4 640 616 633 685
4 634 618 642 686
4 711 639 640 712
4 642 641 713 714
4 715 697 689 716
4 695 700 717 718
4 719 701 697 715
4 700 704 720 717
4 716 689 692 721
4 696 695 718 722
4 723 705 708 724
4 708 710 725 724
4 721 692 705 723
4 710 696 722 725
4 712 640 685 726
4 686 642 714 727
4 711 728 729 639
4 730 731 713 641
4 728 732 733 729
4 734 735 731 730
4 639 729 619 615
4 621 730 641 617
4 619 729 733 736
4 734 730 621 737
4 619 736 625 620
4 628 737 621 622
4 609 738 739 635
4 740 741 611 637
4 608 623 742 743
4 744 624 612 745
4 623 626 746 742
4 747 627 624 744
4 609 608 743 738
4 745 612 611 741
4 748 749 750 751
4 752 753 754 755
4 756 757 749 748
4 753 758 759 754
4 760 761 757 756
4 758 762 763 759
4 764 765 761 760
4 762 766 767 763
4 768 769 765 764
4 766 770 771 767
4 772 773 769 768
4 770 774 775 771
4 776 777 778 779
4 780 781 782 783
4 784 785 777 776
4 781 786 787 782
4 751 750 785 784
4 786 752 755 787
4 779 778 788 789
4 790 780 783 791
4 789 788 792 793
4 794 790 791 795
4 796 797 798 799
4 800 801 802 803
4 793 792 797 796
4 801 794 795 802
4 804 805 773 772
4 774 806 807 775
4 808 809 810 811
4 812 813 814 815
4 811 810 816 817
4 818 812 815 819
4 817 816 820 821
4 822 818 819 823
4 821 820 824 825
4 826 822 823 827
4 825 824 828 829
4 830 826 827 831
4 829 828 832 833
4 834 830 831 835
4 836 837 838 839
4 840 841 842 843
4 839 838 844 845
4 846 840 843 847
4 809 808 845 844
4 847 814 813 846
4 848 849 837 836
4 841 850 851 842
4 852 853 854 855
4 856 857 858 859
4 855 854 860 861
4 862 856 859 863
4 861 860 849 848
4 850 862 863 851
4 798 864 865 799
4 866 867 800 803
4 868 853 852 869
4 858 857 870 871
4 809 872 873 810
4 874 875 813 812
4 872 876 877 873
4 878 879 875 874
4 876 880 881 877
4 882 883 879 878
4 880 838 837 881
4 841 840 883 882
4 809 844 876 872
4 879 846 813 875
4 838 880 876 844
4 879 883 840 846
4 833 832 884 885
4 886 834 835 887
4 888 889 890 891
4 892 893 894 895
4 889 896 897 890
4 898 899 893 892
4 896 900 901 897
4 902 903 899 898
4 904 905 906 907
4 908 909 910 911
4 912 913 905 904
4 909 914 915 910
4 916 917 918 34
4 919 920 921 36
4 116 76 34 918
4 36 78 119 919
4 922 923 924 925
4 926 927 928 929
4 930 922 925 931
4 929 928 932 933
4 934 935 936 937
4 938 939 940 941
4 942 935 934 943
4 940 939 944 945
4 946 947 948 949
4 950 951 952 953
4 936 954 955 937
4 956 957 938 941
4 947 958 959 960
4 961 962 951 963
4 960 959 964 965
4 966 961 963 967
4 968 969 970 971
4 972 973 974 975
4 976 977 971 970
4 975 978 979 972
4 969 980 981 970
4 982 983 973 972
4 980 930 931 981
4 933 932 983 982
4 984 985 981 931
4 982 986 987 933
4 985 976 970 981
4 972 979 986 982
4 988 989 990 991
4 992 993 988 991
4 994 995 989 988
4 993 996 994 988
4 997 998 999 1000
4 1001 1002 997 1000
4 1003 1004 995 994
4 996 1005 1003 994
4 1000 999 1004 1003
4 1005 1001 1000 1003
4 1006 1007 1008 1009
4 1010 1011 1012 1013
4 923 1014 1015 924
4 1016 1017 927 926
4 1014 1006 1009 1015
4 1013 1012 1017 1016
4 1018 1019 1020 1021
4 1020 1022 1023 1021
4 1019 998 997 1020
4 997 1002 1022 1020
4 947 946 1024 958
4 1025 952 951 962
4 1026 1027 1028 1029
4 1030 1031 1032 1033
4 1027 949 948 1028
4 950 953 1031 1030
4 1034 1035 1036 1037
4 1038 1039 1040 1041
4 1035 968 971 1036
4 975 974 1039 1038
4 977 109 1036 971
4 1038 111 978 975
4 109 108 1037 1036
4 1041 110 111 1038
4 52 56 109 977
4 111 58 53 978
4 989 1042 1043 990
4 1044 1045 993 992
4 1042 1008 1007 1043
4 1011 1010 1045 1044
4 998 1046 1047 999
4 1048 1049 1002 1001
4 1004 1050 1051 995
4 1052 1053 1005 996
4 999 1047 1050 1004
4 1053 1048 1001 1005
4 1054 1019 1018 1055
4 1023 1022 1056 1057
4 1046 998 1019 1054
4 1022 1002 1049 1056
4 995 1051 1042 989
4 1045 1052 996 993
4 34 33 1058 916
4 1059 37 36 921
4 916 1058 1029 1028
4 1033 1059 921 1030
4 916 1028 948 917
4 950 1030 921 920
4 917 948 947 960
4 951 950 920 963
4 918 917 960 965
4 963 920 919 967
4 116 918 965 117
4 967 919 119 118
4 1060 964 959 1061
4 961 966 1062 1063
4 1046 1064 1065 1047
4 1066 1067 1049 1048
4 1064 1068 1069 1065
4 1070 1071 1067 1066
4 1050 1072 1073 1051
4 1074 1075 1053 1052
4 1072 1076 1077 1073
4 1078 1079 1075 1074
4 1047 1065 1072 1050
4 1075 1066 1048 1053
4 1065 1069 1076 1072
4 1079 1070 1066 1075
4 1080 1081 1082 1083
4 1084 1085 1086 1087
4 1081 1054 1055 1082
4 1057 1056 1085 1084
4 1068 1064 1081 1080
4 1085 1067 1071 1086
4 1064 1046 1054 1081
4 1056 1049 1067 1085
4 1051 1073 1008 1042
4 1010 1074 1052 1045
4 1077 1009 1008 1073
4 1010 1013 1078 1074
4 88 1088 1089 89
4 1090 1091 91 90
4 1088 942 943 1089
4 945 944 1091 1090
4 113 1092 1088 88
4 1091 1093 114 91
4 1092 1094 942 1088
4 944 1095 1093 1091
4 117 1096 1092 113
4 1093 1097 118 114
4 1096 1098 1094 1092
4 1095 1099 1097 1093
4 1060 1098 1096 964
4 1097 1099 1062 966
4 117 965 964 1096
4 966 967 118 1097
4 1100 1101 1102 1103
4 1104 1105 1106 1107
4 1103 1102 1108 1109
4 1110 1104 1107 1111
4 954 1112 1101 1100
4 1105 1113 957 1106
4 935 1114 1115 936
4 1116 1117 939 938
4 1118 1119 1109 1108
4 1111 1120 1121 1110
4 1122 1123 1119 1118
4 1120 1124 1125 1121
4 1112 954 936 1115
4 938 957 1113 1116
4 1114 935 942 1094
4 944 939 1117 1095
4 33 52 977 1058
4 978 53 37 1059
4 977 976 1029 1058
4 1033 979 978 1059
4 976 985 1026 1029
4 1032 986 979 1033
4 890 1126 1127 891
4 1128 1129 892 895
4 1126 1130 1131 1127
4 1132 1133 1129 1128
4 897 1134 1126 890
4 1129 1135 898 892
4 1134 1136 1130 1126
4 1133 1137 1135 1129
4 901 1138 1134 897
4 1135 1139 902 898
4 1138 1140 1136 1134
4 1137 1141 1139 1135
4 906 1142 1143 907
4 1144 1145 908 911
4 1142 1146 1147 1143
4 1148 1149 1145 1144
4 905 1150 1151 906
4 1152 1153 909 908
4 1154 1155 1156 913
4 1157 1158 1159 914
4 1150 905 913 1156
4 914 909 1153 1157
4 1160 1142 906 1151
4 908 1145 1161 1152
4 1162 1146 1142 1160
4 1145 1149 1163 1161
4 1164 1112 1115 1165
4 1116 1113 1166 1167
4 1168 1101 1112 1164
4 1113 1105 1169 1166
4 1170 1102 1101 1168
4 1105 1104 1171 1169
4 1172 1108 1102 1170
4 1104 1110 1173 1171
4 1174 1118 1108 1172
4 1110 1121 1175 1173
4 1176 1122 1118 1174
4 1121 1125 1177 1175
4 1178 1094 1098 1179
4 1099 1095 1180 1181
4 1182 1114 1094 1178
4 1095 1117 1183 1180
4 1165 1115 1114 1182
4 1117 1116 1167 1183
4 1179 1098 1060 1184
4 1062 1099 1181 1185
4 1184 1060 1061 1186
4 1063 1062 1185 1187
4 1188 1189 1122 1176
4 1125 1190 1191 1177
4 1192 1193 1194 1195
4 1196 1197 1198 1199
4 1061 1200 1201 1186
4 1202 1203 1063 1187
4 1195 1194 1201 1204
4 1202 1196 1199 1205
4 1061 959 958 1200
4 962 961 1063 1203
4 1206 1200 958 1024
4 962 1203 1207 1025
4 925 924 1208 1209
4 1210 926 929 1211
4 924 1015 1212 1208
4 1213 1016 926 1210
4 925 1209 984 931
4 987 1211 929 933
4 1027 1214 1215 949
4 1216 1217 1031 953
4 1214 1218 1219 1215
4 1220 1221 1217 1216
4 1026 1222 1214 1027
4 1217 1223 1032 1031
4 1222 1224 1218 1214
4 1221 1225 1223 1217
4 984 1222 1026 985
4 1032 1223 987 986
4 984 1209 1224 1222
4 1225 1211 987 1223
4 1218 1226 1227 1219
4 1228 1229 1221 1220
4 1226 1230 1231 1227
4 1232 1233 1229 1228
4 1224 1234 1226 1218
4 1229 1235 1225 1221
4 1234 1236 1230 1226
4 1233 1237 1235 1229
4 1224 1209 1208 1234
4 1210 1211 1225 1235
4 1236 1234 1208 1212
4 1210 1235 1237 1213
4 1009 1077 1212 1015
4 1213 1078 1013 1016
4 1077 1076 1236 1212
4 1237 1079 1078 1213
4 1069 1230 1236 1076
4 1237 1233 1070 1079
4 1068 1231 1230 1069
4 1233 1232 1071 1070
4 1215 1219 1238 1239
4 1240 1220 1216 1241
4 1219 1227 1242 1238
4 1243 1228 1220 1240
4 1227 1231 1244 1242
4 1245 1232 1228 1243
4 1201 1200 1206 1204
4 1207 1203 1202 1205
4 946 949 1215 1239
4 1216 953 952 1241
4 1206 1024 1246 1247
4 1248 1025 1207 1249
4 946 1239 1246 1024
4 1248 1241 952 1025
4 1250 1204 1206 1247
4 1207 1205 1251 1249
4 1068 1080 1244 1231
4 1245 1086 1071 1232
4 1247 1246 1252 1253
4 1254 1248 1249 1255
4 1253 1252 1256 1257
4 1258 1254 1255 1259
4 1257 1256 1260 1261
4 1262 1258 1259 1263
4 1238 1252 1246 1239
4 1248 1254 1240 1241
4 1238 1242 1256 1252
4 1258 1243 1240 1254
4 1242 1244 1260 1256
4 1262 1245 1243 1258
4 1264 1250 1247 1253
4 1249 1251 1265 1255
4 1083 1260 1244 1080
4 1245 1262 1087 1086
4 922 1266 1267 923
4 1268 1269 928 927
4 1266 1270 1271 1267
4 1272 1273 1269 1268
4 930 1274 1266 922
4 1269 1275 932 928
4 1274 1276 1270 1266
4 1273 1277 1275 1269
4 968 1278 1279 969
4 1280 1281 974 973
4 1278 1282 1283 1279
4 1284 1285 1281 1280
4 980 1286 1274 930
4 1275 1287 983 932
4 1286 1288 1276 1274
4 1277 1289 1287 1275
4 969 1279 1286 980
4 1287 1280 973 983
4 1279 1283 1288 1286
4 1289 1284 1280 1287
4 990 1290 1291 991
4 1291 1292 992 991
4 1290 1293 1294 1291
4 1294 1295 1292 1291
4 1006 1296 1297 1007
4 1298 1299 1012 1011
4 1296 1300 1301 1297
4 1302 1303 1299 1298
4 1014 1304 1296 1006
4 1299 1305 1017 1012
4 1304 1306 1300 1296
4 1303 1307 1305 1299
4 923 1267 1304 1014
4 1305 1268 927 1017
4 1267 1271 1306 1304
4 1307 1272 1268 1305
4 1035 1308 1278 968
4 1281 1309 1039 974
4 1308 1310 1282 1278
4 1285 1311 1309 1281
4 1034 1312 1308 1035
4 1309 1313 1040 1039
4 1312 1314 1310 1308
4 1311 1315 1313 1309
4 1043 1316 1290 990
4 1292 1317 1044 992
4 1316 1318 1293 1290
4 1295 1319 1317 1292
4 1007 1297 1316 1043
4 1317 1298 1011 1044
4 1297 1301 1318 1316
4 1319 1302 1298 1317
4 1320 900 896 1321
4 899 903 1322 1323
4 888 1324 1325 889
4 1326 1327 894 893
4 889 1325 1321 896
4 1323 1326 893 899
4 526 1328 673 504
4 674 1329 527 505
4 1328 1330 675 673
4 676 1331 1329 674
4 1055 1332 1333 1082
4 1334 1335 1057 1084
4 1332 1336 1337 1333
4 1338 1339 1335 1334
4 1340 1018 1021 1341
4 1021 1023 1342 1341
4 1332 1055 1018 1340
4 1023 1057 1335 1342
4 1343 1340 1341 1344
4 1341 1342 1345 1344
4 1336 1332 1340 1343
4 1342 1335 1339 1345
4 1083 1346 1261 1260
4 1263 1347 1087 1262
4 1083 1082 1333 1346
4 1334 1084 1087 1347
4 1348 888 891 1349
4 895 894 1350 1351
4 1352 1324 888 1348
4 894 1327 1353 1350
4 1346 1354 1355 1261
4 1356 1357 1347 1263
4 1261 1355 1358 1257
4 1359 1356 1263 1259
4 1264 1253 1257 1358
4 1259 1255 1265 1359
4 1337 1354 1346 1333
4 1347 1357 1338 1334
4 549 1360 1361 550
4 1362 1363 553 552
4 1360 1364 1365 1361
4 1365 1364 1363 1362
4 568 1366 1367 569
4 1368 1369 570 573
4 1366 1370 1371 1367
4 1371 1370 1369 1368
4 635 1372 1373 636
4 1374 1375 637 638
4 1372 1376 1377 1373
4 1377 1376 1375 1374
4 649 1378 1366 568
4 1369 1379 650 570
4 1378 1380 1370 1366
4 1370 1380 1379 1369
4 664 1381 1360 549
4 1363 1382 665 553
4 1381 1383 1364 1360
4 1364 1383 1382 1363
4 569 1367 1381 664
4 1382 1368 573 665
4 1367 1371 1383 1381
4 1383 1371 1368 1382
4 687 1384 1378 649
4 1379 1385 688 650
4 1384 1386 1380 1378
4 1380 1386 1385 1379
4 636 1373 1384 687
4 1385 1374 638 688
4 1373 1377 1386 1384
4 1386 1377 1374 1385
4 739 1387 1372 635
4 1375 1388 740 637
4 1387 1389 1376 1372
4 1376 1389 1388 1375
4 937 1390 1391 934
4 1391 1390 941 940
4 1392 1034 1037 1393
4 1041 1040 1392 1393
4 108 129 1393 1037
4 1393 129 110 1041
4 1394 943 934 1391
4 940 945 1394 1391
4 955 1395 1390 937
4 1390 1395 956 941
4 1396 1089 943 1394
4 945 1090 1396 1394
4 128 89 1089 1396
4 1090 90 128 1396
4 1154 1397 1398 1155
4 1398 1397 1159 1158
4 1399 1312 1034 1392
4 1040 1313 1399 1392
4 1400 1314 1312 1399
4 1313 1315 1400 1399
4 1401 1402 1403 1404
4 1405 1406 1401 1404
4 1402 1320 1321 1403
4 1323 1322 1406 1405
4 1324 1407 1408 1325
4 1409 1410 1327 1326
4 1407 1411 1412 1408
4 1412 1411 1410 1409
4 1325 1408 1403 1321
4 1405 1409 1326 1323
4 1408 1412 1404 1403
4 1404 1412 1409 1405
4 1411 1407 1413 1414
4 1415 1410 1411 1414
4 1407 1324 1352 1413
4 1353 1327 1410 1415
4 1416 1264 1358 1417
4 1359 1265 1418 1419
4 1131 1420 1421 1127
4 1422 1423 1132 1128
4 891 1127 1421 1349
4 1422 1128 895 1351
4 551 1424 1425 557
4 1426 1427 555 558
4 1424 1348 1349 1425
4 1351 1350 1427 1426
4 550 1428 1424 551
4 1427 1429 552 555
4 1428 1352 1348 1424
4 1350 1353 1429 1427
4 1413 1430 1431 1414
4 1431 1432 1415 1414
4 1430 1361 1365 1431
4 1365 1362 1432 1431
4 1352 1428 1430 1413
4 1432 1429 1353 1415
4 1428 550 1361 1430
4 1362 552 1429 1432
4 544 1421 1420 545
4 1423 1422 546 547
4 544 1425 1349 1421
4 1351 1426 546 1422
4 544 536 557 1425
4 558 542 546 1426
4 1140 1138 1143 1147
4 1144 1139 1141 1148
4 901 907 1143 1138
4 1144 911 902 1139
4 900 904 907 901
4 911 910 903 902
4 900 1320 912 904
4 915 1322 903 910
4 1100 1433 1434 954
4 1435 1436 1106 957
4 1103 1437 1433 1100
4 1436 1438 1107 1106
4 1109 1439 1437 1103
4 1438 1440 1111 1107
4 1119 1441 1439 1109
4 1440 1442 1120 1111
4 954 1434 1443 955
4 1444 1435 957 956
4 1445 1395 955 1443
4 956 1395 1445 1444
4 1446 1355 1354 1447
4 1357 1356 1448 1449
4 1355 1446 1417 1358
4 1419 1448 1356 1359
4 1450 1343 1344 1451
4 1344 1345 1452 1451
4 1453 1336 1343 1450
4 1345 1339 1454 1452
4 1336 1453 1455 1337
4 1456 1454 1339 1338
4 1337 1455 1447 1354
4 1449 1456 1338 1357
4 589 1457 1458 562
4 1459 1460 590 564
4 1457 1461 1462 1458
4 1463 1464 1460 1459
4 562 1458 1465 563
4 1465 1459 564 563
4 1458 1462 1466 1465
4 1466 1463 1459 1465
4 604 1467 1457 589
4 1460 1468 606 590
4 1467 1469 1461 1457
4 1464 1470 1468 1460
4 595 675 1467 604
4 1468 676 601 606
4 675 1330 1469 1467
4 1470 1331 676 1468
4 1270 1471 1472 1271
4 1473 1474 1273 1272
4 1471 1475 1476 1472
4 1477 1478 1474 1473
4 1276 1479 1471 1270
4 1474 1480 1277 1273
4 1479 1481 1475 1471
4 1478 1482 1480 1474
4 1282 1483 1484 1283
4 1485 1486 1285 1284
4 1483 1487 1488 1484
4 1489 1490 1486 1485
4 1288 1491 1479 1276
4 1480 1492 1289 1277
4 1491 1493 1481 1479
4 1482 1494 1492 1480
4 1283 1484 1491 1288
4 1492 1485 1284 1289
4 1484 1488 1493 1491
4 1494 1489 1485 1492
4 1293 1495 1496 1294
4 1496 1497 1295 1294
4 1495 1498 1499 1496
4 1499 1500 1497 1496
4 1300 1501 1502 1301
4 1503 1504 1303 1302
4 1501 1505 1506 1502
4 1507 1508 1504 1503
4 1306 1509 1501 1300
4 1504 1510 1307 1303
4 1509 1511 1505 1501
4 1508 1512 1510 1504
4 1271 1472 1509 1306
4 1510 1473 1272 1307
4 1472 1476 1511 1509
4 1512 1477 1473 1510
4 1310 1513 1483 1282
4 1486 1514 1311 1285
4 1513 1515 1487 1483
4 1490 1516 1514 1486
4 1314 1517 1513 1310
4 1514 1518 1315 1311
4 1517 1519 1515 1513
4 1516 1520 1518 1514
4 1318 1521 1495 1293
4 1497 1522 1319 1295
4 1521 1523 1498 1495
4 1500 1524 1522 1497
4 1301 1502 1521 1318
4 1522 1503 1302 1319
4 1502 1506 1523 1521
4 1524 1507 1503 1522
4 1400 1525 1517 1314
4 1518 1525 1400 1315
4 1525 1526 1519 1517
4 1520 1526 1525 1518
4 864 1527 1528 865
4 1529 1530 867 866
4 1527 805 804 1528
4 807 806 1530 1529
4 884 1531 1532 885
4 1533 1534 886 887
4 1531 868 869 1532
4 871 870 1534 1533
4 1192 1535 1536 1193
4 1537 1538 1198 1197
4 1535 1189 1188 1536
4 1191 1190 1538 1537
4 537 448 500 538
4 502 449 541 540
4 448 537 545 446
4 547 541 449 447
4 1420 444 446 545
4 447 445 1423 547
4 597 592 591 598
4 593 594 599 602
4 654 651 592 597
4 594 652 656 599
4 660 669 598 591
4 602 672 661 593
4 538 500 669 660
4 672 502 540 661
4 702 683 651 654
4 652 684 703 656
4 683 702 701 685
4 704 703 684 686
4 719 726 685 701
4 686 727 720 704
4 1397 1154 1539 1540
4 1541 1159 1397 1540
4 912 1539 1154 913
4 1159 1541 915 914
4 1401 1540 1539 1402
4 1541 1540 1401 1406
4 1320 1402 1539 912
4 1541 1406 1322 915
4 1123 1542 1441 1119
4 1442 1543 1124 1120
4 1535 1192 1544 1545
4 1546 1198 1538 1547
4 1189 1535 1545 1548
4 1547 1538 1190 1549
4 1545 1544 1550 1551
4 1552 1546 1547 1553
4 1548 1545 1551 1554
4 1553 1547 1549 1555
4 1195 1204 1250 1556
4 1251 1205 1199 1557
4 1264 1416 1556 1250
4 1557 1418 1265 1251
4 1195 1556 1544 1192
4 1546 1557 1199 1198
4 1416 1550 1544 1556
4 1546 1552 1418 1557
4 1122 1189 1548 1123
4 1549 1190 1125 1124
4 1123 1548 1554 1542
4 1555 1549 1124 1543
4 515 1140 1147 514
4 1148 1141 517 516
4 1147 1146 532 514
4 533 1149 1148 516
4 1146 1162 1558 532
4 1559 1163 1149 533
4 1130 1136 518 439
4 519 1137 1133 442
4 438 1131 1130 439
4 1133 1132 443 442
4 438 444 1420 1131
4 1423 445 443 1132
4 515 518 1136 1140
4 1137 519 517 1141
4 1560 528 530 1561
4 531 529 1562 1563
4 1561 530 532 1558
4 533 531 1563 1559
4 528 1560 1564 522
4 1565 1562 529 525
4 523 1566 1567 526
4 1568 1569 524 527
4 522 1564 1566 523
4 1569 1565 525 524
4 1328 1570 1571 1330
4 1572 1573 1329 1331
4 526 1567 1570 1328
4 1573 1568 527 1329
4 1462 1574 1575 1466
4 1575 1576 1463 1466
4 1461 1577 1574 1462
4 1576 1578 1464 1463
4 1469 1579 1577 1461
4 1578 1580 1470 1464
4 1330 1571 1579 1469
4 1580 1572 1331 1470
4 749 1164 1165 750
4 1167 1166 753 752
4 757 1168 1164 749
4 1166 1169 758 753
4 761 1170 1168 757
4 1169 1171 762 758
4 765 1172 1170 761
4 1171 1173 766 762
4 769 1174 1172 765
4 1173 1175 770 766
4 773 1176 1174 769
4 1175 1177 774 770
4 777 1178 1179 778
4 1181 1180 781 780
4 785 1182 1178 777
4 1180 1183 786 781
4 750 1165 1182 785
4 1183 1167 752 786
4 778 1179 1184 788
4 1185 1181 780 790
4 788 1184 1186 792
4 1187 1185 790 794
4 797 1201 1194 798
4 1196 1202 801 800
4 792 1186 1201 797
4 1202 1187 794 801
4 805 1188 1176 773
4 1177 1191 806 774
4 1193 864 798 1194
4 800 867 1197 1196
4 1536 1527 864 1193
4 867 1530 1537 1197
4 1188 805 1527 1536
4 1530 806 1191 1537
4 1581 1582 1583 1584
4 1585 1586 1587 1588
4 1582 748 751 1583
4 755 754 1586 1585
4 1589 1590 1582 1581
4 1586 1591 1592 1587
4 1590 756 748 1582
4 754 759 1591 1586
4 1593 1594 1590 1589
4 1591 1595 1596 1592
4 1594 760 756 1590
4 759 763 1595 1591
4 1597 1598 1594 1593
4 1595 1599 1600 1596
4 1598 764 760 1594
4 763 767 1599 1595
4 1601 1602 1598 1597
4 1599 1603 1604 1600
4 1602 768 764 1598
4 767 771 1603 1599
4 1605 1606 1602 1601
4 1603 1607 1608 1604
4 1606 772 768 1602
4 771 775 1607 1603
4 1609 1610 1611 1612
4 1613 1614 1615 1616
4 1610 776 779 1611
4 783 782 1614 1613
4 1617 1618 1610 1609
4 1614 1619 1620 1615
4 1618 784 776 1610
4 782 787 1619 1614
4 1584 1583 1618 1617
4 1619 1585 1588 1620
4 1583 751 784 1618
4 787 755 1585 1619
4 1612 1611 1621 1622
4 1623 1613 1616 1624
4 1611 779 789 1621
4 791 783 1613 1623
4 1622 1621 1625 1626
4 1627 1623 1624 1628
4 1621 789 793 1625
4 795 791 1623 1627
4 1629 1630 1631 1632
4 1633 1634 1635 1636
4 1630 796 799 1631
4 803 802 1634 1633
4 1626 1625 1630 1629
4 1634 1627 1628 1635
4 1625 793 796 1630
4 802 795 1627 1634
4 1637 1638 1606 1605
4 1607 1639 1640 1608
4 1638 804 772 1606
4 775 807 1639 1607
4 865 1641 1631 799
4 1633 1642 866 803
4 1641 1643 1632 1631
4 1636 1644 1642 1633
4 1528 1645 1641 865
4 1642 1646 1529 866
4 1645 1647 1643 1641
4 1644 1648 1646 1642
4 804 1638 1645 1528
4 1646 1639 807 1529
4 1638 1637 1647 1645
4 1648 1640 1639 1646
4 1584 808 811 1581
4 815 814 1588 1587
4 817 1589 1581 811
4 1587 1592 819 815
4 821 1593 1589 817
4 1592 1596 823 819
4 825 1597 1593 821
4 1596 1600 827 823
4 829 1601 1597 825
4 1600 1604 831 827
4 833 1605 1601 829
4 1604 1608 835 831
4 839 1609 1612 836
4 1616 1615 843 842
4 845 1617 1609 839
4 1615 1620 847 843
4 808 1584 1617 845
4 1620 1588 814 847
4 836 1612 1622 848
4 1624 1616 842 851
4 848 1622 1626 861
4 1628 1624 851 863
4 855 1629 1632 852
4 1636 1635 859 858
4 861 1626 1629 855
4 1635 1628 863 859
4 1643 869 852 1632
4 858 871 1644 1636
4 885 1637 1605 833
4 1608 1640 887 835
4 1647 1532 869 1643
4 871 1533 1648 1644
4 1637 885 1532 1647
4 1533 887 1640 1648
4 1150 1649 1650 1151
4 1651 1652 1153 1152
4 1649 1433 1437 1650
4 1438 1436 1652 1651
4 1155 1653 1654 1156
4 1655 1656 1158 1157
4 1653 1443 1434 1654
4 1435 1444 1656 1655
4 1433 1649 1654 1434
4 1655 1652 1436 1435
4 1649 1150 1156 1654
4 1157 1153 1652 1655
4 1439 1657 1650 1437
4 1651 1658 1440 1438
4 1657 1160 1151 1650
4 1152 1161 1658 1651
4 1441 1659 1657 1439
4 1658 1660 1442 1440
4 1659 1162 1160 1657
4 1161 1163 1660 1658
4 1398 1661 1653 1155
4 1656 1661 1398 1158
4 1661 1445 1443 1653
4 1444 1445 1661 1656
4 1542 1662 1659 1441
4 1660 1663 1543 1442
4 1662 1558 1162 1659
4 1163 1559 1663 1660
4 1551 1664 1665 1554
4 1666 1667 1553 1555
4 1664 1560 1561 1665
4 1563 1562 1667 1666
4 1554 1665 1662 1542
4 1663 1666 1555 1543
4 1665 1561 1558 1662
4 1559 1563 1666 1663
4 1560 1664 1668 1564
4 1669 1667 1562 1565
4 1664 1551 1550 1668
4 1552 1553 1667 1669
4 1566 1670 1671 1567
4 1672 1673 1569 1568
4 1670 1416 1417 1671
4 1419 1418 1673 1672
4 1564 1668 1670 1566
4 1673 1669 1565 1569
4 1668 1550 1416 1670
4 1418 1552 1669 1673
4 1570 1674 1675 1571
4 1676 1677 1573 1572
4 1674 1446 1447 1675
4 1449 1448 1677 1676
4 1567 1671 1674 1570
4 1677 1672 1568 1573
4 1671 1417 1446 1674
4 1448 1419 1672 1677
4 1574 1678 1679 1575
4 1679 1680 1576 1575
4 1678 1450 1451 1679
4 1451 1452 1680 1679
4 1577 1681 1678 1574
4 1680 1682 1578 1576
4 1681 1453 1450 1678
4 1452 1454 1682 1680
4 1579 1683 1681 1577
4 1682 1684 1580 1578
4 1683 1455 1453 1681
4 1454 1456 1684 1682
4 1571 1675 1683 1579
4 1684 1676 1572 1580
4 1675 1447 1455 1683
4 1456 1449 1676 1684
4 1475 1685 1686 1476
4 1687 1688 1478 1477
4 1685 1689 1690 1686
4 1691 1692 1688 1687
4 1481 1693 1685 1475
4 1688 1694 1482 1478
4 1693 1695 1689 1685
4 1692 1696 1694 1688
4 1488 1697 1698 1493
4 1699 1700 1489 1494
4 1697 1701 1702 1698
4 1703 1704 1700 1699
4 1493 1698 1693 1481
4 1694 1699 1494 1482
4 1698 1702 1695 1693
4 1696 1703 1699 1694
4 1511 1705 1706 1505
4 1707 1708 1512 1508
4 1705 1709 1710 1706
4 1711 1712 1708 1707
4 1476 1686 1705 1511
4 1708 1687 1477 1512
4 1686 1690 1709 1705
4 1712 1691 1687 1708
4 1515 1713 1714 1487
4 1715 1716 1516 1490
4 1713 1717 1718 1714
4 1719 1720 1716 1715
4 1519 1721 1713 1515
4 1716 1722 1520 1516
4 1721 1723 1717 1713
4 1720 1724 1722 1716
4 1487 1714 1697 1488
4 1700 1715 1490 1489
4 1714 1718 1701 1697
4 1704 1719 1715 1700
4 1523 1725 1726 1498
4 1727 1728 1524 1500
4 1725 1729 1730 1726
4 1731 1732 1728 1727
4 1506 1733 1725 1523
4 1728 1734 1507 1524
4 1733 1735 1729 1725
4 1732 1736 1734 1728
4 1498 1726 1737 1499
4 1737 1727 1500 1499
4 1726 1730 1738 1737
4 1738 1731 1727 1737
4 1505 1706 1733 1506
4 1734 1707 1508 1507
4 1706 1710 1735 1733
4 1736 1711 1707 1734
4 1526 1739 1721 1519
4 1722 1739 1526 1520
4 1739 1740 1723 1721
4 1724 1740 1739 1722
4 816 810 1741 1742
4 1743 812 818 1744
4 820 816 1742 1745
4 1744 818 822 1746
4 824 820 1745 1747
4 1746 822 826 1748
4 828 824 1747 1749
4 1748 826 830 1750
4 832 828 1749 1751
4 1750 830 834 1752
4 837 849 1753 1754
4 1755 850 841 1756
4 854 853 1757 1758
4 1759 857 856 1760
4 860 854 1758 1761
4 1760 856 862 1762
4 849 860 1761 1753
4 1762 862 850 1755
4 884 832 1751 1763
4 1752 834 886 1764
4 853 868 1765 1757
4 1766 870 857 1759
4 810 873 1767 1741
4 1768 874 812 1743
4 873 877 1769 1767
4 1770 878 874 1768
4 881 837 1754 1771
4 1756 841 882 1772
4 877 881 1771 1769
4 1772 882 878 1770
4 868 1531 1773 1765
4 1774 1534 870 1766
4 1531 884 1763 1773
4 1764 886 1534 1774
4 1742 1741 1775 1776
4 1777 1743 1744 1778
4 1745 1742 1776 1779
4 1778 1744 1746 1780
4 1747 1745 1779 1781
4 1780 1746 1748 1782
4 1749 1747 1781 1783
4 1782 1748 1750 1784
4 1751 1749 1783 1785
4 1784 1750 1752 1786
4 1754 1753 1787 1788
4 1789 1755 1756 1790
4 1758 1757 1791 1792
4 1793 1759 1760 1794
4 1761 1758 1792 1795
4 1794 1760 1762 1796
4 1753 1761 1795 1787
4 1796 1762 1755 1789
4 1763 1751 1785 1797
4 1786 1752 1764 1798
4 1757 1765 1799 1791
4 1800 1766 1759 1793
4 1741 1767 1801 1775
4 1802 1768 1743 1777
4 1767 1769 1803 1801
4 1804 1770 1768 1802
4 1771 1754 1788 1805
4 1790 1756 1772 1806
4 1769 1771 1805 1803
4 1806 1772 1770 1804
4 1765 1773 1807 1799
4 1808 1774 1766 1800
4 1773 1763 1797 1807
4 1798 1764 1774 1808
4 1809 1810 1811 1812
4 1813 1814 1815 1816
4 1817 1818 1819 1820
4 1821 1822 1823 1824
4 1825 1826 1812 1811
4 1816 1827 1828 1813
4 1820 1819 1826 1825
4 1827 1821 1824 1828
4 1829 1830 1831 1832
4 1833 1834 1835 1836
4 1830 1837 1838 1831
4 1839 1840 1834 1833
4 1841 1842 1832 1831
4 1836 1843 1844 1833
4 1845 1841 1831 1838
4 1833 1844 1846 1839
4 1847 1848 1849 1850
4 1851 1852 1853 1854
4 1855 1847 1850 1856
4 1854 1853 1857 1858
4 1850 1849 1859 1860
4 1861 1851 1854 1862
4 1856 1850 1860 1863
4 1862 1854 1858 1864
4 1860 1859 1842 1841
4 1843 1861 1862 1844
4 1863 1860 1841 1845
4 1844 1862 1864 1846
4 1865 1866 1848 1847
4 1852 1867 1868 1853
4 1869 1865 1847 1855
4 1853 1868 1870 1857
4 1871 1872 1873 1874
4 1875 1876 1877 1878
4 1872 1879 1880 1873
4 1881 1882 1876 1875
4 1883 1884 1874 1873
4 1878 1885 1886 1875
4 1887 1883 1873 1880
4 1875 1886 1888 1881
4 1889 1890 1884 1883
4 1885 1891 1892 1886
4 1893 1889 1883 1887
4 1886 1892 1894 1888
4 1895 1896 1890 1889
4 1891 1897 1898 1892
4 1899 1895 1889 1893
4 1892 1898 1900 1894
4 1901 1902 1896 1895
4 1897 1903 1904 1898
4 1905 1901 1895 1899
4 1898 1904 1906 1900
4 1907 1908 1902 1901
4 1903 1909 1910 1904
4 1911 1907 1901 1905
4 1904 1910 1912 1906
