ply
format ascii 1.0
comment Created by Blender 2.61 (sub 0) - www.blender.org, source file: 'heads.blend'
element vertex 1628
property float x
property float y
property float z
element face 1582
property list uchar uint vertex_indices
end_header
0.000000 0.916336 0.417969
0.000000 0.764665 0.856607
0.191952 0.767111 0.833110
0.172820 0.907034 0.396884
-0.191952 0.767111 0.833110
-0.172820 0.907034 0.396884
0.000000 0.870105 0.065809
0.147172 0.849483 0.056487
-0.147172 0.849483 0.056487
0.000000 -0.605006 0.325617
0.000000 -0.596223 0.251200
0.055646 -0.586806 0.241548
0.081081 -0.592582 0.325010
-0.055646 -0.586806 0.241548
-0.081081 -0.592582 0.325010
0.000000 -0.600520 0.196216
0.040582 -0.590334 0.185919
-0.040582 -0.590334 0.185919
0.160377 -0.265354 0.960611
0.187881 0.082922 1.069917
0.000000 0.069920 1.087511
0.000000 -0.281902 0.983030
-0.187881 0.082922 1.069917
-0.160377 -0.265354 0.960611
0.425097 0.148624 0.909881
0.423956 -0.153700 0.828410
0.511678 -0.060560 0.707743
0.526628 0.175398 0.787143
-0.511678 -0.060560 0.707743
-0.423956 -0.153700 0.828410
-0.425097 0.148624 0.909881
-0.526628 0.175398 0.787143
0.299143 -0.228226 0.915315
0.322133 0.116192 1.006986
-0.299143 -0.228226 0.915315
-0.322133 0.116192 1.006986
0.576989 0.049335 0.499869
0.561114 0.217460 0.541749
-0.561114 0.217460 0.541749
-0.576989 0.049335 0.499869
0.152922 -0.475959 -0.477456
0.175333 -0.453165 -0.517122
0.211514 -0.440724 -0.477967
0.185157 -0.469300 -0.443496
-0.211514 -0.440724 -0.477967
-0.175333 -0.453165 -0.517122
-0.152922 -0.475959 -0.477456
-0.185157 -0.469300 -0.443496
0.193729 -0.401480 -0.547441
0.232083 -0.395341 -0.501051
-0.232083 -0.395341 -0.501051
-0.193729 -0.401480 -0.547441
0.109956 -0.497118 -0.504599
0.126573 -0.486840 -0.543829
-0.126573 -0.486840 -0.543829
-0.109956 -0.497118 -0.504599
0.144645 -0.429825 -0.583569
-0.144645 -0.429825 -0.583569
0.054631 -0.523986 -0.505890
0.065246 -0.527537 -0.551041
-0.065246 -0.527537 -0.551041
-0.054631 -0.523986 -0.505890
0.078554 -0.478257 -0.607845
-0.078554 -0.478257 -0.607845
0.000000 -0.535469 -0.506240
0.000000 -0.545576 -0.549637
0.000000 -0.509118 -0.606257
0.000000 -0.735231 -0.162441
0.000000 -0.692869 -0.180817
0.034212 -0.673243 -0.166504
0.042696 -0.712410 -0.150856
-0.034212 -0.673243 -0.166504
-0.042696 -0.712410 -0.150856
0.237288 -0.444801 -0.434009
0.208057 -0.471805 -0.409517
-0.208057 -0.471805 -0.409517
-0.237288 -0.444801 -0.434009
0.260957 -0.404662 -0.450014
-0.260957 -0.404662 -0.450014
0.028391 -0.614783 -0.190184
0.031612 -0.615998 -0.165426
0.000000 -0.631525 -0.191436
0.000000 -0.620007 -0.194896
-0.031612 -0.615998 -0.165426
-0.028391 -0.614783 -0.190184
0.000000 -0.737824 -0.069453
0.000000 -0.749214 -0.104713
0.050358 -0.731922 -0.104575
0.052111 -0.719901 -0.073819
-0.050358 -0.731922 -0.104575
-0.052111 -0.719901 -0.073819
0.042563 -0.608605 -0.171364
0.048673 -0.606620 -0.154799
0.043490 -0.613297 -0.146644
-0.043490 -0.613297 -0.146644
-0.048673 -0.606620 -0.154799
-0.042563 -0.608605 -0.171364
0.046658 -0.600013 -0.189720
-0.046658 -0.600013 -0.189720
0.174797 -0.539359 -0.182939
0.133519 -0.544822 -0.150280
0.116112 -0.560480 -0.180278
0.158642 -0.546238 -0.206690
-0.116112 -0.560480 -0.180278
-0.133519 -0.544822 -0.150280
-0.174797 -0.539359 -0.182939
-0.158642 -0.546238 -0.206690
0.252952 -0.458341 -0.391850
0.220698 -0.481238 -0.378547
-0.220698 -0.481238 -0.378547
-0.252952 -0.458341 -0.391850
0.280823 -0.425444 -0.402756
-0.280823 -0.425444 -0.402756
0.539292 0.095063 0.296434
0.569310 0.213233 0.322153
-0.569310 0.213233 0.322153
-0.539292 0.095063 0.296434
0.110779 0.631883 -0.195407
0.101230 0.561269 -0.251593
0.000000 0.591629 -0.258946
0.000000 0.659554 -0.198617
-0.101230 0.561269 -0.251593
-0.110779 0.631883 -0.195407
0.093691 0.518327 -0.304460
0.000000 0.551021 -0.313149
-0.093691 0.518327 -0.304460
0.529925 0.600878 0.246627
0.524376 0.452941 0.157169
0.488055 0.439124 0.023186
0.478142 0.554599 0.040507
-0.488055 0.439124 0.023186
-0.524376 0.452941 0.157169
-0.529925 0.600878 0.246627
-0.478142 0.554599 0.040507
0.432069 0.666237 0.047252
0.472979 0.716830 0.299224
-0.472979 0.716830 0.299224
-0.432069 0.666237 0.047252
0.317684 0.412472 -0.215834
0.352835 0.345578 -0.204365
0.331388 0.308345 -0.271898
0.299065 0.366852 -0.275911
-0.331388 0.308345 -0.271898
-0.352835 0.345578 -0.204365
-0.317684 0.412472 -0.215834
-0.299065 0.366852 -0.275911
0.371437 0.268410 -0.198715
0.348362 0.244301 -0.271463
-0.348362 0.244301 -0.271463
-0.371437 0.268410 -0.198715
0.387103 0.402387 -0.143366
0.412178 0.312706 -0.136149
-0.387103 0.402387 -0.143366
-0.412178 0.312706 -0.136149
0.348230 0.479422 -0.158180
-0.348230 0.479422 -0.158180
0.123619 0.740563 -0.098023
0.000000 0.760915 -0.093953
-0.123619 0.740563 -0.098023
0.429802 0.478568 -0.064823
0.446807 0.376685 -0.065376
-0.446807 0.376685 -0.065376
-0.429802 0.478568 -0.064823
0.389480 0.573089 -0.074022
-0.389480 0.573089 -0.074022
0.150526 -0.480055 0.195368
0.145950 -0.493274 0.204761
0.118639 -0.488195 0.156843
0.126093 -0.477057 0.147831
-0.118639 -0.488195 0.156843
-0.145950 -0.493274 0.204761
-0.150526 -0.480055 0.195368
-0.126093 -0.477057 0.147831
0.139422 -0.522378 0.222539
0.104052 -0.524440 0.172776
-0.104052 -0.524440 0.172776
-0.139422 -0.522378 0.222539
0.213683 -0.486906 0.263129
0.214599 -0.496917 0.262285
-0.214599 -0.496917 0.262285
-0.213683 -0.486906 0.263129
0.214026 -0.518139 0.278612
-0.214026 -0.518139 0.278612
0.309918 -0.455224 0.276167
0.313453 -0.457935 0.270203
-0.313453 -0.457935 0.270203
-0.309918 -0.455224 0.276167
0.319103 -0.484567 0.289171
-0.319103 -0.484567 0.289171
0.386287 -0.415984 0.245438
0.383959 -0.424579 0.243074
-0.383959 -0.424579 0.243074
-0.386287 -0.415984 0.245438
0.416852 -0.434226 0.274520
-0.416852 -0.434226 0.274520
0.413004 -0.372176 0.206373
0.417095 -0.373868 0.206530
-0.417095 -0.373868 0.206530
-0.413004 -0.372176 0.206373
0.444257 -0.348078 0.203047
-0.444257 -0.348078 0.203047
0.415687 -0.346048 0.173956
0.426071 -0.336166 0.172161
-0.426071 -0.336166 0.172161
-0.415687 -0.346048 0.173956
0.444422 -0.320153 0.169942
-0.444422 -0.320153 0.169942
0.124850 -0.460301 0.088693
0.114469 -0.483722 0.079977
0.155722 -0.472894 0.056381
0.163249 -0.456900 0.076036
-0.155722 -0.472894 0.056381
-0.114469 -0.483722 0.079977
-0.124850 -0.460301 0.088693
-0.163249 -0.456900 0.076036
0.087407 -0.516245 0.073348
0.145770 -0.499722 0.032956
-0.145770 -0.499722 0.032956
-0.087407 -0.516245 0.073348
0.118405 -0.478819 0.122889
0.106972 -0.483368 0.120602
-0.106972 -0.483368 0.120602
-0.118405 -0.478819 0.122889
0.210190 -0.465850 0.023018
0.216640 -0.452135 0.047753
-0.210190 -0.465850 0.023018
-0.216640 -0.452135 0.047753
0.199597 -0.490792 -0.007303
-0.199597 -0.490792 -0.007303
0.264167 -0.450869 -0.000387
0.270251 -0.435709 0.034660
-0.264167 -0.450869 -0.000387
-0.270251 -0.435709 0.034660
0.259617 -0.474185 -0.047547
-0.259617 -0.474185 -0.047547
0.321518 -0.408806 0.041515
0.318726 -0.422835 -0.004052
0.372347 -0.385543 0.016143
0.364264 -0.382165 0.062175
-0.372347 -0.385543 0.016143
-0.318726 -0.422835 -0.004052
-0.321518 -0.408806 0.041515
-0.364264 -0.382165 0.062175
0.331661 -0.445509 -0.071811
0.392791 -0.388254 -0.056377
-0.392791 -0.388254 -0.056377
-0.331661 -0.445509 -0.071811
0.412137 -0.344767 0.140868
0.426216 -0.332322 0.127960
-0.426216 -0.332322 0.127960
-0.412137 -0.344767 0.140868
0.445338 -0.313588 0.112518
-0.445338 -0.313588 0.112518
0.396848 -0.357690 0.097559
0.414488 -0.350208 0.064961
-0.414488 -0.350208 0.064961
-0.396848 -0.357690 0.097559
0.444676 -0.335950 0.024291
-0.444676 -0.335950 0.024291
0.157263 -0.484470 0.186241
0.137324 -0.473371 0.140171
-0.157263 -0.484470 0.186241
-0.137324 -0.473371 0.140171
0.216981 -0.497435 0.250729
-0.216981 -0.497435 0.250729
0.313755 -0.470732 0.259220
-0.313755 -0.470732 0.259220
0.384039 -0.425202 0.227363
-0.384039 -0.425202 0.227363
0.403837 -0.378234 0.196717
-0.403837 -0.378234 0.196717
0.405567 -0.359191 0.172184
-0.405567 -0.359191 0.172184
0.135568 -0.463862 0.108188
0.171417 -0.455994 0.094182
-0.135568 -0.463862 0.108188
-0.171417 -0.455994 0.094182
0.132681 -0.473108 0.122441
-0.132681 -0.473108 0.122441
0.224261 -0.454443 0.075536
-0.224261 -0.454443 0.075536
0.279678 -0.439931 0.067457
-0.279678 -0.439931 0.067457
0.330379 -0.412814 0.076858
0.369182 -0.386831 0.096840
-0.330379 -0.412814 0.076858
-0.369182 -0.386831 0.096840
0.403634 -0.353831 0.151641
-0.403634 -0.353831 0.151641
0.392919 -0.366479 0.124391
-0.392919 -0.366479 0.124391
0.180172 -0.445485 0.187069
0.140194 -0.369584 0.202065
0.201621 -0.402876 0.270853
0.225952 -0.450696 0.233565
-0.201621 -0.402876 0.270853
-0.140194 -0.369584 0.202065
-0.180172 -0.445485 0.187069
-0.225952 -0.450696 0.233565
0.300121 -0.402221 0.285323
0.307110 -0.442853 0.223642
-0.300121 -0.402221 0.285323
-0.307110 -0.442853 0.223642
0.364086 -0.376472 0.266091
0.362124 -0.399853 0.198200
-0.364086 -0.376472 0.266091
-0.362124 -0.399853 0.198200
0.391690 -0.314930 0.219872
0.379359 -0.375446 0.175706
-0.391690 -0.314930 0.219872
-0.379359 -0.375446 0.175706
0.393797 -0.299449 0.200212
0.379926 -0.364901 0.169861
-0.393797 -0.299449 0.200212
-0.379926 -0.364901 0.169861
0.235728 -0.450970 0.139433
0.225702 -0.352947 0.051929
0.161250 -0.354612 0.092205
0.174431 -0.428908 0.130315
-0.161250 -0.354612 0.092205
-0.225702 -0.352947 0.051929
-0.235728 -0.450970 0.139433
-0.174431 -0.428908 0.130315
0.366201 -0.388466 0.155303
0.367534 -0.262934 0.102602
0.337220 -0.291969 0.057167
0.334425 -0.425876 0.142720
-0.337220 -0.291969 0.057167
-0.367534 -0.262934 0.102602
-0.366201 -0.388466 0.155303
-0.334425 -0.425876 0.142720
0.270831 -0.340966 0.042070
0.288480 -0.453564 0.138697
-0.270831 -0.340966 0.042070
-0.288480 -0.453564 0.138697
0.391135 -0.287287 0.175531
0.379454 -0.362297 0.167325
-0.391135 -0.287287 0.175531
-0.379454 -0.362297 0.167325
0.389510 -0.281163 0.156701
0.376654 -0.364528 0.162556
-0.389510 -0.281163 0.156701
-0.376654 -0.364528 0.162556
0.163711 -0.463091 0.158107
0.163243 -0.482739 0.169441
0.141126 -0.468122 0.138308
0.143372 -0.460789 0.135835
-0.141126 -0.468122 0.138308
-0.163243 -0.482739 0.169441
-0.163711 -0.463091 0.158107
-0.143372 -0.460789 0.135835
0.221470 -0.498704 0.225845
0.219195 -0.505053 0.235874
-0.219195 -0.505053 0.235874
-0.221470 -0.498704 0.225845
0.318833 -0.468471 0.234667
0.319156 -0.481250 0.243010
-0.319156 -0.481250 0.243010
-0.318833 -0.468471 0.234667
0.378782 -0.425745 0.201711
0.382534 -0.429809 0.210355
-0.382534 -0.429809 0.210355
-0.378782 -0.425745 0.201711
0.390802 -0.388020 0.177876
0.395811 -0.384921 0.184261
-0.395811 -0.384921 0.184261
-0.390802 -0.388020 0.177876
0.390867 -0.381118 0.167105
0.396754 -0.372545 0.168527
-0.396754 -0.372545 0.168527
-0.390867 -0.381118 0.167105
0.141589 -0.453438 0.116601
0.141213 -0.461398 0.112287
0.175884 -0.454249 0.115683
0.173894 -0.452103 0.126034
-0.175884 -0.454249 0.115683
-0.141213 -0.461398 0.112287
-0.141589 -0.453438 0.116601
-0.173894 -0.452103 0.126034
0.140128 -0.458022 0.123584
0.138433 -0.467949 0.122479
-0.138433 -0.467949 0.122479
-0.140128 -0.458022 0.123584
0.228379 -0.461533 0.114897
0.230990 -0.471286 0.127088
-0.228379 -0.461533 0.114897
-0.230990 -0.471286 0.127088
0.289165 -0.456371 0.107654
0.291064 -0.465510 0.120317
-0.289165 -0.456371 0.107654
-0.291064 -0.465510 0.120317
0.343445 -0.435454 0.126569
0.343816 -0.427290 0.116412
0.377477 -0.392422 0.134534
0.377551 -0.400129 0.142303
-0.377477 -0.392422 0.134534
-0.343816 -0.427290 0.116412
-0.343445 -0.435454 0.126569
-0.377551 -0.400129 0.142303
0.395172 -0.367195 0.158352
-0.395172 -0.367195 0.158352
0.387689 -0.384481 0.154205
0.389770 -0.374183 0.150493
0.389740 -0.381796 0.161522
-0.389770 -0.374183 0.150493
-0.387689 -0.384481 0.154205
-0.389740 -0.381796 0.161522
0.139320 -0.455379 0.142274
0.157316 -0.452207 0.160566
-0.157316 -0.452207 0.160566
-0.139320 -0.455379 0.142274
0.227188 -0.470351 0.221798
-0.227188 -0.470351 0.221798
0.312772 -0.454015 0.226019
-0.312772 -0.454015 0.226019
0.369122 -0.411022 0.198197
-0.369122 -0.411022 0.198197
0.382340 -0.380714 0.174213
-0.382340 -0.380714 0.174213
0.383937 -0.375245 0.168578
-0.383937 -0.375245 0.168578
0.171102 -0.444353 0.131095
0.141376 -0.439433 0.115013
-0.141376 -0.439433 0.115013
-0.171102 -0.444353 0.131095
0.133963 -0.452422 0.123117
-0.133963 -0.452422 0.123117
0.233924 -0.456009 0.133759
-0.233924 -0.456009 0.133759
0.370513 -0.396022 0.151454
0.338476 -0.429771 0.137111
-0.338476 -0.429771 0.137111
-0.370513 -0.396022 0.151454
0.288597 -0.460133 0.132009
-0.288597 -0.460133 0.132009
0.383118 -0.374339 0.165820
-0.383118 -0.374339 0.165820
0.380039 -0.378129 0.160187
-0.380039 -0.378129 0.160187
0.000000 0.421860 1.083125
0.197579 0.432064 1.058576
-0.197579 0.432064 1.058576
0.337822 0.432031 0.989568
-0.337822 0.432031 0.989568
0.444999 0.432271 0.897160
-0.444999 0.432271 0.897160
0.526303 0.427757 0.755853
-0.526303 0.427757 0.755853
0.569151 0.387015 0.558423
-0.569151 0.387015 0.558423
0.567497 0.326970 0.321932
-0.567497 0.326970 0.321932
0.417047 0.706118 0.695773
0.496699 0.641475 0.574261
-0.417047 0.706118 0.695773
-0.496699 0.641475 0.574261
0.318598 0.739854 0.769693
-0.318598 0.739854 0.769693
0.552548 0.540221 0.449695
-0.552548 0.540221 0.449695
0.548548 0.413719 0.267372
-0.548548 0.413719 0.267372
0.301496 0.869498 0.375191
0.268630 0.811151 0.048303
-0.268630 0.811151 0.048303
-0.301496 0.869498 0.375191
0.193505 0.518179 -0.241360
0.211362 0.589508 -0.185243
-0.193505 0.518179 -0.241360
-0.211362 0.589508 -0.185243
0.181114 0.471398 -0.293503
-0.181114 0.471398 -0.293503
0.235253 0.701933 -0.094326
-0.235253 0.701933 -0.094326
0.397204 0.818470 0.348888
0.365649 0.756039 0.044076
-0.365649 0.756039 0.044076
-0.397204 0.818470 0.348888
0.249470 0.421177 -0.283123
0.264705 0.470415 -0.229552
-0.264705 0.470415 -0.229552
-0.249470 0.421177 -0.283123
0.289784 0.541413 -0.172957
-0.289784 0.541413 -0.172957
0.323546 0.648680 -0.086115
-0.323546 0.648680 -0.086115
0.090207 -0.628195 -0.150300
0.068982 -0.676745 -0.144500
0.055217 -0.660136 -0.151065
0.074676 -0.623173 -0.155558
-0.055217 -0.660136 -0.151065
-0.068982 -0.676745 -0.144500
-0.090207 -0.628195 -0.150300
-0.074676 -0.623173 -0.155558
0.055470 -0.650928 -0.132973
0.071863 -0.616895 -0.138107
-0.055470 -0.650928 -0.132973
-0.071863 -0.616895 -0.138107
0.083486 -0.669673 -0.112156
0.101094 -0.621102 -0.122584
0.095738 -0.608331 -0.078032
0.075748 -0.658495 -0.089634
-0.095738 -0.608331 -0.078032
-0.101094 -0.621102 -0.122584
-0.083486 -0.669673 -0.112156
-0.075748 -0.658495 -0.089634
0.062088 -0.600349 -0.175688
0.070372 -0.585584 -0.187426
-0.062088 -0.600349 -0.175688
-0.070372 -0.585584 -0.187426
0.064871 -0.593610 -0.163606
-0.064871 -0.593610 -0.163606
0.108537 -0.565346 -0.184620
0.126692 -0.546581 -0.148329
-0.108537 -0.565346 -0.184620
-0.126692 -0.546581 -0.148329
0.073555 -0.605763 -0.170939
0.101010 -0.594760 -0.167781
-0.101010 -0.594760 -0.167781
-0.073555 -0.605763 -0.170939
0.073520 -0.602173 -0.149205
-0.073520 -0.602173 -0.149205
0.128790 -0.572985 -0.152503
0.117039 -0.566746 -0.102003
-0.117039 -0.566746 -0.102003
-0.128790 -0.572985 -0.152503
0.080994 -0.582193 -0.203500
-0.080994 -0.582193 -0.203500
0.000000 -0.607676 -0.220131
0.030324 -0.617499 -0.214386
-0.030324 -0.617499 -0.214386
0.057418 -0.603272 -0.210367
-0.057418 -0.603272 -0.210367
0.000000 -0.601682 -0.260068
0.037836 -0.622949 -0.243645
-0.037836 -0.622949 -0.243645
0.000000 -0.628169 -0.281531
0.038507 -0.633058 -0.272347
-0.038507 -0.633058 -0.272347
0.072484 -0.602879 -0.248963
-0.072484 -0.602879 -0.248963
0.078691 -0.608712 -0.279674
-0.078691 -0.608712 -0.279674
0.127615 -0.534208 -0.406332
0.135215 -0.496577 -0.434361
0.161840 -0.492094 -0.405689
0.148648 -0.517735 -0.378749
-0.161840 -0.492094 -0.405689
-0.135215 -0.496577 -0.434361
-0.127615 -0.534208 -0.406332
-0.148648 -0.517735 -0.378749
0.102652 -0.549058 -0.418537
0.100481 -0.512701 -0.457855
-0.100481 -0.512701 -0.457855
-0.102652 -0.549058 -0.418537
0.068985 -0.566936 -0.429142
0.055133 -0.538108 -0.464487
-0.055133 -0.538108 -0.464487
-0.068985 -0.566936 -0.429142
0.000000 -0.586217 -0.438672
0.000000 -0.548819 -0.466169
0.179421 -0.492247 -0.384334
0.165302 -0.501107 -0.367073
-0.179421 -0.492247 -0.384334
-0.165302 -0.501107 -0.367073
0.188694 -0.497900 -0.366891
0.170724 -0.502587 -0.359528
-0.188694 -0.497900 -0.366891
-0.170724 -0.502587 -0.359528
0.131672 -0.542567 -0.333863
0.141832 -0.547706 -0.289259
0.102848 -0.579085 -0.264544
0.106349 -0.573467 -0.309716
-0.102848 -0.579085 -0.264544
-0.141832 -0.547706 -0.289259
-0.131672 -0.542567 -0.333863
-0.106349 -0.573467 -0.309716
0.024622 -0.661840 -0.132528
-0.024622 -0.661840 -0.132528
0.082057 -0.523702 0.128032
-0.082057 -0.523702 0.128032
0.000000 -0.663485 -0.187811
0.033777 -0.653889 -0.168202
-0.033777 -0.653889 -0.168202
0.015005 -0.638221 -0.133319
-0.015005 -0.638221 -0.133319
0.098706 -0.569717 -0.403192
0.067451 -0.594777 -0.416215
-0.098706 -0.569717 -0.403192
-0.067451 -0.594777 -0.416215
0.158118 -0.500089 -0.358011
0.142228 -0.517208 -0.371516
-0.158118 -0.500089 -0.358011
-0.142228 -0.517208 -0.371516
0.120398 -0.542783 -0.393414
-0.120398 -0.542783 -0.393414
0.000000 -0.607437 -0.421860
0.040070 -0.632519 -0.290245
0.079176 -0.608783 -0.296483
-0.040070 -0.632519 -0.290245
-0.079176 -0.608783 -0.296483
0.000000 -0.633896 -0.296942
0.164728 -0.495431 -0.355333
-0.164728 -0.495431 -0.355333
0.105148 -0.573977 -0.318698
0.131153 -0.539003 -0.341626
-0.105148 -0.573977 -0.318698
-0.131153 -0.539003 -0.341626
0.126243 -0.562953 0.253605
0.088989 -0.560078 0.208582
-0.088989 -0.560078 0.208582
-0.126243 -0.562953 0.253605
0.213280 -0.559848 0.315417
-0.213280 -0.559848 0.315417
0.208179 -0.565445 0.387248
-0.208179 -0.565445 0.387248
0.329273 -0.514263 0.337078
-0.329273 -0.514263 0.337078
0.325363 -0.505331 0.406785
-0.325363 -0.505331 0.406785
0.453135 -0.414706 0.330710
-0.453135 -0.414706 0.330710
0.462953 -0.397084 0.372092
-0.462953 -0.397084 0.372092
0.486234 -0.320272 0.219054
-0.486234 -0.320272 0.219054
0.514754 -0.274507 0.263242
-0.514754 -0.274507 0.263242
0.470608 -0.286895 0.163724
-0.470608 -0.286895 0.163724
0.499000 -0.238893 0.161722
-0.499000 -0.238893 0.161722
0.097636 -0.545197 0.031830
0.137952 -0.531605 -0.004513
-0.137952 -0.531605 -0.004513
-0.097636 -0.545197 0.031830
0.187758 -0.520701 -0.051693
-0.187758 -0.520701 -0.051693
0.247195 -0.499188 -0.094700
-0.247195 -0.499188 -0.094700
0.327791 -0.469011 -0.134243
-0.327791 -0.469011 -0.134243
0.472531 -0.281073 0.109906
-0.472531 -0.281073 0.109906
0.494228 -0.225751 0.098958
-0.494228 -0.225751 0.098958
0.475923 -0.302239 -0.014560
-0.475923 -0.302239 -0.014560
0.065418 -0.567382 0.160704
-0.065418 -0.567382 0.160704
0.488588 -0.234199 -0.031812
-0.488588 -0.234199 -0.031812
0.091047 -0.573219 -0.004304
0.125804 -0.551153 -0.040820
-0.125804 -0.551153 -0.040820
-0.091047 -0.573219 -0.004304
0.173400 -0.535085 -0.087076
-0.173400 -0.535085 -0.087076
0.223179 -0.520478 -0.132908
-0.223179 -0.520478 -0.132908
0.298443 -0.492071 -0.185253
-0.298443 -0.492071 -0.185253
0.143179 -0.551357 -0.240655
-0.143179 -0.551357 -0.240655
0.128472 -0.448355 0.804916
0.000000 -0.471279 0.804655
-0.128472 -0.448355 0.804916
0.388476 -0.317967 0.709621
0.496235 -0.192132 0.593563
-0.496235 -0.192132 0.593563
-0.388476 -0.317967 0.709621
0.261249 -0.409635 0.794790
-0.261249 -0.409635 0.794790
0.551864 -0.070511 0.416468
-0.551864 -0.070511 0.416468
0.536823 -0.000201 0.240104
-0.536823 -0.000201 0.240104
0.096365 -0.575795 -0.366870
0.063861 -0.597795 -0.366585
-0.063861 -0.597795 -0.366585
-0.096365 -0.575795 -0.366870
0.067749 -0.549008 -0.340220
0.042278 -0.560639 -0.340896
-0.042278 -0.560639 -0.340896
-0.067749 -0.549008 -0.340220
0.156338 -0.492083 -0.353029
0.134586 -0.525399 -0.358653
-0.134586 -0.525399 -0.358653
-0.156338 -0.492083 -0.353029
0.156195 -0.483996 -0.348054
0.123371 -0.519032 -0.349789
-0.123371 -0.519032 -0.349789
-0.156195 -0.483996 -0.348054
0.116348 -0.548940 -0.363617
-0.116348 -0.548940 -0.363617
0.096593 -0.536639 -0.344141
-0.096593 -0.536639 -0.344141
0.000000 -0.616936 -0.375896
0.000000 -0.571008 -0.339996
0.037750 -0.599632 -0.337632
0.075188 -0.576910 -0.337939
-0.075188 -0.576910 -0.337939
-0.037750 -0.599632 -0.337632
0.033742 -0.564903 -0.355924
0.070623 -0.548173 -0.350820
-0.070623 -0.548173 -0.350820
-0.033742 -0.564903 -0.355924
0.000000 -0.616893 -0.344592
0.000000 -0.567913 -0.360950
0.164714 -0.479743 -0.354589
-0.164714 -0.479743 -0.354589
0.102303 -0.555857 -0.338953
0.126498 -0.529844 -0.352027
-0.126498 -0.529844 -0.352027
-0.102303 -0.555857 -0.338953
0.096186 -0.534832 -0.352558
0.122732 -0.513556 -0.355678
-0.122732 -0.513556 -0.355678
-0.096186 -0.534832 -0.352558
0.112789 -0.563628 -0.091389
0.091129 -0.599613 -0.069790
-0.112789 -0.563628 -0.091389
-0.091129 -0.599613 -0.069790
0.197452 -0.338536 -0.567275
0.140678 -0.360727 -0.623790
-0.197452 -0.338536 -0.567275
-0.140678 -0.360727 -0.623790
0.246114 -0.335107 -0.510728
0.286317 -0.345946 -0.459512
-0.286317 -0.345946 -0.459512
-0.246114 -0.335107 -0.510728
0.063394 -0.504839 -0.340989
0.039490 -0.515064 -0.341366
-0.039490 -0.515064 -0.341366
-0.063394 -0.504839 -0.340989
0.058644 -0.442700 -0.356760
0.033832 -0.446691 -0.355422
-0.033832 -0.446691 -0.355422
-0.058644 -0.442700 -0.356760
0.166094 -0.451907 -0.355428
0.133415 -0.462373 -0.347860
-0.133415 -0.462373 -0.347860
-0.166094 -0.451907 -0.355428
0.165794 -0.404084 -0.367819
0.135983 -0.415267 -0.365875
-0.135983 -0.415267 -0.365875
-0.165794 -0.404084 -0.367819
0.104768 -0.485460 -0.341693
-0.104768 -0.485460 -0.341693
0.102838 -0.429032 -0.363276
-0.102838 -0.429032 -0.363276
0.000000 -0.519078 -0.344060
0.000000 -0.449438 -0.355940
0.029748 -0.519663 -0.336585
0.063143 -0.507276 -0.336528
-0.063143 -0.507276 -0.336528
-0.029748 -0.519663 -0.336585
0.024920 -0.450929 -0.327585
0.061542 -0.445432 -0.326073
-0.061542 -0.445432 -0.326073
-0.024920 -0.450929 -0.327585
0.000000 -0.522809 -0.336589
0.000000 -0.453856 -0.328838
0.172779 -0.450135 -0.355041
0.170994 -0.401719 -0.361651
-0.170994 -0.401719 -0.361651
-0.172779 -0.450135 -0.355041
0.104348 -0.487880 -0.337379
0.137809 -0.465902 -0.339090
-0.137809 -0.465902 -0.339090
-0.104348 -0.487880 -0.337379
0.106597 -0.434740 -0.330273
0.145898 -0.423637 -0.331328
-0.145898 -0.423637 -0.331328
-0.106597 -0.434740 -0.330273
0.000000 -0.713194 -0.036256
0.046202 -0.695211 -0.046614
-0.046202 -0.695211 -0.046614
0.000000 -0.685288 -0.000017
0.049436 -0.668526 -0.008027
-0.049436 -0.668526 -0.008027
0.085104 -0.588956 -0.042564
0.119722 -0.560358 -0.072207
-0.119722 -0.560358 -0.072207
-0.085104 -0.588956 -0.042564
0.196274 -0.533072 -0.161479
0.154803 -0.541423 -0.117949
-0.154803 -0.541423 -0.117949
-0.196274 -0.533072 -0.161479
0.071483 -0.641711 -0.063785
0.062860 -0.633028 -0.022699
-0.062860 -0.633028 -0.022699
-0.071483 -0.641711 -0.063785
0.000000 -0.670453 0.042389
0.048945 -0.654805 0.033594
-0.048945 -0.654805 0.033594
0.073702 -0.612002 0.016771
-0.073702 -0.612002 0.016771
0.313146 -0.372639 -0.409090
-0.313146 -0.372639 -0.409090
0.188875 -0.526233 -0.287730
0.210663 -0.522136 -0.260735
-0.210663 -0.522136 -0.260735
-0.188875 -0.526233 -0.287730
0.213351 -0.508080 -0.322808
0.245479 -0.496752 -0.309156
-0.245479 -0.496752 -0.309156
-0.213351 -0.508080 -0.322808
0.232928 -0.515862 -0.241278
-0.232928 -0.515862 -0.241278
0.276302 -0.481796 -0.302952
-0.276302 -0.481796 -0.302952
0.181088 -0.514826 -0.334531
0.167873 -0.525118 -0.319430
0.151278 -0.520315 -0.343118
0.165673 -0.510868 -0.345763
-0.151278 -0.520315 -0.343118
-0.167873 -0.525118 -0.319430
-0.181088 -0.514826 -0.334531
-0.165673 -0.510868 -0.345763
0.151302 -0.516546 -0.349176
0.163653 -0.497801 -0.351503
-0.151302 -0.516546 -0.349176
-0.163653 -0.497801 -0.351503
0.145935 -0.505667 -0.353679
-0.145935 -0.505667 -0.353679
0.164971 -0.480733 -0.353356
-0.164971 -0.480733 -0.353356
0.145693 -0.495765 -0.351016
-0.145693 -0.495765 -0.351016
0.155215 -0.458910 -0.344024
-0.155215 -0.458910 -0.344024
0.174325 -0.452029 -0.349138
0.167201 -0.470930 -0.352772
-0.167201 -0.470930 -0.352772
-0.174325 -0.452029 -0.349138
0.160334 -0.415373 -0.334439
-0.160334 -0.415373 -0.334439
0.174527 -0.408040 -0.342444
-0.174527 -0.408040 -0.342444
0.317848 -0.457712 -0.291787
0.260483 -0.506380 -0.220356
-0.260483 -0.506380 -0.220356
-0.317848 -0.457712 -0.291787
0.000000 -0.426411 -0.654655
0.081275 -0.383367 -0.650046
-0.081275 -0.383367 -0.650046
0.314189 -0.268715 -0.453213
0.351205 -0.293041 -0.397179
-0.351205 -0.293041 -0.397179
-0.314189 -0.268715 -0.453213
0.264606 -0.268353 -0.510084
-0.264606 -0.268353 -0.510084
0.000000 -0.057717 -0.685480
0.095757 -0.032904 -0.663860
0.093039 -0.051823 -0.629092
0.000000 -0.065910 -0.649344
-0.093039 -0.051823 -0.629092
-0.095757 -0.032904 -0.663860
0.000000 -0.339494 -0.655515
0.072691 -0.320926 -0.644547
-0.072691 -0.320926 -0.644547
0.138932 -0.297561 -0.618309
-0.138932 -0.297561 -0.618309
0.171804 -0.020404 -0.594782
0.177301 -0.051687 -0.579793
0.091212 -0.083600 -0.620318
-0.091212 -0.083600 -0.620318
-0.177301 -0.051687 -0.579793
-0.171804 -0.020404 -0.594782
0.000000 -0.095997 -0.640719
0.245202 0.036521 -0.539967
0.256515 0.003559 -0.517927
-0.256515 0.003559 -0.517927
-0.245202 0.036521 -0.539967
0.081455 0.485379 -0.435179
0.078001 0.491761 -0.510659
0.000000 0.522040 -0.511564
0.000000 0.522129 -0.440291
-0.078001 0.491761 -0.510659
-0.081455 0.485379 -0.435179
0.165128 0.431738 -0.429433
0.162009 0.434160 -0.508402
-0.162009 0.434160 -0.508402
-0.165128 0.431738 -0.429433
0.233254 0.370915 -0.430304
0.230414 0.361078 -0.513876
-0.230414 0.361078 -0.513876
-0.233254 0.370915 -0.430304
0.276919 0.310665 -0.440121
0.269382 0.287263 -0.531723
-0.269382 0.287263 -0.531723
-0.276919 0.310665 -0.440121
0.091534 -0.007053 -0.766136
0.000000 -0.026163 -0.778692
-0.091534 -0.007053 -0.766136
0.481852 0.121697 -0.194462
0.545754 0.207501 -0.204530
0.554308 0.194882 -0.171827
0.512004 0.144061 -0.176565
-0.554308 0.194882 -0.171827
-0.545754 0.207501 -0.204530
-0.481852 0.121697 -0.194462
-0.512004 0.144061 -0.176565
0.581146 0.280721 -0.123443
0.565450 0.260760 -0.099378
-0.581146 0.280721 -0.123443
-0.565450 0.260760 -0.099378
0.591244 0.373342 -0.063055
0.556625 0.338181 -0.045694
-0.591244 0.373342 -0.063055
-0.556625 0.338181 -0.045694
0.640736 0.412641 0.012866
0.617334 0.380468 0.028023
-0.640736 0.412641 0.012866
-0.617334 0.380468 0.028023
0.637471 0.337360 0.171889
0.672102 0.370121 0.194633
0.653148 0.296033 0.251897
0.630910 0.293516 0.203313
-0.653148 0.296033 0.251897
-0.672102 0.370121 0.194633
-0.637471 0.337360 0.171889
-0.630910 0.293516 0.203313
0.517618 0.201209 0.042567
0.515420 0.186391 0.030564
0.494651 0.231045 0.000264
0.494206 0.259634 0.011867
-0.494651 0.231045 0.000264
-0.515420 0.186391 0.030564
-0.517618 0.201209 0.042567
-0.494206 0.259634 0.011867
0.498880 0.135965 -0.142612
0.463609 0.099240 -0.130913
-0.498880 0.135965 -0.142612
-0.463609 0.099240 -0.130913
0.530114 0.252912 -0.076862
0.544546 0.324051 -0.026744
0.524288 0.306066 -0.005569
0.523803 0.243727 -0.052647
-0.524288 0.306066 -0.005569
-0.544546 0.324051 -0.026744
-0.530114 0.252912 -0.076862
-0.523803 0.243727 -0.052647
0.501725 0.282689 0.005907
0.506716 0.241699 -0.032509
-0.501725 0.282689 0.005907
-0.506716 0.241699 -0.032509
0.542626 0.306579 0.048902
0.518280 0.282257 0.040334
-0.542626 0.306579 0.048902
-0.518280 0.282257 0.040334
0.529978 0.251095 0.060909
0.536970 0.267357 0.077778
0.537526 0.229202 0.106055
0.527792 0.202267 0.091314
-0.537526 0.229202 0.106055
-0.536970 0.267357 0.077778
-0.529978 0.251095 0.060909
-0.527792 0.202267 0.091314
0.503470 0.245720 0.057231
0.502024 0.193058 0.084834
-0.503470 0.245720 0.057231
-0.502024 0.193058 0.084834
0.586476 0.300404 0.120835
0.573892 0.271024 0.158161
0.536043 0.260136 0.118782
0.539173 0.282998 0.095751
-0.536043 0.260136 0.118782
-0.573892 0.271024 0.158161
-0.586476 0.300404 0.120835
-0.539173 0.282998 0.095751
0.597744 0.340523 0.032917
0.562794 0.324591 0.046279
-0.562794 0.324591 0.046279
-0.597744 0.340523 0.032917
0.606151 0.363474 0.039570
-0.606151 0.363474 0.039570
0.549677 0.202876 -0.134574
0.534252 0.169644 -0.159822
-0.534252 0.169644 -0.159822
-0.549677 0.202876 -0.134574
0.535516 0.201489 -0.115359
0.525470 0.167314 -0.139330
-0.525470 0.167314 -0.139330
-0.535516 0.201489 -0.115359
0.541732 0.252699 -0.077439
-0.541732 0.252699 -0.077439
0.531302 0.327211 -0.038006
-0.531302 0.327211 -0.038006
0.602630 0.392280 0.026399
-0.602630 0.392280 0.026399
0.607266 0.295631 0.205657
0.620248 0.342140 0.176835
-0.620248 0.342140 0.176835
-0.607266 0.295631 0.205657
0.495710 0.256828 0.032530
0.500433 0.215450 0.047548
-0.500433 0.215450 0.047548
-0.495710 0.256828 0.032530
0.503386 0.270192 0.036667
-0.503386 0.270192 0.036667
0.518740 0.196679 -0.069764
0.530759 0.200459 -0.088835
-0.518740 0.196679 -0.069764
-0.530759 0.200459 -0.088835
0.511602 0.161187 -0.091480
0.515233 0.167829 -0.112980
-0.511602 0.161187 -0.091480
-0.515233 0.167829 -0.112980
0.421383 0.103482 -0.194491
0.472064 0.199565 -0.209785
-0.421383 0.103482 -0.194491
-0.472064 0.199565 -0.209785
0.545558 0.293163 -0.132085
-0.545558 0.293163 -0.132085
0.552237 0.384967 -0.051311
-0.552237 0.384967 -0.051311
0.604349 0.423912 0.023406
-0.604349 0.423912 0.023406
0.618013 0.380312 0.208958
0.608156 0.301276 0.256515
-0.618013 0.380312 0.208958
-0.608156 0.301276 0.256515
0.527553 0.152924 0.061591
0.526610 0.182291 0.067391
-0.527553 0.152924 0.061591
-0.526610 0.182291 0.067391
0.501651 0.188343 0.071577
-0.501651 0.188343 0.071577
0.524126 0.145301 0.005704
0.523171 0.122852 0.026525
0.523693 0.113087 0.000255
0.524933 0.139442 -0.019267
-0.523693 0.113087 0.000255
-0.523171 0.122852 0.026525
-0.524126 0.145301 0.005704
-0.524933 0.139442 -0.019267
0.510294 0.118715 -0.025020
0.501478 0.129190 -0.035122
-0.510294 0.118715 -0.025020
-0.501478 0.129190 -0.035122
0.498320 0.109133 -0.054934
0.496840 0.134783 -0.084007
-0.498320 0.109133 -0.054934
-0.496840 0.134783 -0.084007
0.496070 0.131107 -0.109702
-0.496070 0.131107 -0.109702
0.516563 0.150723 0.024004
0.502481 0.149529 0.005531
0.497760 0.154263 0.019491
-0.502481 0.149529 0.005531
-0.516563 0.150723 0.024004
-0.497760 0.154263 0.019491
0.502290 0.158118 -0.020041
-0.502290 0.158118 -0.020041
0.479141 0.132093 -0.041148
-0.479141 0.132093 -0.041148
0.482198 0.144297 -0.076594
-0.482198 0.144297 -0.076594
0.484960 0.138989 0.013251
0.485906 0.144367 0.028900
-0.484960 0.138989 0.013251
-0.485906 0.144367 0.028900
0.479978 0.141478 -0.013048
-0.479978 0.141478 -0.013048
0.465172 0.127705 -0.044536
-0.465172 0.127705 -0.044536
0.456077 0.151854 -0.087993
-0.456077 0.151854 -0.087993
0.492449 0.242863 -0.018673
0.494879 0.270824 0.009292
-0.494879 0.270824 0.009292
-0.492449 0.242863 -0.018673
0.488382 0.197470 -0.067929
-0.488382 0.197470 -0.067929
0.488229 0.215234 0.000724
0.489163 0.219313 -0.021978
-0.488229 0.215234 0.000724
-0.489163 0.219313 -0.021978
0.487934 0.166355 -0.079152
-0.487934 0.166355 -0.079152
0.468427 0.197944 -0.019910
0.480189 0.196261 -0.050927
-0.468427 0.197944 -0.019910
-0.480189 0.196261 -0.050927
0.461887 0.170760 -0.066371
-0.461887 0.170760 -0.066371
0.474012 0.176568 -0.035466
-0.474012 0.176568 -0.035466
0.525008 0.139571 0.050092
0.513414 0.165268 0.031594
-0.513414 0.165268 0.031594
-0.525008 0.139571 0.050092
0.496398 0.167729 0.024811
-0.496398 0.167729 0.024811
0.478642 0.170498 0.003922
-0.478642 0.170498 0.003922
0.460408 0.130469 0.010382
0.463620 0.139691 0.021882
-0.463620 0.139691 0.021882
-0.460408 0.130469 0.010382
0.466094 0.120408 -0.022155
-0.466094 0.120408 -0.022155
0.450031 0.121000 -0.052986
-0.450031 0.121000 -0.052986
0.438946 0.125167 -0.072177
-0.438946 0.125167 -0.072177
0.455738 0.151810 0.017210
-0.455738 0.151810 0.017210
0.421069 0.146076 -0.062443
-0.421069 0.146076 -0.062443
0.435192 0.152280 -0.019653
-0.435192 0.152280 -0.019653
0.672385 0.397721 0.116408
0.646031 0.366246 0.125957
-0.646031 0.366246 0.125957
-0.672385 0.397721 0.116408
0.604071 0.346537 0.107415
0.580774 0.323910 0.080681
-0.580774 0.323910 0.080681
-0.604071 0.346537 0.107415
0.600781 0.337373 0.157517
-0.600781 0.337373 0.157517
0.615795 0.359884 0.129564
-0.615795 0.359884 0.129564
0.610256 0.345138 0.173295
-0.610256 0.345138 0.173295
0.621493 0.361503 0.135502
-0.621493 0.361503 0.135502
0.631621 0.407971 0.138433
-0.631621 0.407971 0.138433
0.571204 0.137002 0.141037
0.539997 0.136159 0.084227
0.540630 0.178450 0.092434
0.567879 0.189954 0.130599
-0.540630 0.178450 0.092434
-0.539997 0.136159 0.084227
-0.571204 0.137002 0.141037
-0.567879 0.189954 0.130599
0.512696 0.169056 0.104411
0.549092 0.199975 0.154184
-0.549092 0.199975 0.154184
-0.512696 0.169056 0.104411
0.612665 0.188460 0.209846
0.605052 0.232653 0.178186
-0.612665 0.188460 0.209846
-0.605052 0.232653 0.178186
0.574708 0.232950 0.185608
-0.574708 0.232950 0.185608
0.571564 0.209524 0.222974
0.534710 0.161506 0.164007
-0.571564 0.209524 0.222974
-0.534710 0.161506 0.164007
0.484826 0.211149 -0.159206
0.525461 0.281413 -0.099011
-0.484826 0.211149 -0.159206
-0.525461 0.281413 -0.099011
0.525795 0.362325 -0.039604
-0.525795 0.362325 -0.039604
0.571622 0.379555 0.042452
-0.571622 0.379555 0.042452
0.591266 0.340637 0.192735
0.572079 0.286576 0.204460
-0.591266 0.340637 0.192735
-0.572079 0.286576 0.204460
0.591441 0.371256 0.128646
-0.591441 0.371256 0.128646
0.497214 0.204766 -0.130885
0.520096 0.266267 -0.085516
-0.497214 0.204766 -0.130885
-0.520096 0.266267 -0.085516
0.507123 0.325962 -0.030705
-0.507123 0.325962 -0.030705
0.553754 0.347878 0.060991
-0.553754 0.347878 0.060991
0.581122 0.340174 0.122026
-0.581122 0.340174 0.122026
0.577406 0.317480 0.158795
-0.577406 0.317480 0.158795
0.461418 0.202562 -0.126525
0.489921 0.259055 -0.087561
-0.461418 0.202562 -0.126525
-0.489921 0.259055 -0.087561
0.495492 0.325275 -0.017134
-0.495492 0.325275 -0.017134
0.534727 0.339316 0.068123
-0.534727 0.339316 0.068123
0.417564 0.209053 -0.122547
0.450046 0.258448 -0.062959
-0.417564 0.209053 -0.122547
-0.450046 0.258448 -0.062959
0.472823 0.307902 0.011226
-0.472823 0.307902 0.011226
0.506255 0.322729 0.078304
-0.506255 0.322729 0.078304
0.524603 0.119688 0.063327
-0.524603 0.119688 0.063327
0.515900 0.107147 0.040940
0.515640 0.100331 0.001525
-0.515640 0.100331 0.001525
-0.515900 0.107147 0.040940
0.523750 0.102477 0.089812
-0.523750 0.102477 0.089812
0.532993 0.114263 0.159635
-0.532993 0.114263 0.159635
0.526042 0.292031 0.128543
-0.526042 0.292031 0.128543
0.501180 0.187735 0.021138
-0.501180 0.187735 0.021138
0.476937 0.193128 0.003412
-0.476937 0.193128 0.003412
0.053007 -0.583122 -0.125608
0.036377 -0.587188 -0.109550
-0.053007 -0.583122 -0.125608
-0.036377 -0.587188 -0.109550
0.059174 -0.631216 -0.097046
0.080124 -0.592784 -0.109291
-0.059174 -0.631216 -0.097046
-0.080124 -0.592784 -0.109291
0.072048 -0.569366 -0.137131
-0.072048 -0.569366 -0.137131
0.080965 -0.574881 -0.122070
-0.080965 -0.574881 -0.122070
0.044054 -0.635486 -0.094277
-0.044054 -0.635486 -0.094277
0.021619 -0.605242 -0.101879
-0.021619 -0.605242 -0.101879
0.157291 -0.408888 0.147838
0.148874 -0.398348 0.177940
0.170909 -0.446784 0.162697
0.167520 -0.438726 0.146651
-0.170909 -0.446784 0.162697
-0.148874 -0.398348 0.177940
-0.157291 -0.408888 0.147838
-0.167520 -0.438726 0.146651
0.144071 -0.451637 0.135787
0.153373 -0.443783 0.151821
-0.153373 -0.443783 0.151821
-0.144071 -0.451637 0.135787
0.142272 -0.452819 0.127401
0.157128 -0.442458 0.133320
-0.157128 -0.442458 0.133320
-0.142272 -0.452819 0.127401
0.160898 -0.380854 0.114590
0.178283 -0.438894 0.138154
-0.178283 -0.438894 0.138154
-0.160898 -0.380854 0.114590
0.142123 -0.440776 0.123596
0.160037 -0.444233 0.126711
-0.160037 -0.444233 0.126711
-0.142123 -0.440776 0.123596
0.131707 0.016819 -0.746266
0.149934 -0.002529 -0.635337
-0.131707 0.016819 -0.746266
-0.149934 -0.002529 -0.635337
0.298616 0.249703 -0.451514
0.277421 0.218399 -0.550166
-0.298616 0.249703 -0.451514
-0.277421 0.218399 -0.550166
0.304072 0.183386 -0.458268
0.265038 0.154904 -0.565793
-0.265038 0.154904 -0.565793
-0.304072 0.183386 -0.458268
0.294944 0.106692 -0.463795
0.236962 0.095186 -0.579601
-0.236962 0.095186 -0.579601
-0.294944 0.106692 -0.463795
0.202884 0.043821 -0.601509
-0.202884 0.043821 -0.601509
0.469585 0.372175 -0.841405
0.402860 0.516785 -0.860734
0.266810 0.506266 -0.806185
0.395939 0.348619 -0.788937
-0.266810 0.506266 -0.806185
-0.402860 0.516785 -0.860734
-0.469585 0.372175 -0.841405
-0.395939 0.348619 -0.788937
0.456559 0.158115 -0.142128
0.434587 0.157887 -0.137473
-0.434587 0.157887 -0.137473
-0.456559 0.158115 -0.142128
0.502917 0.290990 -0.910909
0.429363 0.256187 -0.887364
-0.502917 0.290990 -0.910909
-0.429363 0.256187 -0.887364
0.409730 0.149907 -0.148445
-0.409730 0.149907 -0.148445
0.380724 0.187620 -0.206465
0.356064 0.176323 -0.274115
-0.356064 0.176323 -0.274115
-0.380724 0.187620 -0.206465
0.585903 0.314968 -0.930963
0.563907 0.402937 -0.897807
-0.585903 0.314968 -0.930963
-0.563907 0.402937 -0.897807
0.542138 0.535657 -0.910976
-0.542138 0.535657 -0.910976
0.685693 0.421268 -0.908673
0.684821 0.562525 -0.929293
-0.684821 0.562525 -0.929293
-0.685693 0.421268 -0.908673
0.333195 0.330199 -0.726339
0.229189 0.479409 -0.733434
-0.333195 0.330199 -0.726339
-0.229189 0.479409 -0.733434
0.386093 0.223095 -0.848588
-0.386093 0.223095 -0.848588
0.106479 0.567895 -0.754511
0.125030 0.605112 -0.837367
0.000000 0.623512 -0.852872
0.000000 0.603698 -0.758046
-0.125030 0.605112 -0.837367
-0.106479 0.567895 -0.754511
0.522000 0.230885 -0.947709
0.423857 0.184090 -0.932084
-0.522000 0.230885 -0.947709
-0.423857 0.184090 -0.932084
0.089430 0.501133 -0.581212
0.000000 0.534745 -0.581305
-0.089430 0.501133 -0.581212
0.248398 0.351730 -0.590065
0.177906 0.440360 -0.580511
-0.177906 0.440360 -0.580511
-0.248398 0.351730 -0.590065
0.286341 0.261899 -0.634021
-0.286341 0.261899 -0.634021
0.275135 0.190070 -0.670127
-0.275135 0.190070 -0.670127
0.247417 0.133279 -0.692263
-0.247417 0.133279 -0.692263
0.210838 0.078565 -0.709561
-0.210838 0.078565 -0.709561
0.165651 0.039368 -0.727405
-0.165651 0.039368 -0.727405
0.394695 -0.396786 -0.261317
-0.394695 -0.396786 -0.261317
0.551782 0.324934 0.120448
-0.551782 0.324934 0.120448
0.549495 0.303420 0.146375
-0.549495 0.303420 0.146375
0.551589 0.314632 0.074794
-0.551589 0.314632 0.074794
0.549071 0.231695 0.155991
0.539312 0.221494 0.133734
-0.549071 0.231695 0.155991
-0.539312 0.221494 0.133734
0.535048 0.197996 0.127475
0.517708 0.181770 0.112205
-0.535048 0.197996 0.127475
-0.517708 0.181770 0.112205
0.574118 0.250983 0.180570
-0.574118 0.250983 0.180570
0.593987 0.298223 0.197210
-0.593987 0.298223 0.197210
0.586288 0.297725 0.187378
-0.586288 0.297725 0.187378
0.556521 0.219472 0.192707
-0.556521 0.219472 0.192707
0.542982 0.189644 0.164873
-0.542982 0.189644 0.164873
0.562970 0.284789 0.181233
-0.562970 0.284789 0.181233
0.546924 0.282762 0.155687
-0.546924 0.282762 0.155687
0.552732 0.240655 0.179990
-0.552732 0.240655 0.179990
0.537435 0.250226 0.162568
-0.537435 0.250226 0.162568
0.526899 0.269795 0.143423
0.533892 0.195676 0.171300
-0.533892 0.195676 0.171300
-0.526899 0.269795 0.143423
0.420234 0.126128 -0.160548
-0.420234 0.126128 -0.160548
0.391323 0.112173 -0.213504
-0.391323 0.112173 -0.213504
0.447386 0.071916 -0.117528
-0.447386 0.071916 -0.117528
0.410627 0.103456 -0.167275
-0.410627 0.103456 -0.167275
0.480725 0.100535 -0.076944
-0.480725 0.100535 -0.076944
0.498491 0.068278 -0.013888
-0.498491 0.068278 -0.013888
0.172923 -0.103557 -0.579060
0.088460 -0.130793 -0.623802
-0.088460 -0.130793 -0.623802
-0.172923 -0.103557 -0.579060
0.163721 -0.157916 -0.591602
0.083194 -0.182422 -0.636015
-0.083194 -0.182422 -0.636015
-0.163721 -0.157916 -0.591602
0.000000 -0.142752 -0.643095
0.000000 -0.194027 -0.653025
0.252789 -0.050466 -0.519582
-0.252789 -0.050466 -0.519582
0.000000 -0.621249 0.148473
0.039007 -0.611101 0.138191
-0.039007 -0.611101 0.138191
0.062392 -0.578771 0.106815
-0.062392 -0.578771 0.106815
0.042303 -0.637260 0.078198
0.000000 -0.650909 0.090566
-0.042303 -0.637260 0.078198
0.069749 -0.590011 0.051300
-0.069749 -0.590011 0.051300
0.257178 -0.475577 -0.352399
0.222556 -0.493218 -0.350731
-0.222556 -0.493218 -0.350731
-0.257178 -0.475577 -0.352399
0.288332 -0.450731 -0.356006
-0.288332 -0.450731 -0.356006
0.187573 -0.505699 -0.351340
0.171896 -0.504725 -0.352816
-0.171896 -0.504725 -0.352816
-0.187573 -0.505699 -0.351340
0.165545 -0.495362 -0.353449
-0.165545 -0.495362 -0.353449
0.165130 -0.479927 -0.353999
-0.165130 -0.479927 -0.353999
0.177936 -0.403711 -0.352212
0.178550 -0.450977 -0.352502
-0.178550 -0.450977 -0.352502
-0.177936 -0.403711 -0.352212
0.321978 -0.410539 -0.354172
-0.321978 -0.410539 -0.354172
0.376479 -0.341191 -0.337254
-0.376479 -0.341191 -0.337254
0.426354 -0.372022 -0.154108
0.459000 -0.264636 -0.166061
-0.459000 -0.264636 -0.166061
-0.426354 -0.372022 -0.154108
0.370082 0.109324 -0.280644
-0.370082 0.109324 -0.280644
0.087504 0.491814 -0.364600
0.000000 0.528085 -0.372845
-0.087504 0.491814 -0.364600
0.316137 0.278586 -0.351179
0.328916 0.218987 -0.353378
-0.328916 0.218987 -0.353378
-0.316137 0.278586 -0.351179
0.287722 0.334800 -0.349170
-0.287722 0.334800 -0.349170
0.172454 0.441246 -0.354389
-0.172454 0.441246 -0.354389
0.240789 0.388216 -0.348654
-0.240789 0.388216 -0.348654
0.332290 0.156091 -0.353108
-0.332290 0.156091 -0.353108
0.205331 -0.281228 -0.566244
-0.205331 -0.281228 -0.566244
0.305181 0.062253 -0.434950
-0.305181 0.062253 -0.434950
0.342010 0.099103 -0.351993
-0.342010 0.099103 -0.351993
0.309205 0.004870 -0.441703
-0.309205 0.004870 -0.441703
0.244776 -0.110732 -0.530358
-0.244776 -0.110732 -0.530358
0.312919 -0.057192 -0.456954
-0.312919 -0.057192 -0.456954
0.379664 0.045111 -0.299760
0.349449 0.036820 -0.366684
-0.349449 0.036820 -0.366684
-0.379664 0.045111 -0.299760
0.352731 -0.034140 -0.388156
-0.352731 -0.034140 -0.388156
0.383925 -0.029768 -0.324566
-0.383925 -0.029768 -0.324566
0.400954 0.041121 -0.238552
0.406932 -0.037832 -0.262648
-0.406932 -0.037832 -0.262648
-0.400954 0.041121 -0.238552
0.275684 0.340686 -0.644863
0.199318 0.462796 -0.651552
-0.199318 0.462796 -0.651552
-0.275684 0.340686 -0.644863
0.330494 0.227775 -0.754286
-0.330494 0.227775 -0.754286
0.285820 0.161668 -0.798861
-0.285820 0.161668 -0.798861
0.324105 0.132778 -0.922910
-0.324105 0.132778 -0.922910
0.093591 0.518954 -0.658344
0.000000 0.551481 -0.653726
-0.093591 0.518954 -0.658344
0.115651 0.011016 -0.934278
0.143666 0.021865 -0.840654
0.103339 0.011656 -0.853938
0.080611 0.005057 -0.949642
-0.103339 0.011656 -0.853938
-0.143666 0.021865 -0.840654
-0.115651 0.011016 -0.934278
-0.080611 0.005057 -0.949642
0.159562 0.018527 -0.921888
0.187447 0.043743 -0.831284
-0.187447 0.043743 -0.831284
-0.159562 0.018527 -0.921888
0.220105 0.062420 -0.906506
0.234545 0.085289 -0.820959
-0.234545 0.085289 -0.820959
-0.220105 0.062420 -0.906506
0.049305 -0.000564 -0.962984
0.067670 -0.000459 -0.865775
0.000000 -0.013280 -0.871138
0.000000 -0.005986 -0.971790
-0.067670 -0.000459 -0.865775
-0.049305 -0.000564 -0.962984
0.000000 -0.602288 0.456097
0.085619 -0.584653 0.468070
-0.085619 -0.584653 0.468070
0.323758 -0.477887 0.478955
0.443462 -0.344271 0.418931
-0.323758 -0.477887 0.478955
-0.443462 -0.344271 0.418931
0.215041 -0.545932 0.491645
-0.215041 -0.545932 0.491645
0.517952 -0.225005 0.290930
-0.517952 -0.225005 0.290930
0.519411 -0.180768 0.177867
-0.519411 -0.180768 0.177867
0.511387 -0.151712 0.081105
-0.511387 -0.151712 0.081105
0.493831 -0.151073 -0.034398
-0.493831 -0.151073 -0.034398
0.110415 -0.523235 0.627793
0.000000 -0.543872 0.619664
-0.110415 -0.523235 0.627793
0.353514 -0.401212 0.589438
0.478777 -0.267127 0.497581
-0.478777 -0.267127 0.497581
-0.353514 -0.401212 0.589438
0.232630 -0.494157 0.628491
-0.232630 -0.494157 0.628491
0.528581 -0.152594 0.345278
-0.528581 -0.152594 0.345278
0.527305 -0.091330 0.210251
-0.527305 -0.091330 0.210251
0.507936 -0.068655 -0.012324
0.518969 -0.060561 0.085941
-0.518969 -0.060561 0.085941
-0.507936 -0.068655 -0.012324
0.503512 0.017435 -0.006977
0.523562 0.026576 0.093988
-0.523562 0.026576 0.093988
-0.503512 0.017435 -0.006977
0.471066 -0.060972 -0.120428
0.462436 0.021529 -0.111026
-0.471066 -0.060972 -0.120428
-0.462436 0.021529 -0.111026
0.458527 -0.153412 -0.144099
-0.458527 -0.153412 -0.144099
0.000000 -0.239818 -0.660311
0.076513 -0.228993 -0.644739
-0.076513 -0.228993 -0.644739
0.151686 -0.206971 -0.605433
-0.151686 -0.206971 -0.605433
0.230641 -0.170938 -0.545603
-0.230641 -0.170938 -0.545603
0.301752 -0.130507 -0.477125
0.349440 -0.110489 -0.411119
-0.301752 -0.130507 -0.477125
-0.349440 -0.110489 -0.411119
0.381963 -0.114807 -0.351238
-0.381963 -0.114807 -0.351238
0.411888 -0.129199 -0.287266
-0.411888 -0.129199 -0.287266
0.372264 -0.203611 -0.377801
0.410741 -0.237958 -0.312665
-0.410741 -0.237958 -0.312665
-0.372264 -0.203611 -0.377801
0.000000 -0.286625 -0.659890
0.072150 -0.274194 -0.647376
-0.072150 -0.274194 -0.647376
0.142127 -0.252219 -0.614272
-0.142127 -0.252219 -0.614272
0.215202 -0.227539 -0.558210
-0.215202 -0.227539 -0.558210
0.283938 -0.199149 -0.499168
0.336128 -0.189299 -0.434278
-0.336128 -0.189299 -0.434278
-0.283938 -0.199149 -0.499168
0.437166 -0.265974 -0.250069
-0.437166 -0.265974 -0.250069
0.431124 -0.145330 -0.223492
-0.431124 -0.145330 -0.223492
0.427096 0.033977 -0.177268
0.435429 -0.049165 -0.196667
-0.435429 -0.049165 -0.196667
-0.427096 0.033977 -0.177268
0.515942 0.080669 0.059113
-0.515942 0.080669 0.059113
0.523650 0.131948 0.041641
-0.523650 0.131948 0.041641
0.411811 0.118333 -0.974447
0.527259 0.193236 -0.975562
-0.527259 0.193236 -0.975562
-0.411811 0.118333 -0.974447
0.130021 -0.019998 -0.991563
0.084270 -0.025621 -1.010774
-0.130021 -0.019998 -0.991563
-0.084270 -0.025621 -1.010774
0.209923 0.024854 -0.979308
-0.209923 0.024854 -0.979308
0.061342 -0.021973 -1.021963
-0.061342 -0.021973 -1.021963
0.033257 -0.031438 -1.033966
0.000000 -0.036791 -1.041375
-0.033257 -0.031438 -1.033966
0.307214 0.072598 -0.978442
-0.307214 0.072598 -0.978442
0.600297 0.222295 -0.976531
0.593370 0.260291 -0.954197
-0.593370 0.260291 -0.954197
-0.600297 0.222295 -0.976531
0.651195 0.238037 -0.978667
0.645963 0.276693 -0.958437
-0.645963 0.276693 -0.958437
-0.651195 0.238037 -0.978667
0.694748 0.312249 -0.935775
-0.694748 0.312249 -0.935775
0.706426 0.225377 -0.980088
-0.706426 0.225377 -0.980088
0.167683 -0.471461 -0.354967
0.168842 -0.471878 -0.353937
-0.167683 -0.471461 -0.354967
-0.168842 -0.471878 -0.353937
4 0 1 2 3
4 4 1 0 5
4 6 0 3 7
4 5 0 6 8
4 9 10 11 12
4 13 10 9 14
4 10 15 16 11
4 17 15 10 13
4 18 19 20 21
4 20 22 23 21
4 24 25 26 27
4 28 29 30 31
4 19 18 32 33
4 34 23 22 35
4 33 32 25 24
4 29 34 35 30
4 26 36 37 27
4 38 39 28 31
4 40 41 42 43
4 44 45 46 47
4 41 48 49 42
4 50 51 45 44
4 52 53 41 40
4 45 54 55 46
4 53 56 48 41
4 51 57 54 45
4 58 59 53 52
4 54 60 61 55
4 59 62 56 53
4 57 63 60 54
4 64 65 59 58
4 60 65 64 61
4 65 66 62 59
4 63 66 65 60
4 67 68 69 70
4 71 68 67 72
4 42 73 74 43
4 75 76 44 47
4 49 77 73 42
4 76 78 50 44
4 79 80 81 82
4 81 83 84 82
4 85 86 87 88
4 89 86 85 90
4 86 67 70 87
4 72 67 86 89
4 91 92 93 80
4 94 95 96 83
4 91 80 79 97
4 84 83 96 98
4 99 100 101 102
4 103 104 105 106
4 73 107 108 74
4 109 110 76 75
4 77 111 107 73
4 110 112 78 76
4 36 113 114 37
4 115 116 39 38
4 117 118 119 120
4 119 121 122 120
4 118 123 124 119
4 124 125 121 119
4 126 127 128 129
4 130 131 132 133
4 129 134 135 126
4 136 137 133 132
4 138 139 140 141
4 142 143 144 145
4 139 146 147 140
4 148 149 143 142
4 146 139 150 151
4 152 143 149 153
4 139 138 154 150
4 155 144 143 152
4 7 156 157 6
4 157 158 8 6
4 156 117 120 157
4 120 122 158 157
4 150 159 160 151
4 161 162 152 153
4 159 129 128 160
4 130 133 162 161
4 154 163 159 150
4 162 164 155 152
4 163 134 129 159
4 133 137 164 162
4 165 166 167 168
4 169 170 171 172
4 166 173 174 167
4 175 176 170 169
4 177 178 166 165
4 170 179 180 171
4 178 181 173 166
4 176 182 179 170
4 183 184 178 177
4 179 185 186 180
4 184 187 181 178
4 182 188 185 179
4 189 190 184 183
4 185 191 192 186
4 190 193 187 184
4 188 194 191 185
4 195 196 190 189
4 191 197 198 192
4 196 199 193 190
4 194 200 197 191
4 201 202 196 195
4 197 203 204 198
4 202 205 199 196
4 200 206 203 197
4 207 208 209 210
4 211 212 213 214
4 208 215 216 209
4 217 218 212 211
4 219 220 208 207
4 212 221 222 213
4 168 167 220 219
4 221 169 172 222
4 210 209 223 224
4 225 211 214 226
4 209 216 227 223
4 228 217 211 225
4 224 223 229 230
4 231 225 226 232
4 223 227 233 229
4 234 228 225 231
4 235 236 237 238
4 239 240 241 242
4 236 243 244 237
4 245 246 240 239
4 230 229 236 235
4 240 231 232 241
4 229 233 243 236
4 246 234 231 240
4 247 248 202 201
4 203 249 250 204
4 248 251 205 202
4 206 252 249 203
4 253 254 248 247
4 249 255 256 250
4 254 257 251 248
4 252 258 255 249
4 259 165 168 260
4 172 171 261 262
4 263 177 165 259
4 171 180 264 261
4 265 183 177 263
4 180 186 266 264
4 267 189 183 265
4 186 192 268 266
4 269 195 189 267
4 192 198 270 268
4 271 201 195 269
4 198 204 272 270
4 273 207 210 274
4 214 213 275 276
4 277 219 207 273
4 213 222 278 275
4 260 168 219 277
4 222 172 262 278
4 274 210 224 279
4 226 214 276 280
4 279 224 230 281
4 232 226 280 282
4 283 235 238 284
4 242 241 285 286
4 281 230 235 283
4 241 232 282 285
4 287 247 201 271
4 204 250 288 272
4 289 253 247 287
4 250 256 290 288
4 291 292 293 294
4 295 296 297 298
4 294 293 299 300
4 301 295 298 302
4 300 299 303 304
4 305 301 302 306
4 304 303 307 308
4 309 305 306 310
4 308 307 311 312
4 313 309 310 314
4 315 316 317 318
4 319 320 321 322
4 323 324 325 326
4 327 328 329 330
4 326 325 331 332
4 333 327 330 334
4 332 331 316 315
4 320 333 334 321
4 312 311 335 336
4 337 313 314 338
4 336 335 339 340
4 341 337 338 342
4 343 344 345 346
4 347 348 349 350
4 344 259 260 345
4 262 261 348 347
4 351 352 344 343
4 348 353 354 349
4 352 263 259 344
4 261 264 353 348
4 355 356 352 351
4 353 357 358 354
4 356 265 263 352
4 264 266 357 353
4 359 360 356 355
4 357 361 362 358
4 360 267 265 356
4 266 268 361 357
4 363 364 360 359
4 361 365 366 362
4 364 269 267 360
4 268 270 365 361
4 367 368 364 363
4 365 369 370 366
4 368 271 269 364
4 270 272 369 365
4 371 372 373 374
4 375 376 377 378
4 372 273 274 373
4 276 275 376 375
4 379 380 372 371
4 376 381 382 377
4 380 277 273 372
4 275 278 381 376
4 346 345 380 379
4 381 347 350 382
4 345 260 277 380
4 278 262 347 381
4 374 373 383 384
4 385 375 378 386
4 373 274 279 383
4 280 276 375 385
4 384 383 387 388
4 389 385 386 390
4 383 279 281 387
4 282 280 385 389
4 391 392 393 394
4 395 396 397 398
4 392 283 284 393
4 286 285 396 395
4 388 387 392 391
4 396 389 390 397
4 387 281 283 392
4 285 282 389 396
4 399 287 271 368
4 272 288 400 369
4 401 402 399 403
4 400 404 405 406
4 402 289 287 399
4 288 290 404 400
4 346 407 408 343
4 409 410 350 349
4 343 408 411 351
4 412 409 349 354
4 408 291 294 411
4 298 297 409 412
4 351 411 413 355
4 414 412 354 358
4 411 294 300 413
4 302 298 412 414
4 355 413 415 359
4 416 414 358 362
4 413 300 304 415
4 306 302 414 416
4 359 415 417 363
4 418 416 362 366
4 415 304 308 417
4 310 306 416 418
4 363 417 419 367
4 420 418 366 370
4 417 308 312 419
4 314 310 418 420
4 374 421 422 371
4 423 424 378 377
4 371 422 425 379
4 426 423 377 382
4 379 425 407 346
4 410 426 382 350
4 384 427 421 374
4 424 428 386 378
4 427 315 318 421
4 322 321 428 424
4 394 429 430 391
4 431 432 398 397
4 429 323 326 430
4 330 329 432 431
4 391 430 433 388
4 434 431 397 390
4 430 326 332 433
4 334 330 431 434
4 388 433 427 384
4 428 434 390 386
4 433 332 315 427
4 321 334 434 428
4 419 312 336 435
4 338 314 420 436
4 403 435 437 401
4 438 436 406 405
4 435 336 340 437
4 342 338 436 438
4 439 20 19 440
4 22 20 439 441
4 440 19 33 442
4 35 22 441 443
4 442 33 24 444
4 30 35 443 445
4 444 24 27 446
4 31 30 445 447
4 446 27 37 448
4 38 31 447 449
4 37 114 450 448
4 451 115 38 449
4 452 444 446 453
4 447 445 454 455
4 456 442 444 452
4 445 443 457 454
4 2 440 442 456
4 443 441 4 457
4 1 439 440 2
4 441 439 1 4
4 453 446 448 458
4 449 447 455 459
4 127 126 458 460
4 459 132 131 461
4 448 450 460 458
4 461 451 449 459
4 135 453 458 126
4 459 455 136 132
4 3 462 463 7
4 464 465 5 8
4 466 118 117 467
4 122 121 468 469
4 470 123 118 466
4 121 125 471 468
4 472 156 7 463
4 8 158 473 464
4 467 117 156 472
4 158 122 469 473
4 462 474 475 463
4 476 477 465 464
4 474 135 134 475
4 137 136 477 476
4 141 478 479 138
4 480 481 145 144
4 478 470 466 479
4 468 471 481 480
4 138 479 482 154
4 483 480 144 155
4 479 466 467 482
4 469 468 480 483
4 163 484 475 134
4 476 485 164 137
4 484 472 463 475
4 464 473 485 476
4 154 482 484 163
4 485 483 155 164
4 482 467 472 484
4 473 469 483 485
4 135 474 452 453
4 454 477 136 455
4 462 456 452 474
4 454 457 465 477
4 3 2 456 462
4 457 4 5 465
4 486 487 488 489
4 490 491 492 493
4 489 488 494 495
4 496 490 493 497
4 498 499 500 501
4 502 503 504 505
4 487 486 499 498
4 503 492 491 504
4 506 91 97 507
4 98 96 508 509
4 91 506 510 92
4 511 508 96 95
4 512 101 100 513
4 104 103 514 515
4 489 516 517 486
4 518 519 493 492
4 516 506 507 517
4 509 508 519 518
4 506 516 520 510
4 521 519 508 511
4 516 489 495 520
4 497 493 519 521
4 499 522 523 500
4 524 525 503 502
4 522 512 513 523
4 515 514 525 524
4 486 517 522 499
4 525 518 492 503
4 517 507 512 522
4 514 509 518 525
4 101 512 507 526
4 509 514 103 527
4 82 528 529 79
4 530 528 82 84
4 79 529 531 97
4 532 530 84 98
4 97 531 526 507
4 527 532 98 509
4 528 533 534 529
4 535 533 528 530
4 533 536 537 534
4 538 536 533 535
4 529 534 539 531
4 540 535 530 532
4 534 537 541 539
4 542 538 535 540
4 543 544 545 546
4 547 548 549 550
4 544 40 43 545
4 47 46 548 547
4 551 552 544 543
4 548 553 554 549
4 552 52 40 544
4 46 55 553 548
4 555 556 552 551
4 553 557 558 554
4 556 58 52 552
4 55 61 557 553
4 559 560 556 555
4 557 560 559 558
4 560 64 58 556
4 61 64 560 557
4 546 545 561 562
4 563 547 550 564
4 545 43 74 561
4 75 47 547 563
4 562 561 565 566
4 567 563 564 568
4 561 74 108 565
4 109 75 563 567
4 569 570 571 572
4 573 574 575 576
4 526 531 539 571
4 540 532 527 573
4 541 572 571 539
4 573 576 542 540
4 487 70 69 488
4 71 72 491 490
4 488 69 577 494
4 578 71 490 496
4 87 498 501 88
4 505 504 89 90
4 70 487 498 87
4 504 491 72 89
4 174 579 220 167
4 221 580 175 169
4 215 208 220 579
4 221 212 218 580
4 68 581 582 69
4 583 581 68 71
4 581 81 80 582
4 83 81 581 583
4 69 582 584 577
4 585 583 71 578
4 582 80 93 584
4 94 83 583 585
4 555 551 586 587
4 588 554 558 589
4 546 562 590 591
4 592 564 550 593
4 543 546 591 594
4 593 550 549 595
4 559 555 587 596
4 589 558 559 596
4 551 543 594 586
4 595 549 554 588
4 541 537 597 598
4 599 538 542 600
4 537 536 601 597
4 601 536 538 599
4 562 566 602 590
4 603 568 564 592
4 569 572 604 605
4 606 576 575 607
4 572 541 598 604
4 600 542 576 606
4 173 608 609 174
4 610 611 176 175
4 608 12 11 609
4 13 14 611 610
4 181 612 608 173
4 611 613 182 176
4 612 614 12 608
4 14 615 613 611
4 187 616 612 181
4 613 617 188 182
4 616 618 614 612
4 615 619 617 613
4 193 620 616 187
4 617 621 194 188
4 620 622 618 616
4 619 623 621 617
4 199 624 620 193
4 621 625 200 194
4 624 626 622 620
4 623 627 625 621
4 205 628 624 199
4 625 629 206 200
4 628 630 626 624
4 627 631 629 625
4 215 632 633 216
4 634 635 218 217
4 216 633 636 227
4 637 634 217 228
4 227 636 638 233
4 639 637 228 234
4 233 638 640 243
4 641 639 234 246
4 251 642 628 205
4 629 643 252 206
4 642 644 630 628
4 631 645 643 629
4 257 646 642 251
4 643 647 258 252
4 16 648 609 11
4 610 649 17 13
4 648 579 174 609
4 175 580 649 610
4 644 642 646 650
4 647 643 645 651
4 632 652 653 633
4 654 655 635 634
4 633 653 656 636
4 657 654 634 637
4 636 656 658 638
4 659 657 637 639
4 638 658 660 640
4 661 659 639 641
4 662 526 571 570
4 573 527 663 574
4 102 101 526 662
4 527 103 106 663
4 664 18 21 665
4 21 23 666 665
4 25 667 668 26
4 669 670 29 28
4 18 664 671 32
4 672 666 23 34
4 32 671 667 25
4 670 672 34 29
4 673 36 26 668
4 28 39 674 669
4 36 673 675 113
4 676 674 39 116
4 586 677 678 587
4 679 680 588 589
4 677 681 682 678
4 683 684 680 679
4 590 685 686 591
4 687 688 592 593
4 685 689 690 686
4 691 692 688 687
4 591 686 693 594
4 694 687 593 595
4 686 690 695 693
4 696 691 687 694
4 587 678 697 596
4 697 679 589 596
4 678 682 698 697
4 698 683 679 697
4 594 693 677 586
4 680 694 595 588
4 693 695 681 677
4 684 696 694 680
4 597 699 700 598
4 701 702 599 600
4 699 703 704 700
4 705 706 702 701
4 601 707 699 597
4 702 707 601 599
4 707 708 703 699
4 706 708 707 702
4 602 709 685 590
4 688 710 603 592
4 604 711 712 605
4 713 714 606 607
4 711 715 716 712
4 717 718 714 713
4 598 700 711 604
4 714 701 600 606
4 700 704 715 711
4 718 705 701 714
4 237 254 253 238
4 256 255 239 242
4 244 257 254 237
4 255 258 245 239
4 238 253 289 284
4 290 256 242 286
4 339 324 323 340
4 329 328 341 342
4 393 402 401 394
4 405 404 395 398
4 284 289 402 393
4 404 290 286 395
4 437 429 394 401
4 398 432 438 405
4 340 323 429 437
4 432 329 342 438
4 500 523 719 720
4 721 524 502 722
4 513 100 719 523
4 721 104 515 524
4 723 48 56 724
4 57 51 725 726
4 49 727 728 77
4 729 730 50 78
4 48 723 727 49
4 730 725 51 50
4 681 731 732 682
4 733 734 684 683
4 731 735 736 732
4 737 738 734 733
4 689 739 740 690
4 741 742 692 691
4 739 743 744 740
4 745 746 742 741
4 690 740 747 695
4 748 741 691 696
4 740 744 749 747
4 750 745 741 748
4 682 732 751 698
4 751 733 683 698
4 732 736 752 751
4 752 737 733 751
4 695 747 731 681
4 734 748 696 684
4 747 749 735 731
4 738 750 748 734
4 703 753 754 704
4 755 756 706 705
4 753 757 758 754
4 759 760 756 755
4 708 761 753 703
4 756 761 708 706
4 761 762 757 753
4 760 762 761 756
4 763 764 743 739
4 746 765 766 742
4 715 767 768 716
4 769 770 718 717
4 767 771 772 768
4 773 774 770 769
4 704 754 767 715
4 770 755 705 718
4 754 758 771 767
4 774 759 755 770
4 775 85 88 776
4 90 85 775 777
4 778 775 776 779
4 777 775 778 780
4 652 781 782 653
4 783 784 655 654
4 781 720 719 782
4 721 722 784 783
4 99 785 786 100
4 787 788 105 104
4 785 658 656 786
4 657 659 788 787
4 653 782 786 656
4 787 783 654 657
4 782 719 100 786
4 104 721 783 787
4 776 789 790 779
4 791 792 777 780
4 789 720 781 790
4 784 722 792 791
4 776 88 501 789
4 505 90 777 792
4 500 720 789 501
4 792 722 502 505
4 793 778 779 794
4 780 778 793 795
4 790 796 794 779
4 795 797 791 780
4 781 652 796 790
4 797 655 784 791
4 77 728 798 111
4 799 729 78 112
4 662 800 801 102
4 802 803 663 106
4 800 804 805 801
4 806 807 803 802
4 102 801 808 99
4 809 802 106 105
4 801 805 810 808
4 811 806 802 809
4 812 813 814 815
4 816 817 818 819
4 813 570 569 814
4 575 574 817 816
4 804 800 813 812
4 817 803 807 818
4 800 662 570 813
4 574 663 803 817
4 815 814 820 821
4 822 816 819 823
4 814 569 605 820
4 607 575 816 822
4 712 824 820 605
4 822 825 713 607
4 824 826 821 820
4 823 827 825 822
4 716 828 824 712
4 825 829 717 713
4 768 830 828 716
4 829 831 769 717
4 830 832 833 828
4 834 835 831 829
4 772 836 830 768
4 831 837 773 769
4 836 838 832 830
4 835 839 837 831
4 840 841 808 810
4 809 842 843 811
4 841 785 99 808
4 105 788 842 809
4 660 658 785 841
4 788 659 661 842
4 62 66 844 845
4 844 66 63 846
4 62 845 724 56
4 726 846 63 57
4 847 848 798 728
4 799 849 850 729
4 847 728 727 851
4 730 729 850 852
4 853 854 855 856
4 857 858 853 856
4 845 844 859 860
4 859 844 846 861
4 724 845 860 862
4 861 846 726 863
4 864 865 866 855
4 867 868 869 857
4 855 866 870 856
4 870 867 857 856
4 864 871 872 865
4 873 874 869 868
4 875 876 877 878
4 877 879 880 878
4 881 882 876 875
4 879 883 884 880
4 885 886 882 881
4 883 887 888 884
4 889 890 886 885
4 887 891 892 888
4 893 854 853 894
4 853 858 895 894
4 896 897 898 899
4 900 901 902 903
4 898 897 904 905
4 906 901 900 907
4 905 904 908 909
4 910 906 907 911
4 909 908 912 913
4 914 910 911 915
4 916 917 918 919
4 920 921 922 923
4 924 925 926 927
4 928 929 930 931
4 896 899 932 933
4 934 903 902 935
4 936 937 938 939
4 940 941 942 943
4 939 938 944 945
4 946 940 943 947
4 944 938 948 949
4 950 940 946 951
4 952 953 954 955
4 956 957 958 959
4 960 952 955 961
4 959 958 962 963
4 964 965 966 967
4 968 969 970 971
4 938 972 973 948
4 974 975 940 950
4 937 976 972 938
4 975 977 941 940
4 898 978 979 899
4 980 981 900 903
4 978 982 983 979
4 984 985 981 980
4 905 986 978 898
4 981 987 907 900
4 986 936 982 978
4 985 942 987 981
4 909 988 986 905
4 987 989 911 907
4 988 937 936 986
4 942 941 989 987
4 913 990 988 909
4 989 991 915 911
4 990 976 937 988
4 941 977 991 989
4 919 992 993 916
4 994 995 923 922
4 927 996 997 924
4 998 999 931 930
4 996 1000 960 997
4 962 1001 999 998
4 939 945 1002 1003
4 1004 947 943 1005
4 982 936 939 1003
4 943 942 985 1005
4 1003 1002 1006 1007
4 1008 1004 1005 1009
4 982 1003 1007 983
4 1009 1005 985 984
4 897 896 1010 1011
4 1012 902 901 1013
4 904 897 1011 1014
4 1013 901 906 1015
4 908 904 1014 1016
4 1015 906 910 1017
4 912 908 1016 1018
4 1017 910 914 1019
4 918 917 1020 1021
4 1022 921 920 1023
4 1024 925 924 1025
4 930 929 1026 1027
4 997 1028 1025 924
4 1027 1029 998 930
4 1030 1031 1032 1033
4 1034 1035 1036 1037
4 1033 1032 1038 1039
4 1040 1034 1037 1041
4 1039 1038 1042 1043
4 1044 1040 1041 1045
4 1006 1043 1046 1007
4 1047 1045 1008 1009
4 983 1007 1046 932
4 1047 1009 984 934
4 1048 1030 1049 1050
4 1051 1036 1052 1053
4 1030 1033 1054 1049
4 1055 1037 1036 1051
4 1033 1039 1056 1054
4 1057 1041 1037 1055
4 1039 1043 1058 1056
4 1059 1045 1041 1057
4 1050 1049 1060 1061
4 1062 1051 1053 1063
4 1049 1054 1064 1060
4 1065 1055 1051 1062
4 1054 1056 1066 1064
4 1067 1057 1055 1065
4 1056 1058 1068 1066
4 1069 1059 1057 1067
4 926 1070 1071 927
4 1072 1073 928 931
4 1070 945 944 1071
4 946 947 1073 1072
4 944 949 1000 1071
4 1001 951 946 1072
4 945 1070 1074 1002
4 1075 1073 947 1004
4 1070 926 1076 1077
4 1078 928 1073 1079
4 1002 1074 1080 1006
4 1081 1075 1004 1008
4 1006 1080 1058 1043
4 1059 1081 1008 1045
4 1077 1076 1082 1083
4 1084 1078 1079 1085
4 1070 1077 1083 1074
4 1085 1079 1073 1075
4 1074 1083 1086 1080
4 1087 1085 1075 1081
4 1058 1080 1086 1068
4 1087 1081 1059 1069
4 1086 1083 1082 1088
4 1084 1085 1087 1089
4 1024 1090 1091 925
4 1092 1093 1026 929
4 1091 1048 1050 1094
4 1053 1052 1092 1095
4 1050 1061 1096 1094
4 1097 1063 1053 1095
4 1060 1098 1099 1061
4 1100 1101 1062 1063
4 1064 1102 1098 1060
4 1101 1103 1065 1062
4 1066 1104 1102 1064
4 1103 1105 1067 1065
4 1068 1106 1104 1066
4 1105 1107 1069 1067
4 1061 1099 1108 1096
4 1109 1100 1063 1097
4 1086 1110 1106 1068
4 1107 1111 1087 1069
4 1088 1112 1110 1086
4 1111 1113 1089 1087
4 1096 1108 1112 1088
4 1113 1109 1097 1089
4 927 1071 1000 996
4 1001 1072 931 999
4 912 1114 1115 913
4 1116 1117 914 915
4 1114 917 916 1115
4 922 921 1117 1116
4 948 953 952 949
4 958 957 950 951
4 949 952 960 1000
4 962 958 951 1001
4 972 1118 1119 973
4 1120 1121 975 974
4 1118 1122 964 1119
4 970 1123 1121 1120
4 976 1124 1118 972
4 1121 1125 977 975
4 1124 1126 1122 1118
4 1123 1127 1125 1121
4 993 1128 1115 916
4 1116 1129 994 922
4 1128 990 913 1115
4 915 991 1129 1116
4 917 1114 1130 1020
4 1131 1117 921 1022
4 1114 912 1018 1130
4 1019 914 1117 1131
4 1132 1133 1134 1135
4 1136 1137 1138 1139
4 1140 1141 1135 1134
4 1139 1142 1143 1136
4 1133 1024 1025 1134
4 1027 1026 1137 1136
4 1028 1140 1134 1025
4 1136 1143 1029 1027
4 1144 1132 1135 1145
4 1139 1138 1146 1147
4 1141 1148 1145 1135
4 1147 1149 1142 1139
4 1132 1144 1150 1151
4 1152 1146 1138 1153
4 1014 1011 1154 1155
4 1156 1013 1015 1157
4 1016 1014 1155 1158
4 1157 1015 1017 1159
4 1018 1016 1158 1160
4 1159 1017 1019 1161
4 1021 1020 1162 1163
4 1164 1022 1023 1165
4 1130 1018 1160 1166
4 1161 1019 1131 1167
4 1020 1130 1166 1162
4 1167 1131 1022 1164
4 1155 1154 1168 1169
4 1170 1156 1157 1171
4 1158 1155 1169 1172
4 1171 1157 1159 1173
4 1160 1158 1172 1174
4 1173 1159 1161 1175
4 1166 1160 1174 1176
4 1175 1161 1167 1177
4 1162 1166 1176 1178
4 1177 1167 1164 1179
4 1169 1168 1180 1181
4 1182 1170 1171 1183
4 1172 1169 1181 1184
4 1183 1171 1173 1185
4 1174 1172 1184 1186
4 1185 1173 1175 1187
4 1181 1180 1188 1189
4 1190 1182 1183 1191
4 1184 1181 1189 1192
4 1191 1183 1185 1193
4 1186 1184 1192 1194
4 1193 1185 1187 1195
4 1196 1090 1024 1133
4 1026 1093 1197 1137
4 1198 1199 1032 1031
4 1034 1200 1201 1035
4 1202 1196 1133 1132
4 1137 1197 1203 1138
4 1204 1202 1132 1151
4 1138 1203 1205 1153
4 127 460 1206 1194
4 1207 461 131 1195
4 127 1194 1192 128
4 1193 1195 131 130
4 128 1192 1189 160
4 1191 1193 130 161
4 160 1189 1188 151
4 1190 1191 161 153
4 899 979 983 932
4 984 980 903 934
4 925 1091 1094 1208
4 1095 1092 929 1209
4 925 1208 1076 926
4 1078 1209 929 928
4 1076 1208 1210 1082
4 1211 1209 1078 1084
4 1096 1210 1208 1094
4 1209 1211 1097 1095
4 1096 1088 1082 1210
4 1084 1089 1097 1211
4 93 92 1212 1213
4 1214 95 94 1215
4 495 494 1216 1217
4 1218 496 497 1219
4 92 510 1220 1212
4 1221 511 95 1214
4 520 495 1217 1222
4 1219 497 521 1223
4 510 520 1222 1220
4 1223 521 511 1221
4 494 577 1224 1216
4 1225 578 496 1218
4 577 584 1226 1224
4 1227 585 578 1225
4 584 93 1213 1226
4 1215 94 585 1227
4 1213 1216 1224 1226
4 1225 1218 1215 1227
4 1213 1212 1217 1216
4 1219 1214 1215 1218
4 1212 1220 1222 1217
4 1223 1221 1214 1219
4 1228 1229 1230 1231
4 1232 1233 1234 1235
4 1229 292 291 1230
4 297 296 1233 1232
4 407 1236 1237 408
4 1238 1239 410 409
4 1236 1240 1241 1237
4 1242 1243 1239 1238
4 1231 1230 1237 1241
4 1238 1232 1235 1242
4 1230 291 408 1237
4 409 297 1232 1238
4 317 1244 1245 318
4 1246 1247 319 322
4 1244 1228 1231 1245
4 1235 1234 1247 1246
4 1240 1248 1249 1241
4 1250 1251 1243 1242
4 1248 422 421 1249
4 424 423 1251 1250
4 318 1245 1249 421
4 1250 1246 322 424
4 1245 1231 1241 1249
4 1242 1235 1246 1250
4 407 425 1240 1236
4 1243 426 410 1239
4 422 1248 1240 425
4 1243 1251 423 426
4 854 893 1252 1253
4 1254 895 858 1255
4 864 855 854 1253
4 858 857 869 1255
4 890 889 1256 1257
4 1258 892 891 1259
4 1260 1261 1257 1256
4 1259 1262 1263 1258
4 1264 1265 1261 1260
4 1262 1266 1267 1263
4 864 1253 1268 871
4 1269 1255 869 874
4 871 1268 1265 1264
4 1266 1269 874 1267
4 1108 1099 1098 1112
4 1101 1100 1109 1113
4 1110 1112 1098 1102
4 1101 1113 1111 1103
4 1102 1104 1106 1110
4 1107 1105 1103 1111
4 1270 1271 1272 1273
4 1274 1275 1276 1277
4 1168 1278 1279 1180
4 1280 1281 1170 1182
4 1282 1270 1273 1283
4 1277 1276 1284 1285
4 1180 1279 1286 1188
4 1287 1280 1182 1190
4 146 1288 1289 147
4 1290 1291 149 148
4 1270 1282 1292 1293
4 1294 1284 1276 1295
4 1270 1293 1296 1271
4 1297 1295 1276 1275
4 1298 1299 1296 1293
4 1297 1300 1301 1295
4 1302 1273 1272 1303
4 1274 1277 1304 1305
4 1306 1283 1273 1302
4 1277 1285 1307 1304
4 1308 1309 1310 1311
4 1310 1312 1313 1311
4 1303 1272 1309 1308
4 1312 1274 1305 1313
4 1314 1282 1283 1315
4 1285 1284 1316 1317
4 876 1318 1319 877
4 1319 1320 879 877
4 886 1321 1322 882
4 1323 1324 887 883
4 890 1325 1321 886
4 1324 1326 891 887
4 882 1322 1318 876
4 1320 1323 883 879
4 1257 1327 1325 890
4 1326 1328 1259 891
4 1261 1329 1327 1257
4 1328 1330 1262 1259
4 1261 1265 1331 1329
4 1332 1266 1262 1330
4 1268 1333 1331 1265
4 1332 1334 1269 1266
4 1253 1252 1333 1268
4 1334 1254 1255 1269
4 660 841 840 1335
4 843 842 661 1336
4 1174 1186 1337 1176
4 1338 1187 1175 1177
4 1178 1176 1337 1339
4 1338 1177 1179 1340
4 964 967 1341 1119
4 1342 971 970 1120
4 948 973 1119 1341
4 1120 974 950 1342
4 953 948 1341 967
4 1342 950 957 971
4 953 967 966 954
4 968 971 957 956
4 960 961 1028 997
4 1029 963 962 998
4 954 966 1343 1344
4 1345 968 956 1346
4 961 955 1347 1348
4 1349 959 963 1350
4 955 954 1344 1347
4 1346 956 959 1349
4 1141 1140 1348 1347
4 1350 1143 1142 1349
4 1028 961 1348 1140
4 1350 963 1029 1143
4 918 1144 1145 919
4 1147 1146 920 923
4 1144 918 1021 1150
4 1023 920 1146 1152
4 1141 1347 1344 1343
4 1346 1349 1142 1345
4 919 1145 1148 992
4 1149 1147 923 995
4 1148 1141 1343 1351
4 1345 1142 1149 1352
4 965 1351 1343 966
4 1345 1352 969 968
4 992 1148 1351 1353
4 1352 1149 995 1354
4 1126 993 992 1353
4 995 994 1127 1354
4 1122 1355 965 964
4 969 1356 1123 970
4 965 1355 1353 1351
4 1354 1356 969 1352
4 1126 1353 1355 1122
4 1356 1354 1127 1123
4 1021 1163 1357 1150
4 1358 1165 1023 1152
4 1151 1150 1357 1359
4 1358 1152 1153 1360
4 1162 1178 1361 1163
4 1362 1179 1164 1165
4 1178 1339 1363 1361
4 1364 1340 1179 1362
4 1163 1361 1365 1357
4 1366 1362 1165 1358
4 1361 1363 1367 1365
4 1368 1364 1362 1366
4 1186 1194 1206 1337
4 1207 1195 1187 1338
4 1357 1365 1367 1359
4 1368 1366 1358 1360
4 1369 1370 1359 1367
4 1360 1371 1372 1368
4 1151 1359 1370 1204
4 1371 1360 1153 1205
4 1011 1010 1373 1154
4 1374 1012 1013 1156
4 1168 1154 1373 1278
4 1374 1156 1170 1281
4 1278 1373 1286 1279
4 1287 1374 1281 1280
4 146 151 1188 1288
4 1190 153 149 1291
4 1375 1288 1188 1286
4 1190 1291 1376 1287
4 933 1377 1010 896
4 1012 1378 935 902
4 1010 1377 1379 1373
4 1380 1378 1012 1374
4 1199 1042 1038 1032
4 1040 1044 1200 1034
4 1043 1042 1381 1046
4 1382 1044 1045 1047
4 933 932 1046 1381
4 1047 934 935 1382
4 1199 1383 1381 1042
4 1382 1384 1200 1044
4 933 1381 1383 1377
4 1384 1382 935 1378
4 113 1204 1370 114
4 1371 1205 116 115
4 865 1385 1386 866
4 1387 1388 868 867
4 1385 1389 1390 1386
4 1391 1392 1388 1387
4 866 1386 1393 870
4 1393 1387 867 870
4 1386 1390 1394 1393
4 1394 1391 1387 1393
4 1385 865 872 1395
4 873 868 1388 1396
4 1369 1367 1363 1339
4 1364 1368 1372 1340
4 1369 1339 1337 1206
4 1338 1340 1372 1207
4 460 450 1369 1206
4 1372 451 461 1207
4 1369 450 114 1370
4 115 451 1372 1371
4 15 1397 1398 16
4 1399 1397 15 17
4 16 1398 1400 648
4 1401 1399 17 649
4 579 648 1400 215
4 1401 649 580 218
4 794 1402 1403 793
4 1403 1404 795 793
4 1402 1398 1397 1403
4 1397 1399 1404 1403
4 796 1405 1402 794
4 1404 1406 797 795
4 1405 1400 1398 1402
4 1399 1401 1406 1404
4 215 1400 1405 632
4 1406 1401 218 635
4 652 632 1405 796
4 1406 635 655 797
4 107 1407 1408 108
4 1409 1410 110 109
4 1407 805 804 1408
4 807 806 1410 1409
4 111 1411 1407 107
4 1410 1412 112 110
4 1411 810 805 1407
4 806 811 1412 1410
4 565 1413 1414 566
4 1415 1416 567 568
4 1413 812 815 1414
4 819 818 1416 1415
4 108 1408 1413 565
4 1416 1409 109 567
4 1408 804 812 1413
4 818 807 1409 1416
4 1414 815 821 1417
4 823 819 1415 1418
4 826 1419 1417 821
4 1418 1420 827 823
4 838 1421 1422 832
4 1423 1424 839 835
4 1421 764 763 1422
4 766 765 1424 1423
4 810 1411 1425 840
4 1426 1412 811 843
4 1411 111 798 1425
4 799 112 1412 1426
4 840 1425 1427 1335
4 1428 1426 843 1336
4 1425 798 848 1427
4 849 799 1426 1428
4 646 1429 1430 650
4 1431 1432 647 651
4 1433 1289 1288 1375
4 1291 1290 1434 1376
4 123 1435 1436 124
4 1436 1437 125 124
4 1435 875 878 1436
4 878 880 1437 1436
4 1256 1438 1439 1260
4 1440 1441 1258 1263
4 1438 140 147 1439
4 148 142 1441 1440
4 889 1442 1438 1256
4 1441 1443 892 1258
4 1442 141 140 1438
4 142 145 1443 1441
4 470 1444 1435 123
4 1437 1445 471 125
4 1444 881 875 1435
4 880 884 1445 1437
4 478 1446 1444 470
4 1445 1447 481 471
4 1446 885 881 1444
4 884 888 1447 1445
4 141 1442 1446 478
4 1447 1443 145 481
4 1442 889 885 1446
4 888 892 1443 1447
4 1260 1439 1448 1264
4 1449 1440 1263 1267
4 1439 147 1289 1448
4 1290 148 1440 1449
4 723 1450 851 727
4 852 1451 725 730
4 871 1264 1452 872
4 1453 1267 874 873
4 1433 1454 1448 1289
4 1449 1455 1434 1290
4 1264 1448 1454 1452
4 1455 1449 1267 1453
4 872 1452 1456 1395
4 1457 1453 873 1396
4 1389 1385 1395 1458
4 1396 1388 1392 1459
4 723 724 862 1450
4 863 726 725 1451
4 1395 1456 1460 1458
4 1461 1457 1396 1459
4 1433 1462 1463 1454
4 1464 1465 1434 1455
4 1456 1452 1454 1463
4 1455 1453 1457 1464
4 1466 1460 1456 1463
4 1457 1461 1467 1464
4 1466 1463 1462 1468
4 1465 1464 1467 1469
4 1462 1470 1471 1468
4 1472 1473 1465 1469
4 244 1429 646 257
4 647 1432 245 258
4 244 243 640 1429
4 641 246 245 1432
4 1321 1474 1475 1322
4 1476 1477 1324 1323
4 1474 1302 1303 1475
4 1305 1304 1477 1476
4 1325 1478 1474 1321
4 1477 1479 1326 1324
4 1478 1306 1302 1474
4 1304 1307 1479 1477
4 1327 1480 1478 1325
4 1479 1481 1328 1326
4 1480 1482 1306 1478
4 1307 1483 1481 1479
4 1318 1484 1485 1319
4 1485 1486 1320 1319
4 1484 1308 1311 1485
4 1311 1313 1486 1485
4 1322 1475 1484 1318
4 1486 1476 1323 1320
4 1475 1303 1308 1484
4 1313 1305 1476 1486
4 1487 1488 1489 1490
4 1491 1492 1493 1494
4 1488 1333 1252 1489
4 1254 1334 1492 1491
4 1495 1496 1488 1487
4 1492 1497 1498 1493
4 1496 1331 1333 1488
4 1334 1332 1497 1492
4 1499 1500 1496 1495
4 1497 1501 1502 1498
4 1500 1329 1331 1496
4 1332 1330 1501 1497
4 1503 1504 1505 1506
4 1505 1507 1508 1506
4 1504 893 894 1505
4 894 895 1507 1505
4 893 1504 1489 1252
4 1491 1507 895 1254
4 1504 1503 1490 1489
4 1494 1508 1507 1491
4 1509 9 12 1510
4 14 9 1509 1511
4 1512 618 622 1513
4 623 619 1514 1515
4 1510 12 614 1516
4 615 14 1511 1517
4 1516 614 618 1512
4 619 615 1517 1514
4 626 1518 1513 622
4 1515 1519 627 623
4 630 1520 1518 626
4 1519 1521 631 627
4 644 1522 1520 630
4 1521 1523 645 631
4 650 1524 1522 644
4 1523 1525 651 645
4 1510 1526 1527 1509
4 1527 1528 1511 1509
4 1526 664 665 1527
4 665 666 1528 1527
4 667 1529 1530 668
4 1531 1532 670 669
4 1529 1512 1513 1530
4 1515 1514 1532 1531
4 664 1526 1533 671
4 1534 1528 666 672
4 1526 1510 1516 1533
4 1517 1511 1528 1534
4 671 1533 1529 667
4 1532 1534 672 670
4 1533 1516 1512 1529
4 1514 1517 1534 1532
4 1518 1535 1530 1513
4 1531 1536 1519 1515
4 1535 673 668 1530
4 669 674 1536 1531
4 673 1535 1537 675
4 1538 1536 674 676
4 1535 1518 1520 1537
4 1521 1519 1536 1538
4 1524 1539 1540 1522
4 1541 1542 1525 1523
4 1539 1543 1544 1540
4 1545 1546 1542 1541
4 1522 1540 1537 1520
4 1538 1541 1523 1521
4 1540 1544 675 1537
4 676 1545 1541 1538
4 1543 1539 1547 1548
4 1549 1542 1546 1550
4 1524 1551 1547 1539
4 1549 1552 1525 1542
4 650 1430 1551 1524
4 1552 1431 651 1525
4 1286 1373 1379 1375
4 1380 1374 1287 1376
4 1553 1394 1390 1554
4 1391 1394 1553 1555
4 1554 1390 1389 1556
4 1392 1391 1555 1557
4 1556 1389 1458 1558
4 1459 1392 1557 1559
4 1560 1460 1466 1561
4 1467 1461 1562 1563
4 1558 1458 1460 1560
4 1461 1459 1559 1562
4 1468 1564 1561 1466
4 1563 1565 1469 1467
4 1471 1566 1564 1468
4 1565 1567 1472 1469
4 848 1568 1569 1427
4 1570 1571 849 1428
4 1568 1564 1566 1569
4 1567 1565 1571 1570
4 859 1572 1573 860
4 1574 1572 859 861
4 1572 1553 1554 1573
4 1555 1553 1572 1574
4 860 1573 1575 862
4 1576 1574 861 863
4 1573 1554 1556 1575
4 1557 1555 1574 1576
4 862 1575 1577 1450
4 1578 1576 863 1451
4 1575 1556 1558 1577
4 1559 1557 1576 1578
4 851 1579 1580 847
4 1581 1582 852 850
4 1579 1560 1561 1580
4 1563 1562 1582 1581
4 1450 1577 1579 851
4 1582 1578 1451 852
4 1577 1558 1560 1579
4 1562 1559 1578 1582
4 847 1580 1568 848
4 1571 1581 850 849
4 1580 1561 1564 1568
4 1565 1563 1581 1571
4 1335 1427 1569 1583
4 1570 1428 1336 1584
4 1583 1569 1566 1585
4 1567 1570 1584 1586
4 1470 1587 1588 1471
4 1589 1590 1473 1472
4 1471 1588 1585 1566
4 1586 1589 1472 1567
4 1433 1375 1470 1462
4 1473 1376 1434 1465
4 1583 1430 1429 1335
4 1432 1431 1584 1336
4 1585 1551 1430 1583
4 1431 1552 1586 1584
4 1587 1548 1547 1588
4 1549 1550 1590 1589
4 1551 1585 1588 1547
4 1589 1586 1552 1549
4 640 660 1335 1429
4 1336 661 641 1432
4 1198 1591 1383 1199
4 1384 1592 1201 1200
4 1377 1548 1587 1379
4 1590 1550 1378 1380
4 1470 1375 1379 1587
4 1380 1376 1473 1590
4 1383 1543 1548 1377
4 1550 1546 1384 1378
4 1383 1591 1544 1543
4 1545 1592 1384 1546
4 113 675 1544 1204
4 1545 676 116 1205
4 1202 1204 1544 1591
4 1545 1205 1203 1592
4 1048 1091 1090 1593
4 1093 1092 1052 1594
4 1048 1593 1031 1030
4 1035 1594 1052 1036
4 1202 1591 1198 1196
4 1201 1592 1203 1197
3 1090 1196 1593
3 1594 1197 1093
4 1031 1593 1196 1198
4 1197 1594 1035 1201
4 1315 1283 1306 1482
4 1307 1285 1317 1483
4 1329 1500 1480 1327
4 1481 1501 1330 1328
4 1482 1480 1500 1499
4 1501 1481 1483 1502
4 566 1414 1417 602
4 1418 1415 568 603
4 367 403 399 368
4 400 406 370 369
4 367 419 435 403
4 436 420 370 406
4 1126 1124 1128 993
4 1129 1125 1127 994
4 976 990 1128 1124
4 1129 991 977 1125
4 1315 1595 1596 1314
4 1317 1316 1597 1598
4 1599 1495 1487 1600
4 1493 1498 1601 1602
4 1603 1499 1495 1599
4 1498 1502 1604 1601
4 1600 1487 1490 1605
4 1494 1493 1602 1606
4 1607 1503 1506 1608
4 1506 1508 1609 1608
4 1605 1490 1503 1607
4 1508 1494 1606 1609
4 1595 1315 1482 1610
4 1483 1317 1598 1611
4 1499 1603 1610 1482
4 1611 1604 1502 1483
4 1596 1612 1613 1314
4 1614 1615 1597 1316
4 1612 1616 1617 1613
4 1618 1619 1615 1614
4 1314 1613 1292 1282
4 1294 1614 1316 1284
4 1292 1613 1617 1620
4 1618 1614 1294 1621
4 1292 1620 1298 1293
4 1301 1621 1294 1295
4 1622 1620 1617 1616
4 1618 1621 1623 1619
4 1422 763 1624 1625
4 1626 766 1423 1627
4 832 1422 1625 833
4 1627 1423 835 834
4 1419 709 602 1417
4 603 710 1420 1418
4 826 824 828 833
4 829 825 827 834
4 826 833 1625 1419
4 1627 834 827 1420
4 1419 1625 1624 709
4 1626 1627 1420 710
4 689 685 709 1624
4 710 688 692 1626
4 689 1624 763 739
4 766 1626 692 742
