ply
format ascii 1.0
comment Created by Blender 2.60 (sub 0) - www.blender.org, source file: 'meshgit_body.blend'
element vertex 1887
property float x
property float y
property float z
element face 1850
property list uchar uint vertex_indices
end_header
0.210543 -0.001056 -0.324592
0.231056 -0.002885 -0.405325
0.218327 0.112617 -0.395683
0.198319 0.109801 -0.315549
-0.218327 0.112617 -0.395683
-0.231056 -0.002885 -0.405325
-0.210543 -0.001056 -0.324592
-0.198319 0.109801 -0.315549
0.187275 0.002037 -0.255707
0.175898 0.105148 -0.247508
-0.187275 0.002037 -0.255707
-0.175898 0.105148 -0.247508
0.134155 0.166556 -0.322566
0.148288 0.171209 -0.404140
0.072721 0.203285 -0.410105
0.065893 0.195156 -0.328686
-0.072721 0.203285 -0.410105
-0.148288 0.171209 -0.404140
-0.134155 0.166556 -0.322566
-0.065893 0.195156 -0.328686
0.119277 0.158456 -0.252935
0.060051 0.182870 -0.259022
-0.119277 0.158456 -0.252935
-0.060051 0.182870 -0.259022
0.000000 0.209345 -0.417088
0.000000 0.199781 -0.336514
0.000000 0.185981 -0.267428
0.000000 -0.097544 -0.367379
0.000000 -0.096689 -0.445904
0.097188 -0.090533 -0.444223
0.086067 -0.091303 -0.364632
-0.097188 -0.090533 -0.444223
-0.086067 -0.091303 -0.364632
0.000000 -0.094163 -0.299344
0.075506 -0.088025 -0.295655
-0.075506 -0.088025 -0.295655
0.153322 -0.070159 -0.349959
0.167596 -0.074781 -0.430022
-0.167596 -0.074781 -0.430022
-0.153322 -0.070159 -0.349959
0.137740 -0.062334 -0.280965
-0.137740 -0.062334 -0.280965
0.160108 0.005907 -0.167658
0.149480 0.099081 -0.159819
-0.160108 0.005907 -0.167658
-0.149480 0.099081 -0.159819
0.121268 0.091677 -0.107150
0.130903 0.010577 -0.114448
-0.130903 0.010577 -0.114448
-0.121268 0.091677 -0.107150
0.100877 0.156105 -0.163135
0.050767 0.176282 -0.169109
-0.100877 0.156105 -0.163135
-0.050767 0.176282 -0.169109
0.081798 0.134280 -0.108277
0.041952 0.149756 -0.114001
-0.081798 0.134280 -0.108277
-0.041952 0.149756 -0.114001
0.000000 0.169342 -0.175934
0.000000 0.149756 -0.118262
0.000000 -0.087824 -0.209105
0.062154 -0.081731 -0.207240
-0.062154 -0.081731 -0.207240
0.000000 -0.078538 -0.152756
0.049009 -0.072630 -0.152756
-0.049009 -0.072630 -0.152756
0.119190 -0.051949 -0.192916
-0.119190 -0.051949 -0.192916
0.099540 -0.039440 -0.139127
-0.099540 -0.039440 -0.139127
0.228777 0.179096 -0.744011
0.228370 0.160622 -0.739885
0.269229 0.114151 -0.736967
0.275546 0.125904 -0.740670
-0.269229 0.114151 -0.736967
-0.228370 0.160622 -0.739885
-0.228777 0.179096 -0.744011
-0.275546 0.125904 -0.740670
0.286369 0.057902 -0.749607
0.278683 0.054743 -0.744774
0.245264 0.016077 -0.757306
0.248115 0.013642 -0.763951
-0.245264 0.016077 -0.757306
-0.278683 0.054743 -0.744774
-0.286369 0.057902 -0.749607
-0.248115 0.013642 -0.763951
0.189270 0.026299 -0.766724
0.184021 0.025343 -0.774732
-0.189270 0.026299 -0.766724
-0.184021 0.025343 -0.774732
0.151089 0.065833 -0.767559
0.140317 0.070595 -0.775687
-0.151089 0.065833 -0.767559
-0.140317 0.070595 -0.775687
0.147235 0.118338 -0.761297
0.135906 0.130696 -0.768519
-0.147235 0.118338 -0.761297
-0.135906 0.130696 -0.768519
0.175499 0.157985 -0.750982
0.168257 0.176078 -0.756712
-0.175499 0.157985 -0.750982
-0.168257 0.176078 -0.756712
0.281163 0.129484 -0.793089
0.288279 0.130997 -0.817270
0.243114 0.180594 -0.821002
0.237647 0.177880 -0.796511
-0.243114 0.180594 -0.821002
-0.288279 0.130997 -0.817270
-0.281163 0.129484 -0.793089
-0.237647 0.177880 -0.796511
0.279254 0.128434 -0.765818
0.233370 0.180060 -0.769255
-0.279254 0.128434 -0.765818
-0.233370 0.180060 -0.769255
0.255357 0.026982 -0.813859
0.261333 0.025734 -0.838315
0.291873 0.067063 -0.824966
0.290815 0.067288 -0.800825
-0.291873 0.067063 -0.824966
-0.261333 0.025734 -0.838315
-0.255357 0.026982 -0.813859
-0.290815 0.067288 -0.800825
0.252198 0.019292 -0.788204
0.289659 0.062267 -0.774290
-0.252198 0.019292 -0.788204
-0.289659 0.062267 -0.774290
0.196120 0.037186 -0.824083
0.200081 0.035932 -0.849037
-0.200081 0.035932 -0.849037
-0.196120 0.037186 -0.824083
0.189520 0.030423 -0.798879
-0.189520 0.030423 -0.798879
0.155339 0.078694 -0.825503
0.157688 0.078669 -0.850816
-0.157688 0.078669 -0.850816
-0.155339 0.078694 -0.825503
0.146584 0.074515 -0.800087
-0.146584 0.074515 -0.800087
0.151102 0.133771 -0.819225
0.153215 0.135346 -0.844526
-0.153215 0.135346 -0.844526
-0.151102 0.133771 -0.819225
0.142189 0.133048 -0.793254
-0.142189 0.133048 -0.793254
0.181567 0.175330 -0.808337
0.185043 0.178096 -0.833280
-0.185043 0.178096 -0.833280
-0.181567 0.175330 -0.808337
0.174114 0.177231 -0.781720
-0.174114 0.177231 -0.781720
0.278003 0.126516 -0.817424
0.240484 0.167467 -0.820596
-0.240484 0.167467 -0.820596
-0.278003 0.126516 -0.817424
0.255554 0.039518 -0.834703
0.286030 0.073651 -0.823685
-0.286030 0.073651 -0.823685
-0.255554 0.039518 -0.834703
0.204762 0.047833 -0.843654
-0.204762 0.047833 -0.843654
0.169519 0.083199 -0.845254
-0.169519 0.083199 -0.845254
0.165774 0.130090 -0.840117
-0.165774 0.130090 -0.840117
0.192296 0.165451 -0.830798
-0.192296 0.165451 -0.830798
0.280174 0.125459 -0.848525
0.245595 0.162360 -0.851688
-0.245595 0.162360 -0.851688
-0.280174 0.125459 -0.848525
0.259268 0.046771 -0.863769
0.287252 0.077560 -0.853852
-0.287252 0.077560 -0.853852
-0.259268 0.046771 -0.863769
0.212762 0.053913 -0.872165
-0.212762 0.053913 -0.872165
0.180192 0.086051 -0.874046
-0.180192 0.086051 -0.874046
0.176639 0.128621 -0.869612
-0.176639 0.128621 -0.869612
0.201361 0.160700 -0.861096
-0.201361 0.160700 -0.861096
0.219539 0.151920 -0.928440
0.256237 0.152807 -0.920523
0.267232 0.146204 -1.033368
0.235959 0.141682 -1.033904
-0.267232 0.146204 -1.033368
-0.256237 0.152807 -0.920523
-0.219539 0.151920 -0.928440
-0.235959 0.141682 -1.033904
0.198061 0.126287 -0.935402
0.220383 0.116012 -1.032716
-0.198061 0.126287 -0.935402
-0.220383 0.116012 -1.032716
0.201305 0.092190 -0.938357
0.227075 0.086635 -1.032510
-0.201305 0.092190 -0.938357
-0.227075 0.086635 -1.032510
0.228890 0.066371 -0.935733
0.253744 0.066207 -1.031105
-0.228890 0.066371 -0.935733
-0.253744 0.066207 -1.031105
0.267166 0.061715 -0.928303
0.286420 0.069875 -1.030600
-0.267166 0.061715 -0.928303
-0.286420 0.069875 -1.030600
0.285280 0.123971 -0.917250
0.290404 0.085854 -0.920586
0.303884 0.091686 -1.031306
0.295491 0.123677 -1.031489
-0.303884 0.091686 -1.031306
-0.290404 0.085854 -0.920586
-0.285280 0.123971 -0.917250
-0.295491 0.123677 -1.031489
0.308429 0.123782 -1.098841
0.270772 0.166868 -1.119015
-0.308429 0.123782 -1.098841
-0.270772 0.166868 -1.119015
0.299473 0.042739 -1.071553
0.319500 0.074617 -1.092913
-0.299473 0.042739 -1.071553
-0.319500 0.074617 -1.092913
0.260222 0.037035 -1.071553
-0.260222 0.037035 -1.071553
0.227916 0.061620 -1.092913
-0.227916 0.061620 -1.092913
0.216346 0.110560 -1.098841
-0.216346 0.110560 -1.098841
0.232927 0.161330 -1.119015
-0.232927 0.161330 -1.119015
0.268524 -0.026064 -1.106426
0.309917 -0.020049 -1.106426
-0.268524 -0.026064 -1.106426
-0.309917 -0.020049 -1.106426
0.214649 0.113122 -1.175734
0.234169 0.064488 -1.172608
-0.214649 0.113122 -1.175734
-0.234169 0.064488 -1.172608
0.312891 0.075928 -1.172608
0.309599 0.126920 -1.175734
-0.312891 0.075928 -1.172608
-0.309599 0.126920 -1.175734
0.333567 0.001761 -1.131515
0.336136 0.002641 -1.178006
-0.333567 0.001761 -1.131515
-0.336136 0.002641 -1.178006
0.233014 -0.012345 -1.178006
0.235864 -0.012438 -1.131515
-0.233014 -0.012345 -1.178006
-0.235864 -0.012438 -1.131515
0.233993 -0.086593 -1.178593
0.237828 -0.082787 -1.139739
-0.233993 -0.086593 -1.178593
-0.237828 -0.082787 -1.139739
0.347894 -0.066792 -1.139739
0.352420 -0.069383 -1.178593
-0.347894 -0.066792 -1.139739
-0.352420 -0.069383 -1.178593
0.271614 0.167224 -1.177611
0.231960 0.161462 -1.177611
-0.271614 0.167224 -1.177611
-0.231960 0.161462 -1.177611
0.276020 -0.099711 -1.125908
0.319519 -0.093390 -1.125908
-0.276020 -0.099711 -1.125908
-0.319519 -0.093390 -1.125908
0.345655 -0.104777 -1.141502
0.348697 -0.111559 -1.178593
-0.345655 -0.104777 -1.141502
-0.348697 -0.111559 -1.178593
0.249490 -0.125976 -1.178593
0.250533 -0.118600 -1.141502
-0.249490 -0.125976 -1.178593
-0.250533 -0.118600 -1.141502
0.283439 -0.132171 -1.137613
0.320719 -0.126754 -1.137613
-0.283439 -0.132171 -1.137613
-0.320719 -0.126754 -1.137613
0.285319 -0.147652 -1.178402
0.323374 -0.142122 -1.178402
-0.285319 -0.147652 -1.178402
-0.323374 -0.142122 -1.178402
0.256795 -0.121557 -1.190708
0.285400 -0.143419 -1.190482
-0.256795 -0.121557 -1.190708
-0.285400 -0.143419 -1.190482
0.321928 -0.138111 -1.190482
0.340428 -0.109403 -1.190708
-0.321928 -0.138111 -1.190482
-0.340428 -0.109403 -1.190708
0.242941 -0.083332 -1.190708
-0.242941 -0.083332 -1.190708
0.342902 -0.068806 -1.190708
-0.342902 -0.068806 -1.190708
0.234156 0.154358 -1.190482
0.222985 0.109712 -1.190489
-0.234156 0.154358 -1.190482
-0.222985 0.109712 -1.190489
0.302719 0.121299 -1.190489
0.272074 0.159868 -1.190482
-0.302719 0.121299 -1.190489
-0.272074 0.159868 -1.190482
0.328139 0.001120 -1.190489
-0.328139 0.001120 -1.190489
0.240976 -0.011546 -1.190489
-0.240976 -0.011546 -1.190489
0.241034 0.062590 -1.187630
-0.241034 0.062590 -1.187630
0.306724 0.072136 -1.187630
-0.306724 0.072136 -1.187630
0.158275 0.109331 0.126262
0.098106 0.132124 0.122530
0.094764 0.169807 0.181840
0.157257 0.138170 0.188499
-0.094764 0.169807 0.181840
-0.098106 0.132124 0.122530
-0.158275 0.109331 0.126262
-0.157257 0.138170 0.188499
0.127036 -0.022763 0.123449
0.142636 0.026867 0.128626
0.160199 -0.001118 0.167324
0.132941 -0.044377 0.135121
-0.160199 -0.001118 0.167324
-0.142636 0.026867 0.128626
-0.127036 -0.022763 0.123449
-0.132941 -0.044377 0.135121
0.162918 0.149234 0.253336
0.097693 0.177272 0.257809
0.094172 0.160624 0.295179
0.186041 0.088655 0.310494
-0.094172 0.160624 0.295179
-0.097693 0.177272 0.257809
-0.162918 0.149234 0.253336
-0.186041 0.088655 0.310494
0.128634 -0.051475 0.247835
0.163069 -0.001669 0.246745
0.181875 0.027950 0.298537
0.101983 -0.012281 0.294223
-0.181875 0.027950 0.298537
-0.163069 -0.001669 0.246745
-0.128634 -0.051475 0.247835
-0.101983 -0.012281 0.294223
0.163657 0.051071 0.151793
0.182253 0.016453 0.183750
-0.163657 0.051071 0.151793
-0.182253 0.016453 0.183750
0.191207 0.136058 0.173007
0.163472 0.105853 0.151551
-0.191207 0.136058 0.173007
-0.163472 0.105853 0.151551
0.182863 0.113936 0.150785
0.182103 0.069435 0.147550
-0.182863 0.113936 0.150785
-0.182103 0.069435 0.147550
0.201871 0.141135 0.163850
-0.201871 0.141135 0.163850
0.196279 0.040743 0.170462
-0.196279 0.040743 0.170462
0.215773 0.011372 0.207834
0.219702 0.034653 0.183267
-0.215773 0.011372 0.207834
-0.219702 0.034653 0.183267
0.219277 0.132759 0.212938
0.235868 0.131109 0.183473
-0.235868 0.131109 0.183473
-0.219277 0.132759 0.212938
0.242389 0.094984 0.220570
0.267727 0.097335 0.185156
-0.267727 0.097335 0.185156
-0.242389 0.094984 0.220570
0.235851 0.041014 0.224500
0.249030 0.058958 0.185068
-0.249030 0.058958 0.185068
-0.235851 0.041014 0.224500
0.053489 0.038804 0.385641
0.046274 0.067304 0.383376
0.047012 0.062687 0.406216
0.056119 0.033726 0.401105
-0.047012 0.062687 0.406216
-0.046274 0.067304 0.383376
-0.053489 0.038804 0.385641
-0.056119 0.033726 0.401105
0.057012 0.018832 0.382433
0.060275 0.015689 0.394952
-0.057012 0.018832 0.382433
-0.060275 0.015689 0.394952
0.042255 -0.000014 0.372437
0.043125 -0.036023 0.370001
-0.042255 -0.000014 0.372437
-0.043125 -0.036023 0.370001
0.041915 0.107509 -0.281922
0.073949 0.156329 -0.258255
0.114550 0.136149 -0.279456
0.070304 0.106030 -0.333542
-0.114550 0.136149 -0.279456
-0.073949 0.156329 -0.258255
-0.041915 0.107509 -0.281922
-0.070304 0.106030 -0.333542
0.027405 0.060449 -0.298042
0.043068 0.062839 -0.350059
-0.027405 0.060449 -0.298042
-0.043068 0.062839 -0.350059
0.028768 0.013695 -0.281738
0.042610 0.012367 -0.334831
-0.028768 0.013695 -0.281738
-0.042610 0.012367 -0.334831
0.051773 -0.034207 -0.239528
0.061917 -0.035722 -0.287341
-0.051773 -0.034207 -0.239528
-0.061917 -0.035722 -0.287341
0.089459 -0.031644 -0.143650
0.118131 -0.055244 -0.218599
-0.089459 -0.031644 -0.143650
-0.118131 -0.055244 -0.218599
0.115087 0.093425 -0.114001
0.121330 0.005187 -0.114001
0.148665 0.009864 -0.180768
0.140506 0.100441 -0.212475
-0.148665 0.009864 -0.180768
-0.121330 0.005187 -0.114001
-0.115087 0.093425 -0.114001
-0.140506 0.100441 -0.212475
0.199870 0.089512 -0.381295
0.155732 0.122499 -0.396394
-0.199870 0.089512 -0.381295
-0.155732 0.122499 -0.396394
0.168311 -0.055697 -0.392091
0.209394 -0.003990 -0.378037
-0.168311 -0.055697 -0.392091
-0.209394 -0.003990 -0.378037
0.107300 -0.044136 -0.412962
-0.107300 -0.044136 -0.412962
0.069352 0.003402 -0.425943
-0.069352 0.003402 -0.425943
0.065148 0.066551 -0.427381
-0.065148 0.066551 -0.427381
0.095723 0.113320 -0.416922
-0.095723 0.113320 -0.416922
0.195259 0.088839 -0.605360
0.224656 0.054577 -0.589623
0.232541 0.054336 -0.638227
0.201648 0.081852 -0.643135
-0.232541 0.054336 -0.638227
-0.224656 0.054577 -0.589623
-0.195259 0.088839 -0.605360
-0.201648 0.081852 -0.643135
0.227466 0.008272 -0.582130
0.237144 0.012758 -0.650010
-0.237144 0.012758 -0.650010
-0.227466 0.008272 -0.582130
0.162519 -0.019361 -0.591588
0.137120 0.010208 -0.602304
0.153091 0.021177 -0.661758
0.180838 -0.007224 -0.665693
-0.153091 0.021177 -0.661758
-0.137120 0.010208 -0.602304
-0.162519 -0.019361 -0.591588
-0.180838 -0.007224 -0.665693
0.134902 0.049722 -0.611409
0.149038 0.057115 -0.656439
-0.149038 0.057115 -0.656439
-0.134902 0.049722 -0.611409
0.156243 0.082039 -0.613791
0.165981 0.079751 -0.650908
-0.165981 0.079751 -0.650908
-0.156243 0.082039 -0.613791
0.389701 0.016829 -0.272693
0.395379 0.026132 -0.256481
0.406599 0.025901 -0.270780
0.398145 0.022821 -0.279104
-0.406599 0.025901 -0.270780
-0.395379 0.026132 -0.256481
-0.389701 0.016829 -0.272693
-0.398145 0.022821 -0.279104
0.407396 0.009223 -0.280702
0.418856 0.013238 -0.266786
0.407508 0.013082 -0.252556
0.397814 0.003357 -0.274248
-0.407508 0.013082 -0.252556
-0.418856 0.013238 -0.266786
-0.407396 0.009223 -0.280702
-0.397814 0.003357 -0.274248
0.395859 0.022106 -0.282674
0.397626 0.013766 -0.304096
0.393753 0.011224 -0.305877
0.386125 0.015375 -0.278968
-0.393753 0.011224 -0.305877
-0.397626 0.013766 -0.304096
-0.395859 0.022106 -0.282674
-0.386125 0.015375 -0.278968
0.394654 0.000671 -0.281100
0.398951 0.002919 -0.305611
0.403131 0.005660 -0.303626
0.405820 0.007502 -0.284811
-0.403131 0.005660 -0.303626
-0.398951 0.002919 -0.305611
-0.394654 0.000671 -0.281100
-0.405820 0.007502 -0.284811
0.400633 0.052424 -0.223815
0.410533 0.052191 -0.248676
0.407859 0.042317 -0.254302
0.398951 0.036110 -0.243985
-0.407859 0.042317 -0.254302
-0.410533 0.052191 -0.248676
-0.400633 0.052424 -0.223815
-0.398951 0.036110 -0.243985
0.418426 0.035050 -0.274394
0.411222 0.030249 -0.268933
-0.411222 0.030249 -0.268933
-0.418426 0.035050 -0.274394
0.420826 0.049516 -0.269195
-0.420826 0.049516 -0.269195
0.427866 0.019184 -0.260923
0.437854 0.026514 -0.263898
0.430961 0.039425 -0.220511
0.418064 0.023235 -0.236738
-0.430961 0.039425 -0.220511
-0.437854 0.026514 -0.263898
-0.427866 0.019184 -0.260923
-0.418064 0.023235 -0.236738
0.440808 0.091876 -0.323923
0.437937 0.091307 -0.329932
0.435380 0.100812 -0.329617
0.438315 0.101808 -0.323522
-0.435380 0.100812 -0.329617
-0.437937 0.091307 -0.329932
-0.440808 0.091876 -0.323923
-0.438315 0.101808 -0.323522
0.428371 0.097878 -0.319783
0.426597 0.097031 -0.323788
0.429899 0.087274 -0.324900
0.431724 0.087724 -0.320967
-0.429899 0.087274 -0.324900
-0.426597 0.097031 -0.323788
-0.428371 0.097878 -0.319783
-0.431724 0.087724 -0.320967
0.432793 0.089949 -0.337998
0.430133 0.098534 -0.337847
-0.430133 0.098534 -0.337847
-0.432793 0.089949 -0.337998
0.430202 0.089031 -0.341742
0.427477 0.097203 -0.341674
-0.427477 0.097203 -0.341674
-0.430202 0.089031 -0.341742
0.422813 0.095318 -0.332694
0.425976 0.086425 -0.333668
-0.425976 0.086425 -0.333668
-0.422813 0.095318 -0.332694
0.421173 0.094426 -0.336404
0.424284 0.085932 -0.337304
-0.424284 0.085932 -0.337304
-0.421173 0.094426 -0.336404
0.418691 0.081914 -0.355958
0.416111 0.088158 -0.355906
-0.416111 0.088158 -0.355906
-0.418691 0.081914 -0.355958
0.411729 0.085940 -0.348018
0.414000 0.080236 -0.348353
-0.414000 0.080236 -0.348353
-0.411729 0.085940 -0.348018
0.449686 0.084857 -0.301074
0.443878 0.088935 -0.307777
0.440980 0.101011 -0.306803
0.442504 0.100668 -0.298515
-0.440980 0.101011 -0.306803
-0.443878 0.088935 -0.307777
-0.449686 0.084857 -0.301074
-0.442504 0.100668 -0.298515
0.428527 0.097119 -0.301131
0.428388 0.097255 -0.306805
0.432112 0.085076 -0.308433
0.433570 0.081557 -0.303983
-0.432112 0.085076 -0.308433
-0.428388 0.097255 -0.306805
-0.428527 0.097119 -0.301131
-0.433570 0.081557 -0.303983
0.435758 0.078197 -0.310581
0.438940 0.065152 -0.311749
0.437918 0.062604 -0.305540
-0.438940 0.065152 -0.311749
-0.435758 0.078197 -0.310581
-0.437918 0.062604 -0.305540
0.455901 0.061444 -0.302699
0.454114 0.066402 -0.311801
0.451419 0.081680 -0.310773
-0.451419 0.081680 -0.310773
-0.454114 0.066402 -0.311801
-0.455901 0.061444 -0.302699
0.427481 0.074494 -0.350366
0.415667 0.067735 -0.362633
0.416995 0.060800 -0.362665
0.429280 0.063318 -0.351069
-0.416995 0.060800 -0.362665
-0.415667 0.067735 -0.362633
-0.427481 0.074494 -0.350366
-0.429280 0.063318 -0.351069
0.437494 0.065370 -0.356425
0.422650 0.061247 -0.371248
0.421157 0.068635 -0.371524
0.436134 0.076001 -0.356730
-0.421157 0.068635 -0.371524
-0.422650 0.061247 -0.371248
-0.437494 0.065370 -0.356425
-0.436134 0.076001 -0.356730
0.429489 0.075461 -0.345713
0.431261 0.063779 -0.346494
-0.429489 0.075461 -0.345713
-0.431261 0.063779 -0.346494
0.434021 0.077294 -0.334536
0.435761 0.064516 -0.335458
-0.434021 0.077294 -0.334536
-0.435761 0.064516 -0.335458
0.440666 0.066144 -0.351691
0.439479 0.077270 -0.351902
-0.440666 0.066144 -0.351691
-0.439479 0.077270 -0.351902
0.446818 0.067159 -0.341496
0.445969 0.079396 -0.341526
-0.446818 0.067159 -0.341496
-0.445969 0.079396 -0.341526
0.436171 0.078182 -0.329475
0.437906 0.064951 -0.330468
-0.437906 0.064951 -0.330468
-0.436171 0.078182 -0.329475
0.450157 0.067627 -0.333909
0.449448 0.080371 -0.333834
-0.449448 0.080371 -0.333834
-0.450157 0.067627 -0.333909
0.448647 0.037373 -0.334443
0.444682 0.036441 -0.342304
0.445904 0.049476 -0.343950
0.450141 0.050905 -0.336062
-0.445904 0.049476 -0.343950
-0.444682 0.036441 -0.342304
-0.448647 0.037373 -0.334443
-0.450141 0.050905 -0.336062
0.436665 0.053257 -0.330967
0.433975 0.051999 -0.336124
0.433495 0.037968 -0.335418
0.436075 0.038744 -0.330265
-0.433495 0.037968 -0.335418
-0.433975 0.051999 -0.336124
-0.436665 0.053257 -0.330967
-0.436075 0.038744 -0.330265
0.437571 0.035288 -0.352769
0.438251 0.047229 -0.354445
-0.438251 0.047229 -0.354445
-0.437571 0.035288 -0.352769
0.433900 0.034531 -0.357582
0.434314 0.045987 -0.359287
-0.434314 0.045987 -0.359287
-0.433900 0.034531 -0.357582
0.428293 0.049350 -0.347537
0.428040 0.036480 -0.346836
-0.428040 0.036480 -0.346836
-0.428293 0.049350 -0.347537
0.425770 0.048071 -0.352260
0.425636 0.035734 -0.351547
-0.425636 0.035734 -0.351547
-0.425770 0.048071 -0.352260
0.418747 0.034728 -0.372124
0.420260 0.041963 -0.371301
-0.420260 0.041963 -0.371301
-0.418747 0.034728 -0.372124
0.412700 0.044266 -0.364028
0.412762 0.036892 -0.363090
-0.412762 0.036892 -0.363090
-0.412700 0.044266 -0.364028
0.452894 0.039128 -0.300393
0.452096 0.040525 -0.309995
0.454701 0.056235 -0.311601
-0.454701 0.056235 -0.311601
-0.452096 0.040525 -0.309995
-0.452894 0.039128 -0.300393
0.438183 0.058496 -0.311184
0.437339 0.044107 -0.310200
0.435748 0.042865 -0.303740
-0.437339 0.044107 -0.310200
-0.438183 0.058496 -0.311184
-0.435748 0.042865 -0.303740
0.453510 0.061859 -0.262794
0.446667 0.041204 -0.262616
-0.446667 0.041204 -0.262616
-0.453510 0.061859 -0.262794
0.446693 0.022053 -0.296959
-0.446693 0.022053 -0.296959
0.439254 0.098725 -0.255365
0.448333 0.084102 -0.261505
-0.448333 0.084102 -0.261505
-0.439254 0.098725 -0.255365
0.423250 0.066597 -0.266784
0.423941 0.083957 -0.264736
-0.423941 0.083957 -0.264736
-0.423250 0.066597 -0.266784
0.423593 0.100136 -0.258729
-0.423593 0.100136 -0.258729
0.431656 0.025157 -0.300831
-0.431656 0.025157 -0.300831
0.434500 0.037978 -0.308142
0.431178 0.023468 -0.306437
-0.431178 0.023468 -0.306437
-0.434500 0.037978 -0.308142
0.444854 0.019829 -0.305614
0.449408 0.033805 -0.307871
-0.449408 0.033805 -0.307871
-0.444854 0.019829 -0.305614
0.421378 0.027059 -0.344327
0.408882 0.026440 -0.355810
0.408052 0.019568 -0.354451
0.419803 0.015801 -0.342875
-0.408052 0.019568 -0.354451
-0.408882 0.026440 -0.355810
-0.421378 0.027059 -0.344327
-0.419803 0.015801 -0.342875
0.427174 0.012882 -0.348450
0.412457 0.015879 -0.362835
0.413619 0.023203 -0.364601
0.428897 0.023208 -0.350730
-0.413619 0.023203 -0.364601
-0.412457 0.015879 -0.362835
-0.427174 0.012882 -0.348450
-0.428897 0.023208 -0.350730
0.423863 0.028219 -0.340033
0.422115 0.016489 -0.338574
-0.423863 0.028219 -0.340033
-0.422115 0.016489 -0.338574
0.429442 0.030688 -0.329591
0.427344 0.017922 -0.328117
-0.429442 0.030688 -0.329591
-0.427344 0.017922 -0.328117
0.430647 0.013388 -0.344058
0.432674 0.024121 -0.346310
-0.430647 0.013388 -0.344058
-0.432674 0.024121 -0.346310
0.437344 0.014173 -0.334469
0.440003 0.025835 -0.336688
-0.437344 0.014173 -0.334469
-0.440003 0.025835 -0.336688
0.432087 0.031842 -0.324889
0.429812 0.018622 -0.323421
-0.429812 0.018622 -0.323421
-0.432087 0.031842 -0.324889
0.441125 0.015050 -0.327259
0.444096 0.027131 -0.329452
-0.444096 0.027131 -0.329452
-0.441125 0.015050 -0.327259
0.443610 0.043998 -0.241026
0.449353 0.062225 -0.241164
0.443246 0.062051 -0.216490
-0.449353 0.062225 -0.241164
-0.443610 0.043998 -0.241026
-0.443246 0.062051 -0.216490
0.441082 0.085660 -0.221922
0.446890 0.080304 -0.243076
-0.446890 0.080304 -0.243076
-0.441082 0.085660 -0.221922
0.413482 0.091537 -0.226718
0.418133 0.083582 -0.246881
0.414259 0.068584 -0.246665
0.402973 0.073278 -0.224336
-0.414259 0.068584 -0.246665
-0.418133 0.083582 -0.246881
-0.413482 0.091537 -0.226718
-0.402973 0.073278 -0.224336
0.399155 0.019642 -0.251743
0.391970 0.009004 -0.272193
-0.391970 0.009004 -0.272193
-0.399155 0.019642 -0.251743
0.414865 0.019611 -0.271575
0.404471 0.017246 -0.281165
-0.404471 0.017246 -0.281165
-0.414865 0.019611 -0.271575
0.400696 0.009852 -0.304302
0.402830 0.016205 -0.284459
-0.402830 0.016205 -0.284459
-0.400696 0.009852 -0.304302
0.396043 0.006798 -0.306539
0.388306 0.006767 -0.279298
-0.388306 0.006767 -0.279298
-0.396043 0.006798 -0.306539
0.428766 0.027450 -0.274519
0.421528 0.023842 -0.269530
-0.421528 0.023842 -0.269530
-0.428766 0.027450 -0.274519
0.410102 0.040873 -0.220621
0.405677 0.029526 -0.235761
-0.405677 0.029526 -0.235761
-0.410102 0.040873 -0.220621
0.412505 0.087433 -0.352248
0.415565 0.079783 -0.352571
-0.415565 0.079783 -0.352571
-0.412505 0.087433 -0.352248
0.430374 0.100781 -0.326533
0.432724 0.101774 -0.321479
-0.432724 0.101774 -0.321479
-0.430374 0.100781 -0.326533
0.434448 0.087392 -0.327532
0.436790 0.087829 -0.322584
-0.436790 0.087829 -0.322584
-0.434448 0.087392 -0.327532
0.425870 0.098601 -0.335135
-0.425870 0.098601 -0.335135
0.423726 0.097420 -0.338918
-0.423726 0.097420 -0.338918
0.429917 0.086479 -0.335921
-0.429917 0.086479 -0.335921
0.427780 0.085846 -0.339597
-0.427780 0.085846 -0.339597
0.434008 0.101452 -0.306560
0.434402 0.101510 -0.299475
-0.434402 0.101510 -0.299475
-0.434008 0.101452 -0.306560
0.438479 0.084849 -0.308414
0.441588 0.083682 -0.303961
-0.441588 0.083682 -0.303961
-0.438479 0.084849 -0.308414
0.447015 0.063292 -0.312083
0.447762 0.061895 -0.305992
-0.447762 0.061895 -0.305992
-0.447015 0.063292 -0.312083
0.443008 0.082419 -0.310565
-0.443008 0.082419 -0.310565
0.418761 0.059771 -0.367443
0.433652 0.062215 -0.353761
-0.433652 0.062215 -0.353761
-0.418761 0.059771 -0.367443
0.417050 0.068847 -0.367555
0.431456 0.077359 -0.353476
-0.431456 0.077359 -0.353476
-0.417050 0.068847 -0.367555
0.436206 0.062743 -0.349122
-0.436206 0.062743 -0.349122
0.441486 0.063385 -0.338536
-0.441486 0.063385 -0.338536
0.434144 0.078563 -0.348721
-0.434144 0.078563 -0.348721
0.439684 0.080774 -0.337908
-0.439684 0.080774 -0.337908
0.444206 0.063750 -0.332276
-0.444206 0.063750 -0.332276
0.442507 0.081791 -0.331528
-0.442507 0.081791 -0.331528
0.414720 0.044327 -0.369513
0.414099 0.034712 -0.368184
-0.414099 0.034712 -0.368184
-0.414720 0.044327 -0.369513
0.440048 0.053390 -0.340226
0.443537 0.054820 -0.333713
-0.443537 0.054820 -0.333713
-0.440048 0.053390 -0.340226
0.438865 0.034573 -0.338600
0.442097 0.035339 -0.332109
-0.442097 0.035339 -0.332109
-0.438865 0.034573 -0.338600
0.433309 0.050702 -0.351186
-0.433309 0.050702 -0.351186
0.430052 0.049351 -0.355972
-0.430052 0.049351 -0.355972
0.432670 0.033488 -0.349543
-0.432670 0.033488 -0.349543
0.429672 0.032826 -0.354302
-0.429672 0.032826 -0.354302
0.446720 0.060029 -0.311725
-0.446720 0.060029 -0.311725
0.444370 0.039646 -0.309962
0.444656 0.040548 -0.303496
-0.444656 0.040548 -0.303496
-0.444370 0.039646 -0.309962
0.438193 0.020620 -0.298454
-0.438193 0.020620 -0.298454
0.430661 0.102643 -0.256177
-0.430661 0.102643 -0.256177
0.437185 0.018918 -0.305657
-0.437185 0.018918 -0.305657
0.442607 0.038439 -0.308433
-0.442607 0.038439 -0.308433
0.408825 0.016965 -0.358723
0.423130 0.012259 -0.345274
-0.423130 0.012259 -0.345274
-0.408825 0.016965 -0.358723
0.410162 0.025860 -0.360853
0.425420 0.027250 -0.347858
-0.425420 0.027250 -0.347858
-0.410162 0.025860 -0.360853
0.425976 0.012779 -0.340928
-0.425976 0.012779 -0.340928
0.431828 0.013684 -0.330904
-0.431828 0.013684 -0.330904
0.428587 0.028366 -0.343499
-0.428587 0.028366 -0.343499
0.435135 0.030668 -0.333462
-0.435135 0.030668 -0.333462
0.434904 0.014395 -0.324966
-0.434904 0.014395 -0.324966
0.438539 0.031969 -0.327502
-0.438539 0.031969 -0.327502
0.427994 0.096454 -0.223564
-0.427994 0.096454 -0.223564
0.425716 0.047963 -0.198658
0.435721 0.062178 -0.195639
-0.425716 0.047963 -0.198658
-0.435721 0.062178 -0.195639
0.434770 0.079656 -0.198082
-0.434770 0.079656 -0.198082
0.424460 0.089507 -0.202301
-0.424460 0.089507 -0.202301
0.411733 0.085956 -0.207295
-0.411733 0.085956 -0.207295
0.410930 0.049119 -0.204280
-0.410930 0.049119 -0.204280
0.403275 0.058754 -0.207534
-0.403275 0.058754 -0.207534
0.403948 0.073619 -0.208751
-0.403948 0.073619 -0.208751
0.083368 0.160574 -0.168730
-0.083368 0.160574 -0.168730
0.080184 0.122937 -0.115686
-0.080184 0.122937 -0.115686
0.000000 -0.078642 0.128558
0.069651 -0.075808 0.121163
0.076639 -0.082289 0.131327
0.000000 -0.078380 0.147892
-0.076639 -0.082289 0.131327
-0.069651 -0.075808 0.121163
0.028220 0.138582 0.122530
0.000000 0.121232 0.122530
0.000000 0.143910 0.181407
0.041206 0.170306 0.182191
-0.028220 0.138582 0.122530
-0.041206 0.170306 0.182191
0.000000 -0.076021 0.228530
0.075887 -0.079104 0.233485
0.057634 -0.030490 0.293600
0.000000 -0.044665 0.266159
-0.057634 -0.030490 0.293600
-0.075887 -0.079104 0.233485
0.060350 0.172786 0.240601
0.000000 0.148435 0.238956
0.000000 0.132547 0.290047
0.046968 0.156144 0.294581
-0.060350 0.172786 0.240601
-0.046968 0.156144 0.294581
0.020281 0.082025 0.381783
0.000000 0.089143 0.378507
0.000000 0.084324 0.413371
0.020485 0.077873 0.410847
-0.020281 0.082025 0.381783
-0.020485 0.077873 0.410847
0.031422 0.043520 0.589521
0.000000 0.043771 0.593353
0.000000 -0.015393 0.592012
0.031251 -0.010224 0.588333
-0.031422 0.043520 0.589521
-0.031251 -0.010224 0.588333
0.026429 0.086127 0.570131
0.000000 0.090386 0.571523
-0.026429 0.086127 0.570131
0.043731 -0.063774 -0.156003
0.000000 -0.068230 -0.156003
0.000000 -0.049512 -0.221985
0.033826 -0.046825 -0.223737
-0.043731 -0.063774 -0.156003
-0.033826 -0.046825 -0.223737
0.000000 0.004468 -0.283423
0.016879 0.007192 -0.279229
-0.016879 0.007192 -0.279229
0.000000 0.055006 -0.297740
0.012517 0.056797 -0.296847
-0.012517 0.056797 -0.296847
0.000000 0.102636 -0.281826
0.016266 0.104911 -0.281485
-0.016266 0.104911 -0.281485
0.000000 0.134629 -0.243037
0.030403 0.154521 -0.250265
-0.030403 0.154521 -0.250265
0.000000 0.139488 -0.172763
0.032364 0.167689 -0.172747
-0.032364 0.167689 -0.172747
0.000000 0.127885 -0.127211
0.038617 0.131547 -0.122147
-0.038617 0.131547 -0.122147
0.023363 -0.018167 0.362541
0.024560 -0.064292 0.357273
-0.023363 -0.018167 0.362541
-0.024560 -0.064292 0.357273
0.059645 0.038594 0.571057
0.059325 -0.001514 0.570141
-0.059645 0.038594 0.571057
-0.059325 -0.001514 0.570141
0.052280 0.067435 0.560035
-0.052280 0.067435 0.560035
0.075956 0.034605 0.490304
0.075795 0.035845 0.539023
0.076381 0.010186 0.538430
0.075190 0.020454 0.487754
-0.076381 0.010186 0.538430
-0.075795 0.035845 0.539023
-0.075956 0.034605 0.490304
-0.075190 0.020454 0.487754
0.067509 0.084326 0.493760
0.061020 0.077816 0.536327
-0.061020 0.077816 0.536327
-0.067509 0.084326 0.493760
0.000000 0.121253 0.509563
0.000000 0.110794 0.542031
0.028368 0.107832 0.539402
0.028522 0.118510 0.505313
-0.028368 0.107832 0.539402
-0.028522 0.118510 0.505313
0.065046 0.079787 0.444514
0.066672 0.082799 0.468064
0.076187 0.045396 0.465009
0.070790 0.033517 0.438494
-0.076187 0.045396 0.465009
-0.066672 0.082799 0.468064
-0.065046 0.079787 0.444514
-0.070790 0.033517 0.438494
0.028350 0.115375 0.478220
0.000000 0.119276 0.479823
-0.028350 0.115375 0.478220
0.028207 0.112775 0.455744
0.000000 0.117635 0.457621
-0.028207 0.112775 0.455744
0.062568 0.033356 0.418312
0.067580 0.022413 0.416380
-0.067580 0.022413 0.416380
-0.062568 0.033356 0.418312
0.070876 0.021300 0.442143
-0.070876 0.021300 0.442143
0.057300 0.068636 0.427145
-0.057300 0.068636 0.427145
0.023634 0.095391 0.432885
0.000000 0.099879 0.434417
-0.023634 0.095391 0.432885
0.042585 -0.057340 0.408424
0.035029 -0.065206 0.422359
0.029187 -0.070008 0.412731
0.034145 -0.065142 0.406984
-0.029187 -0.070008 0.412731
-0.035029 -0.065206 0.422359
-0.042585 -0.057340 0.408424
-0.034145 -0.065142 0.406984
0.035421 -0.057163 0.394578
0.029146 -0.068627 0.402586
-0.035421 -0.057163 0.394578
-0.029146 -0.068627 0.402586
0.018857 -0.077242 0.379487
0.018954 -0.077168 0.395858
-0.018857 -0.077242 0.379487
-0.018954 -0.077168 0.395858
0.008160 -0.081265 0.432591
0.000000 -0.084541 0.429111
0.000000 -0.083983 0.420128
0.007430 -0.081983 0.420636
-0.008160 -0.081265 0.432591
-0.007430 -0.081983 0.420636
0.077262 0.050527 0.447786
0.086001 0.059434 0.477628
0.090164 0.056965 0.477325
0.082804 0.048167 0.447044
-0.090164 0.056965 0.477325
-0.086001 0.059434 0.477628
-0.077262 0.050527 0.447786
-0.082804 0.048167 0.447044
0.078550 0.047035 0.467694
0.073089 0.040340 0.437331
-0.073089 0.040340 0.437331
-0.078550 0.047035 0.467694
0.078783 0.036850 0.493057
-0.078783 0.036850 0.493057
0.083297 0.044741 0.491904
-0.083297 0.044741 0.491904
0.078496 0.032636 0.436532
-0.078496 0.032636 0.436532
0.083679 0.033709 0.492157
-0.083679 0.033709 0.492157
0.216816 0.135583 -0.708773
0.173930 0.133283 -0.717918
-0.173930 0.133283 -0.717918
-0.216816 0.135583 -0.708773
0.231985 0.162644 -0.774411
0.181878 0.160145 -0.784927
-0.181878 0.160145 -0.784927
-0.231985 0.162644 -0.774411
0.152065 0.093343 -0.725571
-0.152065 0.093343 -0.725571
0.155092 0.122571 -0.794703
-0.155092 0.122571 -0.794703
0.155918 0.050494 -0.731198
-0.155918 0.050494 -0.731198
0.158745 0.072811 -0.800637
-0.158745 0.072811 -0.800637
0.186319 0.017906 -0.732921
-0.186319 0.017906 -0.732921
0.194929 0.035344 -0.799847
-0.194929 0.035344 -0.799847
0.247996 0.025657 -0.790921
0.231391 0.008955 -0.726664
-0.247996 0.025657 -0.790921
-0.231391 0.008955 -0.726664
0.258406 0.041029 -0.714527
0.251624 0.096856 -0.704936
-0.251624 0.096856 -0.704936
-0.258406 0.041029 -0.714527
0.279668 0.062301 -0.779044
0.270707 0.118603 -0.771645
-0.270707 0.118603 -0.771645
-0.279668 0.062301 -0.779044
0.178254 0.118289 -0.500788
0.120205 0.108941 -0.517874
-0.120205 0.108941 -0.517874
-0.178254 0.118289 -0.500788
0.089805 0.062623 -0.522815
-0.089805 0.062623 -0.522815
0.093581 0.002407 -0.516818
-0.093581 0.002407 -0.516818
0.130699 -0.042822 -0.502978
-0.130699 -0.042822 -0.502978
0.189595 -0.053138 -0.485463
-0.189595 -0.053138 -0.485463
0.192293 -0.025338 -0.555341
-0.192293 -0.025338 -0.555341
0.228650 -0.003125 -0.476664
0.221344 0.079155 -0.482845
-0.221344 0.079155 -0.482845
-0.228650 -0.003125 -0.476664
0.235472 0.008229 -0.685446
0.221424 -0.004079 -0.699830
-0.235472 0.008229 -0.685446
-0.221424 -0.004079 -0.699830
0.201931 -0.002885 -0.693993
-0.201931 -0.002885 -0.693993
0.228745 -0.004244 -0.652614
-0.228745 -0.004244 -0.652614
0.191178 -0.017818 -0.661900
-0.191178 -0.017818 -0.661900
0.189439 -0.024788 -0.627139
-0.189439 -0.024788 -0.627139
0.220121 -0.012319 -0.621701
-0.220121 -0.012319 -0.621701
0.203720 -0.025425 -0.612552
-0.203720 -0.025425 -0.612552
0.211386 -0.016574 -0.657428
-0.211386 -0.016574 -0.657428
0.115539 -0.000797 0.005096
0.138840 0.012985 0.067430
0.085481 -0.020025 0.064500
0.090959 -0.030951 0.018610
-0.085481 -0.020025 0.064500
-0.138840 0.012985 0.067430
-0.115539 -0.000797 0.005096
-0.090959 -0.030951 0.018610
0.078210 0.095637 -0.013892
0.097526 0.104934 0.054319
0.142516 0.087970 0.062660
0.113925 0.066610 -0.008177
-0.142516 0.087970 0.062660
-0.097526 0.104934 0.054319
-0.078210 0.095637 -0.013892
-0.113925 0.066610 -0.008177
0.000000 0.099895 -0.017362
0.000000 0.108908 0.052584
0.040996 0.119098 0.073310
0.018171 0.111226 -0.016961
-0.040996 0.119098 0.073310
-0.018171 0.111226 -0.016961
0.054252 -0.061596 0.035991
0.053138 -0.057272 0.087097
0.000000 -0.069144 0.098646
0.000000 -0.068937 0.044820
-0.053138 -0.057272 0.087097
-0.054252 -0.061596 0.035991
0.120018 0.036655 0.321627
0.099784 0.000044 0.299447
-0.099784 0.000044 0.299447
-0.120018 0.036655 0.321627
0.078610 0.036532 0.342384
0.065220 0.007659 0.330078
-0.065220 0.007659 0.330078
-0.078610 0.036532 0.342384
0.119812 0.069824 0.328325
-0.119812 0.069824 0.328325
0.078096 0.059821 0.351582
-0.078096 0.059821 0.351582
0.078479 0.124736 0.327497
-0.078479 0.124736 0.327497
0.066723 0.094285 0.354475
-0.066723 0.094285 0.354475
0.000000 0.119881 0.317035
0.038469 0.137257 0.325824
-0.038469 0.137257 0.325824
0.000000 0.104809 0.339759
0.025792 0.116964 0.345731
-0.025792 0.116964 0.345731
0.054002 -0.014674 0.297095
-0.054002 -0.014674 0.297095
0.036805 -0.009355 0.322269
-0.036805 -0.009355 0.322269
0.000000 -0.023057 0.360364
0.011682 -0.018282 0.361883
0.012280 -0.067483 0.354368
0.000000 -0.069092 0.354232
-0.012280 -0.067483 0.354368
-0.011682 -0.018282 0.361883
0.000000 -0.080470 0.380073
0.009483 -0.078544 0.380882
0.009164 -0.080402 0.394526
0.000000 -0.082516 0.395419
-0.009164 -0.080402 0.394526
-0.009483 -0.078544 0.380882
0.018200 -0.009192 0.313273
0.026174 -0.020190 0.295691
-0.026174 -0.020190 0.295691
-0.018200 -0.009192 0.313273
0.000000 -0.003732 0.312560
0.000000 -0.007822 0.284412
0.000000 -0.031702 0.273309
0.024386 -0.027627 0.285612
-0.024386 -0.027627 0.285612
0.062207 0.032727 0.360342
0.050994 0.005845 0.350134
-0.050994 0.005845 0.350134
-0.062207 0.032727 0.360342
0.061639 0.048015 0.368188
-0.061639 0.048015 0.368188
0.054131 0.078217 0.369698
-0.054131 0.078217 0.369698
0.000000 0.096689 0.361265
0.023029 0.098553 0.362717
-0.023029 0.098553 0.362717
0.030084 -0.009372 0.340740
-0.030084 -0.009372 0.340740
0.014941 -0.007380 0.339394
0.000000 -0.018594 0.336989
-0.014941 -0.007380 0.339394
0.021008 -0.079640 0.370728
0.041317 -0.051112 0.390616
-0.041317 -0.051112 0.390616
-0.021008 -0.079640 0.370728
0.010568 -0.084171 0.369992
0.000000 -0.083672 0.369682
-0.010568 -0.084171 0.369992
0.025288 -0.074272 0.429548
0.022392 -0.075284 0.418291
-0.022392 -0.075284 0.418291
-0.025288 -0.074272 0.429548
0.000000 -0.085730 0.480522
0.005416 -0.079912 0.480586
0.004985 -0.083326 0.490155
0.000000 -0.087604 0.489794
-0.004985 -0.083326 0.490155
-0.005416 -0.079912 0.480586
0.000000 -0.088779 0.502517
0.017880 -0.087863 0.503620
-0.017880 -0.087863 0.503620
0.000000 -0.088946 0.469119
0.005613 -0.084507 0.468569
-0.005613 -0.084507 0.468569
0.000000 -0.099366 0.452495
0.006271 -0.095695 0.451488
0.006365 -0.089802 0.458419
0.000000 -0.094050 0.460403
-0.006365 -0.089802 0.458419
-0.006271 -0.095695 0.451488
0.008856 -0.091446 0.448393
0.012396 -0.083060 0.452271
-0.012396 -0.083060 0.452271
-0.008856 -0.091446 0.448393
0.000000 -0.051101 0.576851
0.027392 -0.044989 0.573690
-0.027392 -0.044989 0.573690
0.000000 -0.084995 0.542336
0.023534 -0.074008 0.541204
-0.023534 -0.074008 0.541204
0.054948 -0.032065 0.557828
-0.054948 -0.032065 0.557828
0.050571 -0.060500 0.536140
-0.050571 -0.060500 0.536140
0.073049 -0.020432 0.533120
0.074664 0.000326 0.485998
-0.074664 0.000326 0.485998
-0.073049 -0.020432 0.533120
0.069717 -0.041978 0.518436
0.074137 -0.028597 0.484241
-0.074137 -0.028597 0.484241
-0.069717 -0.041978 0.518436
0.070414 0.001423 0.461817
0.073710 0.011653 0.463520
-0.070414 0.001423 0.461817
-0.073710 0.011653 0.463520
0.067117 -0.026721 0.460113
-0.067117 -0.026721 0.460113
0.022784 -0.073662 0.359016
0.043131 -0.040999 0.376102
-0.043131 -0.040999 0.376102
-0.022784 -0.073662 0.359016
0.056516 -0.010522 0.395184
-0.056516 -0.010522 0.395184
0.052757 -0.036690 0.399985
-0.052757 -0.036690 0.399985
0.011424 -0.076824 0.355957
0.000000 -0.078403 0.355661
-0.011424 -0.076824 0.355957
0.063327 0.002584 0.437337
-0.063327 0.002584 0.437337
0.064015 -0.000290 0.418466
-0.064015 -0.000290 0.418466
0.060449 -0.034248 0.420552
-0.060449 -0.034248 0.420552
0.009846 -0.076715 0.480976
0.009468 -0.080391 0.468295
-0.009846 -0.076715 0.480976
-0.009468 -0.080391 0.468295
0.014836 -0.078047 0.435384
0.015095 -0.079096 0.421622
-0.015095 -0.079096 0.421622
-0.014836 -0.078047 0.435384
0.012707 -0.091949 0.447111
0.015867 -0.086177 0.448476
-0.015867 -0.086177 0.448476
-0.012707 -0.091949 0.447111
0.007018 -0.101690 0.445649
-0.007018 -0.101690 0.445649
0.000000 -0.105766 0.445663
0.000000 -0.099828 0.432981
0.000000 -0.092149 0.432116
0.003343 -0.090585 0.434057
0.004197 -0.094012 0.434997
-0.003343 -0.090585 0.434057
-0.004197 -0.094012 0.434997
0.004870 -0.086466 0.432472
-0.004870 -0.086466 0.432472
0.016688 -0.085970 0.436897
0.014836 -0.090991 0.436857
0.011529 -0.089988 0.437190
0.012824 -0.086523 0.437046
-0.011529 -0.089988 0.437190
-0.014836 -0.090991 0.436857
-0.016688 -0.085970 0.436897
-0.012824 -0.086523 0.437046
0.011694 -0.083209 0.435874
-0.011694 -0.083209 0.435874
0.006483 -0.096556 0.435098
0.007524 -0.092978 0.436804
-0.006483 -0.096556 0.435098
-0.007524 -0.092978 0.436804
0.007600 -0.084035 0.434839
-0.007600 -0.084035 0.434839
0.006899 -0.085942 0.440309
0.004842 -0.087119 0.438865
-0.006899 -0.085942 0.440309
-0.004842 -0.087119 0.438865
0.009331 -0.085235 0.440365
-0.009331 -0.085235 0.440365
0.006854 -0.090471 0.441378
0.009255 -0.089194 0.441187
-0.006854 -0.090471 0.441378
-0.009255 -0.089194 0.441187
0.004821 -0.091365 0.440140
-0.004821 -0.091365 0.440140
0.009478 -0.087151 0.441458
-0.009478 -0.087151 0.441458
0.004499 -0.089290 0.440135
-0.004499 -0.089290 0.440135
0.006450 -0.088056 0.443153
-0.006450 -0.088056 0.443153
0.054191 -0.065646 0.448063
0.044036 -0.065132 0.431006
0.055392 -0.044509 0.413516
-0.055392 -0.044509 0.413516
-0.044036 -0.065132 0.431006
-0.054191 -0.065646 0.448063
0.030184 -0.076925 0.452461
0.028527 -0.074758 0.439782
-0.028527 -0.074758 0.439782
-0.030184 -0.076925 0.452461
0.016700 -0.080920 0.443944
-0.016700 -0.080920 0.443944
0.018156 -0.085293 0.443274
0.015651 -0.091470 0.442572
-0.015651 -0.091470 0.442572
-0.018156 -0.085293 0.443274
0.007115 -0.100299 0.438651
-0.007115 -0.100299 0.438651
0.000000 -0.103590 0.437289
0.063327 -0.029601 0.437337
-0.063327 -0.029601 0.437337
0.046643 -0.073496 0.512960
-0.046643 -0.073496 0.512960
0.063172 -0.047171 0.482144
0.059159 -0.055237 0.469128
-0.059159 -0.055237 0.469128
-0.063172 -0.047171 0.482144
0.062327 -0.058034 0.503844
-0.062327 -0.058034 0.503844
0.048498 -0.068347 0.463495
-0.048498 -0.068347 0.463495
0.029706 -0.074830 0.464482
-0.029706 -0.074830 0.464482
0.017412 -0.082732 0.415105
0.022640 -0.077125 0.413640
-0.022640 -0.077125 0.413640
-0.017412 -0.082732 0.415105
0.009438 -0.086813 0.414742
-0.009438 -0.086813 0.414742
0.008030 -0.078754 0.408580
0.016103 -0.076334 0.408553
-0.016103 -0.076334 0.408553
-0.008030 -0.078754 0.408580
0.028012 -0.071380 0.410672
-0.028012 -0.071380 0.410672
0.009781 -0.084378 0.401281
0.000000 -0.085681 0.400300
-0.009781 -0.084378 0.401281
0.008172 -0.078667 0.408580
0.000000 -0.080568 0.407995
-0.008172 -0.078667 0.408580
0.018786 -0.080790 0.402252
-0.018786 -0.080790 0.402252
0.016200 -0.076437 0.408553
-0.016200 -0.076437 0.408553
0.028022 -0.071053 0.404923
-0.028022 -0.071053 0.404923
0.026898 -0.070649 0.407862
-0.026898 -0.070649 0.407862
0.000000 -0.084728 0.415847
0.000000 -0.080684 0.407995
0.026720 -0.070756 0.407862
-0.026720 -0.070756 0.407862
0.040186 -0.067914 0.496528
0.051318 -0.058376 0.490813
-0.051318 -0.058376 0.490813
-0.040186 -0.067914 0.496528
0.034261 -0.065279 0.487692
0.043470 -0.060927 0.485981
-0.043470 -0.060927 0.485981
-0.034261 -0.065279 0.487692
0.055672 -0.051489 0.482403
-0.055672 -0.051489 0.482403
0.047816 -0.057039 0.482663
-0.047816 -0.057039 0.482663
0.051159 -0.057794 0.474441
-0.051159 -0.057794 0.474441
0.043240 -0.060984 0.479511
-0.043240 -0.060984 0.479511
0.040951 -0.066362 0.470288
-0.040951 -0.066362 0.470288
0.034133 -0.065140 0.477012
-0.034133 -0.065140 0.477012
0.021886 -0.078042 0.493340
-0.021886 -0.078042 0.493340
0.025820 -0.069448 0.486152
-0.025820 -0.069448 0.486152
0.014604 -0.071393 0.481123
0.020486 -0.068241 0.479757
-0.020486 -0.068241 0.479757
-0.014604 -0.071393 0.481123
0.027400 -0.067284 0.477402
0.028487 -0.070300 0.471096
-0.028487 -0.070300 0.471096
-0.027400 -0.067284 0.477402
0.015300 -0.074256 0.473317
-0.015300 -0.074256 0.473317
0.012641 -0.080684 0.491747
-0.012641 -0.080684 0.491747
0.260658 0.032161 0.137467
0.288138 0.060958 0.156326
-0.288138 0.060958 0.156326
-0.260658 0.032161 0.137467
0.286356 0.036264 0.100187
0.312152 0.065101 0.121104
-0.312152 0.065101 0.121104
-0.286356 0.036264 0.100187
0.288654 0.106384 0.160717
-0.288654 0.106384 0.160717
0.312215 0.110456 0.125501
-0.312215 0.110456 0.125501
0.261863 0.139441 0.147744
-0.261863 0.139441 0.147744
0.279206 0.143237 0.114985
-0.279206 0.143237 0.114985
0.226431 0.143077 0.122860
-0.226431 0.143077 0.122860
0.252994 0.139765 0.082730
-0.252994 0.139765 0.082730
0.225371 0.041806 0.113897
-0.225371 0.041806 0.113897
0.252866 0.045867 0.073728
-0.252866 0.045867 0.073728
0.206499 0.071532 0.103172
-0.206499 0.071532 0.103172
0.234787 0.075152 0.061520
-0.234787 0.075152 0.061520
0.206925 0.114816 0.106762
-0.206925 0.114816 0.106762
0.234838 0.113120 0.065124
-0.234838 0.113120 0.065124
0.265811 0.102684 0.037046
0.265795 0.073728 0.035702
-0.265795 0.073728 0.035702
-0.265811 0.102684 0.037046
0.304972 0.090885 0.005486
0.304992 0.078248 0.006404
-0.304992 0.078248 0.006404
-0.304972 0.090885 0.005486
0.276141 0.126740 0.051946
-0.276141 0.126740 0.051946
0.300141 0.118805 0.023572
-0.300141 0.118805 0.023572
0.276106 0.049764 0.048828
-0.276106 0.049764 0.048828
0.308325 0.059358 0.021069
-0.308325 0.059358 0.021069
0.303706 0.043094 0.070975
-0.303706 0.043094 0.070975
0.321057 0.062414 0.041762
-0.321057 0.062414 0.041762
0.295862 0.131372 0.078685
-0.295862 0.131372 0.078685
0.324958 0.105109 0.088319
-0.324958 0.105109 0.088319
0.324941 0.067727 0.086795
-0.324941 0.067727 0.086795
0.337729 0.070353 0.052486
0.338553 0.104852 0.053548
-0.338553 0.104852 0.053548
-0.337729 0.070353 0.052486
0.339739 0.041196 0.014478
0.359304 0.065918 0.027897
-0.359304 0.065918 0.027897
-0.339739 0.041196 0.014478
0.359353 0.101325 0.025914
-0.359353 0.101325 0.025914
0.314456 0.045418 -0.007988
-0.314456 0.045418 -0.007988
0.305418 0.066994 -0.023142
-0.305418 0.066994 -0.023142
0.314559 0.117794 -0.012050
0.305462 0.093927 -0.024673
-0.305462 0.093927 -0.024673
-0.314559 0.117794 -0.012050
0.339856 0.124438 0.009818
0.319185 0.127291 0.018786
0.329134 0.128757 0.023009
-0.319185 0.127291 0.018786
-0.339856 0.124438 0.009818
-0.329134 0.128757 0.023009
0.334800 0.121474 0.030935
-0.334800 0.121474 0.030935
0.308691 0.131986 0.029757
-0.308691 0.131986 0.029757
0.330333 0.123708 0.046777
-0.330333 0.123708 0.046777
0.319170 0.123761 0.058877
0.310463 0.132085 0.056124
-0.319170 0.123761 0.058877
-0.310463 0.132085 0.056124
0.303251 0.130527 0.046063
-0.303251 0.130527 0.046063
0.319904 0.133698 0.039016
-0.319904 0.133698 0.039016
0.164959 -0.004920 0.202486
0.138756 -0.052908 0.188143
-0.138756 -0.052908 0.188143
-0.164959 -0.004920 0.202486
0.096112 0.178989 0.210471
0.161968 0.143794 0.218120
-0.161968 0.143794 0.218120
-0.096112 0.178989 0.210471
0.195977 0.001861 0.232708
0.224180 0.036457 0.258508
-0.224180 0.036457 0.258508
-0.195977 0.001861 0.232708
0.230412 0.094643 0.266103
-0.230412 0.094643 0.266103
0.200308 0.139195 0.237636
-0.200308 0.139195 0.237636
0.180318 0.141495 0.222139
-0.180318 0.141495 0.222139
0.178395 0.000106 0.206827
-0.178395 0.000106 0.206827
0.080555 -0.086388 0.174396
0.000000 -0.084722 0.176364
-0.080555 -0.086388 0.174396
0.049659 0.171568 0.211922
-0.049659 0.171568 0.211922
0.000000 0.146173 0.210181
0.085943 -0.020892 -0.023480
0.118091 0.000699 -0.024678
-0.118091 0.000699 -0.024678
-0.085943 -0.020892 -0.023480
0.091485 -0.033666 -0.091008
0.122113 0.001563 -0.079486
-0.122113 0.001563 -0.079486
-0.091485 -0.033666 -0.091008
0.113381 0.073314 -0.034633
-0.113381 0.073314 -0.034633
0.114117 0.081281 -0.074475
-0.114117 0.081281 -0.074475
0.080748 0.102462 -0.039340
-0.080748 0.102462 -0.039340
0.083846 0.111264 -0.078265
-0.083846 0.111264 -0.078265
0.049452 -0.058971 -0.081609
0.051443 -0.049048 -0.015969
0.000000 -0.058550 -0.011352
0.000000 -0.069831 -0.081001
-0.051443 -0.049048 -0.015969
-0.049452 -0.058971 -0.081609
0.000000 0.122825 -0.085521
0.000000 0.110234 -0.045031
0.027725 0.116306 -0.043258
0.041721 0.126091 -0.086187
-0.027725 0.116306 -0.043258
-0.041721 0.126091 -0.086187
0.034261 -0.064299 0.487692
0.043470 -0.059946 0.485981
-0.034261 -0.064299 0.487692
-0.043470 -0.059946 0.485981
0.047816 -0.056058 0.482663
-0.047816 -0.056058 0.482663
0.043240 -0.060004 0.479511
-0.043240 -0.060004 0.479511
0.034133 -0.064159 0.477012
-0.034133 -0.064159 0.477012
0.027400 -0.066303 0.477402
0.020486 -0.067261 0.479757
-0.020486 -0.067261 0.479757
-0.027400 -0.066303 0.477402
0.025820 -0.068467 0.486152
-0.025820 -0.068467 0.486152
0.368258 0.084039 -0.144455
0.387888 0.078802 -0.185658
0.387529 0.059121 -0.184131
0.368181 0.060893 -0.142892
-0.387529 0.059121 -0.184131
-0.387888 0.078802 -0.185658
-0.368258 0.084039 -0.144455
-0.368181 0.060893 -0.142892
0.380393 0.102123 -0.137423
0.398457 0.094738 -0.181675
-0.398457 0.094738 -0.181675
-0.380393 0.102123 -0.137423
0.398371 0.044843 -0.177806
0.380409 0.043907 -0.133541
-0.398371 0.044843 -0.177806
-0.380409 0.043907 -0.133541
0.418724 0.043033 -0.167743
0.402733 0.041282 -0.118421
-0.418724 0.043033 -0.167743
-0.402733 0.041282 -0.118421
0.402517 0.106846 -0.122717
0.417591 0.099094 -0.172069
-0.417591 0.099094 -0.172069
-0.402517 0.106846 -0.122717
0.419111 0.088507 -0.111359
0.432354 0.084192 -0.164289
-0.432354 0.084192 -0.164289
-0.419111 0.088507 -0.111359
0.419224 0.061223 -0.109524
0.433040 0.061110 -0.162078
-0.433040 0.061110 -0.162078
-0.419224 0.061223 -0.109524
0.383136 0.061175 0.003228
0.359065 0.031157 -0.012841
-0.359065 0.031157 -0.012841
-0.383136 0.061175 0.003228
0.383258 0.103423 0.000556
-0.383258 0.103423 0.000556
0.359360 0.131310 -0.019175
-0.359360 0.131310 -0.019175
0.328160 0.123511 -0.045025
-0.328160 0.123511 -0.045025
0.327913 0.035810 -0.039477
-0.327913 0.035810 -0.039477
0.311134 0.061444 -0.055301
-0.311134 0.061444 -0.055301
0.311239 0.096200 -0.057498
-0.311239 0.096200 -0.057498
0.398269 0.057370 -0.211724
0.398790 0.075575 -0.213240
-0.398790 0.075575 -0.213240
-0.398269 0.057370 -0.211724
0.408717 0.090621 -0.211218
-0.408717 0.090621 -0.211218
0.408683 0.044373 -0.207231
-0.408683 0.044373 -0.207231
0.428480 0.043153 -0.200214
-0.428480 0.043153 -0.200214
0.426484 0.094891 -0.204780
-0.426484 0.094891 -0.204780
0.440640 0.081941 -0.198945
-0.440640 0.081941 -0.198945
0.441853 0.060822 -0.196363
-0.441853 0.060822 -0.196363
0.300268 0.095448 -0.023000
0.300234 0.065685 -0.021283
-0.300234 0.065685 -0.021283
-0.300268 0.095448 -0.023000
0.312241 0.121763 -0.010476
-0.312241 0.121763 -0.010476
0.312111 0.041608 -0.005901
-0.312111 0.041608 -0.005901
0.341148 0.037458 0.017725
-0.341148 0.037458 0.017725
0.341326 0.128476 0.012531
-0.341326 0.128476 0.012531
0.363425 0.102953 0.029743
-0.363425 0.102953 0.029743
0.363358 0.064707 0.031927
-0.363358 0.064707 0.031927
0.125520 0.106173 -0.115812
0.142407 -0.000277 -0.133333
-0.125520 0.106173 -0.115812
-0.142407 -0.000277 -0.133333
0.045287 0.154539 -0.122831
0.083413 0.141777 -0.117844
-0.045287 0.154539 -0.122831
-0.083413 0.141777 -0.117844
0.043674 0.142282 -0.061573
0.000000 0.149143 -0.061718
-0.043674 0.142282 -0.061573
0.000000 0.157965 -0.126289
0.056196 -0.070662 -0.062570
0.107338 -0.047902 -0.060252
-0.056196 -0.070662 -0.062570
-0.107338 -0.047902 -0.060252
0.122805 0.089999 -0.054168
0.087155 0.125309 -0.058632
-0.122805 0.089999 -0.054168
-0.087155 0.125309 -0.058632
0.000000 -0.087968 -0.061854
0.132223 -0.003886 -0.057690
-0.132223 -0.003886 -0.057690
0.054287 -0.081487 -0.166484
0.000000 -0.088847 -0.166484
-0.054287 -0.081487 -0.166484
0.109621 -0.047236 -0.151581
-0.109621 -0.047236 -0.151581
0.044749 0.150453 -0.101681
0.044212 0.146368 -0.080532
0.085908 0.130799 -0.076909
0.084660 0.136288 -0.097377
-0.085908 0.130799 -0.076909
-0.044212 0.146368 -0.080532
-0.044749 0.150453 -0.101681
-0.084660 0.136288 -0.097377
0.108860 -0.047458 -0.120408
0.108099 -0.047680 -0.089235
0.055560 -0.074270 -0.095748
0.054924 -0.077878 -0.131116
-0.055560 -0.074270 -0.095748
-0.108099 -0.047680 -0.089235
-0.108860 -0.047458 -0.120408
-0.054924 -0.077878 -0.131116
0.000000 0.155024 -0.104036
0.000000 0.152083 -0.081782
0.000000 -0.088261 -0.095270
0.000000 -0.088554 -0.130877
0.123710 0.095390 -0.073256
0.124615 0.100782 -0.094534
-0.124615 0.100782 -0.094534
-0.123710 0.095390 -0.073256
0.135617 -0.002683 -0.079447
0.139012 -0.001480 -0.109387
-0.139012 -0.001480 -0.109387
-0.135617 -0.002683 -0.079447
0.040916 0.154261 -0.070455
0.088222 0.136790 -0.066647
-0.088222 0.136790 -0.066647
-0.040916 0.154261 -0.070455
0.109942 -0.054026 -0.074222
0.058891 -0.081084 -0.079019
-0.058891 -0.081084 -0.079019
-0.109942 -0.054026 -0.074222
0.000000 0.160415 -0.071528
0.000000 -0.098051 -0.078371
0.128121 0.098376 -0.062238
-0.128121 0.098376 -0.062238
0.139704 -0.005894 -0.066518
-0.139704 -0.005894 -0.066518
0.044210 0.166081 -0.107534
0.089034 0.151356 -0.102041
-0.089034 0.151356 -0.102041
-0.044210 0.166081 -0.107534
0.115397 -0.055940 -0.133653
0.061269 -0.090650 -0.147916
-0.061269 -0.090650 -0.147916
-0.115397 -0.055940 -0.133653
0.000000 0.169642 -0.111186
0.000000 -0.102286 -0.147783
0.134733 0.111756 -0.099326
-0.134733 0.111756 -0.099326
0.152155 -0.004473 -0.115361
-0.152155 -0.004473 -0.115361
0.087739 0.044741 0.491904
-0.087739 0.044741 0.491904
0.085648 0.045890 0.482911
0.087529 0.051132 0.472502
-0.085648 0.045890 0.482911
-0.087529 0.051132 0.472502
0.082967 0.032774 0.485887
-0.082967 0.032774 0.485887
0.082750 0.045419 0.452840
0.079416 0.037729 0.445581
-0.082750 0.045419 0.452840
-0.079416 0.037729 0.445581
0.073677 0.023040 0.453780
-0.073677 0.023040 0.453780
0.075764 0.022630 0.475845
-0.075764 0.022630 0.475845
0.082357 0.019492 0.464050
-0.082357 0.019492 0.464050
0.068830 0.026709 0.464050
-0.068830 0.026709 0.464050
0.021411 -0.073545 0.408207
-0.021411 -0.073545 0.408207
0.393759 0.077116 -0.207801
0.393223 0.056473 -0.206112
-0.393223 0.056473 -0.206112
-0.393759 0.077116 -0.207801
0.404972 0.094089 -0.205030
-0.404972 0.094089 -0.205030
0.404921 0.041674 -0.200626
-0.404921 0.041674 -0.200626
0.427089 0.040161 -0.192010
-0.427089 0.040161 -0.192010
0.425099 0.098862 -0.197025
-0.425099 0.098862 -0.197025
0.441007 0.083937 -0.190016
-0.441007 0.083937 -0.190016
0.442216 0.059923 -0.187243
-0.442216 0.059923 -0.187243
0.303836 0.096615 -0.042864
0.303762 0.062510 -0.040792
-0.303762 0.062510 -0.040792
-0.303836 0.096615 -0.042864
0.319155 0.124909 -0.029684
-0.319155 0.124909 -0.029684
0.318955 0.036271 -0.024329
-0.318955 0.036271 -0.024329
0.350727 0.031621 0.002224
-0.350727 0.031621 0.002224
0.350979 0.132580 -0.003874
-0.350979 0.132580 -0.003874
0.375264 0.104376 0.015649
-0.375264 0.104376 0.015649
0.375163 0.061865 0.018218
-0.375163 0.061865 0.018218
-0.043470 -0.059946 0.485946
-0.051380 -0.053346 0.484376
-0.051262 -0.053375 0.481081
-0.043240 -0.060004 0.479511
-0.027400 -0.066303 0.477402
-0.019150 -0.067050 0.478062
-0.017808 -0.068888 0.485493
-0.025820 -0.068467 0.486152
-0.034133 -0.064159 0.477012
-0.034261 -0.064299 0.487692
0.027400 -0.066303 0.477402
0.034133 -0.064159 0.477012
0.034261 -0.064299 0.487692
0.025820 -0.068467 0.486152
0.043240 -0.060004 0.479511
0.043470 -0.059946 0.485946
0.017808 -0.068888 0.485493
0.019150 -0.067050 0.478062
0.051262 -0.053375 0.481081
0.051380 -0.053346 0.484376
-0.016103 -0.073503 0.410875
-0.021411 -0.070714 0.410781
-0.027877 -0.065425 0.397931
-0.018214 -0.074451 0.394472
-0.008172 -0.076674 0.392364
-0.008030 -0.075923 0.410933
0.000000 -0.078514 0.392474
0.000000 -0.077854 0.410743
0.016103 -0.073503 0.410875
0.018214 -0.074451 0.394472
0.027877 -0.065425 0.397931
0.021411 -0.070714 0.410781
0.008030 -0.075923 0.410933
0.008172 -0.076674 0.392364
0.034145 -0.058577 0.398603
0.026819 -0.059897 0.414064
-0.034145 -0.058577 0.398603
-0.026819 -0.059897 0.414064
4 0 1 2 3
4 4 5 6 7
4 8 0 3 9
4 7 6 10 11
4 12 13 14 15
4 16 17 18 19
4 20 12 15 21
4 19 18 22 23
4 24 25 15 14
4 19 25 24 16
4 25 26 21 15
4 25 19 23 26
4 27 28 29 30
4 31 28 27 32
4 33 27 30 34
4 32 27 33 35
4 1 0 36 37
4 5 38 39 6
4 0 8 40 36
4 6 39 41 10
4 30 29 37 36
4 38 31 32 39
4 34 30 36 40
4 39 32 35 41
4 3 2 13 12
4 17 4 7 18
4 9 3 12 20
4 18 7 11 22
4 42 8 9 43
4 11 10 44 45
4 43 46 47 42
4 48 49 45 44
4 50 20 21 51
4 23 22 52 53
4 54 50 51 55
4 53 52 56 57
4 51 21 26 58
4 26 23 53 58
4 55 51 58 59
4 58 53 57 59
4 60 33 34 61
4 35 33 60 62
4 63 60 61 64
4 62 60 63 65
4 66 40 8 42
4 10 41 67 44
4 68 66 42 47
4 44 67 69 48
4 61 34 40 66
4 41 35 62 67
4 64 61 66 68
4 67 62 65 69
4 43 9 20 50
4 22 11 45 52
4 46 43 50 54
4 52 45 49 56
4 70 71 72 73
4 74 75 76 77
4 78 79 80 81
4 82 83 84 85
4 79 78 73 72
4 77 84 83 74
4 81 80 86 87
4 88 82 85 89
4 87 86 90 91
4 92 88 89 93
4 91 90 94 95
4 96 92 93 97
4 95 94 98 99
4 100 96 97 101
4 99 98 71 70
4 75 100 101 76
4 102 103 104 105
4 106 107 108 109
4 110 102 105 111
4 109 108 112 113
4 73 110 111 70
4 113 112 77 76
4 114 115 116 117
4 118 119 120 121
4 122 114 117 123
4 121 120 124 125
4 81 122 123 78
4 125 124 85 84
4 117 116 103 102
4 107 118 121 108
4 123 117 102 110
4 108 121 125 112
4 78 123 110 73
4 112 125 84 77
4 126 127 115 114
4 119 128 129 120
4 130 126 114 122
4 120 129 131 124
4 87 130 122 81
4 124 131 89 85
4 132 133 127 126
4 128 134 135 129
4 136 132 126 130
4 129 135 137 131
4 91 136 130 87
4 131 137 93 89
4 138 139 133 132
4 134 140 141 135
4 142 138 132 136
4 135 141 143 137
4 95 142 136 91
4 137 143 97 93
4 144 145 139 138
4 140 146 147 141
4 148 144 138 142
4 141 147 149 143
4 99 148 142 95
4 143 149 101 97
4 105 104 145 144
4 146 106 109 147
4 111 105 144 148
4 147 109 113 149
4 70 111 148 99
4 149 113 76 101
4 103 150 151 104
4 152 153 107 106
4 115 154 155 116
4 156 157 119 118
4 116 155 150 103
4 153 156 118 107
4 127 158 154 115
4 157 159 128 119
4 133 160 158 127
4 159 161 134 128
4 139 162 160 133
4 161 163 140 134
4 145 164 162 139
4 163 165 146 140
4 104 151 164 145
4 165 152 106 146
4 150 166 167 151
4 168 169 153 152
4 154 170 171 155
4 172 173 157 156
4 155 171 166 150
4 169 172 156 153
4 158 174 170 154
4 173 175 159 157
4 160 176 174 158
4 175 177 161 159
4 162 178 176 160
4 177 179 163 161
4 164 180 178 162
4 179 181 165 163
4 151 167 180 164
4 181 168 152 165
4 182 183 184 185
4 186 187 188 189
4 190 182 185 191
4 189 188 192 193
4 194 190 191 195
4 193 192 196 197
4 198 194 195 199
4 197 196 200 201
4 202 198 199 203
4 201 200 204 205
4 206 207 208 209
4 210 211 212 213
4 207 202 203 208
4 205 204 211 210
4 183 206 209 184
4 213 212 187 186
4 184 209 214 215
4 216 213 186 217
4 208 203 218 219
4 220 205 210 221
4 209 208 219 214
4 221 210 213 216
4 203 199 222 218
4 223 201 205 220
4 199 195 224 222
4 225 197 201 223
4 195 191 226 224
4 227 193 197 225
4 191 185 228 226
4 229 189 193 227
4 185 184 215 228
4 217 186 189 229
4 218 222 230 231
4 232 223 220 233
4 224 226 234 235
4 236 227 225 237
4 214 219 238 239
4 240 221 216 241
4 238 219 242 243
4 244 221 240 245
4 224 235 246 247
4 248 237 225 249
4 222 224 247 230
4 249 225 223 232
4 218 231 242 219
4 244 233 220 221
4 247 246 250 251
4 252 248 249 253
4 243 242 254 255
4 256 244 245 257
4 228 215 258 259
4 260 217 229 261
4 215 214 239 258
4 241 216 217 260
4 226 228 259 234
4 261 229 227 236
4 231 230 262 263
4 264 232 233 265
4 231 263 254 242
4 256 265 233 244
4 230 247 251 262
4 253 249 232 264
4 255 254 266 267
4 268 256 257 269
4 251 250 270 271
4 272 252 253 273
4 263 262 274 275
4 276 264 265 277
4 254 263 275 266
4 277 265 256 268
4 251 271 274 262
4 276 273 253 264
4 275 274 278 279
4 280 276 277 281
4 267 266 275 279
4 277 268 269 281
4 270 278 274 271
4 276 280 272 273
4 278 270 282 283
4 284 272 280 285
4 267 279 286 287
4 288 281 269 289
4 279 278 283 286
4 285 280 281 288
4 270 250 290 282
4 291 252 272 284
4 255 267 287 292
4 289 269 257 293
4 234 259 294 295
4 296 261 236 297
4 258 239 298 299
4 300 241 260 301
4 259 258 299 294
4 301 260 261 296
4 243 255 292 302
4 293 257 245 303
4 250 246 304 290
4 305 248 252 291
4 246 235 306 304
4 307 237 248 305
4 238 243 302 308
4 303 245 240 309
4 239 238 308 298
4 309 240 241 300
4 235 234 295 306
4 297 236 237 307
4 306 308 302 304
4 303 309 307 305
4 302 292 290 304
4 291 293 303 305
4 290 292 287 282
4 289 293 291 284
4 286 283 282 287
4 284 285 288 289
4 295 298 308 306
4 309 300 297 307
4 294 299 298 295
4 300 301 296 297
4 166 206 183 167
4 187 212 169 168
4 170 202 207 171
4 211 204 173 172
4 171 207 206 166
4 212 211 172 169
4 174 198 202 170
4 204 200 175 173
4 176 194 198 174
4 200 196 177 175
4 178 190 194 176
4 196 192 179 177
4 180 182 190 178
4 192 188 181 179
4 167 183 182 180
4 188 187 168 181
4 310 311 312 313
4 314 315 316 317
4 318 319 320 321
4 322 323 324 325
4 326 327 328 329
4 330 331 332 333
4 334 335 336 337
4 338 339 340 341
4 320 319 342 343
4 344 323 322 345
4 310 313 346 347
4 348 317 316 349
4 319 310 347 342
4 349 316 323 344
4 342 347 350 351
4 352 349 344 353
4 347 346 354 350
4 355 348 349 352
4 343 342 351 356
4 353 344 345 357
4 358 343 356 359
4 357 345 360 361
4 346 362 363 354
4 364 365 348 355
4 362 366 367 363
4 368 369 365 364
4 366 370 371 367
4 372 373 369 368
4 370 358 359 371
4 361 360 373 372
4 374 375 376 377
4 378 379 380 381
4 382 374 377 383
4 381 380 384 385
4 386 382 383 387
4 385 384 388 389
4 390 391 392 393
4 394 395 396 397
4 398 390 393 399
4 397 396 400 401
4 402 398 399 403
4 401 400 404 405
4 406 402 403 407
4 405 404 408 409
4 410 406 407 411
4 409 408 412 413
4 414 415 416 417
4 418 419 420 421
4 415 410 411 416
4 413 412 419 418
4 392 417 422 423
4 424 421 394 425
4 416 411 426 427
4 428 413 418 429
4 417 416 427 422
4 429 418 421 424
4 411 407 430 426
4 431 409 413 428
4 407 403 432 430
4 433 405 409 431
4 403 399 434 432
4 435 401 405 433
4 399 393 436 434
4 437 397 401 435
4 393 392 423 436
4 425 394 397 437
4 438 439 440 441
4 442 443 444 445
4 439 446 447 440
4 448 449 443 442
4 450 451 452 453
4 454 455 456 457
4 451 458 459 452
4 460 461 455 454
4 458 462 463 459
4 464 465 461 460
4 462 438 441 463
4 445 444 465 464
4 466 467 468 469
4 470 471 472 473
4 474 475 476 477
4 478 479 480 481
4 482 483 484 485
4 486 487 488 489
4 490 491 492 493
4 494 495 496 497
4 469 482 485 466
4 489 488 473 472
4 477 490 493 474
4 497 496 481 480
4 498 499 500 501
4 502 503 504 505
4 506 507 501 500
4 505 508 509 502
4 506 500 499 510
4 503 502 509 511
4 467 501 507 468
4 508 505 471 470
4 512 513 514 515
4 516 517 518 519
4 475 512 515 476
4 519 518 479 478
4 520 521 522 523
4 524 525 526 527
4 528 529 530 531
4 532 533 534 535
4 521 536 537 522
4 538 539 525 524
4 536 540 541 537
4 542 543 539 538
4 529 544 545 530
4 546 547 533 532
4 544 548 549 545
4 550 551 547 546
4 540 552 553 541
4 554 555 543 542
4 548 556 557 549
4 558 559 551 550
4 560 561 562 563
4 564 565 566 567
4 561 520 523 562
4 527 526 565 564
4 568 569 570 571
4 572 573 574 575
4 569 528 531 570
4 535 534 573 572
4 571 576 577 578
4 579 580 575 581
4 582 583 584 560
4 585 586 587 566
4 588 589 590 591
4 592 593 594 595
4 596 597 598 599
4 600 601 602 603
4 604 588 591 605
4 595 594 606 607
4 608 604 605 609
4 607 606 610 611
4 612 596 599 613
4 603 602 614 615
4 616 612 613 617
4 615 614 618 619
4 576 620 621 577
4 622 623 580 579
4 583 624 625 584
4 626 627 586 585
4 620 608 609 621
4 611 610 623 622
4 624 616 617 625
4 619 618 627 626
4 628 629 630 631
4 632 633 634 635
4 636 637 638 639
4 640 641 642 643
4 629 644 645 630
4 646 647 633 632
4 644 648 649 645
4 650 651 647 646
4 637 652 653 638
4 654 655 641 640
4 652 656 657 653
4 658 659 655 654
4 648 660 661 649
4 662 663 651 650
4 656 664 665 657
4 666 667 659 658
4 668 669 670 582
4 671 672 673 587
4 669 628 631 670
4 635 634 672 671
4 578 674 675 676
4 677 678 581 679
4 674 636 639 675
4 643 642 678 677
4 582 680 681 668
4 682 683 587 673
4 668 681 513 684
4 517 682 673 685
4 563 686 687 560
4 688 689 567 566
4 560 687 680 582
4 683 688 566 587
4 578 690 691 571
4 692 693 581 575
4 571 691 694 568
4 695 692 575 574
4 696 506 510 676
4 511 509 697 679
4 676 510 690 578
4 693 511 679 581
4 676 698 699 696
4 700 701 679 697
4 684 702 703 668
4 704 705 685 673
4 706 707 708 709
4 710 711 712 713
4 714 715 716 717
4 718 719 720 721
4 722 706 709 723
4 713 712 724 725
4 726 722 723 727
4 725 724 728 729
4 730 714 717 731
4 721 720 732 733
4 734 730 731 735
4 733 732 736 737
4 698 738 739 699
4 740 741 701 700
4 702 742 743 703
4 744 745 705 704
4 738 726 727 739
4 729 728 741 740
4 742 734 735 743
4 737 736 745 744
4 514 746 747 748
4 749 750 516 751
4 513 681 746 514
4 750 682 517 516
4 680 747 746 681
4 750 749 683 682
4 752 753 687 686
4 688 754 755 689
4 748 747 753 752
4 754 749 751 755
4 680 687 753 747
4 754 688 683 749
4 756 757 758 759
4 760 761 762 763
4 757 756 694 691
4 695 762 761 692
4 690 758 757 691
4 761 760 693 692
4 759 758 499 498
4 503 760 763 504
4 690 510 499 758
4 503 511 693 760
4 476 764 765 477
4 766 767 478 481
4 764 467 466 765
4 472 471 767 766
4 468 768 769 469
4 770 771 470 473
4 768 475 474 769
4 480 479 771 770
4 492 772 773 493
4 774 775 494 497
4 772 483 482 773
4 488 487 775 774
4 484 776 777 485
4 778 779 486 489
4 776 491 490 777
4 496 495 779 778
4 493 773 769 474
4 770 774 497 480
4 773 482 469 769
4 473 488 774 770
4 485 777 765 466
4 766 778 489 472
4 777 490 477 765
4 481 496 778 766
4 483 772 776 484
4 779 775 487 486
4 772 492 491 776
4 495 494 775 779
4 506 780 781 507
4 782 783 509 508
4 780 513 512 781
4 518 517 783 782
4 507 781 768 468
4 771 782 508 470
4 781 512 475 768
4 479 518 782 771
4 514 784 785 515
4 786 787 516 519
4 784 498 501 785
4 505 504 787 786
4 515 785 764 476
4 767 786 519 478
4 785 501 467 764
4 471 505 786 767
4 556 788 789 557
4 790 791 559 558
4 788 553 552 789
4 555 554 791 790
4 522 792 793 523
4 794 795 524 527
4 792 529 528 793
4 534 533 795 794
4 530 796 797 531
4 798 799 532 535
4 796 521 520 797
4 526 525 799 798
4 537 800 792 522
4 795 801 538 524
4 800 544 529 792
4 533 547 801 795
4 541 802 800 537
4 801 803 542 538
4 802 548 544 800
4 547 551 803 801
4 545 804 796 530
4 799 805 546 532
4 804 536 521 796
4 525 539 805 799
4 549 806 804 545
4 805 807 550 546
4 806 540 536 804
4 539 543 807 805
4 553 788 802 541
4 803 791 554 542
4 788 556 548 802
4 551 559 791 803
4 557 789 806 549
4 807 790 558 550
4 789 552 540 806
4 543 555 790 807
4 562 808 809 563
4 810 811 564 567
4 808 569 568 809
4 574 573 811 810
4 523 793 808 562
4 811 794 527 564
4 793 528 569 808
4 573 534 794 811
4 570 812 813 571
4 814 815 572 575
4 812 561 560 813
4 566 565 815 814
4 531 797 812 570
4 815 798 535 572
4 797 520 561 812
4 565 526 798 815
4 577 816 817 578
4 818 819 579 581
4 816 583 582 817
4 587 586 819 818
4 584 820 813 560
4 814 821 585 566
4 820 576 571 813
4 575 580 821 814
4 590 822 823 591
4 824 825 592 595
4 822 597 596 823
4 602 601 825 824
4 598 826 827 599
4 828 829 600 603
4 826 589 588 827
4 594 593 829 828
4 591 823 830 605
4 831 824 595 607
4 823 596 612 830
4 614 602 824 831
4 605 830 832 609
4 833 831 607 611
4 830 612 616 832
4 618 614 831 833
4 599 827 834 613
4 835 828 603 615
4 827 588 604 834
4 606 594 828 835
4 613 834 836 617
4 837 835 615 619
4 834 604 608 836
4 610 606 835 837
4 621 838 816 577
4 819 839 622 579
4 838 624 583 816
4 586 627 839 819
4 625 840 820 584
4 821 841 626 585
4 840 620 576 820
4 580 623 841 821
4 609 832 838 621
4 839 833 611 622
4 832 616 624 838
4 627 618 833 839
4 617 836 840 625
4 841 837 619 626
4 836 608 620 840
4 623 610 837 841
4 589 826 822 590
4 825 829 593 592
4 826 598 597 822
4 601 600 829 825
4 664 842 843 665
4 844 845 667 666
4 842 661 660 843
4 663 662 845 844
4 630 846 847 631
4 848 849 632 635
4 846 637 636 847
4 642 641 849 848
4 638 850 851 639
4 852 853 640 643
4 850 629 628 851
4 634 633 853 852
4 645 854 846 630
4 849 855 646 632
4 854 652 637 846
4 641 655 855 849
4 649 856 854 645
4 855 857 650 646
4 856 656 652 854
4 655 659 857 855
4 653 858 850 638
4 853 859 654 640
4 858 644 629 850
4 633 647 859 853
4 657 860 858 653
4 859 861 658 654
4 860 648 644 858
4 647 651 861 859
4 661 842 856 649
4 857 845 662 650
4 842 664 656 856
4 659 667 845 857
4 665 843 860 657
4 861 844 666 658
4 843 660 648 860
4 651 663 844 861
4 670 862 817 582
4 818 863 671 587
4 862 674 578 817
4 581 678 863 818
4 631 847 862 670
4 863 848 635 671
4 847 636 674 862
4 678 642 848 863
4 675 864 865 676
4 866 867 677 679
4 864 669 668 865
4 673 672 867 866
4 639 851 864 675
4 867 852 643 677
4 851 628 669 864
4 672 634 852 867
4 696 868 780 506
4 783 869 697 509
4 868 684 513 780
4 517 685 869 783
4 563 809 870 686
4 871 810 567 689
4 809 568 694 870
4 695 574 810 871
4 699 872 868 696
4 869 873 700 697
4 872 702 684 868
4 685 705 873 869
4 703 874 865 668
4 866 875 704 673
4 874 698 676 865
4 679 701 875 866
4 708 876 877 709
4 878 879 710 713
4 876 715 714 877
4 720 719 879 878
4 716 880 881 717
4 882 883 718 721
4 880 707 706 881
4 712 711 883 882
4 709 877 884 723
4 885 878 713 725
4 877 714 730 884
4 732 720 878 885
4 723 884 886 727
4 887 885 725 729
4 884 730 734 886
4 736 732 885 887
4 717 881 888 731
4 889 882 721 733
4 881 706 722 888
4 724 712 882 889
4 731 888 890 735
4 891 889 733 737
4 888 722 726 890
4 728 724 889 891
4 739 892 872 699
4 873 893 740 700
4 892 742 702 872
4 705 745 893 873
4 743 894 874 703
4 875 895 744 704
4 894 738 698 874
4 701 741 895 875
4 727 886 892 739
4 893 887 729 740
4 886 734 742 892
4 745 736 887 893
4 735 890 894 743
4 895 891 737 744
4 890 726 738 894
4 741 728 891 895
4 707 880 876 708
4 879 883 711 710
4 880 716 715 876
4 719 718 883 879
4 686 870 896 752
4 897 871 689 755
4 756 896 870 694
4 871 897 762 695
4 898 514 748 899
4 751 516 900 901
4 899 748 752 902
4 755 751 901 903
4 902 752 896 904
4 897 755 903 905
4 904 896 756 906
4 762 897 905 907
4 908 784 514 898
4 516 787 909 900
4 910 498 784 908
4 787 504 911 909
4 906 756 759 912
4 763 762 907 913
4 912 759 498 910
4 504 763 913 911
4 391 914 417 392
4 421 915 395 394
4 414 417 914 916
4 915 421 420 917
4 918 919 920 921
4 922 923 918 921
4 924 925 926 927
4 926 925 928 929
4 930 931 932 933
4 934 935 930 933
4 936 937 938 939
4 938 937 940 941
4 942 943 944 945
4 944 943 946 947
4 948 949 950 951
4 950 949 952 953
4 954 955 949 948
4 949 955 956 952
4 957 958 959 960
4 959 958 961 962
4 960 959 963 964
4 963 959 962 965
4 964 963 966 967
4 966 963 965 968
4 967 966 969 970
4 969 966 968 971
4 972 973 970 969
4 971 974 972 969
4 973 972 975 976
4 975 972 974 977
4 976 975 978 979
4 978 975 977 980
4 919 318 321 920
4 325 324 923 922
4 311 924 927 312
4 929 928 315 314
4 931 334 337 932
4 341 340 935 934
4 327 936 939 328
4 941 940 331 330
4 981 386 387 982
4 389 388 983 984
4 375 942 945 376
4 947 946 379 378
4 985 948 951 986
4 953 952 987 988
4 989 954 948 985
4 952 956 990 987
4 410 957 960 406
4 962 961 412 408
4 406 960 964 402
4 965 962 408 404
4 402 964 967 398
4 968 965 404 400
4 398 967 970 390
4 971 968 400 396
4 973 391 390 970
4 396 395 974 971
4 391 973 976 914
4 977 974 395 915
4 914 976 979 916
4 980 977 915 917
4 991 992 993 994
4 995 996 997 998
4 992 985 986 993
4 988 987 996 995
4 999 1000 992 991
4 996 1001 1002 997
4 1000 989 985 992
4 987 990 1001 996
4 1003 1004 1005 1006
4 1007 1004 1003 1008
4 1004 955 954 1005
4 956 955 1004 1007
4 1006 1005 1000 999
4 1001 1007 1008 1002
4 1005 954 989 1000
4 990 956 1007 1001
4 1009 1010 1011 1012
4 1013 1014 1015 1016
4 1010 999 991 1011
4 997 1002 1014 1013
4 1006 1017 1018 1003
4 1018 1019 1008 1003
4 1017 1020 1021 1018
4 1021 1022 1019 1018
4 999 1010 1017 1006
4 1019 1014 1002 1008
4 1010 1009 1020 1017
4 1022 1015 1014 1019
4 377 1023 1024 383
4 1025 1026 381 385
4 1023 1012 1027 1024
4 1028 1016 1026 1025
4 376 1029 1023 377
4 1026 1030 378 381
4 1029 1009 1012 1023
4 1016 1015 1030 1026
4 1020 1031 1032 1021
4 1032 1033 1022 1021
4 1031 945 944 1032
4 944 947 1033 1032
4 1009 1029 1031 1020
4 1033 1030 1015 1022
4 1029 376 945 1031
4 947 378 1030 1033
4 1034 1035 1036 1037
4 1038 1039 1040 1041
4 1042 1034 1037 1043
4 1041 1040 1044 1045
4 1046 1042 1043 1047
4 1045 1044 1048 1049
4 1050 1051 1052 1053
4 1052 1051 1054 1055
4 1056 1057 1058 1059
4 1060 1061 1062 1063
4 1011 1064 1065 1012
4 1066 1067 1013 1016
4 1064 1057 1056 1065
4 1062 1061 1067 1066
4 991 1068 1064 1011
4 1067 1069 997 1013
4 1068 1070 1057 1064
4 1061 1071 1069 1067
4 1012 1065 1072 1027
4 1073 1066 1016 1028
4 1065 1056 1059 1072
4 1063 1062 1066 1073
4 994 1074 1068 991
4 1069 1075 998 997
4 441 1076 1077 463
4 1078 1079 445 464
4 1076 1080 1081 1077
4 1082 1083 1079 1078
4 463 1077 1084 459
4 1085 1078 464 460
4 1077 1081 1086 1084
4 1087 1082 1078 1085
4 459 1084 1088 452
4 1089 1085 460 454
4 1084 1086 1090 1088
4 1091 1087 1085 1089
4 452 1088 1092 453
4 1093 1089 454 457
4 1088 1090 1094 1092
4 1095 1091 1089 1093
4 1092 1094 1096 1097
4 1098 1095 1093 1099
4 447 1100 1101 440
4 1102 1103 448 442
4 1100 1104 1105 1101
4 1106 1107 1103 1102
4 1097 1096 1104 1100
4 1107 1098 1099 1103
4 440 1101 1076 441
4 1079 1102 442 445
4 1101 1105 1080 1076
4 1083 1106 1102 1079
4 423 1108 1109 436
4 1110 1111 425 437
4 1108 438 462 1109
4 465 444 1111 1110
4 436 1109 1112 434
4 1113 1110 437 435
4 1109 462 458 1112
4 461 465 1110 1113
4 434 1112 1114 432
4 1115 1113 435 433
4 1112 458 451 1114
4 455 461 1113 1115
4 432 1114 1116 430
4 1117 1115 433 431
4 1114 451 450 1116
4 456 455 1115 1117
4 430 1116 1118 426
4 1119 1117 431 428
4 1116 450 1120 1118
4 1121 456 1117 1119
4 427 1122 1123 422
4 1124 1125 429 424
4 1122 446 439 1123
4 443 449 1125 1124
4 426 1118 1122 427
4 1125 1119 428 429
4 1118 1120 446 1122
4 449 1121 1119 1125
4 422 1123 1108 423
4 1111 1124 424 425
4 1123 439 438 1108
4 444 443 1124 1111
4 1097 1100 1126 1127
4 1128 1103 1099 1129
4 1092 1097 1127 1130
4 1129 1099 1093 1131
4 1100 447 1132 1126
4 1133 448 1103 1128
4 453 1092 1130 1134
4 1131 1093 457 1135
4 450 453 1134 1136
4 1135 457 456 1137
4 447 446 1138 1132
4 1139 449 448 1133
4 446 1120 1140 1138
4 1141 1121 449 1139
4 1120 450 1136 1140
4 1137 456 1121 1141
4 1142 1127 1126 1132
4 1128 1129 1143 1133
4 1134 1130 1127 1142
4 1129 1131 1135 1143
4 1140 1136 1134 1142
4 1135 1137 1141 1143
4 1138 1140 1142 1132
4 1143 1141 1139 1133
4 1144 1145 1146 1147
4 1148 1149 1150 1151
4 1145 319 318 1146
4 324 323 1149 1148
4 1152 1153 1154 1155
4 1156 1157 1158 1159
4 1153 311 310 1154
4 316 315 1157 1156
4 1155 1154 1145 1144
4 1149 1156 1159 1150
4 1154 310 319 1145
4 323 316 1156 1149
4 1160 1161 1162 1163
4 1164 1161 1160 1165
4 1161 925 924 1162
4 928 925 1161 1164
4 1166 1167 1168 1169
4 1168 1170 1171 1169
4 1167 919 918 1168
4 918 923 1170 1168
4 1163 1162 1153 1152
4 1157 1164 1165 1158
4 1162 924 311 1153
4 315 928 1164 1157
4 1147 1146 1167 1166
4 1170 1148 1151 1171
4 1146 318 919 1167
4 923 324 1148 1170
4 336 1172 1173 337
4 1174 1175 338 341
4 1172 1176 1177 1173
4 1178 1179 1175 1174
4 329 1180 1172 336
4 1175 1181 333 338
4 1180 1182 1176 1172
4 1179 1183 1181 1175
4 328 1184 1180 329
4 1181 1185 330 333
4 1184 1186 1182 1180
4 1183 1187 1185 1181
4 938 1188 1189 939
4 1190 1188 938 941
4 1188 1191 1192 1189
4 1193 1191 1188 1190
4 939 1189 1184 328
4 1185 1190 941 330
4 1189 1192 1186 1184
4 1187 1193 1190 1185
4 337 1173 1194 932
4 1195 1174 341 934
4 1173 1177 1196 1194
4 1197 1178 1174 1195
4 1198 1199 1200 1201
4 1202 1203 1198 1201
4 1199 981 982 1200
4 984 983 1203 1202
4 1204 1205 1206 1207
4 1208 1209 1204 1207
4 1205 1046 1047 1206
4 1049 1048 1209 1208
4 1196 1210 1211 1194
4 1212 1213 1197 1195
4 1210 1214 1215 1211
4 1215 1214 1213 1212
4 1215 1216 1217 1211
4 1218 1216 1215 1212
4 933 932 1217 1216
4 1218 934 933 1216
4 932 1194 1211 1217
4 1212 1195 934 1218
4 1176 1219 1220 1177
4 1221 1222 1179 1178
4 1219 382 386 1220
4 388 384 1222 1221
4 1182 1223 1219 1176
4 1222 1224 1183 1179
4 1223 374 382 1219
4 384 380 1224 1222
4 1186 1225 1223 1182
4 1224 1226 1187 1183
4 1225 375 374 1223
4 380 379 1226 1224
4 1191 1227 1228 1192
4 1229 1227 1191 1193
4 1227 943 942 1228
4 946 943 1227 1229
4 1192 1228 1225 1186
4 1226 1229 1193 1187
4 1228 942 375 1225
4 379 946 1229 1226
4 1177 1220 1230 1196
4 1231 1221 1178 1197
4 1220 386 981 1230
4 983 388 1221 1231
4 1210 1232 1233 1214
4 1233 1234 1213 1214
4 1232 1199 1198 1233
4 1198 1203 1234 1233
4 1196 1230 1232 1210
4 1234 1231 1197 1213
4 1230 981 1199 1232
4 1203 983 1231 1234
4 1046 1235 1236 1042
4 1237 1238 1048 1044
4 1239 1205 1204 1240
4 1204 1209 1241 1240
4 1235 1046 1205 1239
4 1209 1048 1238 1241
4 1035 1242 1243 1036
4 1244 1245 1039 1038
4 1246 1247 1248 1249
4 1250 1251 1246 1249
4 1252 1249 1248 1253
4 1250 1249 1252 1254
4 1255 1256 1247 1246
4 1251 1257 1255 1246
4 1258 1259 1260 1261
4 1262 1263 1258 1261
4 1259 1264 1265 1260
4 1266 1267 1263 1262
4 950 1268 1269 951
4 1270 1268 950 953
4 1268 1271 1272 1269
4 1273 1271 1268 1270
4 951 1269 1274 986
4 1275 1270 953 988
4 1269 1272 1276 1274
4 1277 1273 1270 1275
4 993 1278 1279 994
4 1280 1281 995 998
4 1278 1282 1283 1279
4 1284 1285 1281 1280
4 994 1279 1286 1287
4 1288 1280 998 1289
4 1279 1283 1290 1286
4 1291 1284 1280 1288
4 986 1274 1278 993
4 1281 1275 988 995
4 1274 1276 1282 1278
4 1285 1277 1275 1281
4 1235 1292 1293 1236
4 1294 1295 1238 1237
4 1292 982 387 1293
4 389 984 1295 1294
4 383 1296 1293 387
4 1294 1297 385 389
4 1296 1298 1236 1293
4 1237 1299 1297 1294
4 1200 1300 1301 1201
4 1301 1302 1202 1201
4 1300 1239 1240 1301
4 1240 1241 1302 1301
4 982 1292 1300 1200
4 1302 1295 984 1202
4 1292 1235 1239 1300
4 1241 1238 1295 1302
4 1303 1027 1287 1286
4 1289 1028 1304 1288
4 1024 1305 1296 383
4 1297 1306 1025 385
4 1305 1307 1298 1296
4 1299 1308 1306 1297
4 1305 1024 1027 1303
4 1028 1025 1306 1304
4 1309 1247 1256 1310
4 1257 1251 1311 1312
4 1242 1313 1314 1243
4 1315 1316 1245 1244
4 1313 1050 1053 1314
4 1055 1054 1316 1315
4 1264 1317 1318 1265
4 1319 1320 1267 1266
4 1259 1321 1317 1264
4 1320 1322 1263 1267
4 1258 1323 1321 1259
4 1322 1323 1258 1263
4 1324 1325 1326 1327
4 1328 1325 1324 1329
4 1325 1051 1330 1326
4 1331 1051 1325 1328
4 1332 1333 1334 1335
4 1336 1337 1338 1339
4 1313 1332 1335 1340
4 1339 1338 1316 1341
4 1342 1324 1327 1343
4 1329 1324 1344 1345
4 1333 1342 1343 1334
4 1345 1344 1337 1336
4 1050 1313 1340 1346
4 1341 1316 1054 1347
4 1051 1050 1346 1330
4 1347 1054 1051 1331
4 1330 1346 1348 1349
4 1350 1347 1331 1351
4 1346 1340 1352 1348
4 1353 1341 1347 1350
4 1334 1343 1354 1355
4 1356 1345 1336 1357
4 1343 1327 1358 1354
4 1359 1329 1345 1356
4 1340 1335 1360 1352
4 1361 1339 1341 1353
4 1335 1334 1355 1360
4 1357 1336 1339 1361
4 1326 1330 1349 1362
4 1351 1331 1328 1363
4 1327 1326 1362 1358
4 1363 1328 1329 1359
4 1352 1360 1364 1348
4 1365 1361 1353 1350
4 1360 1355 1354 1364
4 1356 1357 1361 1365
4 1348 1364 1362 1349
4 1363 1365 1350 1351
4 1364 1354 1358 1362
4 1359 1356 1365 1363
4 1366 1367 1368 1307
4 1369 1370 1371 1308
4 1367 1035 1034 1368
4 1040 1039 1370 1369
4 1042 1236 1368 1034
4 1369 1237 1044 1040
4 1236 1298 1307 1368
4 1308 1299 1237 1369
4 1372 1373 1367 1366
4 1370 1374 1375 1371
4 1373 1242 1035 1367
4 1039 1245 1374 1370
4 1242 1373 1376 1313
4 1377 1374 1245 1316
4 1373 1372 1265 1376
4 1266 1375 1374 1377
4 1332 1378 1379 1333
4 1380 1381 1338 1337
4 1378 1318 1317 1379
4 1320 1319 1381 1380
4 1318 1378 1376 1265
4 1377 1381 1319 1266
4 1378 1332 1313 1376
4 1316 1338 1381 1377
4 1321 1382 1379 1317
4 1380 1383 1322 1320
4 1382 1342 1333 1379
4 1337 1344 1383 1380
4 1323 1384 1382 1321
4 1383 1384 1323 1322
4 1384 1324 1342 1382
4 1344 1324 1384 1383
4 1307 1385 1290 1366
4 1291 1386 1308 1371
4 1307 1305 1303 1385
4 1304 1306 1308 1386
4 1290 1385 1303 1286
4 1304 1386 1291 1288
4 1253 1272 1271 1252
4 1271 1273 1254 1252
4 1387 1276 1272 1253
4 1273 1277 1388 1254
4 1283 1389 1390 1290
4 1391 1392 1284 1291
4 1282 1393 1389 1283
4 1392 1394 1285 1284
4 1276 1387 1393 1282
4 1394 1388 1277 1285
4 1290 1390 1395 1366
4 1396 1391 1291 1371
4 1397 1372 1366 1395
4 1371 1375 1398 1396
4 1310 1265 1372 1397
4 1375 1266 1312 1398
4 1260 1256 1255 1261
4 1255 1257 1262 1261
4 1265 1310 1256 1260
4 1257 1312 1266 1262
4 1314 1399 1400 1243
4 1401 1402 1315 1244
4 1053 1403 1399 1314
4 1402 1404 1055 1315
4 1403 1405 1406 1399
4 1407 1408 1404 1402
4 1243 1400 1409 1036
4 1410 1401 1244 1038
4 1206 1411 1412 1207
4 1412 1413 1208 1207
4 1411 1414 1415 1412
4 1415 1416 1413 1412
4 1047 1417 1411 1206
4 1413 1418 1049 1208
4 1417 1419 1414 1411
4 1416 1420 1418 1413
4 1043 1421 1417 1047
4 1418 1422 1045 1049
4 1421 1423 1419 1417
4 1420 1424 1422 1418
4 1052 1425 1403 1053
4 1404 1425 1052 1055
4 1425 1426 1405 1403
4 1408 1426 1425 1404
3 1037 1421 1043
3 1045 1422 1041
3 1037 1423 1421
3 1422 1424 1041
3 1036 1409 1037
3 1041 1410 1038
3 1409 1427 1037
3 1041 1428 1410
4 1387 1429 1430 1393
4 1431 1432 1388 1394
4 1429 1433 1434 1430
4 1435 1436 1432 1431
4 1393 1430 1437 1389
4 1438 1431 1394 1392
4 1430 1434 1439 1437
4 1440 1435 1431 1438
4 1389 1437 1441 1390
4 1442 1438 1392 1391
4 1437 1439 1443 1441
4 1444 1440 1438 1442
4 1390 1441 1445 1395
4 1446 1442 1391 1396
4 1441 1443 1447 1445
4 1448 1444 1442 1446
4 1253 1449 1429 1387
4 1432 1450 1254 1388
4 1449 1451 1433 1429
4 1436 1452 1450 1432
4 1453 1454 1451 1449
4 1452 1455 1456 1450
4 1457 1458 1445 1447
4 1446 1459 1460 1448
4 1458 1397 1395 1445
4 1396 1398 1459 1446
3 1454 1453 1461
3 1462 1456 1455
4 1453 1309 1310 1461
4 1312 1311 1456 1462
4 1397 1458 1461 1310
4 1462 1459 1398 1312
4 1458 1457 1454 1461
4 1455 1460 1459 1462
3 1248 1463 1253
3 1254 1464 1250
3 1463 1449 1253
3 1254 1450 1464
4 1309 1453 1449 1463
4 1450 1456 1311 1464
4 1247 1309 1463 1248
4 1464 1311 1251 1250
4 359 1465 1466 371
4 1467 1468 361 372
4 1465 1469 1470 1466
4 1471 1472 1468 1467
4 371 1466 1473 367
4 1474 1467 372 368
4 1466 1470 1475 1473
4 1476 1471 1467 1474
4 367 1473 1477 363
4 1478 1474 368 364
4 1473 1475 1479 1477
4 1480 1476 1474 1478
4 363 1477 1481 354
4 1482 1478 364 355
4 1477 1479 1483 1481
4 1484 1480 1478 1482
4 356 1485 1465 359
4 1468 1486 357 361
4 1485 1487 1469 1465
4 1472 1488 1486 1468
4 351 1489 1485 356
4 1486 1490 353 357
4 1489 1491 1487 1485
4 1488 1492 1490 1486
4 354 1481 1493 350
4 1494 1482 355 352
4 1481 1483 1495 1493
4 1496 1484 1482 1494
4 350 1493 1489 351
4 1490 1494 352 353
4 1493 1495 1491 1489
4 1492 1496 1494 1490
4 1495 1497 1498 1491
4 1499 1500 1496 1492
4 1497 1501 1502 1498
4 1503 1504 1500 1499
4 1483 1505 1497 1495
4 1500 1506 1484 1496
4 1505 1507 1501 1497
4 1504 1508 1506 1500
4 1491 1498 1509 1487
4 1510 1499 1492 1488
4 1498 1502 1511 1509
4 1512 1503 1499 1510
4 1487 1509 1513 1469
4 1514 1510 1488 1472
4 1509 1511 1515 1513
4 1516 1512 1510 1514
4 1479 1517 1505 1483
4 1506 1518 1480 1484
4 1475 1519 1517 1479
4 1518 1520 1476 1480
4 1470 1521 1519 1475
4 1520 1522 1471 1476
4 1521 1523 1524 1519
4 1525 1526 1522 1520
4 1469 1513 1521 1470
4 1522 1514 1472 1471
4 1513 1515 1523 1521
4 1526 1516 1514 1522
4 1515 1527 1528 1523
4 1529 1530 1516 1526
4 1523 1528 1531 1524
4 1532 1529 1526 1525
4 1511 1533 1527 1515
4 1530 1534 1512 1516
4 1502 1535 1533 1511
4 1534 1536 1503 1512
4 1507 1537 1538 1501
4 1539 1540 1508 1504
4 1501 1538 1535 1502
4 1536 1539 1504 1503
4 1541 1537 1542 1543
4 1544 1540 1545 1546
4 1531 1541 1543 1547
4 1546 1545 1532 1548
4 1537 1507 1549 1542
4 1550 1508 1540 1544
4 1524 1531 1547 1551
4 1548 1532 1525 1552
4 1517 1519 1553 1554
4 1555 1520 1518 1556
4 1505 1517 1554 1557
4 1556 1518 1506 1558
4 1519 1524 1551 1553
4 1552 1525 1520 1555
4 1507 1505 1557 1549
4 1558 1506 1508 1550
4 1559 1543 1542 1549
4 1544 1546 1560 1550
4 1551 1547 1543 1559
4 1546 1548 1552 1560
4 1553 1551 1559 1554
4 1560 1552 1555 1556
4 1554 1559 1549 1557
4 1550 1560 1556 1558
4 320 1561 1562 321
4 1563 1564 322 325
4 1561 335 334 1562
4 340 339 1564 1563
4 312 1565 1566 313
4 1567 1568 314 317
4 1565 327 326 1566
4 332 331 1568 1567
4 335 1569 1570 336
4 1571 1572 339 338
4 1569 358 370 1570
4 373 360 1572 1571
4 336 1570 1573 329
4 1574 1571 338 333
4 1570 370 366 1573
4 369 373 1571 1574
4 329 1573 1575 326
4 1576 1574 333 332
4 1573 366 362 1575
4 365 369 1574 1576
4 326 1575 1577 1566
4 1578 1576 332 1567
4 313 1566 1577 346
4 1578 1567 317 348
4 346 1577 1575 362
4 1576 1578 348 365
4 335 1561 1579 1569
4 1580 1564 339 1572
4 358 1569 1579 343
4 1580 1572 360 345
4 343 1579 1561 320
4 1564 1580 345 322
4 920 1581 1582 921
4 1582 1583 922 921
4 1581 931 930 1582
4 930 935 1583 1582
4 927 1584 1565 312
4 1568 1585 929 314
4 1584 936 327 1565
4 331 940 1585 1568
4 321 1562 1581 920
4 1583 1563 325 922
4 1562 334 931 1581
4 935 340 1563 1583
4 926 1586 1584 927
4 1585 1586 926 929
4 1586 937 936 1584
4 940 937 1586 1585
4 1147 1587 1588 1144
4 1589 1590 1151 1150
4 1587 1591 1592 1588
4 1593 1594 1590 1589
4 1144 1588 1595 1155
4 1596 1589 1150 1159
4 1588 1592 1597 1595
4 1598 1593 1589 1596
4 1155 1595 1599 1152
4 1600 1596 1159 1158
4 1595 1597 1601 1599
4 1602 1598 1596 1600
4 1603 1604 1605 1606
4 1605 1607 1608 1606
4 1604 1166 1169 1605
4 1169 1171 1607 1605
4 1609 1610 1611 1612
4 1613 1610 1609 1614
4 1610 1160 1163 1611
4 1165 1160 1610 1613
4 1591 1587 1604 1603
4 1607 1590 1594 1608
4 1587 1147 1166 1604
4 1171 1151 1590 1607
4 1612 1611 1599 1601
4 1600 1613 1614 1602
4 1611 1163 1152 1599
4 1158 1165 1613 1600
4 1434 1433 1615 1616
4 1617 1436 1435 1618
4 1439 1434 1616 1619
4 1618 1435 1440 1620
4 1443 1439 1619 1621
4 1620 1440 1444 1622
4 1447 1443 1621 1623
4 1622 1444 1448 1624
4 1625 1626 1454 1457
4 1455 1627 1628 1460
4 1623 1625 1457 1447
4 1460 1628 1624 1448
4 1451 1454 1626 1629
4 1627 1455 1452 1630
4 1433 1451 1629 1615
4 1630 1452 1436 1617
4 1631 1632 1633 1634
4 1635 1636 1637 1638
4 1639 1640 1632 1631
4 1636 1641 1642 1637
4 1634 1633 1643 1644
4 1645 1635 1638 1646
4 1644 1643 1647 1648
4 1649 1645 1646 1650
4 1651 1652 1640 1639
4 1641 1653 1654 1642
4 1655 1656 1652 1651
4 1653 1657 1658 1654
4 1659 1660 1656 1655
4 1657 1661 1662 1658
4 1648 1647 1660 1659
4 1661 1649 1650 1662
4 1663 1664 1648 1659
4 1650 1665 1666 1662
4 1667 1663 1659 1655
4 1662 1666 1668 1658
4 1669 1667 1655 1651
4 1658 1668 1670 1654
4 1671 1669 1651 1639
4 1654 1670 1672 1642
4 1664 1673 1644 1648
4 1646 1674 1665 1650
4 1673 1675 1634 1644
4 1638 1676 1674 1646
4 1677 1671 1639 1631
4 1642 1672 1678 1637
4 1675 1677 1631 1634
4 1637 1678 1676 1638
4 910 1679 1680 912
4 1681 1682 911 913
4 912 1680 1683 906
4 1684 1681 913 907
4 908 1685 1679 910
4 1682 1686 909 911
4 898 1687 1685 908
4 1686 1688 900 909
4 906 1683 1689 904
4 1690 1684 907 905
4 904 1689 1691 902
4 1692 1690 905 903
4 902 1691 1693 899
4 1694 1692 903 901
4 899 1693 1687 898
4 1688 1694 901 900
4 1538 1695 1696 1535
4 1697 1698 1539 1536
4 1537 1699 1695 1538
4 1698 1700 1540 1539
4 1535 1696 1701 1533
4 1702 1697 1536 1534
4 1533 1701 1703 1527
4 1704 1702 1534 1530
4 1541 1705 1699 1537
4 1700 1706 1545 1540
4 1531 1707 1705 1541
4 1706 1708 1532 1545
4 1528 1709 1707 1531
4 1708 1710 1529 1532
4 1527 1703 1709 1528
4 1710 1704 1530 1529
4 79 72 1105 1104
4 1106 74 83 1107
4 79 1104 1096 80
4 1098 1107 83 82
4 80 1096 1094 86
4 1095 1098 82 88
4 86 1094 1090 90
4 1091 1095 88 92
4 90 1090 1086 94
4 1087 1091 92 96
4 94 1086 1081 98
4 1082 1087 96 100
4 98 1081 1080 71
4 1083 1082 100 75
4 71 1080 1105 72
4 1106 1083 75 74
4 415 414 1711 1712
4 1713 420 419 1714
4 916 979 1715 1716
4 1717 980 917 1718
4 1609 1612 1719 1720
4 1721 1614 1609 1720
4 979 978 1722 1715
4 1722 978 980 1717
4 1591 1603 1723 1724
4 1725 1608 1594 1726
4 1601 1597 1727 1728
4 1729 1598 1602 1730
4 1603 1606 1731 1723
4 1731 1606 1608 1725
4 1597 1592 1732 1727
4 1733 1593 1598 1729
4 1612 1601 1728 1719
4 1730 1602 1614 1721
4 1592 1591 1724 1732
4 1726 1594 1593 1733
4 958 957 1734 1735
4 1736 961 958 1735
4 410 415 1712 1737
4 1714 419 412 1738
4 957 410 1737 1734
4 1738 412 961 1736
4 414 916 1716 1711
4 1718 917 420 1713
4 1739 1740 1741 1742
4 1743 1744 1745 1746
4 1747 1748 1749 1750
4 1751 1752 1753 1754
4 1755 1756 1740 1739
4 1744 1756 1755 1745
4 1757 1758 1750 1749
4 1754 1758 1757 1751
4 1759 1760 1742 1741
4 1746 1761 1762 1743
4 1763 1764 1760 1759
4 1761 1765 1766 1762
4 1748 1747 1764 1763
4 1765 1753 1752 1766
4 1740 1767 1768 1741
4 1769 1770 1744 1743
4 1767 1719 1728 1768
4 1730 1721 1770 1769
4 1748 1771 1772 1749
4 1773 1774 1752 1751
4 1771 1724 1723 1772
4 1725 1726 1774 1773
4 1756 1775 1767 1740
4 1770 1775 1756 1744
4 1775 1720 1719 1767
4 1721 1720 1775 1770
4 1731 1776 1772 1723
4 1773 1776 1731 1725
4 1776 1757 1749 1772
4 1751 1757 1776 1773
4 1727 1777 1768 1728
4 1769 1778 1729 1730
4 1777 1759 1741 1768
4 1743 1762 1778 1769
4 1732 1779 1777 1727
4 1778 1780 1733 1729
4 1779 1763 1759 1777
4 1762 1766 1780 1778
4 1724 1771 1779 1732
4 1780 1774 1726 1733
4 1771 1748 1763 1779
4 1766 1752 1774 1780
4 1715 1781 1782 1716
4 1783 1784 1717 1718
4 1781 1739 1742 1782
4 1746 1745 1784 1783
4 1737 1785 1786 1734
4 1787 1788 1738 1736
4 1785 1747 1750 1786
4 1754 1753 1788 1787
4 1722 1789 1781 1715
4 1784 1789 1722 1717
4 1789 1755 1739 1781
4 1745 1755 1789 1784
4 1758 1790 1786 1750
4 1787 1790 1758 1754
4 1790 1735 1734 1786
4 1736 1735 1790 1787
4 1760 1791 1782 1742
4 1783 1792 1761 1746
4 1791 1711 1716 1782
4 1718 1713 1792 1783
4 1764 1793 1791 1760
4 1792 1794 1765 1761
4 1793 1712 1711 1791
4 1713 1714 1794 1792
4 1747 1785 1793 1764
4 1794 1788 1753 1765
4 1785 1737 1712 1793
4 1714 1738 1788 1794
4 1070 1068 1074 1795
4 1075 1069 1071 1796
4 1058 1057 1070 1795
4 1071 1061 1060 1796
4 1058 1795 1797 1798
4 1799 1796 1060 1800
4 1795 1074 1801 1797
4 1802 1075 1796 1799
4 1072 1059 1803 1804
4 1805 1063 1073 1806
4 1027 1072 1804 1807
4 1806 1073 1028 1808
4 1059 1058 1798 1803
4 1800 1060 1063 1805
4 1074 994 1809 1801
4 1810 998 1075 1802
4 994 1287 1811 1809
4 1812 1289 998 1810
4 1287 1027 1807 1811
4 1808 1028 1289 1812
3 1801 1809 1813
3 1814 1810 1802
3 1809 1811 1813
3 1814 1812 1810
3 1804 1813 1807
3 1808 1814 1806
3 1813 1811 1807
3 1808 1812 1814
3 1797 1801 1798
3 1800 1802 1799
3 1801 1813 1798
3 1800 1814 1802
3 1804 1803 1813
3 1814 1805 1806
3 1803 1798 1813
3 1814 1800 1805
4 1406 1815 1400 1399
4 1401 1816 1407 1402
4 1815 1427 1409 1400
4 1410 1428 1816 1401
4 1632 1817 1818 1633
4 1819 1820 1636 1635
4 1817 1680 1679 1818
4 1682 1681 1820 1819
4 1640 1821 1817 1632
4 1820 1822 1641 1636
4 1821 1683 1680 1817
4 1681 1684 1822 1820
4 1633 1818 1823 1643
4 1824 1819 1635 1645
4 1818 1679 1685 1823
4 1686 1682 1819 1824
4 1643 1823 1825 1647
4 1826 1824 1645 1649
4 1823 1685 1687 1825
4 1688 1686 1824 1826
4 1652 1827 1821 1640
4 1822 1828 1653 1641
4 1827 1689 1683 1821
4 1684 1690 1828 1822
4 1656 1829 1827 1652
4 1828 1830 1657 1653
4 1829 1691 1689 1827
4 1690 1692 1830 1828
4 1660 1831 1829 1656
4 1830 1832 1661 1657
4 1831 1693 1691 1829
4 1692 1694 1832 1830
4 1647 1825 1831 1660
4 1832 1826 1649 1661
4 1825 1687 1693 1831
4 1694 1688 1826 1832
4 1695 1833 1834 1696
4 1835 1836 1698 1697
4 1833 1677 1675 1834
4 1676 1678 1836 1835
4 1699 1837 1833 1695
4 1836 1838 1700 1698
4 1837 1671 1677 1833
4 1678 1672 1838 1836
4 1696 1834 1839 1701
4 1840 1835 1697 1702
4 1834 1675 1673 1839
4 1674 1676 1835 1840
4 1701 1839 1841 1703
4 1842 1840 1702 1704
4 1839 1673 1664 1841
4 1665 1674 1840 1842
4 1705 1843 1837 1699
4 1838 1844 1706 1700
4 1843 1669 1671 1837
4 1672 1670 1844 1838
4 1707 1845 1843 1705
4 1844 1846 1708 1706
4 1845 1667 1669 1843
4 1670 1668 1846 1844
4 1709 1847 1845 1707
4 1846 1848 1710 1708
4 1847 1663 1667 1845
4 1668 1666 1848 1846
4 1703 1841 1847 1709
4 1848 1842 1704 1710
4 1841 1664 1663 1847
4 1666 1665 1842 1848
4 1849 1850 1851 1852
4 1853 1854 1855 1856
4 1852 1857 1858 1849
4 1853 1856 1858 1857
4 1859 1860 1861 1862
4 1863 1864 1861 1860
4 1859 1862 1865 1866
4 1864 1863 1867 1868
4 1869 1870 1871 1872
4 1869 1872 1873 1874
4 1873 1875 1876 1874
4 1877 1878 1879 1880
4 1877 1881 1882 1878
4 1882 1881 1876 1875
4 1880 1879 1883 1884
4 1885 1871 1870 1886
