ply
format ascii 1.0
comment Created by Blender 2.60 (sub 0) - www.blender.org, source file: 'meshgit_potspans.blend'
element vertex 266
property float x
property float y
property float z
element face 268
property list uchar uint vertex_indices
end_header
1.803030 0.008294 0.445237
1.770520 0.316686 0.422856
1.712205 0.310147 0.524581
1.739116 0.008294 0.547090
-1.712205 0.310147 0.524581
-1.770520 0.316686 0.422856
-1.803030 0.008294 0.445237
-1.739116 0.008294 0.547090
1.712205 -0.293560 0.524581
1.770520 -0.300098 0.422856
-1.712205 -0.293560 0.524581
-1.770520 -0.300098 0.422856
1.523509 -0.419144 0.246905
1.465459 -0.419410 0.350232
1.341489 -0.295979 0.272356
1.390012 -0.292791 0.161719
-1.341489 -0.295979 0.272356
-1.465459 -0.419410 0.350232
-1.523509 -0.419144 0.246905
-1.390012 -0.292791 0.161719
1.390127 0.309508 0.161843
1.341607 0.312538 0.272543
1.465454 0.435999 0.350225
1.523502 0.435733 0.246901
-1.465454 0.435999 0.350225
-1.341607 0.312538 0.272543
-1.390127 0.309508 0.161843
-1.523502 0.435733 0.246901
1.662337 0.259486 0.527048
1.675984 0.008294 0.537107
-1.662337 0.259486 0.527048
-1.675984 0.008294 0.537107
1.662338 -0.242899 0.527048
-1.662338 -0.242899 0.527048
1.450857 -0.355530 0.380486
1.366207 -0.250148 0.325037
-1.366207 -0.250148 0.325037
-1.450857 -0.355530 0.380486
1.366243 0.266736 0.325057
1.450854 0.372121 0.380485
-1.450854 0.372121 0.380485
-1.366243 0.266736 0.325057
1.759366 0.008294 0.377316
1.746551 0.269716 0.367040
-1.759366 0.008294 0.377316
-1.746551 0.269716 0.367040
1.746551 -0.253129 0.367040
-1.746551 -0.253129 0.367040
1.437678 -0.247532 0.159998
1.535137 -0.354925 0.221317
-1.535137 -0.354925 0.221317
-1.437678 -0.247532 0.159998
1.535136 0.371515 0.221316
1.437755 0.264112 0.160040
-1.437755 0.264112 0.160040
-1.535136 0.371515 0.221316
1.642960 0.212116 0.469528
1.635750 0.008294 0.467971
-1.642960 0.212116 0.469528
-1.635750 0.008294 0.467971
1.642960 -0.195529 0.469528
-1.642960 -0.195529 0.469528
1.464089 -0.293168 0.352463
1.415600 -0.206889 0.321273
-1.415600 -0.206889 0.321273
-1.464089 -0.293168 0.352463
1.415600 0.223476 0.321273
1.464088 0.309755 0.352462
-1.464088 0.309755 0.352462
-1.415600 0.223476 0.321273
1.699943 0.008294 0.366635
1.700147 0.220313 0.369284
-1.699943 0.008294 0.366635
-1.700147 0.220313 0.369284
1.700147 -0.203725 0.369284
-1.700147 -0.203725 0.369284
1.466249 -0.203427 0.215307
1.522356 -0.293286 0.249453
-1.522356 -0.293286 0.249453
-1.466249 -0.203427 0.215307
1.522355 0.309873 0.249453
1.466249 0.220014 0.215307
-1.466249 0.220014 0.215307
-1.522355 0.309873 0.249453
1.406485 -0.000000 0.449508
0.994535 0.994535 0.449508
0.994535 0.994535 0.514338
1.406485 -0.000000 0.514338
-0.994535 0.994535 0.514338
-0.994535 0.994535 0.449508
-1.406485 -0.000000 0.449508
-1.406485 -0.000000 0.514338
0.994535 -0.994535 0.514338
0.994535 -0.994535 0.449508
-0.994535 -0.994535 0.514338
-0.994535 -0.994535 0.449508
0.000000 -1.406485 0.449508
0.000000 -1.406485 0.514338
0.000000 1.406485 0.449508
0.000000 1.406485 0.514338
0.907212 0.907212 0.540270
1.282992 -0.000000 0.540270
-0.907212 0.907212 0.540270
-1.282992 -0.000000 0.540270
0.907212 -0.907212 0.540270
-0.907212 -0.907212 0.540270
0.000000 -1.282992 0.540270
0.000000 1.282992 0.540270
0.860209 0.860209 0.466984
1.216519 -0.000000 0.466984
-0.860209 0.860209 0.466984
-1.216519 -0.000000 0.466984
0.860209 -0.860209 0.466984
-0.860209 -0.860209 0.466984
0.000000 -1.216519 0.466984
0.000000 1.216519 0.466984
0.930527 0.930527 -1.478816
1.315964 -0.000000 -1.478816
0.000000 0.000000 -1.478816
0.000000 1.315964 -1.478816
-1.315964 -0.000000 -1.478816
-0.930527 0.930527 -1.478816
0.930527 -0.930527 -1.478816
0.000000 -1.315964 -1.478816
-0.930527 -0.930527 -1.478816
0.860209 0.860209 -1.427164
0.000000 1.216519 -1.427164
0.000000 0.000000 -1.427164
1.216519 -0.000000 -1.427164
-0.860209 0.860209 -1.427164
-1.216519 -0.000000 -1.427164
0.000000 -1.216519 -1.427164
0.860209 -0.860209 -1.427164
-0.860209 -0.860209 -1.427164
0.930527 0.930527 -1.393792
1.273109 -0.000000 -1.393792
-1.273109 -0.000000 -1.393792
-0.930527 0.930527 -1.393792
0.930527 -0.930527 -1.393792
-0.930527 -0.930527 -1.393792
0.000000 -1.315964 -1.393792
0.000000 1.315964 -1.393792
0.860209 0.860209 -1.360869
1.216519 -0.000000 -1.360869
-1.216519 -0.000000 -1.360869
-0.860209 0.860209 -1.360869
0.860209 -0.860209 -1.360869
-0.860209 -0.860209 -1.360869
0.000000 -1.216519 -1.360869
0.000000 1.216519 -1.360869
0.930527 0.930527 0.410611
0.930527 0.930527 0.410611
1.315964 -0.000000 0.410611
1.315964 -0.000000 0.410611
-1.315964 -0.000000 0.410611
-0.930527 0.930527 0.410611
-0.930527 0.930527 0.410611
-1.315964 -0.000000 0.410611
0.930527 -0.930527 0.410611
0.930527 -0.930527 0.410611
-0.930527 -0.930527 0.410611
-0.930527 -0.930527 0.410611
0.000000 -1.315964 0.410611
0.000000 -1.315964 0.410611
0.000000 1.315964 0.410611
0.000000 1.315964 0.410611
0.930527 0.930527 0.247854
1.237067 -0.000000 0.318124
-0.930527 0.930527 0.247854
-1.237067 -0.000000 0.318124
0.930527 -0.930527 0.247854
-0.930527 -0.930527 0.247854
0.930527 -0.930527 0.040708
0.000000 -1.315964 0.247854
0.000000 -1.315964 0.040708
-0.930527 -0.930527 0.040708
0.000000 1.315964 0.040708
0.000000 1.315964 0.247854
0.930527 0.930527 0.040708
-0.930527 0.930527 0.040708
1.207794 -0.228823 0.230726
1.192376 -0.085419 0.232158
-1.192376 -0.085419 0.232158
-1.207794 -0.228823 0.230726
1.297995 -0.228596 0.075067
-1.297995 -0.228596 0.075067
1.281473 0.000364 0.059100
1.266739 -0.077320 0.086289
-1.266739 -0.077320 0.086289
-1.281473 0.000364 0.059100
1.202248 0.255980 0.227388
1.292141 0.255892 0.072035
-1.292141 0.255892 0.072035
-1.202248 0.255980 0.227388
1.228197 0.107856 0.252151
-1.228197 0.107856 0.252151
1.302880 0.099922 0.107200
-1.302880 0.099922 0.107200
1.296517 0.155721 0.253748
1.314670 0.137492 0.296597
-1.314670 0.137492 0.296597
-1.296517 0.155721 0.253748
1.246385 0.009166 0.290116
1.264119 0.008313 0.269096
-1.264119 0.008313 0.269096
-1.246385 0.009166 0.290116
1.287171 0.006107 0.077444
1.338808 0.153467 0.131443
1.390098 0.135730 0.133159
1.341732 0.008266 0.105722
-1.390098 0.135730 0.133159
-1.338808 0.153467 0.131443
-1.287171 0.006107 0.077444
-1.341732 0.008266 0.105722
1.376648 0.116831 0.300651
-1.376648 0.116831 0.300651
1.337453 0.008294 0.278376
-1.337453 0.008294 0.278376
1.429458 0.114097 0.196239
1.390404 0.008294 0.174542
-1.429458 0.114097 0.196239
-1.390404 0.008294 0.174542
1.291500 -0.138589 0.249202
1.314542 -0.120886 0.296549
-1.314542 -0.120886 0.296549
-1.291500 -0.138589 0.249202
1.336884 -0.138588 0.130742
1.389939 -0.119185 0.133061
-1.389939 -0.119185 0.133061
-1.336884 -0.138588 0.130742
1.376649 -0.100243 0.300651
-1.376649 -0.100243 0.300651
1.429458 -0.097510 0.196239
-1.429458 -0.097510 0.196239
1.648403 0.370666 0.334032
1.588142 0.368473 0.438678
-1.588142 0.368473 0.438678
-1.648403 0.370666 0.334032
1.556745 0.317431 0.453676
-1.556745 0.317431 0.453676
1.640892 0.319366 0.294342
-1.640892 0.319366 0.294342
1.551490 0.267952 0.411636
-1.551490 0.267952 0.411636
1.611669 0.270502 0.307713
-1.611669 0.270502 0.307713
1.588142 -0.351885 0.438678
1.648403 -0.354078 0.334032
-1.648403 -0.354078 0.334032
-1.588142 -0.351885 0.438678
1.556745 -0.300843 0.453676
-1.556745 -0.300843 0.453676
1.640892 -0.302778 0.294342
-1.640892 -0.302778 0.294342
1.551490 -0.251365 0.411636
-1.551490 -0.251365 0.411636
1.611669 -0.253914 0.307713
-1.611669 -0.253914 0.307713
0.930527 0.930527 -0.038189
1.281013 0.000344 -0.020809
-1.281013 0.000344 -0.020809
-0.930527 0.930527 -0.038189
0.930527 -0.930527 -0.038189
-0.930527 -0.930527 -0.038189
0.000000 -1.315964 -0.038189
0.000000 1.315964 -0.038189
4 0 1 2 3
4 4 5 6 7
4 0 3 8 9
4 10 7 6 11
4 12 13 14 15
4 16 17 18 19
4 20 21 22 23
4 24 25 26 27
4 3 2 28 29
4 30 4 7 31
4 3 29 32 8
4 33 31 7 10
4 13 34 35 14
4 36 37 17 16
4 21 38 39 22
4 40 41 25 24
4 1 0 42 43
4 44 6 5 45
4 9 46 42 0
4 44 47 11 6
4 15 48 49 12
4 50 51 19 18
4 23 52 53 20
4 54 55 27 26
4 29 28 56 57
4 58 30 31 59
4 29 57 60 32
4 61 59 31 33
4 34 62 63 35
4 64 65 37 36
4 38 66 67 39
4 68 69 41 40
4 43 42 70 71
4 72 44 45 73
4 46 74 70 42
4 72 75 47 44
4 48 76 77 49
4 78 79 51 50
4 52 80 81 53
4 82 83 55 54
4 74 60 57 70
4 59 61 75 72
4 70 57 56 71
4 58 59 72 73
4 80 67 66 81
4 69 68 83 82
4 76 63 62 77
4 65 64 79 78
4 84 85 86 87
4 88 89 90 91
4 84 87 92 93
4 94 91 90 95
4 96 93 92 97
4 94 95 96 97
4 98 99 86 85
4 88 99 98 89
4 87 86 100 101
4 102 88 91 103
4 87 101 104 92
4 105 103 91 94
4 97 92 104 106
4 105 94 97 106
4 99 107 100 86
4 102 107 99 88
4 101 100 108 109
4 110 102 103 111
4 101 109 112 104
4 113 111 103 105
4 106 104 112 114
4 113 105 106 114
4 107 115 108 100
4 110 115 107 102
4 116 117 118 119
4 118 120 121 119
4 117 122 123 118
4 123 124 120 118
4 125 126 127 128
4 127 126 129 130
4 128 127 131 132
4 131 127 130 133
4 116 134 135 117
4 136 137 121 120
4 122 117 135 138
4 136 120 124 139
4 122 138 140 123
4 140 139 124 123
4 116 119 141 134
4 141 119 121 137
4 108 142 143 109
4 144 145 110 111
4 142 125 128 143
4 130 129 145 144
4 112 109 143 146
4 144 111 113 147
4 146 143 128 132
4 130 144 147 133
4 112 146 148 114
4 148 147 113 114
4 146 132 131 148
4 131 133 147 148
4 108 115 149 142
4 149 115 110 145
4 142 149 126 125
4 126 149 145 129
4 150 151 152 153
4 154 155 156 157
4 151 85 84 152
4 90 89 155 154
4 158 153 152 159
4 154 157 160 161
4 159 152 84 93
4 90 154 161 95
4 158 159 162 163
4 162 161 160 163
4 159 93 96 162
4 96 95 161 162
4 150 164 165 151
4 165 164 156 155
4 151 165 98 85
4 98 165 155 89
4 166 150 153 167
4 157 156 168 169
4 167 153 158 170
4 160 157 169 171
4 172 170 173 174
4 173 171 175 174
4 170 158 163 173
4 163 160 171 173
4 176 177 166 178
4 168 177 176 179
4 177 164 150 166
4 156 164 177 168
4 170 180 181 167
4 182 183 171 169
4 172 184 180 170
4 183 185 175 171
4 186 187 184 172
4 185 188 189 175
4 166 190 191 178
4 192 193 168 179
4 167 194 190 166
4 193 195 169 168
4 178 191 196 186
4 197 192 179 189
4 21 198 199 38
4 200 201 25 41
4 198 202 203 199
4 204 205 201 200
4 206 207 208 209
4 210 211 212 213
4 207 20 53 208
4 54 26 211 210
4 38 199 214 66
4 215 200 41 69
4 199 203 216 214
4 217 204 200 215
4 209 208 218 219
4 220 210 213 221
4 208 53 81 218
4 82 54 210 220
4 81 66 214 218
4 215 69 82 220
4 218 214 216 219
4 217 215 220 221
4 202 222 223 203
4 224 225 205 204
4 222 14 35 223
4 36 16 225 224
4 15 226 227 48
4 228 229 19 51
4 226 206 209 227
4 213 212 229 228
4 203 223 230 216
4 231 224 204 217
4 223 35 63 230
4 64 36 224 231
4 48 227 232 76
4 233 228 51 79
4 227 209 219 232
4 221 213 228 233
4 219 216 230 232
4 231 217 221 233
4 232 230 63 76
4 64 231 233 79
4 180 14 222 181
4 225 16 183 182
4 187 226 15 184
4 19 229 188 185
4 184 15 14 180
4 16 19 185 183
4 202 167 181 222
4 182 169 205 225
4 206 226 187 186
4 188 229 212 189
4 194 198 21 190
4 25 201 195 193
4 190 21 20 191
4 26 25 193 192
4 191 20 207 196
4 211 26 192 197
4 167 202 198 194
4 201 205 169 195
4 186 196 207 206
4 211 197 189 212
4 1 234 235 2
4 236 237 5 4
4 234 23 22 235
4 24 27 237 236
4 2 235 238 28
4 239 236 4 30
4 235 22 39 238
4 40 24 236 239
4 23 234 240 52
4 241 237 27 55
4 234 1 43 240
4 45 5 237 241
4 28 238 242 56
4 243 239 30 58
4 238 39 67 242
4 68 40 239 243
4 52 240 244 80
4 245 241 55 83
4 240 43 71 244
4 73 45 241 245
4 56 242 244 71
4 245 243 58 73
4 242 67 80 244
4 83 68 243 245
4 8 246 247 9
4 248 249 10 11
4 246 13 12 247
4 18 17 249 248
4 32 250 246 8
4 249 251 33 10
4 250 34 13 246
4 17 37 251 249
4 49 252 247 12
4 248 253 50 18
4 252 46 9 247
4 11 47 253 248
4 60 254 250 32
4 251 255 61 33
4 254 62 34 250
4 37 65 255 251
4 77 256 252 49
4 253 257 78 50
4 256 74 46 252
4 47 75 257 253
4 62 254 256 77
4 257 255 65 78
4 254 60 74 256
4 75 61 255 257
4 134 258 259 135
4 260 261 137 136
4 258 178 186 259
4 189 179 261 260
4 135 259 262 138
4 263 260 136 139
4 259 186 172 262
4 175 189 260 263
4 138 262 264 140
4 264 263 139 140
4 262 172 174 264
4 174 175 263 264
4 141 265 258 134
4 261 265 141 137
4 265 176 178 258
4 179 176 265 261
