ply
format ascii 1.0
comment Created by Blender 2.60 (sub 0) - www.blender.org, source file: 'meshgit_ladders.blend'
element vertex 1792
property float x
property float y
property float z
element face 1770
property list uchar uint vertex_indices
end_header
-0.430127 -2.997741 0.011504
-0.430693 -3.094783 0.010475
-0.292300 -3.111194 0.010475
-0.291477 -2.983846 0.009297
-0.292300 2.782364 0.010475
-0.292300 2.888806 0.010475
-0.430693 2.905217 0.010475
-0.430693 2.798776 0.010475
0.441009 2.782364 0.010475
0.425819 2.878924 -0.003244
0.317806 2.891733 -0.003244
0.317806 2.808657 -0.003244
0.302616 -2.985570 0.010475
0.302616 -3.094783 0.010475
0.441009 -3.111194 0.010475
0.441009 -3.001982 0.010475
-0.292300 -3.111194 -0.114525
-0.430693 -3.094783 -0.114525
-0.431516 -3.003706 -0.113346
-0.292866 -2.989811 -0.115553
-0.430693 2.905217 -0.114525
-0.292300 2.888806 -0.114525
-0.292300 2.782364 -0.114525
-0.430693 2.798776 -0.114525
0.317806 2.891733 -0.100805
0.425819 2.878924 -0.100805
0.425819 2.795848 -0.100805
0.317806 2.808657 -0.100805
0.441009 -3.111194 -0.114525
0.302616 -3.094783 -0.114525
0.302616 -2.985570 -0.114525
0.441009 -3.001982 -0.114525
0.292930 2.314257 -0.046886
0.285509 2.315837 -0.052029
0.328486 2.317493 -0.134451
0.333234 2.309426 -0.130315
0.284258 2.320556 -0.059748
0.325203 2.322519 -0.127354
0.291678 2.318976 -0.054605
0.329950 2.314452 -0.123218
0.317293 2.465886 -0.106039
0.322581 2.459724 -0.104495
0.327106 2.457844 -0.104287
0.329135 2.457844 -0.114317
0.329099 2.448725 -0.114138
0.315749 2.459016 -0.107113
0.327070 2.448725 -0.104108
0.321037 2.452854 -0.105569
0.382718 2.457844 -0.117371
0.382682 2.448725 -0.117192
0.384712 2.448725 -0.127222
0.384748 2.457844 -0.127401
0.443604 2.437634 -0.087009
0.443787 2.446752 -0.087009
0.433553 2.446752 -0.087009
0.433371 2.437634 -0.087009
0.298710 2.456278 -0.056570
0.297166 2.449408 -0.057645
0.293422 2.462440 -0.058114
0.291877 2.455570 -0.059189
0.296291 2.451086 0.004666
0.298148 2.457957 0.004366
0.301167 2.444925 0.002103
0.303025 2.451794 0.001803
0.328039 2.435056 0.078774
0.326181 2.428187 0.079074
0.323162 2.441219 0.081336
0.321305 2.434348 0.081636
0.334859 2.402014 0.124795
0.336716 2.402169 0.131670
0.339736 2.404707 0.118689
0.341593 2.404861 0.125563
0.379097 2.362446 0.113726
0.373295 2.367471 0.108800
0.372951 2.354378 0.112355
0.367150 2.359405 0.107429
0.391838 2.347467 0.066296
0.397640 2.342441 0.071222
0.397983 2.355533 0.067667
0.403785 2.350508 0.072593
0.460143 2.332564 -0.048170
0.453430 2.337590 -0.044583
0.456611 2.324497 -0.042958
0.449898 2.329523 -0.039371
0.414127 2.329716 -0.102879
0.420839 2.324690 -0.106466
0.417659 2.337783 -0.108091
0.424371 2.332757 -0.111678
0.309329 2.318228 0.012013
0.316750 2.314257 0.017156
0.314111 2.322947 0.004294
0.321531 2.318976 0.009437
0.352691 2.356819 0.110287
0.345270 2.355531 0.105143
0.347909 2.352100 0.112830
0.340488 2.350812 0.112862
0.358132 2.392364 0.136054
0.365553 2.394835 0.135569
0.362914 2.395118 0.127435
0.370334 2.397589 0.132127
0.406746 2.439700 0.094346
0.401942 2.432219 0.092312
0.398279 2.445271 0.092938
0.393475 2.437791 0.090903
0.439343 2.437634 -0.006368
0.439525 2.446752 -0.006368
0.449576 2.437634 -0.006368
0.449759 2.446752 -0.006369
0.433371 2.437634 -0.087009
0.420150 2.437634 -0.006368
0.420332 2.446752 -0.006368
0.433553 2.446752 -0.087009
0.443604 2.437634 -0.087009
0.430383 2.437634 -0.006368
0.430566 2.446752 -0.006369
0.443787 2.446752 -0.087009
0.406746 2.439700 0.094346
0.401942 2.432219 0.092312
0.398279 2.445271 0.092938
0.393475 2.437791 0.090903
0.358132 2.392364 0.136054
0.365553 2.394835 0.135569
0.362914 2.395118 0.127435
0.370334 2.397589 0.132127
0.352691 2.356819 0.110287
0.345270 2.355531 0.105143
0.347909 2.352100 0.112830
0.340488 2.350812 0.112862
0.309329 2.318228 0.012013
0.316750 2.314257 0.017156
0.314111 2.322947 0.004294
0.321531 2.318976 0.009437
0.291678 2.318976 -0.054605
0.284258 2.320556 -0.059748
0.292930 2.314257 -0.046886
0.285509 2.315837 -0.052029
0.329950 2.314452 -0.123218
0.333234 2.309426 -0.130315
0.420839 2.324690 -0.106466
0.414127 2.329716 -0.102879
0.325203 2.322519 -0.127354
0.417659 2.337783 -0.108091
0.328486 2.317493 -0.134451
0.424371 2.332757 -0.111678
0.453430 2.337590 -0.044583
0.460143 2.332564 -0.048170
0.456611 2.324497 -0.042958
0.449898 2.329523 -0.039371
0.397640 2.342441 0.071222
0.391838 2.347467 0.066296
0.397983 2.355533 0.067667
0.403785 2.350508 0.072593
0.373295 2.367471 0.108800
0.379097 2.362446 0.113726
0.372951 2.354378 0.112355
0.367150 2.359405 0.107429
0.336716 2.402169 0.131670
0.334859 2.402014 0.124795
0.339736 2.404707 0.118689
0.341593 2.404861 0.125563
0.326181 2.428187 0.079074
0.328039 2.435056 0.078774
0.323162 2.441219 0.081336
0.321305 2.434348 0.081636
0.298148 2.457957 0.004366
0.296291 2.451086 0.004666
0.301167 2.444925 0.002103
0.303025 2.451794 0.001803
0.297166 2.449408 -0.057645
0.298710 2.456278 -0.056570
0.293422 2.462440 -0.058114
0.291877 2.455570 -0.059189
0.317293 2.465886 -0.106039
0.315749 2.459016 -0.107113
0.321037 2.452854 -0.105569
0.322581 2.459724 -0.104495
0.382718 2.457844 -0.117371
0.382682 2.448725 -0.117192
0.384712 2.448725 -0.127222
0.384748 2.457844 -0.127401
0.329099 2.448725 -0.114138
0.329135 2.457844 -0.114317
0.327106 2.457844 -0.104287
0.327070 2.448725 -0.104108
-0.435430 2.314257 -0.046886
-0.442851 2.315837 -0.052029
-0.399873 2.317493 -0.134451
-0.395126 2.309426 -0.130315
-0.444102 2.320556 -0.059748
-0.403157 2.322519 -0.127354
-0.436681 2.318976 -0.054605
-0.398410 2.314452 -0.123218
-0.411066 2.465886 -0.106039
-0.405778 2.459724 -0.104495
-0.401254 2.457844 -0.104287
-0.399224 2.457844 -0.114317
-0.399260 2.448725 -0.114138
-0.412611 2.459016 -0.107113
-0.401290 2.448725 -0.104108
-0.407323 2.452854 -0.105569
-0.345641 2.457844 -0.117371
-0.345677 2.448725 -0.117192
-0.343648 2.448725 -0.127222
-0.343612 2.457844 -0.127401
-0.284756 2.437634 -0.087009
-0.284573 2.446752 -0.087009
-0.294806 2.446752 -0.087009
-0.294989 2.437634 -0.087009
-0.429650 2.456278 -0.056570
-0.431194 2.449408 -0.057645
-0.434938 2.462440 -0.058114
-0.436482 2.455570 -0.059189
-0.423752 2.451086 0.004666
-0.421895 2.457957 0.004366
-0.418875 2.444925 0.002103
-0.417018 2.451794 0.001803
-0.399637 2.435056 0.078774
-0.401494 2.428187 0.079074
-0.404514 2.441219 0.081336
-0.406371 2.434348 0.081636
-0.393501 2.402014 0.124795
-0.391644 2.402169 0.131670
-0.388624 2.404707 0.118689
-0.386767 2.404861 0.125563
-0.349263 2.362446 0.113726
-0.355065 2.367471 0.108800
-0.355408 2.354378 0.112355
-0.361210 2.359405 0.107429
-0.336521 2.347467 0.066296
-0.330720 2.342441 0.071222
-0.330376 2.355533 0.067667
-0.324575 2.350508 0.072593
-0.314233 2.329716 -0.102879
-0.307521 2.324690 -0.106466
-0.287144 2.324497 -0.042958
-0.293856 2.329523 -0.039371
-0.310701 2.337783 -0.108091
-0.290324 2.337590 -0.044583
-0.303989 2.332757 -0.111678
-0.283612 2.332564 -0.048170
-0.419031 2.318228 0.001084
-0.411610 2.314257 0.006227
-0.414249 2.322947 -0.006635
-0.406828 2.318976 -0.001491
-0.370228 2.392364 0.136054
-0.359335 2.350812 0.111311
-0.351914 2.352100 0.111279
-0.362807 2.394835 0.135569
-0.365446 2.395118 0.127435
-0.354553 2.355531 0.103592
-0.347133 2.356819 0.108735
-0.358025 2.397589 0.132127
-0.330430 2.439700 0.094346
-0.335234 2.432219 0.092311
-0.338897 2.445271 0.092938
-0.343701 2.437791 0.090903
-0.303721 2.437634 -0.006369
-0.303538 2.446752 -0.006369
-0.293488 2.437634 -0.006369
-0.293305 2.446752 -0.006369
-0.409865 2.433552 0.118680
-0.381325 2.433552 0.118680
-0.381325 2.433552 -0.006320
-0.409865 2.433552 -0.006320
-0.424255 2.351523 0.118680
-0.424255 2.351523 -0.006320
-0.395716 2.351523 0.118680
-0.395716 2.351523 -0.006320
0.432307 2.351523 0.118680
0.411101 2.351523 0.118680
0.411101 2.351523 -0.006320
0.432307 2.351523 -0.006320
0.425492 2.433552 0.118680
0.446697 2.433552 0.118680
0.446697 2.433552 -0.006320
0.425492 2.433552 -0.006320
-0.380498 2.337898 0.041740
-0.387918 2.339239 0.036597
-0.385279 2.333179 0.046871
-0.392700 2.334520 0.044316
-0.312827 2.346562 0.011542
-0.306570 2.341536 0.012212
-0.311409 2.333469 0.014132
-0.317666 2.338495 0.013463
-0.311409 1.756478 0.014132
-0.330720 1.765450 0.071222
-0.336521 1.770476 0.066296
-0.317666 1.761504 0.013463
-0.287144 1.747506 -0.042958
-0.293856 1.752532 -0.039371
-0.330376 1.778542 0.067667
-0.312827 1.769571 0.011542
-0.290324 1.760598 -0.044583
-0.306570 1.764545 0.012212
-0.324575 1.773517 0.072593
-0.283612 1.755573 -0.048170
-0.392700 1.757529 0.044316
-0.419031 1.741237 0.001084
-0.411610 1.737266 0.006227
-0.385279 1.756188 0.046871
-0.359335 1.773821 0.111311
-0.351914 1.775109 0.111279
-0.387918 1.762248 0.036597
-0.414249 1.745956 -0.006635
-0.354553 1.778540 0.103592
-0.406828 1.741985 -0.001491
-0.380498 1.760906 0.041740
-0.347133 1.779828 0.108735
-0.294989 1.860643 -0.087009
-0.303721 1.860643 -0.006369
-0.303538 1.869761 -0.006369
-0.294806 1.869761 -0.087009
-0.284756 1.860643 -0.087009
-0.293488 1.860643 -0.006369
-0.293305 1.869761 -0.006369
-0.284573 1.869761 -0.087009
-0.330430 1.862709 0.094346
-0.335234 1.855228 0.092312
-0.338897 1.868280 0.092938
-0.343701 1.860800 0.090903
-0.370228 1.815373 0.136054
-0.362807 1.817844 0.135569
-0.365446 1.818127 0.127435
-0.358025 1.820598 0.132127
-0.436681 1.741985 -0.054605
-0.444102 1.743565 -0.059748
-0.435430 1.737266 -0.046886
-0.442851 1.738846 -0.052029
-0.398410 1.737461 -0.123218
-0.395126 1.732435 -0.130315
-0.307521 1.747699 -0.106466
-0.314233 1.752725 -0.102879
-0.403157 1.745528 -0.127354
-0.310701 1.760792 -0.108091
-0.399873 1.740502 -0.134451
-0.303989 1.755766 -0.111678
-0.355065 1.790480 0.108800
-0.349263 1.785455 0.113726
-0.355408 1.777387 0.112355
-0.361210 1.782414 0.107429
-0.391644 1.825178 0.131670
-0.393501 1.825023 0.124795
-0.388624 1.827716 0.118689
-0.386767 1.827870 0.125563
-0.401494 1.851196 0.079074
-0.399637 1.858065 0.078774
-0.404514 1.864228 0.081336
-0.406371 1.857357 0.081636
-0.421895 1.880965 0.004366
-0.423752 1.874095 0.004666
-0.418875 1.867934 0.002103
-0.417018 1.874803 0.001803
-0.431194 1.872417 -0.057645
-0.429650 1.879287 -0.056570
-0.434938 1.885449 -0.058114
-0.436482 1.878578 -0.059189
-0.411066 1.888895 -0.106039
-0.412611 1.882025 -0.107113
-0.407323 1.875863 -0.105569
-0.405778 1.882733 -0.104495
-0.345641 1.880852 -0.117371
-0.345677 1.871734 -0.117192
-0.343648 1.871734 -0.127222
-0.343612 1.880852 -0.127401
-0.399260 1.871734 -0.114138
-0.399224 1.880852 -0.114317
-0.401254 1.880852 -0.104287
-0.401290 1.871734 -0.104108
0.433371 1.860643 -0.087009
0.439343 1.860643 -0.006368
0.439525 1.869761 -0.006368
0.433553 1.869761 -0.087009
0.443604 1.860643 -0.087009
0.449576 1.860643 -0.006368
0.449759 1.869761 -0.006368
0.443787 1.869761 -0.087009
0.406746 1.862709 0.094346
0.401942 1.855228 0.092312
0.398279 1.868280 0.092938
0.393475 1.860800 0.090903
0.358132 1.815373 0.136054
0.365553 1.817844 0.135569
0.362914 1.818127 0.127435
0.370334 1.820598 0.132127
0.352691 1.779828 0.110287
0.345270 1.778540 0.105143
0.347909 1.775109 0.112830
0.340488 1.773821 0.112862
0.309329 1.741237 0.012013
0.316750 1.737266 0.017156
0.314111 1.745956 0.004294
0.321531 1.741985 0.009437
0.291678 1.741985 -0.054605
0.284258 1.743565 -0.059748
0.292930 1.737266 -0.046886
0.285509 1.738846 -0.052029
0.329950 1.737461 -0.123218
0.333234 1.732435 -0.130315
0.420839 1.747699 -0.106466
0.414127 1.752725 -0.102879
0.325203 1.745528 -0.127354
0.417659 1.760792 -0.108091
0.328486 1.740502 -0.134451
0.424371 1.755766 -0.111678
0.453430 1.760598 -0.044583
0.460143 1.755573 -0.048170
0.456611 1.747506 -0.042958
0.449898 1.752532 -0.039371
0.397640 1.765450 0.071222
0.391838 1.770476 0.066296
0.397983 1.778542 0.067667
0.403785 1.773517 0.072593
0.373295 1.790480 0.108800
0.379097 1.785455 0.113726
0.372951 1.777387 0.112355
0.367150 1.782414 0.107429
0.336716 1.825178 0.131670
0.334859 1.825023 0.124795
0.339736 1.827716 0.118689
0.341593 1.827870 0.125563
0.326181 1.851196 0.079074
0.328039 1.858065 0.078774
0.323162 1.864228 0.081336
0.321305 1.857357 0.081636
0.298148 1.880965 0.004366
0.296291 1.874095 0.004666
0.301167 1.867934 0.002103
0.303025 1.874803 0.001803
0.297166 1.872417 -0.057645
0.298710 1.879287 -0.056570
0.293422 1.885449 -0.058114
0.291877 1.878578 -0.059189
0.317293 1.888895 -0.106039
0.315749 1.882025 -0.107113
0.321037 1.875863 -0.105569
0.322581 1.882733 -0.104495
0.382718 1.880852 -0.117371
0.382682 1.871734 -0.117192
0.384712 1.871734 -0.127222
0.384748 1.880852 -0.127401
0.329099 1.871734 -0.114138
0.329135 1.880852 -0.114317
0.327106 1.880852 -0.104287
0.327070 1.871734 -0.104108
-0.409865 1.856560 0.118680
-0.381325 1.856560 0.118680
-0.381325 1.856560 -0.006320
-0.409865 1.856560 -0.006320
-0.424255 1.774532 0.118680
-0.424255 1.774532 -0.006320
-0.395716 1.774532 0.118680
-0.395716 1.774532 -0.006320
0.432307 1.774532 0.118680
0.411101 1.774532 0.118680
0.411101 1.774532 -0.006320
0.432307 1.774532 -0.006320
0.425492 1.856560 0.118680
0.446697 1.856560 0.118680
0.446697 1.856560 -0.006320
0.425492 1.856560 -0.006320
-0.381325 1.239402 0.118680
-0.409865 1.239402 0.118680
-0.424255 1.157373 0.118680
-0.395716 1.157373 0.118680
0.411101 1.157373 0.118680
0.432307 1.157373 0.118680
0.446697 1.239402 0.118680
0.425492 1.239402 0.118680
-0.424255 1.157373 -0.006320
-0.409865 1.239402 -0.006320
-0.381325 1.239402 -0.006320
-0.395716 1.157373 -0.006320
0.446697 1.239402 -0.006320
0.432307 1.157373 -0.006320
0.411101 1.157373 -0.006320
0.425492 1.239402 -0.006320
0.292930 1.120107 -0.046886
0.285509 1.121687 -0.052029
0.328486 1.123343 -0.134451
0.333234 1.115276 -0.130315
0.284258 1.126406 -0.059748
0.325203 1.128369 -0.127354
0.291678 1.124826 -0.054605
0.329950 1.120302 -0.123218
0.317293 1.271736 -0.106039
0.322581 1.265574 -0.104495
0.327106 1.263694 -0.104287
0.329135 1.263694 -0.114317
0.329099 1.254575 -0.114138
0.315749 1.264866 -0.107113
0.327070 1.254575 -0.104108
0.321037 1.258704 -0.105569
0.382718 1.263694 -0.117371
0.382682 1.254575 -0.117192
0.384712 1.254575 -0.127222
0.384748 1.263694 -0.127401
0.443604 1.243484 -0.087009
0.443787 1.252602 -0.087009
0.433553 1.252602 -0.087009
0.433371 1.243484 -0.087009
0.298710 1.262128 -0.056570
0.297166 1.255258 -0.057645
0.293422 1.268290 -0.058114
0.291877 1.261420 -0.059189
0.296291 1.256936 0.004666
0.298148 1.263807 0.004366
0.301167 1.250775 0.002103
0.303025 1.257644 0.001804
0.328039 1.240906 0.078774
0.326181 1.234037 0.079074
0.323162 1.247069 0.081336
0.321305 1.240198 0.081636
0.334859 1.207865 0.124795
0.336716 1.208019 0.131670
0.339736 1.210557 0.118689
0.341593 1.210711 0.125563
0.379097 1.168296 0.113726
0.373295 1.173321 0.108800
0.372951 1.160228 0.112355
0.367150 1.165255 0.107429
0.391838 1.153317 0.066296
0.397640 1.148291 0.071222
0.397983 1.161383 0.067667
0.403785 1.156358 0.072593
0.460143 1.138414 -0.048170
0.453430 1.143440 -0.044583
0.456611 1.130347 -0.042957
0.449898 1.135373 -0.039371
0.414127 1.135566 -0.102879
0.420839 1.130540 -0.106466
0.417659 1.143633 -0.108091
0.424371 1.138607 -0.111678
0.309329 1.124078 0.012013
0.316750 1.120107 0.017156
0.314111 1.128797 0.004294
0.321531 1.124826 0.009437
0.352691 1.162669 0.110287
0.345270 1.161381 0.105143
0.347909 1.157950 0.112830
0.340488 1.156662 0.112863
0.358132 1.198214 0.136054
0.365553 1.200685 0.135569
0.362914 1.200968 0.127435
0.370334 1.203439 0.132127
0.406746 1.245550 0.094346
0.401942 1.238069 0.092312
0.398279 1.251121 0.092938
0.393475 1.243641 0.090903
0.439343 1.243484 -0.006368
0.439525 1.252602 -0.006368
0.449576 1.243484 -0.006368
0.449759 1.252602 -0.006368
-0.435430 1.120107 -0.046886
-0.442851 1.121687 -0.052029
-0.399873 1.123343 -0.134451
-0.395126 1.115276 -0.130315
-0.444102 1.126406 -0.059748
-0.403157 1.128369 -0.127354
-0.436681 1.124826 -0.054605
-0.398410 1.120302 -0.123218
-0.411066 1.271736 -0.106039
-0.405778 1.265574 -0.104495
-0.401254 1.263694 -0.104287
-0.399224 1.263694 -0.114317
-0.399260 1.254575 -0.114138
-0.412611 1.264866 -0.107113
-0.401290 1.254575 -0.104108
-0.407323 1.258704 -0.105569
-0.345641 1.263694 -0.117371
-0.345677 1.254575 -0.117192
-0.343648 1.254575 -0.127222
-0.343612 1.263694 -0.127401
-0.284756 1.243484 -0.087009
-0.284573 1.252602 -0.087009
-0.294806 1.252602 -0.087009
-0.294989 1.243484 -0.087009
-0.429650 1.262128 -0.056570
-0.431194 1.255258 -0.057645
-0.434938 1.268290 -0.058114
-0.436482 1.261420 -0.059189
-0.423752 1.256936 0.004666
-0.421895 1.263807 0.004366
-0.418875 1.250775 0.002103
-0.417018 1.257644 0.001803
-0.399637 1.240906 0.078774
-0.401494 1.234037 0.079074
-0.404514 1.247069 0.081336
-0.406371 1.240198 0.081636
-0.393501 1.207865 0.124795
-0.391644 1.208019 0.131670
-0.388624 1.210557 0.118689
-0.386767 1.210711 0.125563
-0.349263 1.168296 0.113726
-0.355065 1.173321 0.108800
-0.355408 1.160228 0.112355
-0.361210 1.165255 0.107429
-0.336521 1.153317 0.066296
-0.330720 1.148291 0.071222
-0.330376 1.161383 0.067667
-0.324575 1.156358 0.072593
-0.314233 1.135566 -0.102879
-0.307521 1.130540 -0.106466
-0.287144 1.130347 -0.042958
-0.293856 1.135373 -0.039371
-0.310701 1.143633 -0.108091
-0.290324 1.143440 -0.044583
-0.303989 1.138607 -0.111678
-0.283612 1.138414 -0.048170
-0.419031 1.124078 0.001084
-0.411610 1.120107 0.006227
-0.414249 1.128797 -0.006635
-0.406828 1.124826 -0.001491
-0.370228 1.198214 0.136054
-0.359335 1.156662 0.111311
-0.351914 1.157950 0.111279
-0.362807 1.200685 0.135569
-0.365446 1.200968 0.127435
-0.354553 1.161381 0.103592
-0.347133 1.162669 0.108735
-0.358025 1.203439 0.132127
-0.330430 1.245550 0.094346
-0.335234 1.238069 0.092312
-0.338897 1.251121 0.092938
-0.343701 1.243641 0.090903
-0.303721 1.243484 -0.006368
-0.303538 1.252602 -0.006368
-0.293488 1.243484 -0.006368
-0.293305 1.252602 -0.006368
-0.380498 1.143748 0.041740
-0.387918 1.145089 0.036597
-0.385279 1.139029 0.046871
-0.392700 1.140370 0.044316
-0.312827 1.152412 0.011542
-0.306570 1.147386 0.012212
-0.311409 1.139319 0.014132
-0.317666 1.144346 0.013463
-0.311409 0.497446 0.014133
-0.330720 0.506418 0.071222
-0.336521 0.511444 0.066296
-0.317666 0.502473 0.013463
-0.287144 0.488474 -0.042957
-0.293856 0.493500 -0.039371
-0.330376 0.519511 0.067667
-0.312827 0.510539 0.011542
-0.290324 0.501567 -0.044583
-0.306570 0.505513 0.012212
-0.324575 0.514485 0.072593
-0.283612 0.496541 -0.048170
-0.392700 0.498497 0.044316
-0.419031 0.482205 0.001084
-0.411610 0.478235 0.006227
-0.385279 0.497156 0.046872
-0.359335 0.514789 0.111311
-0.351914 0.516077 0.111279
-0.387918 0.503217 0.036597
-0.414249 0.486924 -0.006635
-0.354553 0.519509 0.103592
-0.406828 0.482953 -0.001491
-0.380498 0.501875 0.041740
-0.347133 0.520796 0.108735
-0.294989 0.601611 -0.087009
-0.303721 0.601611 -0.006368
-0.303538 0.610729 -0.006368
-0.294806 0.610729 -0.087009
-0.284756 0.601611 -0.087009
-0.293488 0.601611 -0.006368
-0.293305 0.610729 -0.006368
-0.284573 0.610729 -0.087009
-0.330430 0.603677 0.094346
-0.335234 0.596196 0.092312
-0.338897 0.609248 0.092938
-0.343701 0.601768 0.090903
-0.370228 0.556341 0.136054
-0.362807 0.558812 0.135569
-0.365446 0.559095 0.127435
-0.358025 0.561566 0.132127
-0.436681 0.482953 -0.054605
-0.444102 0.484533 -0.059748
-0.435430 0.478235 -0.046886
-0.442851 0.479814 -0.052029
-0.398410 0.478430 -0.123218
-0.395126 0.473403 -0.130315
-0.307521 0.488667 -0.106466
-0.314233 0.493694 -0.102879
-0.403157 0.486496 -0.127354
-0.310701 0.501760 -0.108091
-0.399873 0.481470 -0.134451
-0.303989 0.496734 -0.111678
-0.355065 0.531448 0.108800
-0.349263 0.526423 0.113726
-0.355408 0.518356 0.112355
-0.361210 0.523382 0.107429
-0.391644 0.566146 0.131670
-0.393501 0.565992 0.124795
-0.388624 0.568684 0.118689
-0.386767 0.568838 0.125563
-0.401494 0.592164 0.079074
-0.399637 0.599034 0.078774
-0.404514 0.605196 0.081336
-0.406371 0.598325 0.081636
-0.421895 0.621934 0.004366
-0.423752 0.615063 0.004666
-0.418875 0.608902 0.002103
-0.417018 0.615772 0.001804
-0.431194 0.613385 -0.057645
-0.429650 0.620255 -0.056570
-0.434938 0.626417 -0.058114
-0.436482 0.619547 -0.059189
-0.411066 0.629864 -0.106039
-0.412611 0.622993 -0.107113
-0.407323 0.616832 -0.105569
-0.405778 0.623701 -0.104495
-0.345641 0.621821 -0.117371
-0.345677 0.612703 -0.117192
-0.343648 0.612703 -0.127222
-0.343612 0.621821 -0.127401
-0.399260 0.612703 -0.114138
-0.399224 0.621821 -0.114317
-0.401254 0.621821 -0.104287
-0.401290 0.612703 -0.104108
0.433371 0.601611 -0.087009
0.439343 0.601611 -0.006368
0.439525 0.610729 -0.006368
0.433553 0.610729 -0.087009
0.443604 0.601611 -0.087009
0.449576 0.601611 -0.006368
0.449759 0.610729 -0.006368
0.443787 0.610729 -0.087009
0.406746 0.603677 0.094346
0.401942 0.596196 0.092312
0.398279 0.609248 0.092938
0.393475 0.601768 0.090903
0.358132 0.556341 0.136054
0.365553 0.558812 0.135569
0.362914 0.559095 0.127436
0.370334 0.561566 0.132127
0.352691 0.520796 0.110287
0.345270 0.519509 0.105143
0.347909 0.516077 0.112830
0.340488 0.514789 0.112863
0.309329 0.482205 0.012013
0.316750 0.478235 0.017156
0.314111 0.486924 0.004294
0.321531 0.482953 0.009437
0.291678 0.482953 -0.054604
0.284258 0.484533 -0.059748
0.292930 0.478235 -0.046886
0.285509 0.479814 -0.052029
0.329950 0.478430 -0.123218
0.333234 0.473403 -0.130315
0.420839 0.488667 -0.106466
0.414127 0.493694 -0.102879
0.325203 0.486496 -0.127354
0.417659 0.501760 -0.108091
0.328486 0.481470 -0.134451
0.424371 0.496734 -0.111678
0.453430 0.501567 -0.044583
0.460143 0.496541 -0.048170
0.456611 0.488474 -0.042957
0.449898 0.493500 -0.039371
0.397640 0.506418 0.071223
0.391838 0.511444 0.066296
0.397983 0.519511 0.067667
0.403785 0.514485 0.072593
0.373295 0.531448 0.108800
0.379097 0.526423 0.113726
0.372951 0.518356 0.112355
0.367150 0.523382 0.107429
0.336716 0.566146 0.131670
0.334859 0.565992 0.124795
0.339736 0.568684 0.118689
0.341593 0.568838 0.125563
0.326181 0.592164 0.079074
0.328039 0.599034 0.078774
0.323162 0.605196 0.081336
0.321305 0.598325 0.081636
0.298148 0.621934 0.004366
0.296291 0.615063 0.004666
0.301167 0.608902 0.002103
0.303025 0.615772 0.001804
0.297166 0.613385 -0.057645
0.298710 0.620255 -0.056570
0.293422 0.626417 -0.058114
0.291877 0.619547 -0.059189
0.317293 0.629864 -0.106039
0.315749 0.622993 -0.107113
0.321037 0.616832 -0.105569
0.322581 0.623701 -0.104495
0.382718 0.621821 -0.117371
0.382682 0.612703 -0.117192
0.384712 0.612703 -0.127222
0.384748 0.621821 -0.127401
0.329099 0.612703 -0.114138
0.329135 0.621821 -0.114317
0.327106 0.621821 -0.104287
0.327070 0.612703 -0.104108
-0.409865 0.597529 0.118680
-0.381325 0.597529 0.118680
-0.381325 0.597529 -0.006320
-0.409865 0.597529 -0.006320
-0.424255 0.515500 0.118680
-0.424255 0.515500 -0.006320
-0.395716 0.515500 0.118680
-0.395716 0.515500 -0.006320
0.432307 0.515500 0.118680
0.411101 0.515500 0.118680
0.411101 0.515500 -0.006320
0.432307 0.515500 -0.006320
0.425492 0.597529 0.118680
0.446697 0.597529 0.118680
0.446697 0.597529 -0.006320
0.425492 0.597529 -0.006320
-0.381325 -0.061425 0.118680
-0.409865 -0.061425 0.118680
-0.424255 -0.143453 0.118680
-0.395716 -0.143453 0.118680
0.411101 -0.143453 0.118680
0.432307 -0.143453 0.118680
0.446697 -0.061425 0.118680
0.425492 -0.061425 0.118680
-0.424255 -0.143453 -0.006320
-0.409865 -0.061425 -0.006320
-0.381325 -0.061425 -0.006320
-0.395716 -0.143453 -0.006320
0.446697 -0.061425 -0.006320
0.432307 -0.143453 -0.006320
0.411101 -0.143453 -0.006320
0.425492 -0.061425 -0.006320
0.292930 -0.180719 -0.046886
0.285509 -0.179140 -0.052029
0.328486 -0.177483 -0.134451
0.333234 -0.185550 -0.130315
0.284258 -0.174420 -0.059748
0.325203 -0.172458 -0.127354
0.291678 -0.176000 -0.054604
0.329950 -0.180524 -0.123218
0.317293 -0.029090 -0.106039
0.322581 -0.035252 -0.104495
0.327106 -0.037133 -0.104287
0.329135 -0.037133 -0.114317
0.329099 -0.046251 -0.114138
0.315749 -0.035960 -0.107113
0.327070 -0.046251 -0.104108
0.321037 -0.042122 -0.105569
0.382718 -0.037133 -0.117371
0.382682 -0.046251 -0.117192
0.384712 -0.046251 -0.127222
0.384748 -0.037133 -0.127401
0.443604 -0.057343 -0.087009
0.443787 -0.048224 -0.087009
0.433553 -0.048224 -0.087009
0.433371 -0.057343 -0.087009
0.298710 -0.038699 -0.056570
0.297166 -0.045568 -0.057644
0.293422 -0.032537 -0.058114
0.291877 -0.039407 -0.059189
0.296291 -0.043890 0.004666
0.298148 -0.037020 0.004366
0.301167 -0.050052 0.002103
0.303025 -0.043182 0.001804
0.328039 -0.059920 0.078774
0.326181 -0.066790 0.079074
0.323162 -0.053758 0.081336
0.321305 -0.060628 0.081636
0.334859 -0.092962 0.124795
0.336716 -0.092807 0.131670
0.339736 -0.090270 0.118689
0.341593 -0.090115 0.125563
0.379097 -0.132531 0.113726
0.373295 -0.127505 0.108800
0.372951 -0.140598 0.112355
0.367150 -0.135571 0.107429
0.391838 -0.147509 0.066296
0.397640 -0.152535 0.071223
0.397983 -0.139443 0.067667
0.403785 -0.144468 0.072593
0.460143 -0.162412 -0.048170
0.453430 -0.157387 -0.044583
0.456611 -0.170479 -0.042957
0.449898 -0.165453 -0.039371
0.414127 -0.165260 -0.102879
0.420839 -0.170286 -0.106466
0.417659 -0.157194 -0.108091
0.424371 -0.162219 -0.111678
0.309329 -0.176748 0.012013
0.316750 -0.180719 0.017156
0.314111 -0.172029 0.004294
0.321531 -0.176000 0.009437
0.352691 -0.138157 0.110287
0.345270 -0.139445 0.105143
0.347909 -0.142876 0.112830
0.340488 -0.144164 0.112863
0.358132 -0.102612 0.136054
0.365553 -0.100142 0.135569
0.362914 -0.099858 0.127436
0.370334 -0.097387 0.132127
0.406746 -0.055276 0.094346
0.401942 -0.062757 0.092312
0.398279 -0.049705 0.092938
0.393475 -0.057186 0.090903
0.439343 -0.057343 -0.006368
0.439525 -0.048224 -0.006368
0.449576 -0.057343 -0.006368
0.449759 -0.048224 -0.006368
-0.435430 -0.180719 -0.046886
-0.442851 -0.179140 -0.052029
-0.399873 -0.177483 -0.134451
-0.395126 -0.185550 -0.130315
-0.444102 -0.174420 -0.059748
-0.403157 -0.172458 -0.127354
-0.436681 -0.176000 -0.054604
-0.398410 -0.180524 -0.123218
-0.411066 -0.029090 -0.106039
-0.405778 -0.035252 -0.104495
-0.401254 -0.037133 -0.104287
-0.399224 -0.037133 -0.114317
-0.399260 -0.046251 -0.114138
-0.412611 -0.035960 -0.107113
-0.401290 -0.046251 -0.104108
-0.407323 -0.042122 -0.105569
-0.345641 -0.037133 -0.117371
-0.345677 -0.046251 -0.117192
-0.343648 -0.046251 -0.127222
-0.343612 -0.037133 -0.127401
-0.284756 -0.057343 -0.087009
-0.284573 -0.048224 -0.087009
-0.294806 -0.048224 -0.087009
-0.294989 -0.057343 -0.087009
-0.429650 -0.038699 -0.056570
-0.431194 -0.045568 -0.057645
-0.434938 -0.032537 -0.058114
-0.436482 -0.039407 -0.059189
-0.423752 -0.043890 0.004666
-0.421895 -0.037020 0.004366
-0.418875 -0.050052 0.002103
-0.417018 -0.043182 0.001804
-0.399637 -0.059920 0.078774
-0.401494 -0.066790 0.079074
-0.404514 -0.053758 0.081336
-0.406371 -0.060628 0.081636
-0.393501 -0.092962 0.124795
-0.391644 -0.092807 0.131670
-0.388624 -0.090270 0.118689
-0.386767 -0.090115 0.125563
-0.349263 -0.132531 0.113726
-0.355065 -0.127505 0.108800
-0.355408 -0.140598 0.112355
-0.361210 -0.135571 0.107429
-0.336521 -0.147509 0.066296
-0.330720 -0.152535 0.071223
-0.330376 -0.139443 0.067667
-0.324575 -0.144468 0.072593
-0.314233 -0.165260 -0.102879
-0.307521 -0.170286 -0.106466
-0.287144 -0.170479 -0.042957
-0.293856 -0.165453 -0.039371
-0.310701 -0.157194 -0.108091
-0.290324 -0.157387 -0.044583
-0.303989 -0.162219 -0.111678
-0.283612 -0.162412 -0.048170
-0.419031 -0.176748 0.001084
-0.411610 -0.180719 0.006227
-0.414249 -0.172029 -0.006635
-0.406828 -0.176000 -0.001491
-0.370228 -0.102612 0.136054
-0.359335 -0.144164 0.111311
-0.351914 -0.142876 0.111279
-0.362807 -0.100142 0.135569
-0.365446 -0.099858 0.127436
-0.354553 -0.139445 0.103592
-0.347133 -0.138157 0.108736
-0.358025 -0.097387 0.132127
-0.330430 -0.055276 0.094346
-0.335234 -0.062757 0.092312
-0.338897 -0.049705 0.092938
-0.343701 -0.057186 0.090903
-0.303721 -0.057343 -0.006368
-0.303538 -0.048224 -0.006368
-0.293488 -0.057343 -0.006368
-0.293305 -0.048224 -0.006368
-0.380498 -0.157079 0.041740
-0.387918 -0.155737 0.036597
-0.385279 -0.161798 0.046872
-0.392700 -0.160456 0.044316
-0.312827 -0.148415 0.011542
-0.306570 -0.153440 0.012212
-0.311409 -0.161508 0.014133
-0.317666 -0.156481 0.013463
-0.311409 -0.787107 0.014133
-0.330720 -0.778135 0.071223
-0.336521 -0.773109 0.066296
-0.317666 -0.782080 0.013463
-0.287144 -0.796079 -0.042957
-0.293856 -0.791053 -0.039371
-0.330376 -0.765043 0.067667
-0.312827 -0.774014 0.011542
-0.290324 -0.782986 -0.044583
-0.306570 -0.779040 0.012212
-0.324575 -0.770068 0.072593
-0.283612 -0.788012 -0.048170
-0.392700 -0.786056 0.044316
-0.419031 -0.802348 0.001084
-0.411610 -0.806319 0.006227
-0.385279 -0.787397 0.046872
-0.359335 -0.769764 0.111311
-0.351914 -0.768476 0.111279
-0.387918 -0.781337 0.036597
-0.414249 -0.797629 -0.006635
-0.354553 -0.765044 0.103592
-0.406828 -0.801600 -0.001491
-0.380498 -0.782678 0.041741
-0.347133 -0.763757 0.108736
-0.294989 -0.682942 -0.087009
-0.303721 -0.682942 -0.006368
-0.303538 -0.673824 -0.006368
-0.294806 -0.673824 -0.087009
-0.284756 -0.682942 -0.087009
-0.293488 -0.682942 -0.006368
-0.293305 -0.673824 -0.006368
-0.284573 -0.673824 -0.087009
-0.330430 -0.680876 0.094346
-0.335234 -0.688357 0.092312
-0.338897 -0.675305 0.092938
-0.343701 -0.682785 0.090903
-0.370228 -0.728212 0.136054
-0.362807 -0.725741 0.135569
-0.365446 -0.725458 0.127436
-0.358025 -0.722987 0.132127
-0.436681 -0.801600 -0.054604
-0.444102 -0.800020 -0.059748
-0.435430 -0.806319 -0.046886
-0.442851 -0.804739 -0.052029
-0.398410 -0.806123 -0.123218
-0.395126 -0.811150 -0.130315
-0.307521 -0.795886 -0.106466
-0.314233 -0.790859 -0.102879
-0.403157 -0.798057 -0.127354
-0.310701 -0.782793 -0.108091
-0.399873 -0.803083 -0.134451
-0.303989 -0.787819 -0.111678
-0.355065 -0.753105 0.108800
-0.349263 -0.758130 0.113726
-0.355408 -0.766197 0.112355
-0.361210 -0.761171 0.107429
-0.391644 -0.718407 0.131670
-0.393501 -0.718561 0.124795
-0.388624 -0.715869 0.118689
-0.386767 -0.715715 0.125563
-0.401494 -0.692389 0.079074
-0.399637 -0.685519 0.078774
-0.404514 -0.679357 0.081336
-0.406371 -0.686228 0.081636
-0.421895 -0.662619 0.004366
-0.423752 -0.669490 0.004666
-0.418875 -0.675651 0.002103
-0.417018 -0.668782 0.001804
-0.431194 -0.671168 -0.057644
-0.429650 -0.664298 -0.056570
-0.434938 -0.658136 -0.058114
-0.436482 -0.665006 -0.059189
-0.411066 -0.654690 -0.106039
-0.412611 -0.661560 -0.107113
-0.407323 -0.667722 -0.105569
-0.405778 -0.660852 -0.104495
-0.345641 -0.662732 -0.117371
-0.345677 -0.671850 -0.117192
-0.343648 -0.671850 -0.127222
-0.343612 -0.662732 -0.127401
-0.399260 -0.671850 -0.114138
-0.399224 -0.662732 -0.114317
-0.401254 -0.662732 -0.104287
-0.401290 -0.671850 -0.104108
0.433371 -0.682942 -0.087009
0.439343 -0.682942 -0.006368
0.439525 -0.673824 -0.006368
0.433553 -0.673824 -0.087009
0.443604 -0.682942 -0.087009
0.449576 -0.682942 -0.006368
0.449759 -0.673824 -0.006368
0.443787 -0.673824 -0.087009
0.406746 -0.680876 0.094346
0.401942 -0.688357 0.092312
0.398279 -0.675305 0.092938
0.393475 -0.682785 0.090903
0.358132 -0.728212 0.136054
0.365553 -0.725741 0.135569
0.362914 -0.725458 0.127436
0.370334 -0.722987 0.132127
0.352691 -0.763757 0.110287
0.345270 -0.765044 0.105143
0.347909 -0.768476 0.112830
0.340488 -0.769764 0.112863
0.309329 -0.802348 0.012013
0.316750 -0.806319 0.017156
0.314111 -0.797629 0.004294
0.321531 -0.801600 0.009437
0.291678 -0.801600 -0.054604
0.284258 -0.800020 -0.059748
0.292930 -0.806319 -0.046886
0.285509 -0.804739 -0.052029
0.329950 -0.806123 -0.123218
0.333234 -0.811150 -0.130315
0.420839 -0.795886 -0.106466
0.414127 -0.790859 -0.102879
0.325203 -0.798057 -0.127354
0.417659 -0.782793 -0.108091
0.328486 -0.803083 -0.134451
0.424371 -0.787819 -0.111678
0.453430 -0.782986 -0.044583
0.460143 -0.788012 -0.048170
0.456611 -0.796079 -0.042957
0.449898 -0.791053 -0.039371
0.397640 -0.778135 0.071223
0.391838 -0.773109 0.066297
0.397983 -0.765043 0.067667
0.403785 -0.770068 0.072593
0.373295 -0.753105 0.108800
0.379097 -0.758130 0.113726
0.372951 -0.766197 0.112355
0.367150 -0.761171 0.107429
0.336716 -0.718407 0.131670
0.334859 -0.718561 0.124795
0.339736 -0.715869 0.118689
0.341593 -0.715715 0.125563
0.326181 -0.692389 0.079074
0.328039 -0.685519 0.078774
0.323162 -0.679357 0.081336
0.321305 -0.686228 0.081636
0.298148 -0.662619 0.004366
0.296291 -0.669490 0.004666
0.301167 -0.675651 0.002103
0.303025 -0.668782 0.001804
0.297166 -0.671168 -0.057644
0.298710 -0.664298 -0.056570
0.293422 -0.658136 -0.058114
0.291877 -0.665006 -0.059189
0.317293 -0.654690 -0.106039
0.315749 -0.661560 -0.107113
0.321037 -0.667722 -0.105569
0.322581 -0.660852 -0.104495
0.382718 -0.662732 -0.117371
0.382682 -0.671850 -0.117192
0.384712 -0.671850 -0.127222
0.384748 -0.662732 -0.127401
0.329099 -0.671850 -0.114138
0.329135 -0.662732 -0.114317
0.327106 -0.662732 -0.104287
0.327070 -0.671850 -0.104108
-0.409865 -0.687024 0.118680
-0.381325 -0.687024 0.118680
-0.381325 -0.687024 -0.006320
-0.409865 -0.687024 -0.006320
-0.424255 -0.769053 0.118680
-0.424255 -0.769053 -0.006320
-0.395716 -0.769053 0.118680
-0.395716 -0.769053 -0.006320
0.432307 -0.769053 0.118680
0.411101 -0.769053 0.118680
0.411101 -0.769053 -0.006320
0.432307 -0.769053 -0.006320
0.425492 -0.687024 0.118680
0.446697 -0.687024 0.118680
0.446697 -0.687024 -0.006320
0.425492 -0.687024 -0.006320
-0.381325 -1.318005 0.118680
-0.409865 -1.318005 0.118680
-0.424255 -1.400033 0.118680
-0.395716 -1.400033 0.118680
0.411101 -1.400033 0.118680
0.432307 -1.400033 0.118680
0.446697 -1.318005 0.118680
0.425492 -1.318005 0.118680
-0.424255 -1.400033 -0.006320
-0.409865 -1.318005 -0.006320
-0.381325 -1.318005 -0.006320
-0.395716 -1.400033 -0.006320
0.446697 -1.318005 -0.006320
0.432307 -1.400033 -0.006320
0.411101 -1.400033 -0.006320
0.425492 -1.318005 -0.006320
0.292930 -1.437299 -0.046886
0.285509 -1.435719 -0.052029
0.328486 -1.434063 -0.134451
0.333234 -1.442130 -0.130315
0.284258 -1.431000 -0.059748
0.325203 -1.429038 -0.127354
0.291678 -1.432580 -0.054604
0.329950 -1.437104 -0.123218
0.317293 -1.285670 -0.106039
0.322581 -1.291832 -0.104495
0.327106 -1.293713 -0.104287
0.329135 -1.293713 -0.114317
0.329099 -1.302831 -0.114138
0.315749 -1.292540 -0.107113
0.327070 -1.302831 -0.104108
0.321037 -1.298702 -0.105569
0.382718 -1.293713 -0.117371
0.382682 -1.302831 -0.117192
0.384712 -1.302831 -0.127222
0.384748 -1.293713 -0.127401
0.443604 -1.313922 -0.087009
0.443787 -1.304804 -0.087009
0.433553 -1.304804 -0.087009
0.433371 -1.313922 -0.087009
0.298710 -1.295279 -0.056570
0.297166 -1.302148 -0.057644
0.293422 -1.289116 -0.058114
0.291877 -1.295987 -0.059189
0.296291 -1.300470 0.004666
0.298148 -1.293600 0.004366
0.301167 -1.306632 0.002103
0.303025 -1.299762 0.001804
0.328039 -1.316500 0.078774
0.326181 -1.323370 0.079074
0.323162 -1.310338 0.081336
0.321305 -1.317208 0.081636
0.334859 -1.349542 0.124795
0.336716 -1.349387 0.131670
0.339736 -1.346849 0.118689
0.341593 -1.346695 0.125564
0.379097 -1.389111 0.113726
0.373295 -1.384085 0.108800
0.372951 -1.397178 0.112355
0.367150 -1.392151 0.107429
0.391838 -1.404089 0.066297
0.397640 -1.409115 0.071223
0.397983 -1.396023 0.067667
0.403785 -1.401048 0.072593
0.460143 -1.418992 -0.048170
0.453430 -1.413967 -0.044583
0.456611 -1.427059 -0.042957
0.449898 -1.422033 -0.039371
0.414127 -1.421840 -0.102879
0.420839 -1.426866 -0.106466
0.417659 -1.413774 -0.108091
0.424371 -1.418799 -0.111678
0.309329 -1.433328 0.012013
0.316750 -1.437299 0.017156
0.314111 -1.428609 0.004294
0.321531 -1.432580 0.009437
0.352691 -1.394737 0.110287
0.345270 -1.396025 0.105144
0.347909 -1.399456 0.112830
0.340488 -1.400744 0.112863
0.358132 -1.359192 0.136054
0.365553 -1.356721 0.135569
0.362914 -1.356438 0.127436
0.370334 -1.353967 0.132127
0.406746 -1.311856 0.094346
0.401942 -1.319337 0.092312
0.398279 -1.306285 0.092938
0.393475 -1.313766 0.090903
0.439343 -1.313922 -0.006368
0.439525 -1.304804 -0.006368
0.449576 -1.313922 -0.006368
0.449759 -1.304804 -0.006368
-0.435430 -1.437299 -0.046886
-0.442851 -1.435719 -0.052029
-0.399873 -1.434063 -0.134451
-0.395126 -1.442130 -0.130315
-0.444102 -1.431000 -0.059748
-0.403157 -1.429038 -0.127354
-0.436681 -1.432580 -0.054604
-0.398410 -1.437104 -0.123218
-0.411066 -1.285670 -0.106039
-0.405778 -1.291832 -0.104495
-0.401254 -1.293713 -0.104287
-0.399224 -1.293713 -0.114317
-0.399260 -1.302831 -0.114138
-0.412611 -1.292540 -0.107113
-0.401290 -1.302831 -0.104108
-0.407323 -1.298702 -0.105569
-0.345641 -1.293713 -0.117371
-0.345677 -1.302831 -0.117192
-0.343648 -1.302831 -0.127222
-0.343612 -1.293713 -0.127401
-0.284756 -1.313922 -0.087009
-0.284573 -1.304804 -0.087009
-0.294806 -1.304804 -0.087009
-0.294989 -1.313922 -0.087009
-0.429650 -1.295279 -0.056570
-0.431194 -1.302148 -0.057644
-0.434938 -1.289116 -0.058114
-0.436482 -1.295987 -0.059189
-0.423752 -1.300470 0.004666
-0.421895 -1.293600 0.004366
-0.418875 -1.306632 0.002103
-0.417018 -1.299762 0.001804
-0.399637 -1.316500 0.078774
-0.401494 -1.323370 0.079074
-0.404514 -1.310338 0.081336
-0.406371 -1.317208 0.081636
-0.393501 -1.349542 0.124795
-0.391644 -1.349387 0.131670
-0.388624 -1.346849 0.118689
-0.386767 -1.346695 0.125563
-0.349263 -1.389111 0.113726
-0.355065 -1.384085 0.108800
-0.355408 -1.397178 0.112355
-0.361210 -1.392151 0.107429
-0.336521 -1.404089 0.066297
-0.330720 -1.409115 0.071223
-0.330376 -1.396023 0.067667
-0.324575 -1.401048 0.072593
-0.314233 -1.421840 -0.102879
-0.307521 -1.426866 -0.106466
-0.287144 -1.427059 -0.042957
-0.293856 -1.422033 -0.039371
-0.310701 -1.413774 -0.108091
-0.290324 -1.413967 -0.044583
-0.303989 -1.418799 -0.111678
-0.283612 -1.418992 -0.048170
-0.419031 -1.433328 0.001084
-0.411610 -1.437299 0.006227
-0.414249 -1.428609 -0.006635
-0.406828 -1.432580 -0.001491
-0.370228 -1.359192 0.136054
-0.359335 -1.400744 0.111311
-0.351914 -1.399456 0.111279
-0.362807 -1.356721 0.135569
-0.365446 -1.356438 0.127436
-0.354553 -1.396025 0.103592
-0.347133 -1.394737 0.108736
-0.358025 -1.353967 0.132127
-0.330430 -1.311856 0.094346
-0.335234 -1.319337 0.092312
-0.338897 -1.306285 0.092938
-0.343701 -1.313766 0.090903
-0.303721 -1.313922 -0.006368
-0.303538 -1.304804 -0.006368
-0.293488 -1.313922 -0.006368
-0.293305 -1.304804 -0.006368
-0.380498 -1.413659 0.041741
-0.387918 -1.412317 0.036597
-0.385279 -1.418377 0.046872
-0.392700 -1.417036 0.044316
-0.312827 -1.404994 0.011542
-0.306570 -1.410020 0.012212
-0.311409 -1.418087 0.014133
-0.317666 -1.413061 0.013463
-0.311409 -2.089333 0.014133
-0.330720 -2.080360 0.071223
-0.336521 -2.075334 0.066297
-0.317666 -2.084306 0.013463
-0.287144 -2.098304 -0.042957
-0.293856 -2.093278 -0.039371
-0.330376 -2.067268 0.067667
-0.312827 -2.076240 0.011542
-0.290324 -2.085212 -0.044583
-0.306570 -2.081265 0.012212
-0.324575 -2.072293 0.072593
-0.283612 -2.090237 -0.048170
-0.392700 -2.088281 0.044316
-0.419031 -2.104573 0.001084
-0.411610 -2.108544 0.006227
-0.385279 -2.089622 0.046872
-0.359335 -2.071989 0.111311
-0.351914 -2.070701 0.111279
-0.387918 -2.083562 0.036597
-0.414249 -2.099854 -0.006635
-0.354553 -2.067270 0.103592
-0.406828 -2.103825 -0.001491
-0.380498 -2.084904 0.041741
-0.347133 -2.065982 0.108736
-0.294989 -1.985168 -0.087009
-0.303721 -1.985168 -0.006368
-0.303538 -1.976049 -0.006368
-0.294806 -1.976049 -0.087009
-0.284756 -1.985168 -0.087009
-0.293488 -1.985168 -0.006368
-0.293305 -1.976049 -0.006368
-0.284573 -1.976049 -0.087009
-0.330430 -1.983101 0.094346
-0.335234 -1.990582 0.092312
-0.338897 -1.977530 0.092938
-0.343701 -1.985011 0.090903
-0.370228 -2.030437 0.136054
-0.362807 -2.027966 0.135569
-0.365446 -2.027683 0.127436
-0.358025 -2.025212 0.132127
-0.436681 -2.103825 -0.054604
-0.444102 -2.102245 -0.059748
-0.435430 -2.108544 -0.046886
-0.442851 -2.106965 -0.052029
-0.398410 -2.108349 -0.123218
-0.395126 -2.113375 -0.130315
-0.307521 -2.098111 -0.106466
-0.314233 -2.093085 -0.102879
-0.403157 -2.100283 -0.127354
-0.310701 -2.085019 -0.108091
-0.399873 -2.105308 -0.134451
-0.303989 -2.090044 -0.111678
-0.355065 -2.055330 0.108800
-0.349263 -2.060356 0.113726
-0.355408 -2.068423 0.112355
-0.361210 -2.063396 0.107429
-0.391644 -2.020632 0.131670
-0.393501 -2.020787 0.124795
-0.388624 -2.018095 0.118689
-0.386767 -2.017940 0.125564
-0.401494 -1.994615 0.079074
-0.399637 -1.987745 0.078774
-0.404514 -1.981583 0.081336
-0.406371 -1.988453 0.081636
-0.421895 -1.964845 0.004366
-0.423752 -1.971715 0.004666
-0.418875 -1.977877 0.002103
-0.417018 -1.971007 0.001804
-0.431194 -1.973393 -0.057644
-0.429650 -1.966524 -0.056570
-0.434938 -1.960361 -0.058114
-0.436482 -1.967232 -0.059189
-0.411066 -1.956915 -0.106039
-0.412611 -1.963785 -0.107113
-0.407323 -1.969947 -0.105569
-0.405778 -1.963077 -0.104495
-0.345641 -1.964958 -0.117371
-0.345677 -1.974076 -0.117192
-0.343648 -1.974076 -0.127222
-0.343612 -1.964958 -0.127401
-0.399260 -1.974076 -0.114138
-0.399224 -1.964958 -0.114317
-0.401254 -1.964958 -0.104287
-0.401290 -1.974076 -0.104108
0.433371 -1.985168 -0.087009
0.439343 -1.985168 -0.006368
0.439525 -1.976049 -0.006368
0.433553 -1.976049 -0.087009
0.443604 -1.985168 -0.087009
0.449576 -1.985168 -0.006368
0.449759 -1.976049 -0.006368
0.443787 -1.976049 -0.087009
0.406746 -1.983101 0.094347
0.401942 -1.990582 0.092312
0.398279 -1.977530 0.092938
0.393475 -1.985011 0.090903
0.358132 -2.030437 0.136054
0.365553 -2.027966 0.135569
0.362914 -2.027683 0.127436
0.370334 -2.025212 0.132127
0.352691 -2.065982 0.110287
0.345270 -2.067270 0.105144
0.347909 -2.070701 0.112831
0.340488 -2.071989 0.112863
0.309329 -2.104573 0.012013
0.316750 -2.108544 0.017156
0.314111 -2.099854 0.004294
0.321531 -2.103825 0.009437
0.291678 -2.103825 -0.054604
0.284258 -2.102245 -0.059748
0.292930 -2.108544 -0.046886
0.285509 -2.106965 -0.052029
0.329950 -2.108349 -0.123218
0.333234 -2.113375 -0.130315
0.420839 -2.098111 -0.106466
0.414127 -2.093085 -0.102879
0.325203 -2.100283 -0.127354
0.417659 -2.085019 -0.108091
0.328486 -2.105308 -0.134451
0.424371 -2.090044 -0.111678
0.453430 -2.085212 -0.044583
0.460143 -2.090237 -0.048170
0.456611 -2.098304 -0.042957
0.449898 -2.093278 -0.039371
0.397640 -2.080360 0.071223
0.391838 -2.075334 0.066297
0.397983 -2.067268 0.067667
0.403785 -2.072293 0.072593
0.373295 -2.055330 0.108800
0.379097 -2.060356 0.113726
0.372951 -2.068423 0.112355
0.367150 -2.063396 0.107429
0.336716 -2.020632 0.131670
0.334859 -2.020787 0.124795
0.339736 -2.018095 0.118689
0.341593 -2.017940 0.125564
0.326181 -1.994615 0.079074
0.328039 -1.987745 0.078774
0.323162 -1.981583 0.081337
0.321305 -1.988453 0.081636
0.298148 -1.964845 0.004366
0.296291 -1.971715 0.004666
0.301167 -1.977877 0.002103
0.303025 -1.971007 0.001804
0.297166 -1.973393 -0.057644
0.298710 -1.966524 -0.056570
0.293422 -1.960361 -0.058114
0.291877 -1.967232 -0.059189
0.317293 -1.956915 -0.106039
0.315749 -1.963785 -0.107113
0.321037 -1.969947 -0.105569
0.322581 -1.963077 -0.104495
0.382718 -1.964958 -0.117371
0.382682 -1.974076 -0.117192
0.384712 -1.974076 -0.127222
0.384748 -1.964958 -0.127401
0.329099 -1.974076 -0.114138
0.329135 -1.964958 -0.114317
0.327106 -1.964958 -0.104287
0.327070 -1.974076 -0.104108
-0.409865 -1.989250 0.118680
-0.381325 -1.989250 0.118680
-0.381325 -1.989250 -0.006320
-0.409865 -1.989250 -0.006320
-0.424255 -2.071278 0.118680
-0.424255 -2.071278 -0.006320
-0.395716 -2.071278 0.118680
-0.395716 -2.071278 -0.006320
0.432307 -2.071278 0.118680
0.411101 -2.071278 0.118680
0.411101 -2.071278 -0.006320
0.432307 -2.071278 -0.006320
0.425492 -1.989250 0.118680
0.446697 -1.989250 0.118680
0.446697 -1.989250 -0.006320
0.425492 -1.989250 -0.006320
-0.381325 -2.629064 0.118680
-0.409865 -2.629064 0.118680
-0.424255 -2.711092 0.118680
-0.395716 -2.711092 0.118680
0.411101 -2.711092 0.118680
0.432307 -2.711092 0.118680
0.446697 -2.629064 0.118680
0.425492 -2.629064 0.118680
-0.424255 -2.711092 -0.006320
-0.409865 -2.629064 -0.006320
-0.381325 -2.629064 -0.006320
-0.395716 -2.711092 -0.006320
0.446697 -2.629064 -0.006320
0.432307 -2.711092 -0.006320
0.411101 -2.711092 -0.006320
0.425492 -2.629064 -0.006320
0.292930 -2.748358 -0.046886
0.285509 -2.746779 -0.052029
0.328486 -2.745122 -0.134451
0.333234 -2.753189 -0.130315
0.284258 -2.742059 -0.059748
0.325203 -2.740097 -0.127354
0.291678 -2.743639 -0.054604
0.329950 -2.748163 -0.123218
0.317293 -2.596729 -0.106039
0.322581 -2.602891 -0.104495
0.327106 -2.604772 -0.104287
0.329135 -2.604772 -0.114317
0.329099 -2.613890 -0.114138
0.315749 -2.603599 -0.107113
0.327070 -2.613890 -0.104108
0.321037 -2.609761 -0.105569
0.382718 -2.604772 -0.117371
0.382682 -2.613890 -0.117192
0.384712 -2.613890 -0.127222
0.384748 -2.604772 -0.127401
0.443604 -2.624982 -0.087009
0.443787 -2.615864 -0.087009
0.433553 -2.615864 -0.087009
0.433371 -2.624982 -0.087009
0.298710 -2.606338 -0.056570
0.297166 -2.613208 -0.057644
0.293422 -2.600176 -0.058114
0.291877 -2.607046 -0.059189
0.296291 -2.611529 0.004666
0.298148 -2.604659 0.004366
0.301167 -2.617691 0.002104
0.303025 -2.610821 0.001804
0.328039 -2.627559 0.078774
0.326181 -2.634429 0.079074
0.323162 -2.621397 0.081337
0.321305 -2.628267 0.081636
0.334859 -2.660601 0.124795
0.336716 -2.660446 0.131670
0.339736 -2.657909 0.118689
0.341593 -2.657754 0.125564
0.379097 -2.700170 0.113726
0.373295 -2.695144 0.108800
0.372951 -2.708237 0.112355
0.367150 -2.703211 0.107429
0.391838 -2.715148 0.066297
0.397640 -2.720175 0.071223
0.397983 -2.707082 0.067668
0.403785 -2.712107 0.072593
0.460143 -2.730051 -0.048170
0.453430 -2.725026 -0.044583
0.456611 -2.738118 -0.042957
0.449898 -2.733092 -0.039371
0.414127 -2.732899 -0.102879
0.420839 -2.737925 -0.106466
0.417659 -2.724833 -0.108091
0.424371 -2.729858 -0.111678
0.309329 -2.744387 0.012013
0.316750 -2.748358 0.017156
0.314111 -2.739668 0.004294
0.321531 -2.743639 0.009437
0.352691 -2.705796 0.110287
0.345270 -2.707084 0.105144
0.347909 -2.710515 0.112831
0.340488 -2.711803 0.112863
0.358132 -2.670252 0.136054
0.365553 -2.667781 0.135569
0.362914 -2.667497 0.127436
0.370334 -2.665026 0.132127
0.406746 -2.622916 0.094347
0.401942 -2.630396 0.092312
0.398279 -2.617344 0.092938
0.393475 -2.624825 0.090903
0.439343 -2.624982 -0.006368
0.439525 -2.615864 -0.006368
0.449576 -2.624982 -0.006368
0.449759 -2.615864 -0.006368
-0.435430 -2.748358 -0.046886
-0.442851 -2.746779 -0.052029
-0.399873 -2.745122 -0.134451
-0.395126 -2.753189 -0.130315
-0.444102 -2.742059 -0.059748
-0.403157 -2.740097 -0.127354
-0.436681 -2.743639 -0.054604
-0.398410 -2.748163 -0.123218
-0.411066 -2.596729 -0.106039
-0.405778 -2.602891 -0.104495
-0.401254 -2.604772 -0.104287
-0.399224 -2.604772 -0.114317
-0.399260 -2.613890 -0.114138
-0.412611 -2.603599 -0.107113
-0.401290 -2.613890 -0.104108
-0.407323 -2.609761 -0.105569
-0.345641 -2.604772 -0.117371
-0.345677 -2.613890 -0.117192
-0.343648 -2.613890 -0.127222
-0.343612 -2.604772 -0.127401
-0.284756 -2.624982 -0.087009
-0.284573 -2.615864 -0.087009
-0.294806 -2.615864 -0.087009
-0.294989 -2.624982 -0.087009
-0.429650 -2.606338 -0.056570
-0.431194 -2.613208 -0.057644
-0.434938 -2.600176 -0.058114
-0.436482 -2.607046 -0.059189
-0.423752 -2.611529 0.004666
-0.421895 -2.604659 0.004366
-0.418875 -2.617691 0.002103
-0.417018 -2.610821 0.001804
-0.399637 -2.627559 0.078774
-0.401494 -2.634429 0.079074
-0.404514 -2.621397 0.081337
-0.406371 -2.628267 0.081636
-0.393501 -2.660601 0.124795
-0.391644 -2.660446 0.131670
-0.388624 -2.657909 0.118689
-0.386767 -2.657754 0.125564
-0.349263 -2.700170 0.113726
-0.355065 -2.695144 0.108800
-0.355408 -2.708237 0.112355
-0.361210 -2.703211 0.107429
-0.336521 -2.715148 0.066297
-0.330720 -2.720175 0.071223
-0.330376 -2.707082 0.067667
-0.324575 -2.712107 0.072593
-0.314233 -2.732899 -0.102879
-0.307521 -2.737925 -0.106466
-0.287144 -2.738118 -0.042957
-0.293856 -2.733092 -0.039371
-0.310701 -2.724833 -0.108091
-0.290324 -2.725026 -0.044583
-0.303989 -2.729858 -0.111678
-0.283612 -2.730051 -0.048170
-0.419031 -2.744387 0.001085
-0.411610 -2.748358 0.006228
-0.414249 -2.739668 -0.006635
-0.406828 -2.743639 -0.001491
-0.370228 -2.670252 0.136054
-0.359335 -2.711803 0.111311
-0.351914 -2.710515 0.111279
-0.362807 -2.667781 0.135569
-0.365446 -2.667497 0.127436
-0.354553 -2.707084 0.103592
-0.347133 -2.705796 0.108736
-0.358025 -2.665026 0.132127
-0.330430 -2.622916 0.094347
-0.335234 -2.630396 0.092312
-0.338897 -2.617344 0.092938
-0.343701 -2.624825 0.090903
-0.303721 -2.624982 -0.006368
-0.303538 -2.615864 -0.006368
-0.293488 -2.624982 -0.006368
-0.293305 -2.615864 -0.006368
-0.380498 -2.724718 0.041741
-0.387918 -2.723376 0.036597
-0.385279 -2.729437 0.046872
-0.392700 -2.728095 0.044316
-0.312827 -2.716054 0.011542
-0.306570 -2.721080 0.012212
-0.311409 -2.729147 0.014133
-0.317666 -2.724120 0.013463
-0.423898 2.131358 0.005410
-0.299724 2.068094 0.005888
-0.389025 1.504719 0.007709
-0.250633 1.488307 0.007709
-0.430693 0.629646 0.010475
-0.292300 0.613234 0.010475
-0.430693 -0.093397 0.010475
-0.292300 -0.109809 0.010475
-0.412533 -0.466760 -0.011762
-0.274140 -0.483171 -0.011762
-0.453123 -1.555508 0.006909
-0.324710 -1.609652 0.007606
-0.424903 -2.481806 0.028066
-0.303399 -2.414268 0.018217
-0.425305 -2.499136 -0.095726
-0.303800 -2.431598 -0.105576
-0.449502 -1.548525 -0.117843
-0.321089 -1.602669 -0.117147
-0.412533 -0.466760 -0.136762
-0.274140 -0.483171 -0.136762
-0.430693 -0.093397 -0.114525
-0.292300 -0.109809 -0.114525
-0.430693 0.629646 -0.114525
-0.292300 0.613234 -0.114525
-0.389025 1.504719 -0.117291
-0.250633 1.488307 -0.117291
-0.419044 2.139945 -0.119200
-0.294870 2.076680 -0.118723
0.401174 2.603011 0.046295
0.499877 2.552736 -0.038274
0.302617 1.513366 0.010475
0.441009 1.496954 0.010475
0.259275 0.869112 0.003925
0.397667 0.852700 0.003925
0.302616 0.227955 0.010475
0.441009 0.211544 0.010475
0.254414 -0.398425 0.005282
0.392806 -0.414837 0.005282
0.270896 -0.954533 0.017743
0.401687 -1.002416 0.012978
0.302616 -1.700160 0.010475
0.441009 -1.716572 0.010475
0.262853 -2.336364 0.005384
0.401246 -2.352775 0.005384
0.262853 -2.336364 -0.119616
0.401246 -2.352775 -0.119616
0.302616 -1.700160 -0.114525
0.441009 -1.716572 -0.114525
0.268044 -0.949893 -0.107138
0.398836 -0.997776 -0.111903
0.254414 -0.398425 -0.119718
0.392806 -0.414837 -0.119718
0.302616 0.227955 -0.114525
0.441009 0.211544 -0.114525
0.259275 0.869112 -0.121075
0.397667 0.852700 -0.121075
0.302617 1.513366 -0.114525
0.441009 1.496954 -0.114525
0.321397 2.608043 -0.049806
0.420100 2.557769 -0.134375
-0.004374 2.339069 0.115723
-0.004374 2.339069 -0.009277
0.010016 2.421098 0.115723
0.010016 2.421098 -0.009277
-0.116778 1.709583 0.118258
-0.116778 1.709583 -0.006742
-0.102388 1.791611 0.118258
-0.102388 1.791611 -0.006742
-0.125755 1.135416 0.093683
-0.111365 1.217444 0.093682
-0.125755 1.135416 -0.031317
-0.111365 1.217444 -0.031318
-0.049623 0.497957 0.116114
-0.049623 0.497957 -0.008886
-0.035233 0.579986 0.116114
-0.035233 0.579986 -0.008886
0.009177 -0.161729 0.116875
0.023567 -0.079701 0.116875
0.009177 -0.161729 -0.008125
0.023567 -0.079701 -0.008125
0.029201 -0.778005 0.121878
0.029201 -0.778005 -0.003122
0.043591 -0.695976 0.121878
0.043591 -0.695976 -0.003122
0.025691 -1.426730 0.120078
0.040081 -1.344702 0.120078
0.025691 -1.426730 -0.004922
0.040081 -1.344702 -0.004922
-0.196819 -2.053483 0.083795
-0.196819 -2.053483 -0.041205
-0.182428 -1.971454 0.083795
-0.182428 -1.971454 -0.041205
0.081405 -2.103393 0.093969
0.081405 -2.103393 -0.031031
0.095795 -2.021365 0.093969
0.095795 -2.021365 -0.031031
-0.066830 -2.703616 0.089734
-0.090904 -2.644832 0.083269
-0.060824 -2.711638 -0.005577
-0.084898 -2.652854 -0.012042
4 0 1 2 3
4 4 5 6 7
4 8 9 10 11
4 12 13 14 15
4 16 17 18 19
4 20 21 22 23
4 24 25 26 27
4 28 29 30 31
4 5 4 22 21
4 14 13 29 28
4 15 14 28 31
4 10 9 25 24
4 13 12 30 29
4 3 2 16 19
4 6 5 21 20
4 9 8 26 25
4 7 6 20 23
4 2 1 17 16
4 11 10 24 27
4 1 0 18 17
4 32 33 34 35
4 36 37 34 33
4 38 39 37 36
4 38 32 35 39
4 40 41 42 43
4 40 43 44 45
4 45 44 46 47
4 47 46 42 41
4 48 42 46 49
4 49 46 44 50
4 51 43 42 48
4 50 44 43 51
4 52 50 51 53
4 53 51 48 54
4 55 49 50 52
4 54 48 49 55
4 56 57 47 41
4 58 56 41 40
4 57 59 45 47
4 59 58 40 45
4 60 61 58 59
4 62 60 59 57
4 61 63 56 58
4 63 62 57 56
4 64 65 62 63
4 66 64 63 61
4 65 67 60 62
4 67 66 61 60
4 68 69 66 67
4 70 68 67 65
4 69 71 64 66
4 71 70 65 64
4 72 73 70 71
4 74 72 71 69
4 73 75 68 70
4 75 74 69 68
4 76 77 74 75
4 78 76 75 73
4 77 79 72 74
4 79 78 73 72
4 80 81 78 79
4 82 80 79 77
4 81 83 76 78
4 83 82 77 76
4 84 85 82 83
4 86 84 83 81
4 85 87 80 82
4 87 86 81 80
4 34 37 86 87
4 35 34 87 85
4 37 39 84 86
4 39 35 85 84
4 88 33 32 89
4 90 36 33 88
4 89 32 38 91
4 91 38 36 90
4 92 91 90 93
4 94 89 91 92
4 93 90 88 95
4 95 88 89 94
4 96 95 94 97
4 98 93 95 96
4 97 94 92 99
4 99 92 93 98
4 100 99 98 101
4 102 97 99 100
4 101 98 96 103
4 103 96 97 102
4 104 103 102 105
4 106 101 103 104
4 105 102 100 107
4 107 100 101 106
4 53 107 106 52
4 54 105 107 53
4 52 106 104 55
4 55 104 105 54
4 108 109 110 111
4 112 113 109 108
4 111 110 114 115
4 115 114 113 112
4 114 116 117 113
4 110 118 116 114
4 113 117 119 109
4 109 119 118 110
4 119 120 121 118
4 117 122 120 119
4 118 121 123 116
4 116 123 122 117
4 123 124 125 122
4 121 126 124 123
4 122 125 127 120
4 120 127 126 121
4 127 128 129 126
4 125 130 128 127
4 126 129 131 124
4 124 131 130 125
4 131 132 133 130
4 129 134 132 131
4 130 133 135 128
4 128 135 134 129
4 136 137 138 139
4 140 136 139 141
4 137 142 143 138
4 142 140 141 143
4 143 141 144 145
4 138 143 145 146
4 141 139 147 144
4 139 138 146 147
4 147 146 148 149
4 144 147 149 150
4 146 145 151 148
4 145 144 150 151
4 151 150 152 153
4 148 151 153 154
4 150 149 155 152
4 149 148 154 155
4 155 154 156 157
4 152 155 157 158
4 154 153 159 156
4 153 152 158 159
4 159 158 160 161
4 156 159 161 162
4 158 157 163 160
4 157 156 162 163
4 163 162 164 165
4 160 163 165 166
4 162 161 167 164
4 161 160 166 167
4 167 166 168 169
4 164 167 169 170
4 166 165 171 168
4 165 164 170 171
4 171 170 172 173
4 168 171 173 174
4 170 169 175 172
4 169 168 174 175
4 111 176 177 108
4 108 177 178 112
4 115 179 176 111
4 112 178 179 115
4 178 180 181 179
4 179 181 182 176
4 177 183 180 178
4 176 182 183 177
4 174 183 182 175
4 173 180 183 174
4 172 181 180 173
4 172 175 182 181
4 132 134 137 136
4 132 136 140 133
4 133 140 142 135
4 134 135 142 137
4 184 185 186 187
4 188 189 186 185
4 190 191 189 188
4 190 184 187 191
4 192 193 194 195
4 192 195 196 197
4 197 196 198 199
4 199 198 194 193
4 200 194 198 201
4 201 198 196 202
4 203 195 194 200
4 202 196 195 203
4 204 202 203 205
4 205 203 200 206
4 207 201 202 204
4 206 200 201 207
4 208 209 199 193
4 210 208 193 192
4 209 211 197 199
4 211 210 192 197
4 212 213 210 211
4 214 212 211 209
4 213 215 208 210
4 215 214 209 208
4 216 217 214 215
4 218 216 215 213
4 217 219 212 214
4 219 218 213 212
4 220 221 218 219
4 222 220 219 217
4 221 223 216 218
4 223 222 217 216
4 224 225 222 223
4 226 224 223 221
4 225 227 220 222
4 227 226 221 220
4 228 229 226 227
4 230 228 227 225
4 229 231 224 226
4 231 230 225 224
4 232 233 234 235
4 236 232 235 237
4 233 238 239 234
4 238 236 237 239
4 186 189 236 238
4 187 186 238 233
4 189 191 232 236
4 191 187 233 232
4 240 185 184 241
4 242 188 185 240
4 241 184 190 243
4 243 190 188 242
4 244 245 246 247
4 248 249 245 244
4 247 246 250 251
4 251 250 249 248
4 252 251 248 253
4 254 247 251 252
4 253 248 244 255
4 255 244 247 254
4 256 255 254 257
4 258 253 255 256
4 257 254 252 259
4 259 252 253 258
4 205 259 258 204
4 206 257 259 205
4 204 258 256 207
4 207 256 257 206
4 260 261 262 263
4 264 260 263 265
4 266 264 265 267
4 268 269 270 271
4 272 273 274 275
4 273 268 271 274
4 274 271 270 275
4 265 263 262 267
4 269 268 273 272
4 261 260 264 266
4 250 276 277 249
4 276 243 242 277
4 246 278 276 250
4 278 241 243 276
4 249 277 279 245
4 277 242 240 279
4 245 279 278 246
4 279 240 241 278
4 237 280 281 239
4 280 230 231 281
4 239 281 282 234
4 281 231 229 282
4 235 283 280 237
4 283 228 230 280
4 234 282 283 235
4 282 229 228 283
4 284 285 286 287
4 288 284 287 289
4 287 286 290 291
4 289 287 291 292
4 293 294 285 284
4 295 293 284 288
4 291 290 294 293
4 292 291 293 295
4 296 297 298 299
4 300 296 299 301
4 302 303 297 296
4 304 302 296 300
4 299 298 305 306
4 301 299 306 307
4 306 305 303 302
4 307 306 302 304
4 308 309 310 311
4 312 313 309 308
4 311 310 314 315
4 315 314 313 312
4 314 316 317 313
4 310 318 316 314
4 313 317 319 309
4 309 319 318 310
4 319 320 321 318
4 317 322 320 319
4 318 321 323 316
4 316 323 322 317
4 323 307 304 322
4 321 301 307 323
4 322 304 300 320
4 320 300 301 321
4 305 324 325 303
4 298 326 324 305
4 303 325 327 297
4 297 327 326 298
4 328 329 330 331
4 332 328 331 333
4 329 334 335 330
4 334 332 333 335
4 335 333 292 295
4 330 335 295 288
4 333 331 289 292
4 331 330 288 289
4 294 290 336 337
4 285 294 337 338
4 290 286 339 336
4 286 285 338 339
4 339 338 340 341
4 336 339 341 342
4 338 337 343 340
4 337 336 342 343
4 343 342 344 345
4 340 343 345 346
4 342 341 347 344
4 341 340 346 347
4 347 346 348 349
4 344 347 349 350
4 346 345 351 348
4 345 344 350 351
4 351 350 352 353
4 348 351 353 354
4 350 349 355 352
4 349 348 354 355
4 355 354 356 357
4 352 355 357 358
4 354 353 359 356
4 353 352 358 359
4 311 360 361 308
4 308 361 362 312
4 315 363 360 311
4 312 362 363 315
4 362 364 365 363
4 363 365 366 360
4 361 367 364 362
4 360 366 367 361
4 358 367 366 359
4 357 364 367 358
4 356 365 364 357
4 356 359 366 365
4 324 326 329 328
4 324 328 332 325
4 325 332 334 327
4 326 327 334 329
4 368 369 370 371
4 372 373 369 368
4 371 370 374 375
4 375 374 373 372
4 374 376 377 373
4 370 378 376 374
4 373 377 379 369
4 369 379 378 370
4 379 380 381 378
4 377 382 380 379
4 378 381 383 376
4 376 383 382 377
4 383 384 385 382
4 381 386 384 383
4 382 385 387 380
4 380 387 386 381
4 387 388 389 386
4 385 390 388 387
4 386 389 391 384
4 384 391 390 385
4 391 392 393 390
4 389 394 392 391
4 390 393 395 388
4 388 395 394 389
4 396 397 398 399
4 400 396 399 401
4 397 402 403 398
4 402 400 401 403
4 403 401 404 405
4 398 403 405 406
4 401 399 407 404
4 399 398 406 407
4 407 406 408 409
4 404 407 409 410
4 406 405 411 408
4 405 404 410 411
4 411 410 412 413
4 408 411 413 414
4 410 409 415 412
4 409 408 414 415
4 415 414 416 417
4 412 415 417 418
4 414 413 419 416
4 413 412 418 419
4 419 418 420 421
4 416 419 421 422
4 418 417 423 420
4 417 416 422 423
4 423 422 424 425
4 420 423 425 426
4 422 421 427 424
4 421 420 426 427
4 427 426 428 429
4 424 427 429 430
4 426 425 431 428
4 425 424 430 431
4 431 430 432 433
4 428 431 433 434
4 430 429 435 432
4 429 428 434 435
4 371 436 437 368
4 368 437 438 372
4 375 439 436 371
4 372 438 439 375
4 438 440 441 439
4 439 441 442 436
4 437 443 440 438
4 436 442 443 437
4 434 443 442 435
4 433 440 443 434
4 432 441 440 433
4 432 435 442 441
4 392 394 397 396
4 392 396 400 393
4 393 400 402 395
4 394 395 402 397
4 444 445 446 447
4 448 444 447 449
4 450 448 449 451
4 452 453 454 455
4 456 457 458 459
4 457 452 455 458
4 458 455 454 459
4 449 447 446 451
4 453 452 457 456
4 445 444 448 450
4 460 461 462 463
4 464 465 466 467
4 468 469 470 471
4 472 473 474 475
4 466 465 473 472
4 467 466 472 475
4 465 464 474 473
4 463 462 468 471
4 462 461 469 468
4 461 460 470 469
4 476 477 478 479
4 480 481 478 477
4 482 483 481 480
4 482 476 479 483
4 484 485 486 487
4 484 487 488 489
4 489 488 490 491
4 491 490 486 485
4 492 486 490 493
4 493 490 488 494
4 495 487 486 492
4 494 488 487 495
4 496 494 495 497
4 497 495 492 498
4 499 493 494 496
4 498 492 493 499
4 500 501 491 485
4 502 500 485 484
4 501 503 489 491
4 503 502 484 489
4 504 505 502 503
4 506 504 503 501
4 505 507 500 502
4 507 506 501 500
4 508 509 506 507
4 510 508 507 505
4 509 511 504 506
4 511 510 505 504
4 512 513 510 511
4 514 512 511 509
4 513 515 508 510
4 515 514 509 508
4 516 517 514 515
4 518 516 515 513
4 517 519 512 514
4 519 518 513 512
4 520 521 518 519
4 522 520 519 517
4 521 523 516 518
4 523 522 517 516
4 524 525 522 523
4 526 524 523 521
4 525 527 520 522
4 527 526 521 520
4 528 529 526 527
4 530 528 527 525
4 529 531 524 526
4 531 530 525 524
4 478 481 530 531
4 479 478 531 529
4 481 483 528 530
4 483 479 529 528
4 532 477 476 533
4 534 480 477 532
4 533 476 482 535
4 535 482 480 534
4 536 535 534 537
4 538 533 535 536
4 537 534 532 539
4 539 532 533 538
4 540 539 538 541
4 542 537 539 540
4 541 538 536 543
4 543 536 537 542
4 544 543 542 545
4 546 541 543 544
4 545 542 540 547
4 547 540 541 546
4 548 547 546 549
4 550 545 547 548
4 549 546 544 551
4 551 544 545 550
4 497 551 550 496
4 498 549 551 497
4 496 550 548 499
4 499 548 549 498
4 552 553 554 555
4 556 557 554 553
4 558 559 557 556
4 558 552 555 559
4 560 561 562 563
4 560 563 564 565
4 565 564 566 567
4 567 566 562 561
4 568 562 566 569
4 569 566 564 570
4 571 563 562 568
4 570 564 563 571
4 572 570 571 573
4 573 571 568 574
4 575 569 570 572
4 574 568 569 575
4 576 577 567 561
4 578 576 561 560
4 577 579 565 567
4 579 578 560 565
4 580 581 578 579
4 582 580 579 577
4 581 583 576 578
4 583 582 577 576
4 584 585 582 583
4 586 584 583 581
4 585 587 580 582
4 587 586 581 580
4 588 589 586 587
4 590 588 587 585
4 589 591 584 586
4 591 590 585 584
4 592 593 590 591
4 594 592 591 589
4 593 595 588 590
4 595 594 589 588
4 596 597 594 595
4 598 596 595 593
4 597 599 592 594
4 599 598 593 592
4 600 601 602 603
4 604 600 603 605
4 601 606 607 602
4 606 604 605 607
4 554 557 604 606
4 555 554 606 601
4 557 559 600 604
4 559 555 601 600
4 608 553 552 609
4 610 556 553 608
4 609 552 558 611
4 611 558 556 610
4 612 613 614 615
4 616 617 613 612
4 615 614 618 619
4 619 618 617 616
4 620 619 616 621
4 622 615 619 620
4 621 616 612 623
4 623 612 615 622
4 624 623 622 625
4 626 621 623 624
4 625 622 620 627
4 627 620 621 626
4 573 627 626 572
4 574 625 627 573
4 572 626 624 575
4 575 624 625 574
4 618 628 629 617
4 628 611 610 629
4 614 630 628 618
4 630 609 611 628
4 617 629 631 613
4 629 610 608 631
4 613 631 630 614
4 631 608 609 630
4 605 632 633 607
4 632 598 599 633
4 607 633 634 602
4 633 599 597 634
4 603 635 632 605
4 635 596 598 632
4 602 634 635 603
4 634 597 596 635
4 636 637 638 639
4 640 636 639 641
4 639 638 642 643
4 641 639 643 644
4 645 646 637 636
4 647 645 636 640
4 643 642 646 645
4 644 643 645 647
4 648 649 650 651
4 652 648 651 653
4 654 655 649 648
4 656 654 648 652
4 651 650 657 658
4 653 651 658 659
4 658 657 655 654
4 659 658 654 656
4 660 661 662 663
4 664 665 661 660
4 663 662 666 667
4 667 666 665 664
4 666 668 669 665
4 662 670 668 666
4 665 669 671 661
4 661 671 670 662
4 671 672 673 670
4 669 674 672 671
4 670 673 675 668
4 668 675 674 669
4 675 659 656 674
4 673 653 659 675
4 674 656 652 672
4 672 652 653 673
4 657 676 677 655
4 650 678 676 657
4 655 677 679 649
4 649 679 678 650
4 680 681 682 683
4 684 680 683 685
4 681 686 687 682
4 686 684 685 687
4 687 685 644 647
4 682 687 647 640
4 685 683 641 644
4 683 682 640 641
4 646 642 688 689
4 637 646 689 690
4 642 638 691 688
4 638 637 690 691
4 691 690 692 693
4 688 691 693 694
4 690 689 695 692
4 689 688 694 695
4 695 694 696 697
4 692 695 697 698
4 694 693 699 696
4 693 692 698 699
4 699 698 700 701
4 696 699 701 702
4 698 697 703 700
4 697 696 702 703
4 703 702 704 705
4 700 703 705 706
4 702 701 707 704
4 701 700 706 707
4 707 706 708 709
4 704 707 709 710
4 706 705 711 708
4 705 704 710 711
4 663 712 713 660
4 660 713 714 664
4 667 715 712 663
4 664 714 715 667
4 714 716 717 715
4 715 717 718 712
4 713 719 716 714
4 712 718 719 713
4 710 719 718 711
4 709 716 719 710
4 708 717 716 709
4 708 711 718 717
4 676 678 681 680
4 676 680 684 677
4 677 684 686 679
4 678 679 686 681
4 720 721 722 723
4 724 725 721 720
4 723 722 726 727
4 727 726 725 724
4 726 728 729 725
4 722 730 728 726
4 725 729 731 721
4 721 731 730 722
4 731 732 733 730
4 729 734 732 731
4 730 733 735 728
4 728 735 734 729
4 735 736 737 734
4 733 738 736 735
4 734 737 739 732
4 732 739 738 733
4 739 740 741 738
4 737 742 740 739
4 738 741 743 736
4 736 743 742 737
4 743 744 745 742
4 741 746 744 743
4 742 745 747 740
4 740 747 746 741
4 748 749 750 751
4 752 748 751 753
4 749 754 755 750
4 754 752 753 755
4 755 753 756 757
4 750 755 757 758
4 753 751 759 756
4 751 750 758 759
4 759 758 760 761
4 756 759 761 762
4 758 757 763 760
4 757 756 762 763
4 763 762 764 765
4 760 763 765 766
4 762 761 767 764
4 761 760 766 767
4 767 766 768 769
4 764 767 769 770
4 766 765 771 768
4 765 764 770 771
4 771 770 772 773
4 768 771 773 774
4 770 769 775 772
4 769 768 774 775
4 775 774 776 777
4 772 775 777 778
4 774 773 779 776
4 773 772 778 779
4 779 778 780 781
4 776 779 781 782
4 778 777 783 780
4 777 776 782 783
4 783 782 784 785
4 780 783 785 786
4 782 781 787 784
4 781 780 786 787
4 723 788 789 720
4 720 789 790 724
4 727 791 788 723
4 724 790 791 727
4 790 792 793 791
4 791 793 794 788
4 789 795 792 790
4 788 794 795 789
4 786 795 794 787
4 785 792 795 786
4 784 793 792 785
4 784 787 794 793
4 744 746 749 748
4 744 748 752 745
4 745 752 754 747
4 746 747 754 749
4 796 797 798 799
4 800 796 799 801
4 802 800 801 803
4 804 805 806 807
4 808 809 810 811
4 809 804 807 810
4 810 807 806 811
4 801 799 798 803
4 805 804 809 808
4 797 796 800 802
4 812 813 814 815
4 816 817 818 819
4 820 821 822 823
4 824 825 826 827
4 818 817 825 824
4 819 818 824 827
4 817 816 826 825
4 815 814 820 823
4 814 813 821 820
4 813 812 822 821
4 828 829 830 831
4 832 833 830 829
4 834 835 833 832
4 834 828 831 835
4 836 837 838 839
4 836 839 840 841
4 841 840 842 843
4 843 842 838 837
4 844 838 842 845
4 845 842 840 846
4 847 839 838 844
4 846 840 839 847
4 848 846 847 849
4 849 847 844 850
4 851 845 846 848
4 850 844 845 851
4 852 853 843 837
4 854 852 837 836
4 853 855 841 843
4 855 854 836 841
4 856 857 854 855
4 858 856 855 853
4 857 859 852 854
4 859 858 853 852
4 860 861 858 859
4 862 860 859 857
4 861 863 856 858
4 863 862 857 856
4 864 865 862 863
4 866 864 863 861
4 865 867 860 862
4 867 866 861 860
4 868 869 866 867
4 870 868 867 865
4 869 871 864 866
4 871 870 865 864
4 872 873 870 871
4 874 872 871 869
4 873 875 868 870
4 875 874 869 868
4 876 877 874 875
4 878 876 875 873
4 877 879 872 874
4 879 878 873 872
4 880 881 878 879
4 882 880 879 877
4 881 883 876 878
4 883 882 877 876
4 830 833 882 883
4 831 830 883 881
4 833 835 880 882
4 835 831 881 880
4 884 829 828 885
4 886 832 829 884
4 885 828 834 887
4 887 834 832 886
4 888 887 886 889
4 890 885 887 888
4 889 886 884 891
4 891 884 885 890
4 892 891 890 893
4 894 889 891 892
4 893 890 888 895
4 895 888 889 894
4 896 895 894 897
4 898 893 895 896
4 897 894 892 899
4 899 892 893 898
4 900 899 898 901
4 902 897 899 900
4 901 898 896 903
4 903 896 897 902
4 849 903 902 848
4 850 901 903 849
4 848 902 900 851
4 851 900 901 850
4 904 905 906 907
4 908 909 906 905
4 910 911 909 908
4 910 904 907 911
4 912 913 914 915
4 912 915 916 917
4 917 916 918 919
4 919 918 914 913
4 920 914 918 921
4 921 918 916 922
4 923 915 914 920
4 922 916 915 923
4 924 922 923 925
4 925 923 920 926
4 927 921 922 924
4 926 920 921 927
4 928 929 919 913
4 930 928 913 912
4 929 931 917 919
4 931 930 912 917
4 932 933 930 931
4 934 932 931 929
4 933 935 928 930
4 935 934 929 928
4 936 937 934 935
4 938 936 935 933
4 937 939 932 934
4 939 938 933 932
4 940 941 938 939
4 942 940 939 937
4 941 943 936 938
4 943 942 937 936
4 944 945 942 943
4 946 944 943 941
4 945 947 940 942
4 947 946 941 940
4 948 949 946 947
4 950 948 947 945
4 949 951 944 946
4 951 950 945 944
4 952 953 954 955
4 956 952 955 957
4 953 958 959 954
4 958 956 957 959
4 906 909 956 958
4 907 906 958 953
4 909 911 952 956
4 911 907 953 952
4 960 905 904 961
4 962 908 905 960
4 961 904 910 963
4 963 910 908 962
4 964 965 966 967
4 968 969 965 964
4 967 966 970 971
4 971 970 969 968
4 972 971 968 973
4 974 967 971 972
4 973 968 964 975
4 975 964 967 974
4 976 975 974 977
4 978 973 975 976
4 977 974 972 979
4 979 972 973 978
4 925 979 978 924
4 926 977 979 925
4 924 978 976 927
4 927 976 977 926
4 970 980 981 969
4 980 963 962 981
4 966 982 980 970
4 982 961 963 980
4 969 981 983 965
4 981 962 960 983
4 965 983 982 966
4 983 960 961 982
4 957 984 985 959
4 984 950 951 985
4 959 985 986 954
4 985 951 949 986
4 955 987 984 957
4 987 948 950 984
4 954 986 987 955
4 986 949 948 987
4 988 989 990 991
4 992 988 991 993
4 991 990 994 995
4 993 991 995 996
4 997 998 989 988
4 999 997 988 992
4 995 994 998 997
4 996 995 997 999
4 1000 1001 1002 1003
4 1004 1000 1003 1005
4 1006 1007 1001 1000
4 1008 1006 1000 1004
4 1003 1002 1009 1010
4 1005 1003 1010 1011
4 1010 1009 1007 1006
4 1011 1010 1006 1008
4 1012 1013 1014 1015
4 1016 1017 1013 1012
4 1015 1014 1018 1019
4 1019 1018 1017 1016
4 1018 1020 1021 1017
4 1014 1022 1020 1018
4 1017 1021 1023 1013
4 1013 1023 1022 1014
4 1023 1024 1025 1022
4 1021 1026 1024 1023
4 1022 1025 1027 1020
4 1020 1027 1026 1021
4 1027 1011 1008 1026
4 1025 1005 1011 1027
4 1026 1008 1004 1024
4 1024 1004 1005 1025
4 1009 1028 1029 1007
4 1002 1030 1028 1009
4 1007 1029 1031 1001
4 1001 1031 1030 1002
4 1032 1033 1034 1035
4 1036 1032 1035 1037
4 1033 1038 1039 1034
4 1038 1036 1037 1039
4 1039 1037 996 999
4 1034 1039 999 992
4 1037 1035 993 996
4 1035 1034 992 993
4 998 994 1040 1041
4 989 998 1041 1042
4 994 990 1043 1040
4 990 989 1042 1043
4 1043 1042 1044 1045
4 1040 1043 1045 1046
4 1042 1041 1047 1044
4 1041 1040 1046 1047
4 1047 1046 1048 1049
4 1044 1047 1049 1050
4 1046 1045 1051 1048
4 1045 1044 1050 1051
4 1051 1050 1052 1053
4 1048 1051 1053 1054
4 1050 1049 1055 1052
4 1049 1048 1054 1055
4 1055 1054 1056 1057
4 1052 1055 1057 1058
4 1054 1053 1059 1056
4 1053 1052 1058 1059
4 1059 1058 1060 1061
4 1056 1059 1061 1062
4 1058 1057 1063 1060
4 1057 1056 1062 1063
4 1015 1064 1065 1012
4 1012 1065 1066 1016
4 1019 1067 1064 1015
4 1016 1066 1067 1019
4 1066 1068 1069 1067
4 1067 1069 1070 1064
4 1065 1071 1068 1066
4 1064 1070 1071 1065
4 1062 1071 1070 1063
4 1061 1068 1071 1062
4 1060 1069 1068 1061
4 1060 1063 1070 1069
4 1028 1030 1033 1032
4 1028 1032 1036 1029
4 1029 1036 1038 1031
4 1030 1031 1038 1033
4 1072 1073 1074 1075
4 1076 1077 1073 1072
4 1075 1074 1078 1079
4 1079 1078 1077 1076
4 1078 1080 1081 1077
4 1074 1082 1080 1078
4 1077 1081 1083 1073
4 1073 1083 1082 1074
4 1083 1084 1085 1082
4 1081 1086 1084 1083
4 1082 1085 1087 1080
4 1080 1087 1086 1081
4 1087 1088 1089 1086
4 1085 1090 1088 1087
4 1086 1089 1091 1084
4 1084 1091 1090 1085
4 1091 1092 1093 1090
4 1089 1094 1092 1091
4 1090 1093 1095 1088
4 1088 1095 1094 1089
4 1095 1096 1097 1094
4 1093 1098 1096 1095
4 1094 1097 1099 1092
4 1092 1099 1098 1093
4 1100 1101 1102 1103
4 1104 1100 1103 1105
4 1101 1106 1107 1102
4 1106 1104 1105 1107
4 1107 1105 1108 1109
4 1102 1107 1109 1110
4 1105 1103 1111 1108
4 1103 1102 1110 1111
4 1111 1110 1112 1113
4 1108 1111 1113 1114
4 1110 1109 1115 1112
4 1109 1108 1114 1115
4 1115 1114 1116 1117
4 1112 1115 1117 1118
4 1114 1113 1119 1116
4 1113 1112 1118 1119
4 1119 1118 1120 1121
4 1116 1119 1121 1122
4 1118 1117 1123 1120
4 1117 1116 1122 1123
4 1123 1122 1124 1125
4 1120 1123 1125 1126
4 1122 1121 1127 1124
4 1121 1120 1126 1127
4 1127 1126 1128 1129
4 1124 1127 1129 1130
4 1126 1125 1131 1128
4 1125 1124 1130 1131
4 1131 1130 1132 1133
4 1128 1131 1133 1134
4 1130 1129 1135 1132
4 1129 1128 1134 1135
4 1135 1134 1136 1137
4 1132 1135 1137 1138
4 1134 1133 1139 1136
4 1133 1132 1138 1139
4 1075 1140 1141 1072
4 1072 1141 1142 1076
4 1079 1143 1140 1075
4 1076 1142 1143 1079
4 1142 1144 1145 1143
4 1143 1145 1146 1140
4 1141 1147 1144 1142
4 1140 1146 1147 1141
4 1138 1147 1146 1139
4 1137 1144 1147 1138
4 1136 1145 1144 1137
4 1136 1139 1146 1145
4 1096 1098 1101 1100
4 1096 1100 1104 1097
4 1097 1104 1106 1099
4 1098 1099 1106 1101
4 1148 1149 1150 1151
4 1152 1148 1151 1153
4 1154 1152 1153 1155
4 1156 1157 1158 1159
4 1160 1161 1162 1163
4 1161 1156 1159 1162
4 1162 1159 1158 1163
4 1153 1151 1150 1155
4 1157 1156 1161 1160
4 1149 1148 1152 1154
4 1164 1165 1166 1167
4 1168 1169 1170 1171
4 1172 1173 1174 1175
4 1176 1177 1178 1179
4 1170 1169 1177 1176
4 1171 1170 1176 1179
4 1169 1168 1178 1177
4 1167 1166 1172 1175
4 1166 1165 1173 1172
4 1165 1164 1174 1173
4 1180 1181 1182 1183
4 1184 1185 1182 1181
4 1186 1187 1185 1184
4 1186 1180 1183 1187
4 1188 1189 1190 1191
4 1188 1191 1192 1193
4 1193 1192 1194 1195
4 1195 1194 1190 1189
4 1196 1190 1194 1197
4 1197 1194 1192 1198
4 1199 1191 1190 1196
4 1198 1192 1191 1199
4 1200 1198 1199 1201
4 1201 1199 1196 1202
4 1203 1197 1198 1200
4 1202 1196 1197 1203
4 1204 1205 1195 1189
4 1206 1204 1189 1188
4 1205 1207 1193 1195
4 1207 1206 1188 1193
4 1208 1209 1206 1207
4 1210 1208 1207 1205
4 1209 1211 1204 1206
4 1211 1210 1205 1204
4 1212 1213 1210 1211
4 1214 1212 1211 1209
4 1213 1215 1208 1210
4 1215 1214 1209 1208
4 1216 1217 1214 1215
4 1218 1216 1215 1213
4 1217 1219 1212 1214
4 1219 1218 1213 1212
4 1220 1221 1218 1219
4 1222 1220 1219 1217
4 1221 1223 1216 1218
4 1223 1222 1217 1216
4 1224 1225 1222 1223
4 1226 1224 1223 1221
4 1225 1227 1220 1222
4 1227 1226 1221 1220
4 1228 1229 1226 1227
4 1230 1228 1227 1225
4 1229 1231 1224 1226
4 1231 1230 1225 1224
4 1232 1233 1230 1231
4 1234 1232 1231 1229
4 1233 1235 1228 1230
4 1235 1234 1229 1228
4 1182 1185 1234 1235
4 1183 1182 1235 1233
4 1185 1187 1232 1234
4 1187 1183 1233 1232
4 1236 1181 1180 1237
4 1238 1184 1181 1236
4 1237 1180 1186 1239
4 1239 1186 1184 1238
4 1240 1239 1238 1241
4 1242 1237 1239 1240
4 1241 1238 1236 1243
4 1243 1236 1237 1242
4 1244 1243 1242 1245
4 1246 1241 1243 1244
4 1245 1242 1240 1247
4 1247 1240 1241 1246
4 1248 1247 1246 1249
4 1250 1245 1247 1248
4 1249 1246 1244 1251
4 1251 1244 1245 1250
4 1252 1251 1250 1253
4 1254 1249 1251 1252
4 1253 1250 1248 1255
4 1255 1248 1249 1254
4 1201 1255 1254 1200
4 1202 1253 1255 1201
4 1200 1254 1252 1203
4 1203 1252 1253 1202
4 1256 1257 1258 1259
4 1260 1261 1258 1257
4 1262 1263 1261 1260
4 1262 1256 1259 1263
4 1264 1265 1266 1267
4 1264 1267 1268 1269
4 1269 1268 1270 1271
4 1271 1270 1266 1265
4 1272 1266 1270 1273
4 1273 1270 1268 1274
4 1275 1267 1266 1272
4 1274 1268 1267 1275
4 1276 1274 1275 1277
4 1277 1275 1272 1278
4 1279 1273 1274 1276
4 1278 1272 1273 1279
4 1280 1281 1271 1265
4 1282 1280 1265 1264
4 1281 1283 1269 1271
4 1283 1282 1264 1269
4 1284 1285 1282 1283
4 1286 1284 1283 1281
4 1285 1287 1280 1282
4 1287 1286 1281 1280
4 1288 1289 1286 1287
4 1290 1288 1287 1285
4 1289 1291 1284 1286
4 1291 1290 1285 1284
4 1292 1293 1290 1291
4 1294 1292 1291 1289
4 1293 1295 1288 1290
4 1295 1294 1289 1288
4 1296 1297 1294 1295
4 1298 1296 1295 1293
4 1297 1299 1292 1294
4 1299 1298 1293 1292
4 1300 1301 1298 1299
4 1302 1300 1299 1297
4 1301 1303 1296 1298
4 1303 1302 1297 1296
4 1304 1305 1306 1307
4 1308 1304 1307 1309
4 1305 1310 1311 1306
4 1310 1308 1309 1311
4 1258 1261 1308 1310
4 1259 1258 1310 1305
4 1261 1263 1304 1308
4 1263 1259 1305 1304
4 1312 1257 1256 1313
4 1314 1260 1257 1312
4 1313 1256 1262 1315
4 1315 1262 1260 1314
4 1316 1317 1318 1319
4 1320 1321 1317 1316
4 1319 1318 1322 1323
4 1323 1322 1321 1320
4 1324 1323 1320 1325
4 1326 1319 1323 1324
4 1325 1320 1316 1327
4 1327 1316 1319 1326
4 1328 1327 1326 1329
4 1330 1325 1327 1328
4 1329 1326 1324 1331
4 1331 1324 1325 1330
4 1277 1331 1330 1276
4 1278 1329 1331 1277
4 1276 1330 1328 1279
4 1279 1328 1329 1278
4 1322 1332 1333 1321
4 1332 1315 1314 1333
4 1318 1334 1332 1322
4 1334 1313 1315 1332
4 1321 1333 1335 1317
4 1333 1314 1312 1335
4 1317 1335 1334 1318
4 1335 1312 1313 1334
4 1309 1336 1337 1311
4 1336 1302 1303 1337
4 1311 1337 1338 1306
4 1337 1303 1301 1338
4 1307 1339 1336 1309
4 1339 1300 1302 1336
4 1306 1338 1339 1307
4 1338 1301 1300 1339
4 1340 1341 1342 1343
4 1344 1340 1343 1345
4 1343 1342 1346 1347
4 1345 1343 1347 1348
4 1349 1350 1341 1340
4 1351 1349 1340 1344
4 1347 1346 1350 1349
4 1348 1347 1349 1351
4 1352 1353 1354 1355
4 1356 1352 1355 1357
4 1358 1359 1353 1352
4 1360 1358 1352 1356
4 1355 1354 1361 1362
4 1357 1355 1362 1363
4 1362 1361 1359 1358
4 1363 1362 1358 1360
4 1364 1365 1366 1367
4 1368 1369 1365 1364
4 1367 1366 1370 1371
4 1371 1370 1369 1368
4 1370 1372 1373 1369
4 1366 1374 1372 1370
4 1369 1373 1375 1365
4 1365 1375 1374 1366
4 1375 1376 1377 1374
4 1373 1378 1376 1375
4 1374 1377 1379 1372
4 1372 1379 1378 1373
4 1379 1363 1360 1378
4 1377 1357 1363 1379
4 1378 1360 1356 1376
4 1376 1356 1357 1377
4 1361 1380 1381 1359
4 1354 1382 1380 1361
4 1359 1381 1383 1353
4 1353 1383 1382 1354
4 1384 1385 1386 1387
4 1388 1384 1387 1389
4 1385 1390 1391 1386
4 1390 1388 1389 1391
4 1391 1389 1348 1351
4 1386 1391 1351 1344
4 1389 1387 1345 1348
4 1387 1386 1344 1345
4 1350 1346 1392 1393
4 1341 1350 1393 1394
4 1346 1342 1395 1392
4 1342 1341 1394 1395
4 1395 1394 1396 1397
4 1392 1395 1397 1398
4 1394 1393 1399 1396
4 1393 1392 1398 1399
4 1399 1398 1400 1401
4 1396 1399 1401 1402
4 1398 1397 1403 1400
4 1397 1396 1402 1403
4 1403 1402 1404 1405
4 1400 1403 1405 1406
4 1402 1401 1407 1404
4 1401 1400 1406 1407
4 1407 1406 1408 1409
4 1404 1407 1409 1410
4 1406 1405 1411 1408
4 1405 1404 1410 1411
4 1411 1410 1412 1413
4 1408 1411 1413 1414
4 1410 1409 1415 1412
4 1409 1408 1414 1415
4 1367 1416 1417 1364
4 1364 1417 1418 1368
4 1371 1419 1416 1367
4 1368 1418 1419 1371
4 1418 1420 1421 1419
4 1419 1421 1422 1416
4 1417 1423 1420 1418
4 1416 1422 1423 1417
4 1414 1423 1422 1415
4 1413 1420 1423 1414
4 1412 1421 1420 1413
4 1412 1415 1422 1421
4 1380 1382 1385 1384
4 1380 1384 1388 1381
4 1381 1388 1390 1383
4 1382 1383 1390 1385
4 1424 1425 1426 1427
4 1428 1429 1425 1424
4 1427 1426 1430 1431
4 1431 1430 1429 1428
4 1430 1432 1433 1429
4 1426 1434 1432 1430
4 1429 1433 1435 1425
4 1425 1435 1434 1426
4 1435 1436 1437 1434
4 1433 1438 1436 1435
4 1434 1437 1439 1432
4 1432 1439 1438 1433
4 1439 1440 1441 1438
4 1437 1442 1440 1439
4 1438 1441 1443 1436
4 1436 1443 1442 1437
4 1443 1444 1445 1442
4 1441 1446 1444 1443
4 1442 1445 1447 1440
4 1440 1447 1446 1441
4 1447 1448 1449 1446
4 1445 1450 1448 1447
4 1446 1449 1451 1444
4 1444 1451 1450 1445
4 1452 1453 1454 1455
4 1456 1452 1455 1457
4 1453 1458 1459 1454
4 1458 1456 1457 1459
4 1459 1457 1460 1461
4 1454 1459 1461 1462
4 1457 1455 1463 1460
4 1455 1454 1462 1463
4 1463 1462 1464 1465
4 1460 1463 1465 1466
4 1462 1461 1467 1464
4 1461 1460 1466 1467
4 1467 1466 1468 1469
4 1464 1467 1469 1470
4 1466 1465 1471 1468
4 1465 1464 1470 1471
4 1471 1470 1472 1473
4 1468 1471 1473 1474
4 1470 1469 1475 1472
4 1469 1468 1474 1475
4 1475 1474 1476 1477
4 1472 1475 1477 1478
4 1474 1473 1479 1476
4 1473 1472 1478 1479
4 1479 1478 1480 1481
4 1476 1479 1481 1482
4 1478 1477 1483 1480
4 1477 1476 1482 1483
4 1483 1482 1484 1485
4 1480 1483 1485 1486
4 1482 1481 1487 1484
4 1481 1480 1486 1487
4 1487 1486 1488 1489
4 1484 1487 1489 1490
4 1486 1485 1491 1488
4 1485 1484 1490 1491
4 1427 1492 1493 1424
4 1424 1493 1494 1428
4 1431 1495 1492 1427
4 1428 1494 1495 1431
4 1494 1496 1497 1495
4 1495 1497 1498 1492
4 1493 1499 1496 1494
4 1492 1498 1499 1493
4 1490 1499 1498 1491
4 1489 1496 1499 1490
4 1488 1497 1496 1489
4 1488 1491 1498 1497
4 1448 1450 1453 1452
4 1448 1452 1456 1449
4 1449 1456 1458 1451
4 1450 1451 1458 1453
4 1500 1501 1502 1503
4 1504 1500 1503 1505
4 1506 1504 1505 1507
4 1508 1509 1510 1511
4 1512 1513 1514 1515
4 1513 1508 1511 1514
4 1514 1511 1510 1515
4 1505 1503 1502 1507
4 1509 1508 1513 1512
4 1501 1500 1504 1506
4 1516 1517 1518 1519
4 1520 1521 1522 1523
4 1524 1525 1526 1527
4 1528 1529 1530 1531
4 1522 1521 1529 1528
4 1523 1522 1528 1531
4 1521 1520 1530 1529
4 1519 1518 1524 1527
4 1518 1517 1525 1524
4 1517 1516 1526 1525
4 1532 1533 1534 1535
4 1536 1537 1534 1533
4 1538 1539 1537 1536
4 1538 1532 1535 1539
4 1540 1541 1542 1543
4 1540 1543 1544 1545
4 1545 1544 1546 1547
4 1547 1546 1542 1541
4 1548 1542 1546 1549
4 1549 1546 1544 1550
4 1551 1543 1542 1548
4 1550 1544 1543 1551
4 1552 1550 1551 1553
4 1553 1551 1548 1554
4 1555 1549 1550 1552
4 1554 1548 1549 1555
4 1556 1557 1547 1541
4 1558 1556 1541 1540
4 1557 1559 1545 1547
4 1559 1558 1540 1545
4 1560 1561 1558 1559
4 1562 1560 1559 1557
4 1561 1563 1556 1558
4 1563 1562 1557 1556
4 1564 1565 1562 1563
4 1566 1564 1563 1561
4 1565 1567 1560 1562
4 1567 1566 1561 1560
4 1568 1569 1566 1567
4 1570 1568 1567 1565
4 1569 1571 1564 1566
4 1571 1570 1565 1564
4 1572 1573 1570 1571
4 1574 1572 1571 1569
4 1573 1575 1568 1570
4 1575 1574 1569 1568
4 1576 1577 1574 1575
4 1578 1576 1575 1573
4 1577 1579 1572 1574
4 1579 1578 1573 1572
4 1580 1581 1578 1579
4 1582 1580 1579 1577
4 1581 1583 1576 1578
4 1583 1582 1577 1576
4 1584 1585 1582 1583
4 1586 1584 1583 1581
4 1585 1587 1580 1582
4 1587 1586 1581 1580
4 1534 1537 1586 1587
4 1535 1534 1587 1585
4 1537 1539 1584 1586
4 1539 1535 1585 1584
4 1588 1533 1532 1589
4 1590 1536 1533 1588
4 1589 1532 1538 1591
4 1591 1538 1536 1590
4 1592 1591 1590 1593
4 1594 1589 1591 1592
4 1593 1590 1588 1595
4 1595 1588 1589 1594
4 1596 1595 1594 1597
4 1598 1593 1595 1596
4 1597 1594 1592 1599
4 1599 1592 1593 1598
4 1600 1599 1598 1601
4 1602 1597 1599 1600
4 1601 1598 1596 1603
4 1603 1596 1597 1602
4 1604 1603 1602 1605
4 1606 1601 1603 1604
4 1605 1602 1600 1607
4 1607 1600 1601 1606
4 1553 1607 1606 1552
4 1554 1605 1607 1553
4 1552 1606 1604 1555
4 1555 1604 1605 1554
4 1608 1609 1610 1611
4 1612 1613 1610 1609
4 1614 1615 1613 1612
4 1614 1608 1611 1615
4 1616 1617 1618 1619
4 1616 1619 1620 1621
4 1621 1620 1622 1623
4 1623 1622 1618 1617
4 1624 1618 1622 1625
4 1625 1622 1620 1626
4 1627 1619 1618 1624
4 1626 1620 1619 1627
4 1628 1626 1627 1629
4 1629 1627 1624 1630
4 1631 1625 1626 1628
4 1630 1624 1625 1631
4 1632 1633 1623 1617
4 1634 1632 1617 1616
4 1633 1635 1621 1623
4 1635 1634 1616 1621
4 1636 1637 1634 1635
4 1638 1636 1635 1633
4 1637 1639 1632 1634
4 1639 1638 1633 1632
4 1640 1641 1638 1639
4 1642 1640 1639 1637
4 1641 1643 1636 1638
4 1643 1642 1637 1636
4 1644 1645 1642 1643
4 1646 1644 1643 1641
4 1645 1647 1640 1642
4 1647 1646 1641 1640
4 1648 1649 1646 1647
4 1650 1648 1647 1645
4 1649 1651 1644 1646
4 1651 1650 1645 1644
4 1652 1653 1650 1651
4 1654 1652 1651 1649
4 1653 1655 1648 1650
4 1655 1654 1649 1648
4 1656 1657 1658 1659
4 1660 1656 1659 1661
4 1657 1662 1663 1658
4 1662 1660 1661 1663
4 1610 1613 1660 1662
4 1611 1610 1662 1657
4 1613 1615 1656 1660
4 1615 1611 1657 1656
4 1664 1609 1608 1665
4 1666 1612 1609 1664
4 1665 1608 1614 1667
4 1667 1614 1612 1666
4 1668 1669 1670 1671
4 1672 1673 1669 1668
4 1671 1670 1674 1675
4 1675 1674 1673 1672
4 1676 1675 1672 1677
4 1678 1671 1675 1676
4 1677 1672 1668 1679
4 1679 1668 1671 1678
4 1680 1679 1678 1681
4 1682 1677 1679 1680
4 1681 1678 1676 1683
4 1683 1676 1677 1682
4 1629 1683 1682 1628
4 1630 1681 1683 1629
4 1628 1682 1680 1631
4 1631 1680 1681 1630
4 1674 1684 1685 1673
4 1684 1667 1666 1685
4 1670 1686 1684 1674
4 1686 1665 1667 1684
4 1673 1685 1687 1669
4 1685 1666 1664 1687
4 1669 1687 1686 1670
4 1687 1664 1665 1686
4 1661 1688 1689 1663
4 1688 1654 1655 1689
4 1663 1689 1690 1658
4 1689 1655 1653 1690
4 1659 1691 1688 1661
4 1691 1652 1654 1688
4 1658 1690 1691 1659
4 1690 1653 1652 1691
4 7 1692 1693 4
4 1692 1694 1695 1693
4 1694 1696 1697 1695
4 1696 1698 1699 1697
4 1698 1700 1701 1699
4 1700 1702 1703 1701
4 1702 1704 1705 1703
4 1704 0 3 1705
4 18 1706 1707 19
4 1706 1708 1709 1707
4 1708 1710 1711 1709
4 1710 1712 1713 1711
4 1712 1714 1715 1713
4 1714 1716 1717 1715
4 1716 1718 1719 1717
4 1718 23 22 1719
4 4 1693 1719 22
4 1693 1695 1717 1719
4 1695 1697 1715 1717
4 1697 1699 1713 1715
4 1699 1701 1711 1713
4 1701 1703 1709 1711
4 1703 1705 1707 1709
4 1705 3 19 1707
4 0 1704 1706 18
4 1704 1702 1708 1706
4 1702 1700 1710 1708
4 1700 1698 1712 1710
4 1698 1696 1714 1712
4 1696 1694 1716 1714
4 1694 1692 1718 1716
4 1692 7 23 1718
4 11 1720 1721 8
4 1720 1722 1723 1721
4 1722 1724 1725 1723
4 1724 1726 1727 1725
4 1726 1728 1729 1727
4 1728 1730 1731 1729
4 1730 1732 1733 1731
4 1732 1734 1735 1733
4 1734 12 15 1735
4 30 1736 1737 31
4 1736 1738 1739 1737
4 1738 1740 1741 1739
4 1740 1742 1743 1741
4 1742 1744 1745 1743
4 1744 1746 1747 1745
4 1746 1748 1749 1747
4 1748 1750 1751 1749
4 1750 27 26 1751
4 12 1734 1736 30
4 1734 1732 1738 1736
4 1732 1730 1740 1738
4 1730 1728 1742 1740
4 1728 1726 1744 1742
4 1726 1724 1746 1744
4 1724 1722 1748 1746
4 1722 1720 1750 1748
4 1720 11 27 1750
4 8 1721 1751 26
4 1721 1723 1749 1751
4 1723 1725 1747 1749
4 1725 1727 1745 1747
4 1727 1729 1743 1745
4 1729 1731 1741 1743
4 1731 1733 1739 1741
4 1733 1735 1737 1739
4 1735 15 31 1737
4 269 1752 1753 270
4 1752 266 267 1753
4 261 1754 1755 262
4 1754 272 275 1755
4 270 1753 1755 275
4 1753 267 262 1755
4 266 1752 1754 261
4 1752 269 272 1754
4 453 1756 1757 454
4 1756 450 451 1757
4 445 1758 1759 446
4 1758 456 459 1759
4 454 1757 1759 459
4 1757 451 446 1759
4 450 1756 1758 445
4 1756 453 456 1758
4 463 1760 1761 460
4 1760 464 467 1761
4 474 1762 1763 475
4 1762 471 470 1763
4 460 1761 1763 470
4 1761 467 475 1763
4 464 1760 1762 474
4 1760 463 471 1762
4 805 1764 1765 806
4 1764 802 803 1765
4 797 1766 1767 798
4 1766 808 811 1767
4 806 1765 1767 811
4 1765 803 798 1767
4 802 1764 1766 797
4 1764 805 808 1766
4 815 1768 1769 812
4 1768 816 819 1769
4 826 1770 1771 827
4 1770 823 822 1771
4 812 1769 1771 822
4 1769 819 827 1771
4 816 1768 1770 826
4 1768 815 823 1770
4 1157 1772 1773 1158
4 1772 1154 1155 1773
4 1149 1774 1775 1150
4 1774 1160 1163 1775
4 1158 1773 1775 1163
4 1773 1155 1150 1775
4 1154 1772 1774 1149
4 1772 1157 1160 1774
4 1167 1776 1777 1164
4 1776 1168 1171 1777
4 1178 1778 1779 1179
4 1778 1175 1174 1779
4 1164 1777 1779 1174
4 1777 1171 1179 1779
4 1168 1776 1778 1178
4 1776 1167 1175 1778
4 1780 1506 1507 1781
4 1501 1782 1783 1502
4 1781 1507 1502 1783
4 1506 1780 1782 1501
4 1509 1784 1785 1510
4 1784 1780 1781 1785
4 1782 1786 1787 1783
4 1786 1512 1515 1787
4 1510 1785 1787 1515
4 1785 1781 1783 1787
4 1780 1784 1786 1782
4 1784 1509 1512 1786
4 1519 1788 1789 1516
4 1788 1520 1523 1789
4 1530 1790 1791 1531
4 1790 1527 1526 1791
4 1516 1789 1791 1526
4 1789 1523 1531 1791
4 1520 1788 1790 1530
4 1788 1519 1527 1790
