ply
format ascii 1.0
comment Created by Blender 2.61 (sub 0) - www.blender.org, source file: 'Zanno_cmp.blend'
element vertex 545
property float x
property float y
property float z
element face 496
property list uchar uint vertex_indices
end_header
0.245442 1.167034 5.619855
2.766243 2.019751 6.277002
2.021277 3.498226 2.484251
-0.465257 2.190244 3.012764
-0.879258 -4.850680 -0.058106
0.365400 -4.165267 -2.653253
2.059439 -6.275329 1.865352
-0.711925 -5.265016 2.608332
5.495397 0.960074 3.894742
3.987785 1.767316 5.591282
4.453631 -1.578338 6.644581
5.973059 -1.435691 4.049637
0.266437 -4.230365 5.278090
0.322017 -1.582977 6.427618
-1.681126 -1.411497 6.614234
-1.389349 -3.695351 5.570618
-2.001346 -4.317880 3.012572
-2.501413 -4.015363 0.604209
-0.953344 2.376088 0.396101
-1.848676 -1.144976 -2.527776
-3.125479 -1.102797 -0.804277
-3.015673 1.676496 1.127415
-2.431439 1.795753 3.499379
-1.935464 1.002326 5.997620
-6.973330 -0.648784 5.922549
-7.490564 -0.458771 4.571258
-9.150513 -1.491045 4.914157
-7.220794 -1.581099 6.040457
-7.525346 -0.523826 3.510379
-7.817524 -1.444776 3.409294
-7.702369 -2.408183 3.436293
-7.686752 -2.547129 4.489151
-7.817690 -2.292823 5.587608
-6.714725 -0.600461 5.844409
-6.666469 -0.111151 4.540243
-6.347649 -1.578618 6.349127
3.107938 -1.659877 7.403100
2.794324 -5.199293 5.819891
5.381458 -3.805105 3.625514
4.013310 -4.794618 5.175778
4.604136 -4.006449 -0.898556
5.446538 -4.107510 1.239569
3.487653 -5.830538 1.542670
1.989086 -4.558783 -1.896533
4.451449 1.189537 -0.537042
4.898168 -1.162471 -1.214838
3.041452 -1.111761 -2.459014
2.553771 2.279918 -1.419856
5.424689 1.509348 1.595230
3.452626 3.173840 2.112830
0.503282 1.646194 -1.363134
3.199216 3.060308 2.172832
2.114585 1.712753 -0.982056
0.897508 -1.068111 -3.990472
2.044744 -1.118940 -2.372313
1.682433 -4.067417 -1.236502
2.538923 -5.772867 1.783950
3.213942 -4.766140 5.336860
3.835741 -1.601980 6.712693
3.698069 1.709312 5.621913
1.362385 -3.195926 -0.501359
0.279406 -1.220509 -0.810158
0.835269 -1.211758 -0.925640
-0.698692 -3.515083 0.997548
-0.715856 0.897342 1.276944
1.364300 0.551620 -0.262911
2.965621 1.977232 4.181315
-1.329300 1.062037 5.285487
3.546861 -1.347439 1.506104
-1.351165 -1.432206 3.413531
-1.309197 -4.106235 4.958232
2.992271 -4.935375 3.743616
-3.634889 -1.613737 6.073122
-4.303925 -1.555272 5.990732
-4.517468 -3.307434 5.282826
-3.521168 -3.312074 5.343554
-4.030132 -3.568726 3.491821
-4.775422 -3.770668 4.061227
-5.326005 -2.931608 2.096045
-4.254333 -3.099284 1.706319
-4.677031 -1.364431 1.006133
-5.219914 -1.398665 1.604365
-4.856688 0.169045 2.147133
-4.440767 0.572054 1.981020
-4.407984 0.831433 3.858950
-4.682138 0.573447 4.093555
-3.954003 0.000761 5.417212
-3.674441 0.157807 5.597581
5.998844 0.197481 1.436044
5.417694 0.026168 0.330044
5.520476 -1.220382 -0.069870
4.992908 -2.502740 0.419458
6.089726 -2.786011 1.305835
5.847241 -2.621579 2.481601
6.090892 -1.365373 2.723846
5.439878 -0.066789 2.740881
3.654298 -1.283495 1.635172
-2.748667 -3.497050 5.488753
-2.810826 -1.516061 6.323979
-3.850975 -3.448960 1.204764
-3.247476 -3.797732 3.300445
-3.869371 1.036915 1.568757
-4.023860 -1.224668 0.399390
-2.978949 0.553177 5.797873
-3.638506 1.336748 3.716603
-2.496665 0.747261 5.753201
-2.307123 -1.382295 6.305582
-2.255328 -3.399691 5.435329
-2.747139 -3.948079 3.167319
-3.122410 -3.564710 1.075826
-3.715666 -1.069775 -0.268875
-3.067766 0.660267 1.433556
-2.947018 1.446897 3.552823
-6.279629 -2.820531 6.060681
-5.146195 -3.222037 5.154408
-5.088351 -1.604906 5.763082
-4.645317 -0.213768 5.219127
-7.039492 -2.625905 3.081344
-6.412843 -2.690952 2.679722
-6.003338 -3.349308 3.812321
-6.956638 -2.886967 4.438321
-6.731205 -0.233320 3.154919
-5.644900 -0.060917 2.244563
-6.438376 -1.414333 2.046769
-7.132381 -1.404455 2.986022
-5.299917 0.327107 4.067908
-6.988930 -1.748899 6.147756
-7.012592 -2.531299 5.585762
-6.969818 -1.878786 6.216735
-7.319596 -2.699479 4.343782
-7.598239 -2.381296 3.289509
-7.283451 -1.458212 2.940397
-7.360635 -0.537268 3.346216
-7.059202 -0.132147 4.138699
-7.322299 -0.334378 4.062133
-7.635653 -2.391692 4.510630
-7.180923 -2.379833 5.662979
-7.728045 -1.441265 3.294559
-7.647982 -2.507853 3.603261
-7.498821 -0.676447 3.680880
-5.118043 0.241497 4.071265
-5.308918 -0.123115 2.367775
-4.502939 -0.266744 5.153022
-5.915384 -1.381979 1.947549
-5.951335 -2.665699 2.282096
-5.670601 -3.452831 3.976439
-4.919242 -1.573944 5.664156
-4.370974 -0.216237 5.204464
-4.721681 -1.575144 5.706299
-4.752667 -3.105742 5.117923
-5.216965 -3.503981 4.020925
-5.694247 -2.724336 2.242683
-5.715338 -1.377059 1.838556
-5.164495 -0.037060 2.330522
-4.996781 0.310062 4.042857
-5.146195 -3.222037 5.154408
-6.003338 -3.349308 3.812321
-5.670601 -3.452831 3.976439
-4.949432 -3.163889 5.136165
-5.216965 -3.503981 4.020925
-4.752667 -3.105742 5.117923
-4.949432 -3.163889 5.136165
-5.670601 -3.452831 3.976439
-5.146195 -3.222037 5.154408
-4.949432 -3.163889 5.136165
-4.919242 -1.573944 5.664156
-5.088351 -1.604906 5.763082
-4.752667 -3.105742 5.117923
-4.721681 -1.575144 5.706299
-4.919242 -1.573944 5.664156
-4.949432 -3.163889 5.136165
7.460358 -6.270867 0.743260
7.307301 -5.919437 2.058381
7.103029 -5.746531 2.119284
6.861914 -6.268197 0.890313
7.487020 -6.213263 0.393730
6.794722 -6.251118 0.561229
6.752576 -5.653165 -0.470816
7.486448 -5.617129 -0.396789
8.684717 -4.467318 2.116014
7.822301 -4.317685 0.776322
7.037939 -4.134591 -0.963779
8.108912 -3.758022 0.394269
6.794324 -4.100931 -0.997578
8.950815 -4.444831 2.052127
7.755109 -4.300606 0.447238
7.802711 -3.970602 0.696421
6.909395 -2.818731 0.828036
7.584743 -2.594620 0.362505
5.041187 -1.323744 1.371217
5.066344 -1.330139 1.494430
4.940361 -1.577670 1.380158
4.965513 -1.584063 1.503344
6.953940 -2.515220 0.755260
7.114386 -2.444708 1.066852
7.889163 -1.894602 2.366772
6.851433 -2.281528 -0.775875
4.927187 -1.294767 0.812885
4.826354 -1.548691 0.821789
6.226685 -2.834832 -0.657097
7.788330 -2.148526 2.375676
5.071162 -1.610918 2.020782
5.171996 -1.356994 2.011878
6.235179 -0.446801 -1.277320
4.664876 -1.577591 0.923934
4.582679 -1.351687 1.066534
6.152982 -0.220898 -1.134720
7.644032 -0.704943 1.703445
7.125504 -0.283517 2.264256
5.228740 -1.621829 2.028297
5.310936 -1.847733 1.885698
6.583549 0.039673 0.751788
4.943695 -1.694176 1.339001
4.861494 -1.468270 1.481593
6.572684 -0.247922 0.332143
7.352319 1.070642 0.461909
7.023846 1.572124 -1.049244
7.359111 -0.098840 0.470199
8.343676 0.529264 0.373770
8.526907 0.491114 2.204319
8.386972 0.403534 2.406983
7.530590 1.517250 -0.835104
7.926947 0.711502 0.472123
6.672603 -0.254355 0.681359
7.529641 0.996497 0.725881
4.927871 -1.496025 1.580406
5.010087 -1.721937 1.437835
6.239761 2.648245 0.470142
7.218075 2.845371 1.312334
6.893832 2.664032 1.944931
6.716509 2.738176 1.680958
7.473644 2.748779 1.505499
7.581266 1.939847 2.491578
6.067010 2.446694 0.541561
8.026085 2.067038 1.861483
5.611621 -2.068375 0.219595
4.953037 -1.815767 0.663649
4.881801 -1.801704 0.556380
5.521328 -2.059614 0.126607
5.536684 -1.171887 0.277931
5.275463 -1.127919 0.154650
4.907713 -1.462837 0.636550
4.986733 -1.485155 0.734142
5.402297 -1.581502 0.077165
4.963752 -1.679455 0.694223
4.888915 -1.655516 0.587115
5.405071 -1.656982 0.123505
5.454142 -1.553085 -0.444799
5.585234 -1.957155 -0.616339
5.627759 -1.522205 0.080948
5.668736 -1.510403 -0.325459
5.449265 -1.049458 -0.298260
5.346089 -1.025766 -0.253820
5.705926 -1.946758 -0.649335
5.551832 -1.553930 -0.365791
5.379975 -1.567059 0.125936
5.460578 -1.470045 -0.430169
4.891539 -1.624350 0.595434
4.967155 -1.656306 0.697079
5.139263 -1.770338 -0.935535
5.250113 -1.430932 -1.027329
5.053959 -1.328240 -0.925368
5.043864 -1.426628 -0.942338
5.293698 -1.341057 -1.002702
5.170873 -1.086088 -0.717166
5.069002 -1.788603 -0.828804
5.403139 -1.156990 -0.797692
5.464233 -0.377700 -0.579451
5.322943 -0.579769 -0.672743
5.273464 -0.623916 -0.612059
5.325985 -0.381928 -0.498605
5.512328 -0.346481 -0.530246
5.352761 -0.338361 -0.444293
5.484795 -0.313039 -0.234141
5.627656 -0.349502 -0.348191
5.596543 -0.873185 -0.656883
5.590740 -0.712459 -0.351103
5.690378 -0.506327 -0.031613
5.748058 -0.769342 -0.299358
5.625537 -0.497852 0.020088
5.680340 -0.870828 -0.688927
5.611923 -0.675525 -0.304768
5.658815 -0.759314 -0.323671
5.560021 -0.936844 -0.071263
5.725774 -0.938508 -0.076483
5.260388 -1.172943 0.300270
5.253408 -1.183521 0.288274
5.213114 -1.103324 0.271750
5.204966 -1.115983 0.252848
5.548618 -0.946333 -0.034269
5.547832 -0.996365 -0.082150
5.608975 -1.282541 -0.257027
5.737109 -0.822338 0.211444
5.308491 -1.100568 0.398554
5.257059 -1.037252 0.368215
5.565104 -0.711506 0.205927
5.547246 -1.226730 -0.289507
5.170455 -1.179524 0.167895
5.218406 -1.241406 0.208655
5.801476 -1.160080 1.659207
5.146872 -1.364341 1.742160
5.136402 -1.355989 1.863163
5.769298 -1.151590 1.777982
5.874509 -1.615785 1.907805
5.725867 -1.622866 2.148039
5.183338 -1.536306 1.885584
5.202416 -1.538945 1.765415
5.778386 -1.383512 2.011753
5.166658 -1.436613 1.752277
5.154998 -1.433251 1.877821
5.748776 -1.353074 1.954456
6.034730 -1.316629 2.381914
6.137140 -1.087367 2.327508
5.964955 -1.409967 1.908363
6.163238 -1.352751 2.193342
6.059225 -1.589517 2.417393
5.964049 -1.609763 2.444637
6.247433 -1.085541 2.292243
6.079756 -1.326787 2.271947
5.743619 -1.398539 1.991088
6.048324 -1.360044 2.391102
5.159123 -1.449977 1.879052
5.172210 -1.448503 1.754912
5.946625 -1.138295 2.850249
6.129996 -1.291109 2.956823
5.952014 -1.360937 3.011867
5.933815 -1.309594 3.001993
6.170040 -1.338864 2.941160
6.002283 -1.511403 2.864189
5.844996 -1.146733 2.802084
6.205617 -1.460091 2.783351
0.000000 0.000000 -0.978465
0.703555 -0.000000 -0.978465
0.497488 -0.497489 -0.978465
-0.000000 -0.703555 -0.978465
-0.497489 -0.497488 -0.978465
-0.703555 0.000000 -0.978465
-0.497489 0.497489 -0.978465
0.000000 0.703555 -0.978465
0.497489 0.497489 -0.978465
0.497488 -0.497489 -1.131930
0.248744 -0.248744 -1.041040
0.351778 -0.000000 -1.041040
0.703555 -0.000000 -1.131930
-0.000000 -0.703555 -1.131930
-0.000000 -0.351777 -1.041040
-0.497489 -0.497488 -1.131930
-0.248744 -0.248744 -1.041040
-0.703555 0.000000 -1.131930
-0.351778 0.000000 -1.041040
-0.497489 0.497489 -1.131930
-0.248744 0.248745 -1.041040
0.000000 0.703555 -1.131930
0.000000 0.351778 -1.041040
0.497489 0.497489 -1.131930
0.248744 0.248744 -1.041040
0.358192 0.358192 -1.317429
0.506560 -0.000000 -1.317429
-0.000000 0.000000 -1.441361
0.000000 0.506560 -1.317429
-0.358192 0.358192 -1.317429
-0.506560 0.000000 -1.317429
-0.358192 -0.358192 -1.317429
-0.000000 -0.506560 -1.317429
0.358192 -0.358192 -1.317429
0.703555 -0.000000 -1.172253
0.497488 -0.497489 -1.172253
-0.000000 -0.703555 -1.172253
-0.497489 -0.497488 -1.172253
-0.703555 0.000000 -1.172253
-0.497489 0.497489 -1.172253
0.000000 0.703555 -1.172253
0.497489 0.497489 -1.172253
0.497489 0.497489 -1.131343
0.703555 -0.000000 -1.131343
0.000000 0.703555 -1.131343
-0.497489 0.497489 -1.131343
-0.703555 0.000000 -1.131343
-0.497489 -0.497488 -1.131343
-0.000000 -0.703555 -1.131343
0.497488 -0.497489 -1.131343
-0.000000 -0.000000 1.414214
-0.000000 -0.541197 1.306563
0.382683 -0.382684 1.306563
-0.000001 -1.000000 1.000000
0.707106 -0.707107 1.000000
-0.000001 -1.306563 0.541196
0.923879 -0.923880 0.541196
-0.000001 -1.414214 0.000000
1.000000 -1.000001 -0.000000
-0.000001 -1.306564 -0.541196
0.923879 -0.923880 -0.541196
-0.000001 -1.000001 -0.971684
0.707106 -0.707107 -0.971685
-0.000001 -0.703556 -1.131930
0.497488 -0.497489 -1.131930
-1.000000 -0.000000 -0.971685
-0.703555 -0.000001 -1.131930
-0.497489 -0.497489 -1.131930
-0.707107 -0.707107 -0.971684
-1.306563 -0.000000 -0.541196
-0.923880 -0.923880 -0.541196
-1.414214 -0.000000 -0.000000
-1.000000 -1.000000 -0.000000
-1.306563 -0.000000 0.541196
-0.923880 -0.923879 0.541196
-1.000000 -0.000000 1.000000
-0.707107 -0.707107 1.000000
-0.541196 -0.000000 1.306563
-0.382684 -0.382683 1.306563
0.000000 0.541196 1.306563
-0.382683 0.382683 1.306563
0.000000 1.000000 1.000000
-0.707107 0.707107 1.000000
0.000000 1.306563 0.541196
-0.923879 0.923880 0.541196
0.000000 1.414214 -0.000000
-1.000000 1.000000 -0.000000
0.000000 1.306563 -0.541196
-0.923879 0.923880 -0.541196
0.000000 1.000000 -0.971685
-0.707107 0.707107 -0.971685
0.000000 0.703555 -1.131930
-0.497489 0.497488 -1.131930
0.541196 -0.000001 1.306563
0.382684 0.382683 1.306563
1.000000 -0.000001 1.000000
0.707107 0.707106 1.000000
1.306563 -0.000001 0.541196
0.923880 0.923879 0.541196
1.414214 -0.000001 -0.000000
1.000001 1.000000 -0.000000
1.306563 -0.000001 -0.541196
0.923880 0.923879 -0.541196
1.000000 -0.000001 -0.971685
0.707107 0.707106 -0.971685
0.703555 -0.000001 -1.131930
0.497489 0.497488 -1.131930
0.093648 -2.352659 -1.153439
0.928852 -2.345544 -1.160469
0.688714 -2.934456 -1.231466
0.099995 -3.182559 -1.256756
-0.492443 -2.944518 -1.221524
-0.741556 -2.359775 -1.146409
-0.501419 -1.770862 -1.075412
0.087301 -1.522759 -1.050122
0.679739 -1.760799 -1.085354
0.687287 -2.915713 -1.412490
0.390599 -2.635915 -1.266264
0.510668 -2.341459 -1.230766
0.927425 -2.326801 -1.341493
0.098567 -3.163816 -1.437780
0.096239 -2.759967 -1.278909
-0.493871 -2.925776 -1.402548
-0.199980 -2.640946 -1.261294
-0.742984 -2.341032 -1.327433
-0.324536 -2.348574 -1.223736
-0.502846 -1.752119 -1.256436
-0.204467 -2.054118 -1.188238
0.085874 -1.504016 -1.231146
0.089893 -1.930067 -1.175593
0.678311 -1.742056 -1.266378
0.386111 -2.049087 -1.193208
0.512480 -1.885122 -1.504253
0.691842 -2.306138 -1.558336
0.089342 -2.296124 -1.699462
0.085925 -1.713732 -1.478886
-0.337953 -1.892367 -1.497095
-0.510852 -2.316384 -1.548213
-0.331491 -2.737399 -1.602296
0.095064 -2.908789 -1.627662
0.518943 -2.730154 -1.609454
0.927050 -2.321876 -1.389057
0.686912 -2.910788 -1.460054
0.098192 -3.158891 -1.485344
-0.494246 -2.920851 -1.450112
-0.743359 -2.336107 -1.374997
-0.503221 -1.747195 -1.304000
0.085498 -1.499091 -1.278710
0.677936 -1.737132 -1.313942
0.678317 -1.742128 -1.265685
0.927430 -2.326872 -1.340800
0.085879 -1.504088 -1.230453
-0.502841 -1.752191 -1.255743
-0.742978 -2.341103 -1.326740
-0.493865 -2.925847 -1.401855
0.098572 -3.163888 -1.437087
0.687292 -2.915785 -1.411797
0.115906 -2.644884 1.668917
0.119786 -3.270121 1.462460
0.572648 -3.079272 1.481914
0.121073 -3.773876 1.033470
0.957852 -3.421233 1.069416
0.119571 -4.079457 0.447255
1.212874 -3.618707 0.494221
0.115507 -4.140342 -0.206938
1.298891 -3.641630 -0.156102
0.109502 -3.947262 -0.829513
1.202806 -3.486511 -0.782548
0.102732 -3.533069 -1.292290
0.939510 -3.180426 -1.256344
0.098567 -3.163817 -1.437780
0.687287 -2.915713 -1.412490
-1.093409 -2.363602 -1.135449
-0.742984 -2.341033 -1.327433
-0.493871 -2.925776 -1.402548
-0.739331 -3.194729 -1.242214
-1.453332 -2.419279 -0.624591
-0.990706 -3.505199 -0.764085
-1.576092 -2.486465 0.014869
-1.075349 -3.661857 -0.136119
-1.443263 -2.551474 0.652178
-0.980637 -3.637394 0.512683
-1.075068 -2.604409 1.190311
-0.720989 -3.435536 1.083546
-0.527561 -2.637210 1.547342
-0.335935 -3.087012 1.489562
0.110022 -1.993351 1.621409
-0.342839 -2.184200 1.601955
0.103032 -1.414714 1.327169
-0.733747 -1.767356 1.291223
0.095998 -0.997063 0.830992
-0.997306 -1.457813 0.784026
0.089993 -0.803982 0.208416
-1.093391 -1.302695 0.157580
0.085929 -0.864867 -0.445777
-1.007375 -1.325618 -0.492743
0.084690 -1.173907 -0.998592
-0.752089 -1.526549 -1.034537
0.085874 -1.504017 -1.231146
-0.502846 -1.752120 -1.256436
0.757369 -2.626263 1.536527
0.565744 -2.176460 1.594308
1.299173 -2.584182 1.170327
0.945095 -1.753054 1.277092
1.658831 -2.525046 0.626068
1.196207 -1.439125 0.765563
1.781592 -2.457860 -0.013392
1.280850 -1.282467 0.137597
1.648762 -2.392851 -0.650700
1.186138 -1.306930 -0.511205
1.280831 -2.343375 -1.155433
0.926753 -1.512247 -1.048668
0.927425 -2.326802 -1.341493
0.678311 -1.742057 -1.266378
4 0 1 2 3
4 4 5 6 7
4 8 9 10 11
4 12 13 14 15
4 4 7 16 17
4 18 19 20 21
4 0 3 22 23
4 24 25 26 27
4 28 29 26 25
4 30 31 26 29
4 32 27 26 31
4 18 21 22 3
4 24 33 34 25
4 4 17 20 19
4 12 15 16 7
4 0 23 14 13
4 24 27 35 33
4 0 13 36 1
4 12 37 36 13
4 38 11 10 39
4 40 41 42 43
4 38 39 42 41
4 12 7 6 37
4 44 45 46 47
4 40 43 46 45
4 8 48 49 9
4 44 47 49 48
4 18 3 2 50
4 2 51 52 50
4 53 54 55 5
4 6 56 57 37
4 37 57 58 36
4 36 58 59 1
4 5 55 56 6
4 50 52 54 53
4 1 59 51 2
4 53 5 60 61
4 4 19 62 63
4 5 4 63 60
4 19 18 64 62
4 50 53 61 65
4 18 50 65 64
4 64 65 66 67
4 65 61 68 66
4 62 64 67 69
4 60 63 70 71
4 63 62 69 70
4 61 60 71 68
4 67 66 68 69
4 70 69 68 71
4 59 9 49 51
4 52 47 46 54
4 55 43 42 56
4 58 10 9 59
4 57 39 10 58
4 56 42 39 57
4 54 46 43 55
4 51 49 47 52
4 72 73 74 75
4 76 77 78 79
4 80 81 82 83
4 84 85 86 87
4 83 82 85 84
4 79 78 81 80
4 75 74 77 76
4 87 86 73 72
4 44 48 88 89
4 40 45 90 91
4 45 44 89 90
4 38 41 92 93
4 41 40 91 92
4 11 38 93 94
4 48 8 95 88
4 8 11 94 95
4 95 94 96 88
4 93 92 96 94
4 91 90 96 92
4 89 88 96 90
4 72 75 97 98
4 76 79 99 100
4 80 83 101 102
4 84 87 103 104
4 83 84 104 101
4 79 80 102 99
4 75 76 100 97
4 87 72 98 103
4 14 23 105 106
4 16 15 107 108
4 20 17 109 110
4 22 21 111 112
4 23 22 112 105
4 21 20 110 111
4 17 16 108 109
4 15 14 106 107
4 105 103 98 106
4 107 97 100 108
4 109 99 102 110
4 111 101 104 112
4 112 104 103 105
4 110 102 101 111
4 108 100 99 109
4 106 98 97 107
4 113 114 115 35
4 35 115 116 33
4 117 118 119 120
4 120 119 114 113
4 121 122 123 124
4 124 123 118 117
4 33 116 125 34
4 34 125 122 121
4 113 35 126 127
4 35 27 128 126
4 117 120 129 130
4 120 113 127 129
4 121 124 131 132
4 124 117 130 131
4 34 121 132 133
4 25 34 133 134
4 32 31 135 136
4 27 32 136 128
4 30 29 137 138
4 31 30 138 135
4 28 25 134 139
4 29 28 139 137
4 139 134 133 132
4 138 137 131 130
4 139 132 131 137
4 136 135 129 127
4 138 130 129 135
4 136 127 126 128
4 122 125 140 141
4 125 116 142 140
4 118 123 143 144
4 123 122 141 143
4 119 118 144 145
4 116 115 146 142
4 73 86 147 148
4 77 74 149 150
4 81 78 151 152
4 85 82 153 154
4 86 85 154 147
4 82 81 152 153
4 78 77 150 151
4 74 73 148 149
4 147 142 146 148
4 151 144 143 152
4 153 141 140 154
4 154 140 142 147
4 152 143 141 153
4 150 145 144 151
4 155 156 157 158
4 159 160 161 162
4 163 164 165 166
4 167 168 169 170
4 171 172 173 174
4 175 171 174 176
4 176 177 178 175
4 179 180 174 173
4 181 182 175 178
4 178 177 183 181
4 184 179 173 172
4 177 176 185 183
4 182 186 171 175
4 180 185 176 174
4 186 184 172 171
4 187 188 189 190
4 190 189 191 192
4 192 191 193 194
4 194 193 185 180
4 187 195 184 186
4 188 196 197 189
4 189 197 198 191
4 191 198 199 193
4 193 199 183 185
4 188 187 186 182
4 195 200 179 184
4 199 196 181 183
4 196 188 182 181
4 200 194 180 179
4 201 192 194 200
4 202 190 192 201
4 195 187 190 202
4 196 199 198 197
4 195 202 201 200
4 203 204 205 206
4 207 208 209 210
4 203 211 212 204
4 204 212 213 205
4 205 213 214 206
4 206 214 215 216
4 207 217 218 219
4 208 207 219 220
4 203 206 216 221
4 217 211 222 218
4 223 208 220 224
4 225 209 208 223
4 226 210 209 225
4 217 207 210 226
4 211 203 221 222
4 214 223 224 215
4 213 225 223 214
4 212 226 225 213
4 211 217 226 212
4 222 221 227 228
4 215 224 229 230
4 218 222 228 231
4 232 229 224 220
4 221 216 233 227
4 234 232 220 219
4 219 218 231 234
4 216 215 230 233
4 229 232 234 231
4 231 228 230 229
4 228 227 233 230
4 235 236 237 238
4 239 240 241 242
4 235 243 244 236
4 236 244 245 237
4 237 245 246 238
4 238 246 247 248
4 239 249 250 251
4 240 239 251 252
4 235 238 248 253
4 249 243 254 250
4 255 240 252 256
4 257 241 240 255
4 258 242 241 257
4 249 239 242 258
4 243 235 253 254
4 246 255 256 247
4 245 257 255 246
4 244 258 257 245
4 243 249 258 244
4 254 253 259 260
4 247 256 261 262
4 250 254 260 263
4 264 261 256 252
4 253 248 265 259
4 266 264 252 251
4 251 250 263 266
4 248 247 262 265
4 261 264 266 263
4 263 260 262 261
4 260 259 265 262
4 267 268 269 270
4 271 267 270 272
4 272 273 274 271
4 275 276 270 269
4 277 278 271 274
4 274 273 279 277
4 280 275 269 268
4 273 272 281 279
4 278 282 267 271
4 276 281 272 270
4 282 280 268 267
4 283 284 285 286
4 286 285 287 288
4 288 287 289 290
4 290 289 281 276
4 283 291 280 282
4 284 292 293 285
4 285 293 294 287
4 287 294 295 289
4 289 295 279 281
4 284 283 282 278
4 291 296 275 280
4 295 292 277 279
4 292 284 278 277
4 296 290 276 275
4 297 288 290 296
4 298 286 288 297
4 291 283 286 298
4 292 295 294 293
4 291 298 297 296
4 299 300 301 302
4 303 304 305 306
4 299 307 308 300
4 300 308 309 301
4 301 309 310 302
4 302 310 311 312
4 303 313 314 315
4 304 303 315 316
4 299 302 312 317
4 313 307 318 314
4 319 304 316 320
4 321 305 304 319
4 322 306 305 321
4 313 303 306 322
4 307 299 317 318
4 310 319 320 311
4 309 321 319 310
4 308 322 321 309
4 307 313 322 308
4 318 317 323 324
4 311 320 325 326
4 314 318 324 327
4 328 325 320 316
4 317 312 329 323
4 330 328 316 315
4 315 314 327 330
4 312 311 326 329
4 325 328 330 327
4 327 324 326 325
4 324 323 329 326
3 331 332 333
3 334 331 333
3 335 331 334
3 336 331 335
3 337 331 336
3 338 331 337
3 339 331 338
3 332 331 339
4 340 341 342 343
4 344 345 341 340
4 346 347 345 344
4 348 349 347 346
4 350 351 349 348
4 352 353 351 350
4 354 355 353 352
4 343 342 355 354
3 356 357 358
3 358 359 356
3 358 360 359
3 358 361 360
3 358 362 361
3 358 363 362
3 358 364 363
3 358 357 364
4 364 357 365 366
4 363 364 366 367
4 362 363 367 368
4 361 362 368 369
4 360 361 369 370
4 359 360 370 371
4 356 359 371 372
4 357 356 372 365
4 365 372 373 374
4 372 371 375 373
4 371 370 376 375
4 370 369 377 376
4 369 368 378 377
4 368 367 379 378
4 367 366 380 379
4 366 365 374 380
3 381 382 383
4 382 384 385 383
4 384 386 387 385
4 386 388 389 387
4 388 390 391 389
4 390 392 393 391
4 392 394 395 393
4 396 397 398 399
4 400 396 399 401
4 402 400 401 403
4 404 402 403 405
4 406 404 405 407
4 408 406 407 409
3 381 408 409
3 381 410 411
4 410 412 413 411
4 412 414 415 413
4 414 416 417 415
4 416 418 419 417
4 418 420 421 419
4 420 422 423 421
3 424 425 381
4 426 427 425 424
4 428 429 427 426
4 430 431 429 428
4 432 433 431 430
4 434 435 433 432
4 436 437 435 434
4 437 422 420 435
4 418 433 435 420
4 433 418 416 431
4 431 416 414 429
4 429 414 412 427
4 427 412 410 425
3 425 410 381
4 421 423 397 396
4 419 421 396 400
4 417 419 400 402
4 415 417 402 404
4 413 415 404 406
4 411 413 406 408
3 381 411 408
3 381 409 382
4 409 407 384 382
4 407 405 386 384
4 405 403 388 386
4 403 401 390 388
4 401 399 392 390
4 399 398 394 392
4 393 395 436 434
4 391 393 434 432
4 389 391 432 430
4 387 389 430 428
4 385 387 428 426
4 383 385 426 424
3 381 383 424
3 438 439 440
3 441 438 440
3 442 438 441
3 443 438 442
3 444 438 443
3 445 438 444
3 446 438 445
3 439 438 446
4 447 448 449 450
4 451 452 448 447
4 453 454 452 451
4 455 456 454 453
4 457 458 456 455
4 459 460 458 457
4 461 462 460 459
4 450 449 462 461
3 463 464 465
3 465 466 463
3 465 467 466
3 465 468 467
3 465 469 468
3 465 470 469
3 465 471 470
3 465 464 471
4 471 464 472 473
4 470 471 473 474
4 469 470 474 475
4 468 469 475 476
4 467 468 476 477
4 466 467 477 478
4 463 466 478 479
4 464 463 479 472
4 472 479 480 481
4 479 478 482 480
4 478 477 483 482
4 477 476 484 483
4 476 475 485 484
4 475 474 486 485
4 474 473 487 486
4 473 472 481 487
3 488 489 490
4 489 491 492 490
4 491 493 494 492
4 493 495 496 494
4 495 497 498 496
4 497 499 500 498
4 499 501 502 500
4 503 504 505 506
4 507 503 506 508
4 509 507 508 510
4 511 509 510 512
4 513 511 512 514
4 515 513 514 516
3 488 515 516
3 488 517 518
4 517 519 520 518
4 519 521 522 520
4 521 523 524 522
4 523 525 526 524
4 525 527 528 526
4 527 529 530 528
3 531 532 488
4 533 534 532 531
4 535 536 534 533
4 537 538 536 535
4 539 540 538 537
4 541 542 540 539
4 543 544 542 541
4 544 529 527 542
4 525 540 542 527
4 540 525 523 538
4 538 523 521 536
4 536 521 519 534
4 534 519 517 532
3 532 517 488
4 528 530 504 503
4 526 528 503 507
4 524 526 507 509
4 522 524 509 511
4 520 522 511 513
4 518 520 513 515
3 488 518 515
3 488 516 489
4 516 514 491 489
4 514 512 493 491
4 512 510 495 493
4 510 508 497 495
4 508 506 499 497
4 506 505 501 499
4 500 502 543 541
4 498 500 541 539
4 496 498 539 537
4 494 496 537 535
4 492 494 535 533
4 490 492 533 531
3 488 490 531
