ply
format ascii 1.0
comment Created by Blender 2.62 (sub 0) - www.blender.org, source file: 'shaolin.blend'
element vertex 1733
property float x
property float y
property float z
element face 1710
property list uchar uint vertex_indices
end_header
1.650619 1.292172 -5.368017
1.647683 1.158883 -5.338248
1.942479 0.823596 -5.317195
1.988056 0.908394 -5.343913
-1.942479 0.823596 -5.317195
-1.647683 1.158883 -5.338248
-1.650619 1.292172 -5.368017
-1.988056 0.908394 -5.343913
2.066144 0.417761 -5.408392
2.010690 0.394969 -5.373522
1.769572 0.115995 -5.463940
1.790142 0.098427 -5.511884
-1.769572 0.115995 -5.463940
-2.010690 0.394969 -5.373522
-2.066144 0.417761 -5.408392
-1.790142 0.098427 -5.511884
1.365577 0.189747 -5.531891
1.327706 0.182849 -5.589669
-1.365577 0.189747 -5.531891
-1.327706 0.182849 -5.589669
1.090103 0.474983 -5.537916
1.012383 0.509341 -5.596559
-1.090103 0.474983 -5.537916
-1.012383 0.509341 -5.596559
1.062296 0.853805 -5.492735
0.980558 0.942968 -5.544842
-1.062296 0.853805 -5.492735
-0.980558 0.942968 -5.544842
1.266220 1.139857 -5.418313
1.213969 1.270398 -5.459655
-1.266220 1.139857 -5.418313
-1.213969 1.270398 -5.459655
2.028583 0.934223 -5.722114
2.079925 0.945140 -5.896579
1.754060 1.302980 -5.923505
1.714616 1.283399 -5.746803
-1.754060 1.302980 -5.923505
-2.079925 0.945140 -5.896579
-2.028583 0.934223 -5.722114
-1.714616 1.283399 -5.746803
2.014809 0.926648 -5.525354
1.683758 1.299128 -5.550152
-2.014809 0.926648 -5.525354
-1.683758 1.299128 -5.550152
1.842393 0.194674 -5.871969
1.885510 0.185670 -6.048418
2.105855 0.483858 -5.952106
2.098222 0.485481 -5.777929
-2.105855 0.483858 -5.952106
-1.885510 0.185670 -6.048418
-1.842393 0.194674 -5.871969
-2.098222 0.485481 -5.777929
1.819601 0.139191 -5.686869
2.089881 0.449255 -5.586480
-1.819601 0.139191 -5.686869
-2.089881 0.449255 -5.586480
1.415000 0.268296 -5.945735
1.443579 0.259248 -6.125777
-1.443579 0.259248 -6.125777
-1.415000 0.268296 -5.945735
1.367381 0.219501 -5.763889
-1.367381 0.219501 -5.763889
1.120766 0.567775 -5.955980
1.137714 0.567594 -6.138612
-1.137714 0.567594 -6.138612
-1.120766 0.567775 -5.955980
1.057599 0.537624 -5.772604
-1.057599 0.537624 -5.772604
1.090196 0.965154 -5.910685
1.105442 0.976517 -6.093230
-1.105442 0.976517 -6.093230
-1.090196 0.965154 -5.910685
1.025889 0.959937 -5.723304
-1.025889 0.959937 -5.723304
1.310001 1.265001 -5.832128
1.335080 1.284957 -6.012091
-1.335080 1.284957 -6.012091
-1.310001 1.265001 -5.832128
1.256227 1.278716 -5.640087
-1.256227 1.278716 -5.640087
2.005784 0.912809 -5.897690
1.735085 1.208269 -5.920576
-1.735085 1.208269 -5.920576
-2.005784 0.912809 -5.897690
1.843814 0.285121 -6.022358
2.063698 0.531390 -5.942863
-2.063698 0.531390 -5.942863
-1.843814 0.285121 -6.022358
1.477352 0.345114 -6.086939
-1.477352 0.345114 -6.086939
1.223075 0.600278 -6.098483
-1.223075 0.600278 -6.098483
1.196055 0.938596 -6.061419
-1.196055 0.938596 -6.061419
1.387410 1.193724 -5.994183
-1.387410 1.193724 -5.994183
2.021447 0.905183 -6.122083
1.771961 1.171423 -6.144904
-1.771961 1.171423 -6.144904
-2.021447 0.905183 -6.122083
1.870611 0.337451 -6.232068
2.072515 0.559593 -6.160517
-2.072515 0.559593 -6.160517
-1.870611 0.337451 -6.232068
1.535072 0.388981 -6.292645
-1.535072 0.388981 -6.292645
1.300080 0.620855 -6.306216
-1.300080 0.620855 -6.306216
1.274445 0.927997 -6.274225
-1.274445 0.927997 -6.274225
1.452814 1.159446 -6.212782
-1.452814 1.159446 -6.212782
1.583967 1.096098 -6.698667
1.848742 1.102498 -6.641546
1.928071 1.054857 -7.455719
1.702437 1.022231 -7.459587
-1.928071 1.054857 -7.455719
-1.848742 1.102498 -6.641546
-1.583967 1.096098 -6.698667
-1.702437 1.022231 -7.459587
1.429004 0.911157 -6.748898
1.590057 0.837023 -7.451016
-1.429004 0.911157 -6.748898
-1.590057 0.837023 -7.451016
1.452410 0.665148 -6.770218
1.638339 0.625069 -7.449530
-1.452410 0.665148 -6.770218
-1.638339 0.625069 -7.449530
1.651435 0.478865 -6.751286
1.830756 0.477682 -7.439393
-1.651435 0.478865 -6.751286
-1.830756 0.477682 -7.439393
1.927595 0.445272 -6.697679
2.066512 0.504146 -7.435749
-1.927595 0.445272 -6.697679
-2.066512 0.504146 -7.435749
2.058287 0.894447 -6.617932
2.095256 0.619434 -6.642001
2.192514 0.661512 -7.440843
2.131959 0.892326 -7.442163
-2.192514 0.661512 -7.440843
-2.095256 0.619434 -6.642001
-2.058287 0.894447 -6.617932
-2.131959 0.892326 -7.442163
2.225306 0.893084 -7.928105
1.953612 1.203948 -8.073660
-2.225306 0.893084 -7.928105
-1.953612 1.203948 -8.073660
2.160689 0.308361 -7.731223
2.305183 0.538359 -7.885335
-2.160689 0.308361 -7.731223
-2.305183 0.538359 -7.885335
1.877494 0.267206 -7.731223
-1.877494 0.267206 -7.731223
1.644407 0.444586 -7.885335
-1.644407 0.444586 -7.885335
1.560930 0.797687 -7.928105
-1.560930 0.797687 -7.928105
1.680561 1.163991 -8.073660
-1.680561 1.163991 -8.073660
1.937393 -0.188051 -7.982831
2.236042 -0.144653 -7.982831
-1.937393 -0.188051 -7.982831
-2.236042 -0.144653 -7.982831
1.548686 0.816172 -8.482886
1.689523 0.465279 -8.460332
-1.548686 0.816172 -8.482886
-1.689523 0.465279 -8.460332
2.257499 0.547818 -8.460332
2.233748 0.915724 -8.482886
-2.257499 0.547818 -8.460332
-2.233748 0.915724 -8.482886
2.406676 0.012706 -8.163848
2.425211 0.019055 -8.499279
-2.406676 0.012706 -8.163848
-2.425211 0.019055 -8.499279
1.681189 -0.089069 -8.499279
1.701752 -0.089740 -8.163848
-1.681189 -0.089069 -8.499279
-1.701752 -0.089740 -8.163848
1.688253 -0.624766 -8.503514
1.715922 -0.597306 -8.223184
-1.688253 -0.624766 -8.503514
-1.715922 -0.597306 -8.223184
2.510045 -0.481902 -8.223184
2.542700 -0.500596 -8.503514
-2.510045 -0.481902 -8.223184
-2.542700 -0.500596 -8.503514
1.959687 1.206516 -8.496428
1.673585 1.164944 -8.496428
-1.959687 1.206516 -8.496428
-1.673585 1.164944 -8.496428
1.991476 -0.719412 -8.123393
2.305320 -0.673806 -8.123393
-1.991476 -0.719412 -8.123393
-2.305320 -0.673806 -8.123393
2.493891 -0.755963 -8.235904
2.515839 -0.804895 -8.503514
-2.493891 -0.755963 -8.235904
-2.515839 -0.804895 -8.503514
1.800063 -0.908913 -8.503514
1.807588 -0.855696 -8.235904
-1.800063 -0.908913 -8.503514
-1.807588 -0.855696 -8.235904
2.045004 -0.953610 -8.207845
2.313978 -0.914526 -8.207845
-2.045004 -0.953610 -8.207845
-2.313978 -0.914526 -8.207845
2.058568 -1.065305 -8.502135
2.333134 -1.025406 -8.502135
-2.058568 -1.065305 -8.502135
-2.333134 -1.025406 -8.502135
1.852768 -0.877030 -8.590923
2.059153 -1.034764 -8.589293
-1.852768 -0.877030 -8.590923
-2.059153 -1.034764 -8.589293
2.322701 -0.996467 -8.589293
2.456178 -0.789339 -8.590923
-2.322701 -0.996467 -8.589293
-2.456178 -0.789339 -8.590923
1.752812 -0.601238 -8.590923
-1.752812 -0.601238 -8.590923
2.474028 -0.496433 -8.590923
-2.474028 -0.496433 -8.590923
1.689429 1.113688 -8.589293
1.608830 0.791569 -8.589343
-1.689429 1.113688 -8.589293
-1.608830 0.791569 -8.589343
2.184109 0.875169 -8.589343
1.963006 1.153443 -8.589293
-2.184109 0.875169 -8.589343
-1.963006 1.153443 -8.589293
2.367513 0.008081 -8.589343
-2.367513 0.008081 -8.589343
1.738635 -0.083304 -8.589343
-1.738635 -0.083304 -8.589343
1.739053 0.451585 -8.568716
-1.739053 0.451585 -8.568716
2.213005 0.520459 -8.568716
-2.213005 0.520459 -8.568716
1.141949 0.788820 0.910977
0.707832 0.953271 0.884050
0.683719 1.225152 1.311970
1.134605 0.996893 1.360015
-0.683719 1.225152 1.311970
-0.707832 0.953271 0.884050
-1.141949 0.788820 0.910977
-1.134605 0.996893 1.360015
0.916561 -0.164234 0.890681
1.029115 0.193845 0.928033
1.155831 -0.008066 1.207238
0.959165 -0.320179 0.974894
-1.155831 -0.008066 1.207238
-1.029115 0.193845 0.928033
-0.916561 -0.164234 0.890681
-0.959165 -0.320179 0.974894
1.175449 1.076719 1.827812
0.704852 1.279012 1.860084
0.679448 1.158897 2.129708
1.342280 0.639643 2.240205
-0.679448 1.158897 2.129708
-0.704852 1.279012 1.860084
-1.175449 1.076719 1.827812
-1.342280 0.639643 2.240205
0.928091 -0.371391 1.788122
1.176538 -0.012042 1.780258
1.312223 0.201658 2.153936
0.735804 -0.088607 2.122810
-1.312223 0.201658 2.153936
-1.176538 -0.012042 1.780258
-0.928091 -0.371391 1.788122
-0.735804 -0.088607 2.122810
1.180780 0.368476 1.095182
1.314950 0.118708 1.325751
-1.180780 0.368476 1.095182
-1.314950 0.118708 1.325751
1.379553 0.981654 1.248240
1.179446 0.763726 1.093436
-1.379553 0.981654 1.248240
-1.179446 0.763726 1.093436
1.319351 0.822045 1.087909
1.313868 0.500971 1.064569
-1.319351 0.822045 1.087909
-1.313868 0.500971 1.064569
1.456493 1.018285 1.182173
-1.456493 1.018285 1.182173
1.416147 0.293960 1.229878
-1.416147 0.293960 1.229878
1.556796 0.082049 1.499516
1.585144 0.250020 1.322266
-1.556796 0.082049 1.499516
-1.585144 0.250020 1.322266
1.582077 0.957852 1.536341
1.701781 0.945948 1.323752
-1.701781 0.945948 1.323752
-1.582077 0.957852 1.536341
1.748829 0.685307 1.591406
1.931642 0.702269 1.335895
-1.931642 0.702269 1.335895
-1.748829 0.685307 1.591406
1.701658 0.295915 1.619761
1.796744 0.425380 1.335260
-1.796744 0.425380 1.335260
-1.701658 0.295915 1.619761
0.385922 0.279970 2.782388
0.333866 0.485596 2.766047
0.339190 0.452285 2.930836
0.404897 0.243332 2.893961
-0.339190 0.452285 2.930836
-0.333866 0.485596 2.766047
-0.385922 0.279970 2.782388
-0.404897 0.243332 2.893961
0.411340 0.135872 2.759243
0.434882 0.113196 2.849567
-0.411340 0.135872 2.759243
-0.434882 0.113196 2.849567
0.304869 -0.000101 2.687122
0.311146 -0.259905 2.669546
-0.304869 -0.000101 2.687122
-0.311146 -0.259905 2.669546
0.302415 0.775674 -2.034059
0.533540 1.127909 -1.863302
0.826475 0.982311 -2.016267
0.507241 0.765003 -2.406496
-0.826475 0.982311 -2.016267
-0.533540 1.127909 -1.863302
-0.302415 0.775674 -2.034059
-0.507241 0.765003 -2.406496
0.197726 0.436138 -2.150364
0.310734 0.453382 -2.525666
-0.197726 0.436138 -2.150364
-0.310734 0.453382 -2.525666
0.207560 0.098809 -2.032732
0.307430 0.089228 -2.415796
-0.207560 0.098809 -2.032732
-0.307430 0.089228 -2.415796
0.373541 -0.246803 -1.728187
0.446729 -0.257733 -2.073157
-0.373541 -0.246803 -1.728187
-0.446729 -0.257733 -2.073157
0.645444 -0.228311 -1.036430
0.852312 -0.398584 -1.577185
-0.645444 -0.228311 -1.036430
-0.852312 -0.398584 -1.577185
0.830349 0.674059 -0.822514
0.875392 0.037424 -0.822514
1.072614 0.071168 -1.304236
1.013747 0.724679 -1.533001
-1.072614 0.071168 -1.304236
-0.875392 0.037424 -0.822514
-0.830349 0.674059 -0.822514
-1.013747 0.724679 -1.533001
1.442056 0.645826 -2.751032
1.123602 0.883827 -2.859971
-1.442056 0.645826 -2.751032
-1.123602 0.883827 -2.859971
1.214359 -0.401852 -2.828925
1.510772 -0.028788 -2.727526
-1.214359 -0.401852 -2.828925
-1.510772 -0.028788 -2.727526
0.774166 -0.318440 -2.979509
-0.774166 -0.318440 -2.979509
0.500373 0.024545 -3.073166
-0.500373 0.024545 -3.073166
0.470041 0.480164 -3.083541
-0.470041 0.480164 -3.083541
0.690639 0.817600 -3.008080
-0.690639 0.817600 -3.008080
1.408788 0.640971 -4.367654
1.620886 0.393771 -4.254112
1.677776 0.392033 -4.604789
1.454884 0.590560 -4.640200
-1.677776 0.392033 -4.604789
-1.620886 0.393771 -4.254112
-1.408788 0.640971 -4.367654
-1.454884 0.590560 -4.640200
1.641160 0.059682 -4.200051
1.710987 0.092049 -4.689803
-1.710987 0.092049 -4.689803
-1.641160 0.059682 -4.200051
1.172570 -0.139689 -4.268290
0.989317 0.073650 -4.345605
1.104547 0.152791 -4.774565
1.304741 -0.052121 -4.802955
-1.104547 0.152791 -4.774565
-0.989317 0.073650 -4.345605
-1.172570 -0.139689 -4.268290
-1.304741 -0.052121 -4.802955
0.973314 0.358743 -4.411298
1.075305 0.412083 -4.736188
-1.075305 0.412083 -4.736188
-0.973314 0.358743 -4.411298
1.127289 0.591909 -4.428484
1.197548 0.575401 -4.696282
-1.197548 0.575401 -4.696282
-1.127289 0.591909 -4.428484
2.811681 0.121421 -1.967472
2.852648 0.188542 -1.850503
2.933600 0.186875 -1.953670
2.872604 0.164653 -2.013727
-2.933600 0.186875 -1.953670
-2.852648 0.188542 -1.850503
-2.811681 0.121421 -1.967472
-2.872604 0.164653 -2.013727
2.939350 0.066544 -2.025257
3.022034 0.095512 -1.924853
2.940158 0.094386 -1.822184
2.870216 0.024221 -1.978691
-2.940158 0.094386 -1.822184
-3.022034 0.095512 -1.924853
-2.939350 0.066544 -2.025257
-2.870216 0.024221 -1.978691
2.856111 0.159494 -2.039485
2.868860 0.099321 -2.194044
2.840916 0.080981 -2.206893
2.785881 0.110930 -2.012746
-2.840916 0.080981 -2.206893
-2.868860 0.099321 -2.194044
-2.856111 0.159494 -2.039485
-2.785881 0.110930 -2.012746
2.847417 0.004841 -2.028128
2.878420 0.021061 -2.204974
2.908578 0.040837 -2.190653
2.927979 0.054127 -2.054903
-2.908578 0.040837 -2.190653
-2.878420 0.021061 -2.204974
-2.847417 0.004841 -2.028128
-2.927979 0.054127 -2.054903
2.890555 0.378238 -1.614819
2.961984 0.376557 -1.794190
2.942691 0.305316 -1.834781
2.878420 0.260533 -1.760345
-2.942691 0.305316 -1.834781
-2.961984 0.376557 -1.794190
-2.890555 0.378238 -1.614819
-2.878420 0.260533 -1.760345
3.018931 0.252885 -1.979745
2.966955 0.218246 -1.940344
-2.966955 0.218246 -1.940344
-3.018931 0.252885 -1.979745
3.036247 0.357256 -1.942234
-3.036247 0.357256 -1.942234
3.087041 0.138412 -1.882552
3.159104 0.191298 -1.904016
3.109371 0.284450 -1.590980
3.016320 0.167640 -1.708058
-3.109371 0.284450 -1.590980
-3.159104 0.191298 -1.904016
-3.087041 0.138412 -1.882552
-3.016320 0.167640 -1.708058
3.180417 0.662883 -2.337095
3.159703 0.658777 -2.380450
3.141254 0.727356 -2.378177
3.162430 0.734542 -2.334202
-3.141254 0.727356 -2.378177
-3.159703 0.658777 -2.380450
-3.180417 0.662883 -2.337095
-3.162430 0.734542 -2.334202
3.090684 0.706187 -2.307225
3.077885 0.700076 -2.336121
3.101709 0.629679 -2.344144
3.114876 0.632926 -2.315767
-3.101709 0.629679 -2.344144
-3.077885 0.700076 -2.336121
-3.090684 0.706187 -2.307225
-3.114876 0.632926 -2.315767
3.122589 0.648979 -2.438646
3.103397 0.710920 -2.437556
-3.103397 0.710920 -2.437556
-3.122589 0.648979 -2.438646
3.103895 0.642356 -2.465658
3.084234 0.701317 -2.465168
-3.084234 0.701317 -2.465168
-3.103895 0.642356 -2.465658
3.050583 0.687717 -2.400377
3.073404 0.623554 -2.407405
-3.073404 0.623554 -2.407405
-3.050583 0.687717 -2.400377
3.038751 0.681281 -2.427145
3.061197 0.619997 -2.433638
-3.061197 0.619997 -2.433638
-3.038751 0.681281 -2.427145
3.020843 0.591007 -2.568227
3.002228 0.636057 -2.567851
-3.002228 0.636057 -2.567851
-3.020843 0.591007 -2.568227
2.970613 0.620055 -2.510940
2.986998 0.578900 -2.513357
-2.986998 0.578900 -2.513357
-2.970613 0.620055 -2.510940
3.244471 0.612241 -2.172240
3.202567 0.641663 -2.220602
3.181658 0.728791 -2.213575
3.192653 0.726317 -2.153777
-3.181658 0.728791 -2.213575
-3.202567 0.641663 -2.220602
-3.244471 0.612241 -2.172240
-3.192653 0.726317 -2.153777
3.091810 0.700711 -2.172651
3.090807 0.701692 -2.213589
3.117676 0.613821 -2.225335
3.128195 0.588431 -2.193228
-3.117676 0.613821 -2.225335
-3.090807 0.701692 -2.213589
-3.091810 0.700711 -2.172651
-3.128195 0.588431 -2.193228
3.143981 0.564189 -2.240833
3.166939 0.470070 -2.249260
3.159565 0.451686 -2.204462
-3.166939 0.470070 -2.249260
-3.143981 0.564189 -2.240833
-3.159565 0.451686 -2.204462
3.289312 0.443317 -2.183964
3.276419 0.479088 -2.249635
3.256975 0.589319 -2.242218
-3.256975 0.589319 -2.242218
-3.276419 0.479088 -2.249635
-3.289312 0.443317 -2.183964
3.084263 0.537472 -2.527880
2.999025 0.488706 -2.616386
3.008607 0.438670 -2.616617
3.097243 0.456838 -2.532953
-3.008607 0.438670 -2.616617
-2.999025 0.488706 -2.616386
-3.084263 0.537472 -2.527880
-3.097243 0.456838 -2.532953
3.156506 0.471643 -2.571596
3.049407 0.441895 -2.678544
3.038635 0.495200 -2.680535
3.146694 0.548345 -2.573797
-3.038635 0.495200 -2.680535
-3.049407 0.441895 -2.678544
-3.156506 0.471643 -2.571596
-3.146694 0.548345 -2.573797
3.098750 0.544449 -2.494309
3.111536 0.460164 -2.499944
-3.098750 0.544449 -2.494309
-3.111536 0.460164 -2.499944
3.131449 0.557674 -2.413667
3.144003 0.465481 -2.420320
-3.131449 0.557674 -2.413667
-3.144003 0.465481 -2.420320
3.179392 0.477227 -2.537440
3.170828 0.557501 -2.538963
-3.179392 0.477227 -2.537440
-3.170828 0.557501 -2.538963
3.223779 0.484550 -2.463884
3.217653 0.572840 -2.464100
-3.223779 0.484550 -2.463884
-3.217653 0.572840 -2.464100
3.146961 0.564081 -2.377152
3.159479 0.468620 -2.384317
-3.159479 0.468620 -2.384317
-3.146961 0.564081 -2.377152
3.247869 0.487927 -2.409144
3.242754 0.579874 -2.408602
-3.242754 0.579874 -2.408602
-3.247869 0.487927 -2.409144
3.236975 0.269645 -2.412997
3.208368 0.262921 -2.469713
3.217184 0.356968 -2.481589
3.247754 0.367278 -2.424678
-3.217184 0.356968 -2.481589
-3.208368 0.262921 -2.469713
-3.236975 0.269645 -2.412997
-3.247754 0.367278 -2.424678
3.150525 0.384248 -2.387917
3.131117 0.375171 -2.425125
3.127654 0.273938 -2.420031
3.146268 0.279537 -2.382852
-3.127654 0.273938 -2.420031
-3.131117 0.375171 -2.425125
-3.150525 0.384248 -2.387917
-3.146268 0.279537 -2.382852
3.157062 0.254602 -2.545218
3.161968 0.340756 -2.557310
-3.161968 0.340756 -2.557310
-3.157062 0.254602 -2.545218
3.130576 0.249140 -2.579944
3.133563 0.331795 -2.592245
-3.133563 0.331795 -2.592245
-3.130576 0.249140 -2.579944
3.090121 0.356059 -2.507469
3.088296 0.263202 -2.502412
-3.088296 0.263202 -2.502412
-3.090121 0.356059 -2.507469
3.071918 0.346831 -2.541545
3.070951 0.257820 -2.536401
-3.070951 0.257820 -2.536401
-3.071918 0.346831 -2.541545
3.021247 0.250562 -2.684864
3.032164 0.302762 -2.678926
-3.032164 0.302762 -2.678926
-3.021247 0.250562 -2.684864
2.977618 0.319378 -2.626451
2.978065 0.266175 -2.619684
-2.978065 0.266175 -2.619684
-2.977618 0.319378 -2.626451
3.267617 0.282307 -2.167326
3.261859 0.292387 -2.236605
3.280654 0.405734 -2.248192
-3.280654 0.405734 -2.248192
-3.261859 0.292387 -2.236605
-3.267617 0.282307 -2.167326
3.161478 0.422047 -2.245183
3.155388 0.318231 -2.238084
3.143909 0.309270 -2.191475
-3.155388 0.318231 -2.238084
-3.161478 0.422047 -2.245183
-3.143909 0.309270 -2.191475
3.272061 0.446311 -1.896051
3.222689 0.297286 -1.894767
-3.222689 0.297286 -1.894767
-3.272061 0.446311 -1.896051
3.222877 0.159112 -2.142550
-3.222877 0.159112 -2.142550
3.169204 0.712298 -1.842451
3.234709 0.606793 -1.886751
-3.234709 0.606793 -1.886751
-3.169204 0.712298 -1.842451
3.053736 0.480495 -1.924839
3.058722 0.605747 -1.910062
-3.058722 0.605747 -1.910062
-3.053736 0.480495 -1.924839
3.056211 0.722478 -1.866722
-3.056211 0.722478 -1.866722
3.114385 0.181507 -2.170487
-3.114385 0.181507 -2.170487
3.134905 0.274010 -2.223236
3.110937 0.169321 -2.210934
-3.110937 0.169321 -2.210934
-3.134905 0.274010 -2.223236
3.209609 0.143066 -2.204996
3.242465 0.243902 -2.221280
-3.242465 0.243902 -2.221280
-3.209609 0.143066 -2.204996
3.040230 0.195230 -2.484309
2.950072 0.190764 -2.567159
2.944083 0.141183 -2.557353
3.028866 0.114004 -2.473833
-2.944083 0.141183 -2.557353
-2.950072 0.190764 -2.567159
-3.040230 0.195230 -2.484309
-3.028866 0.114004 -2.473833
3.082048 0.092943 -2.514056
2.975865 0.114567 -2.617844
2.984249 0.167409 -2.630585
3.094479 0.167445 -2.530507
-2.984249 0.167409 -2.630585
-2.975865 0.114567 -2.617844
-3.082048 0.092943 -2.514056
-3.094479 0.167445 -2.530507
3.058159 0.203599 -2.453328
3.045547 0.118968 -2.442801
-3.058159 0.203599 -2.453328
-3.045547 0.118968 -2.442801
3.098411 0.221413 -2.377990
3.083274 0.129307 -2.367355
-3.098411 0.221413 -2.377990
-3.083274 0.129307 -2.367355
3.107105 0.096594 -2.482368
3.121730 0.174032 -2.498616
-3.107105 0.096594 -2.482368
-3.121730 0.174032 -2.498616
3.155424 0.102258 -2.413184
3.174609 0.186399 -2.429194
-3.155424 0.102258 -2.413184
-3.174609 0.186399 -2.429194
3.117495 0.229739 -2.344065
3.101081 0.134357 -2.333473
-3.101081 0.134357 -2.333473
-3.117495 0.229739 -2.344065
3.182704 0.108585 -2.361164
3.204139 0.195749 -2.376987
-3.204139 0.195749 -2.376987
-3.182704 0.108585 -2.361164
3.200633 0.317444 -1.738996
3.242069 0.448952 -1.739991
3.198007 0.447696 -1.561969
-3.242069 0.448952 -1.739991
-3.200633 0.317444 -1.738996
-3.198007 0.447696 -1.561969
3.182394 0.618034 -1.601161
3.224298 0.579391 -1.753786
-3.224298 0.579391 -1.753786
-3.182394 0.618034 -1.601161
2.983261 0.660437 -1.635764
3.016817 0.603042 -1.781239
2.988866 0.494832 -1.779681
2.907438 0.528699 -1.618578
-2.988866 0.494832 -1.779681
-3.016817 0.603042 -1.781239
-2.983261 0.660437 -1.635764
-2.907438 0.528699 -1.618578
2.879892 0.141716 -1.816318
2.828052 0.064964 -1.963865
-2.828052 0.064964 -1.963865
-2.879892 0.141716 -1.816318
2.993239 0.141493 -1.959406
2.918247 0.124429 -2.028597
-2.918247 0.124429 -2.028597
-2.993239 0.141493 -1.959406
2.891010 0.071082 -2.195530
2.906407 0.116919 -2.052363
-2.906407 0.116919 -2.052363
-2.891010 0.071082 -2.195530
2.857439 0.049047 -2.211670
2.801616 0.048824 -2.015127
-2.801616 0.048824 -2.015127
-2.857439 0.049047 -2.211670
3.093534 0.198051 -1.980646
3.041312 0.172019 -1.944651
-3.041312 0.172019 -1.944651
-3.093534 0.198051 -1.980646
2.958874 0.294897 -1.591774
2.926948 0.213029 -1.701009
-2.926948 0.213029 -1.701009
-2.958874 0.294897 -1.591774
2.976212 0.630827 -2.541459
2.998289 0.575632 -2.543789
-2.998289 0.575632 -2.543789
-2.976212 0.630827 -2.541459
3.105136 0.727132 -2.355926
3.122091 0.734296 -2.319462
-3.122091 0.734296 -2.319462
-3.105136 0.727132 -2.355926
3.134530 0.630531 -2.363134
3.151427 0.633684 -2.327434
-3.151427 0.633684 -2.327434
-3.134530 0.630531 -2.363134
3.072639 0.711403 -2.417989
-3.072639 0.711403 -2.417989
3.057171 0.702882 -2.445283
-3.057171 0.702882 -2.445283
3.101839 0.623943 -2.423660
-3.101839 0.623943 -2.423660
3.086420 0.619376 -2.450182
-3.086420 0.619376 -2.450182
3.131355 0.731973 -2.211822
3.134197 0.732392 -2.160703
-3.134197 0.732392 -2.160703
-3.131355 0.731973 -2.211822
3.163613 0.612183 -2.225198
3.186044 0.603763 -2.193070
-3.186044 0.603763 -2.193070
-3.163613 0.612183 -2.225198
3.225200 0.456650 -2.251670
3.230590 0.446571 -2.207723
-3.230590 0.446571 -2.207723
-3.225200 0.456650 -2.251670
3.196290 0.594651 -2.240717
-3.196290 0.594651 -2.240717
3.021348 0.431246 -2.651090
3.128787 0.448879 -2.552375
-3.128787 0.448879 -2.552375
-3.021348 0.431246 -2.651090
3.009003 0.496729 -2.651898
3.112942 0.558143 -2.550319
-3.112942 0.558143 -2.550319
-3.009003 0.496729 -2.651898
3.147213 0.452689 -2.518905
-3.147213 0.452689 -2.518905
3.185308 0.457321 -2.442527
-3.185308 0.457321 -2.442527
3.132336 0.566830 -2.516012
-3.132336 0.566830 -2.516012
3.172307 0.582782 -2.437996
-3.172307 0.582782 -2.437996
3.204933 0.459954 -2.397362
-3.204933 0.459954 -2.397362
3.192675 0.590120 -2.391965
-3.192675 0.590120 -2.391965
2.992193 0.319818 -2.666025
2.987712 0.250446 -2.656437
-2.987712 0.250446 -2.656437
-2.992193 0.319818 -2.666025
3.174933 0.385207 -2.454720
3.200106 0.395525 -2.407729
-3.200106 0.395525 -2.407729
-3.174933 0.385207 -2.454720
3.166398 0.249443 -2.442989
3.189717 0.254970 -2.396157
-3.189717 0.254970 -2.396157
-3.166398 0.249443 -2.442989
3.126312 0.365813 -2.533797
-3.126312 0.365813 -2.533797
3.102813 0.356066 -2.568327
-3.102813 0.356066 -2.568327
3.121701 0.241615 -2.521943
-3.121701 0.241615 -2.521943
3.100071 0.236839 -2.556278
-3.100071 0.236839 -2.556278
3.223072 0.433107 -2.249087
-3.223072 0.433107 -2.249087
3.206116 0.286045 -2.236367
3.208180 0.292553 -2.189715
-3.208180 0.292553 -2.189715
-3.206116 0.286045 -2.236367
3.161550 0.148773 -2.153337
-3.161550 0.148773 -2.153337
3.107206 0.740566 -1.848310
-3.107206 0.740566 -1.848310
3.154277 0.136493 -2.205306
-3.154277 0.136493 -2.205306
3.193396 0.277336 -2.225335
-3.193396 0.277336 -2.225335
2.949661 0.122402 -2.588176
3.052871 0.088448 -2.491142
-3.052871 0.088448 -2.491142
-2.949661 0.122402 -2.588176
2.959307 0.186579 -2.603544
3.069393 0.196608 -2.509785
-3.069393 0.196608 -2.509785
-2.959307 0.186579 -2.603544
3.073404 0.092200 -2.459785
-3.073404 0.092200 -2.459785
3.115626 0.098730 -2.387463
-3.115626 0.098730 -2.387463
3.092242 0.204660 -2.478335
-3.092242 0.204660 -2.478335
3.139486 0.221269 -2.405919
-3.139486 0.221269 -2.405919
3.137820 0.103860 -2.344620
-3.137820 0.103860 -2.344620
3.164046 0.230655 -2.362917
-3.164046 0.230655 -2.362917
3.087964 0.695913 -1.613008
-3.087964 0.695913 -1.613008
3.071528 0.346052 -1.433312
3.143714 0.448612 -1.411530
-3.071528 0.346052 -1.433312
-3.143714 0.448612 -1.411530
3.136853 0.574716 -1.429156
-3.136853 0.574716 -1.429156
3.062466 0.645790 -1.459596
-3.062466 0.645790 -1.459596
2.970642 0.620170 -1.495627
-2.970642 0.620170 -1.495627
2.964848 0.354392 -1.473874
-2.964848 0.354392 -1.473874
2.909617 0.423908 -1.497352
-2.909617 0.423908 -1.497352
2.914473 0.531159 -1.506132
-2.914473 0.531159 -1.506132
0.601498 1.158537 -1.217382
-0.601498 1.158537 -1.217382
0.578525 0.886987 -0.834671
-0.578525 0.886987 -0.834671
0.000000 -0.567400 0.927542
0.502530 -0.546953 0.874188
0.552948 -0.593713 0.947520
0.000000 -0.565509 1.067036
-0.552948 -0.593713 0.947520
-0.502530 -0.546953 0.874188
0.203606 0.999865 0.884050
0.000000 0.874685 0.884050
0.000000 1.038306 1.308846
0.297300 1.228753 1.314503
-0.203606 0.999865 0.884050
-0.297300 1.228753 1.314503
0.000000 -0.548489 1.648837
0.547522 -0.570733 1.684587
0.415828 -0.219984 2.118315
0.000000 -0.322257 1.920329
-0.415828 -0.219984 2.118315
-0.547522 -0.570733 1.684587
0.435423 1.246646 1.735929
0.000000 1.070954 1.724061
0.000000 0.956323 2.092680
0.338873 1.126574 2.125393
-0.435423 1.246646 1.735929
-0.338873 1.126574 2.125393
0.146327 0.591808 2.754553
0.000000 0.643164 2.730917
0.000000 0.608395 2.982460
0.147799 0.561851 2.964249
-0.146327 0.591808 2.754553
-0.147799 0.561851 2.964249
0.226709 0.313996 4.253376
0.000000 0.315806 4.281024
0.000000 -0.111060 4.271349
0.225475 -0.073766 4.244805
-0.226709 0.313996 4.253376
-0.225475 -0.073766 4.244805
0.190684 0.621404 4.113479
0.000000 0.652132 4.123522
-0.190684 0.621404 4.113479
0.315518 -0.460128 -1.125557
0.000000 -0.492277 -1.125557
0.000000 -0.357228 -1.601615
0.244054 -0.337841 -1.614256
-0.315518 -0.460128 -1.125557
-0.244054 -0.337841 -1.614256
0.000000 0.032236 -2.044889
0.121781 0.051890 -2.014629
-0.121781 0.051890 -2.014629
0.000000 0.396867 -2.148185
0.090310 0.409789 -2.141742
-0.090310 0.409789 -2.141742
0.000000 0.740516 -2.033366
0.117359 0.756930 -2.030906
-0.117359 0.756930 -2.030906
0.000000 0.971344 -1.753505
0.219357 1.114864 -1.805655
-0.219357 1.114864 -1.805655
0.000000 1.006402 -1.246480
0.233505 1.209871 -1.246364
-0.233505 1.209871 -1.246364
0.000000 0.922687 -0.917824
0.278621 0.949108 -0.881287
-0.278621 0.949108 -0.881287
0.168563 -0.131074 2.615723
0.177200 -0.463865 2.577714
-0.168563 -0.131074 2.615723
-0.177200 -0.463865 2.577714
0.430337 0.278455 4.120160
0.428028 -0.010923 4.113551
-0.430337 0.278455 4.120160
-0.428028 -0.010923 4.113551
0.377199 0.486542 4.040636
-0.377199 0.486542 4.040636
0.548020 0.249674 3.537529
0.546859 0.258621 3.889035
0.551087 0.073492 3.884756
0.542494 0.147575 3.519131
-0.551087 0.073492 3.884756
-0.546859 0.258621 3.889035
-0.548020 0.249674 3.537529
-0.542494 0.147575 3.519131
0.487075 0.608410 3.562464
0.440258 0.561440 3.869584
-0.440258 0.561440 3.869584
-0.487075 0.608410 3.562464
0.000000 0.874837 3.676482
0.000000 0.799375 3.910738
0.204674 0.778005 3.891770
0.205785 0.855046 3.645818
-0.204674 0.778005 3.891770
-0.205785 0.855046 3.645818
0.469305 0.575661 3.207155
0.481037 0.597392 3.377068
0.549687 0.327531 3.355026
0.510748 0.241824 3.163721
-0.549687 0.327531 3.355026
-0.481037 0.597392 3.377068
-0.469305 0.575661 3.207155
-0.510748 0.241824 3.163721
0.204544 0.832427 3.450343
0.000000 0.860573 3.461909
-0.204544 0.832427 3.450343
0.203513 0.813668 3.288180
0.000000 0.848733 3.301722
-0.203513 0.813668 3.288180
0.451426 0.240663 3.018109
0.487588 0.161709 3.004169
-0.487588 0.161709 3.004169
-0.451426 0.240663 3.018109
0.511368 0.153679 3.190049
-0.511368 0.153679 3.190049
0.413418 0.495207 3.081839
-0.413418 0.495207 3.081839
0.170519 0.688243 3.123252
0.000000 0.720624 3.134306
-0.170519 0.688243 3.123252
0.307250 -0.413706 2.946767
0.252733 -0.470459 3.047308
0.210583 -0.505106 2.977842
0.246355 -0.469998 2.936378
-0.210583 -0.505106 2.977842
-0.252733 -0.470459 3.047308
-0.307250 -0.413706 2.946767
-0.246355 -0.469998 2.936378
0.255561 -0.412429 2.846869
0.210288 -0.495142 2.904646
-0.255561 -0.412429 2.846869
-0.210288 -0.495142 2.904646
0.136053 -0.557299 2.737988
0.136753 -0.556765 2.856104
-0.136053 -0.557299 2.737988
-0.136753 -0.556765 2.856104
0.058874 -0.586325 3.121131
0.000000 -0.609961 3.096023
0.000000 -0.605935 3.031211
0.053607 -0.591505 3.034876
-0.058874 -0.586325 3.121131
-0.053607 -0.591505 3.034876
0.557443 0.364551 3.230763
0.620495 0.428815 3.446072
0.650531 0.411001 3.443886
0.597428 0.347524 3.225409
-0.650531 0.411001 3.443886
-0.620495 0.428815 3.446072
-0.557443 0.364551 3.230763
-0.597428 0.347524 3.225409
0.566736 0.339356 3.374398
0.527335 0.291052 3.155330
-0.527335 0.291052 3.155330
-0.566736 0.339356 3.374398
0.568417 0.265872 3.557392
-0.568417 0.265872 3.557392
0.600985 0.322805 3.549073
-0.600985 0.322805 3.549073
0.566346 0.235468 3.149565
-0.566346 0.235468 3.149565
0.603742 0.243209 3.550898
-0.603742 0.243209 3.550898
1.564321 0.978227 -5.113777
1.254900 0.961633 -5.179757
-1.254900 0.961633 -5.179757
-1.564321 0.978227 -5.113777
1.673765 1.173472 -5.587353
1.312244 1.155441 -5.663225
-1.312244 1.155441 -5.663225
-1.673765 1.173472 -5.587353
1.097144 0.673467 -5.234973
-1.097144 0.673467 -5.234973
1.118984 0.884346 -5.733759
-1.118984 0.884346 -5.733759
1.124944 0.364313 -5.275572
-1.124944 0.364313 -5.275572
1.145341 0.525329 -5.776572
-1.145341 0.525329 -5.776572
1.344286 0.129191 -5.288003
-1.344286 0.129191 -5.288003
1.406407 0.255006 -5.770873
-1.406407 0.255006 -5.770873
1.789284 0.185115 -5.706471
1.669479 0.064610 -5.242859
-1.789284 0.185115 -5.706471
-1.669479 0.064610 -5.242859
1.864392 0.296023 -5.155292
1.815460 0.698813 -5.086092
-1.815460 0.698813 -5.086092
-1.864392 0.296023 -5.155292
2.017797 0.449500 -5.620780
1.953143 0.855717 -5.567396
-1.953143 0.855717 -5.567396
-2.017797 0.449500 -5.620780
1.286097 0.853452 -3.613170
0.867276 0.786006 -3.736446
-0.867276 0.786006 -3.736446
-1.286097 0.853452 -3.613170
0.647940 0.451823 -3.772095
-0.647940 0.451823 -3.772095
0.675184 0.017366 -3.728827
-0.675184 0.017366 -3.728827
0.942989 -0.308959 -3.628972
-0.942989 -0.308959 -3.628972
1.367922 -0.383389 -3.502601
-1.367922 -0.383389 -3.502601
1.387388 -0.182813 -4.006769
-1.387388 -0.182813 -4.006769
1.649703 -0.022547 -3.439117
1.596990 0.571101 -3.483712
-1.596990 0.571101 -3.483712
-1.649703 -0.022547 -3.439117
1.698923 0.059372 -4.945473
1.597568 -0.029430 -5.049253
-1.698923 0.059372 -4.945473
-1.597568 -0.029430 -5.049253
1.456926 -0.020815 -5.007139
-1.456926 -0.020815 -5.007139
1.650388 -0.030620 -4.708591
-1.650388 -0.030620 -4.708591
1.379344 -0.128556 -4.775589
-1.379344 -0.128556 -4.775589
1.366797 -0.178845 -4.524789
-1.366797 -0.178845 -4.524789
1.588166 -0.088881 -4.485554
-1.588166 -0.088881 -4.485554
1.469834 -0.183441 -4.419545
-1.469834 -0.183441 -4.419545
1.525144 -0.119581 -4.743324
-1.525144 -0.119581 -4.743324
0.833610 -0.005750 0.036767
1.001727 0.093686 0.486505
0.616743 -0.144480 0.465366
0.656267 -0.223311 0.134271
-0.616743 -0.144480 0.465366
-1.001727 0.093686 0.486505
-0.833610 -0.005750 0.036767
-0.656267 -0.223311 0.134271
0.564283 0.690018 -0.100230
0.703647 0.757096 0.391910
1.028249 0.634701 0.452090
0.821966 0.480589 -0.058997
-1.028249 0.634701 0.452090
-0.703647 0.757096 0.391910
-0.564283 0.690018 -0.100230
-0.821966 0.480589 -0.058997
0.000000 0.720739 -0.125266
0.000000 0.785768 0.379392
0.295785 0.859289 0.528930
0.131103 0.802492 -0.122373
-0.295785 0.859289 0.528930
-0.131103 0.802492 -0.122373
0.391427 -0.444413 0.259674
0.383389 -0.413216 0.628402
0.000000 -0.498872 0.711728
0.000000 -0.497378 0.323375
-0.383389 -0.413216 0.628402
-0.391427 -0.444413 0.259674
0.865926 0.264465 2.320529
0.719939 0.000317 2.160501
-0.719939 0.000317 2.160501
-0.865926 0.264465 2.320529
0.567169 0.263577 2.470291
0.470560 0.055259 2.381503
-0.470560 0.055259 2.381503
-0.567169 0.263577 2.470291
0.864440 0.503778 2.368855
-0.864440 0.503778 2.368855
0.563460 0.431607 2.536654
-0.563460 0.431607 2.536654
0.566224 0.899967 2.362881
-0.566224 0.899967 2.362881
0.481404 0.680263 2.557527
-0.481404 0.680263 2.557527
0.000000 0.864938 2.287398
0.277553 0.990305 2.350811
-0.277553 0.990305 2.350811
0.000000 0.756194 2.451351
0.186089 0.843892 2.494439
-0.186089 0.843892 2.494439
0.389623 -0.105872 2.143532
-0.389623 -0.105872 2.143532
0.265547 -0.067496 2.325161
-0.265547 -0.067496 2.325161
0.000000 -0.166356 2.600016
0.084285 -0.131904 2.610975
0.088600 -0.486888 2.556755
0.000000 -0.498497 2.555773
-0.088600 -0.486888 2.556755
-0.084285 -0.131904 2.610975
0.000000 -0.580589 2.742216
0.068420 -0.566693 2.748052
0.066118 -0.580098 2.846493
0.000000 -0.595351 2.852937
-0.066118 -0.580098 2.846493
-0.068420 -0.566693 2.748052
0.131312 -0.066320 2.260256
0.188845 -0.145670 2.133402
-0.188845 -0.145670 2.133402
-0.131312 -0.066320 2.260256
0.000000 -0.026926 2.255111
0.000000 -0.056436 2.052024
0.000000 -0.228729 1.971916
0.175944 -0.199328 2.060682
-0.175944 -0.199328 2.060682
0.448822 0.236124 2.599857
0.367920 0.042172 2.526206
-0.367920 0.042172 2.526206
-0.448822 0.236124 2.599857
0.444724 0.346427 2.656466
-0.444724 0.346427 2.656466
0.390554 0.564333 2.667360
-0.390554 0.564333 2.667360
0.000000 0.697608 2.606516
0.166154 0.711057 2.616992
-0.166154 0.711057 2.616992
0.217055 -0.067619 2.458429
-0.217055 -0.067619 2.458429
0.107799 -0.053246 2.448718
0.000000 -0.134155 2.431366
-0.107799 -0.053246 2.448718
0.151572 -0.574600 2.674792
0.298101 -0.368772 2.818283
-0.298101 -0.368772 2.818283
-0.151572 -0.574600 2.674792
0.076248 -0.607291 2.669481
0.000000 -0.603691 2.667245
-0.076248 -0.607291 2.669481
0.182452 -0.535870 3.099176
0.161558 -0.543172 3.017957
-0.161558 -0.543172 3.017957
-0.182452 -0.535870 3.099176
0.000000 -0.618539 3.466952
0.039076 -0.576563 3.467414
0.035967 -0.601195 3.536454
0.000000 -0.632060 3.533849
-0.035967 -0.601195 3.536454
-0.039076 -0.576563 3.467414
0.000000 -0.640538 3.625645
0.129004 -0.633929 3.633604
-0.129004 -0.633929 3.633604
0.000000 -0.641743 3.384680
0.040498 -0.609716 3.380712
-0.040498 -0.609716 3.380712
0.000000 -0.716923 3.264738
0.045245 -0.690437 3.257473
0.045923 -0.647919 3.307480
0.000000 -0.678568 3.321794
-0.045923 -0.647919 3.307480
-0.045245 -0.690437 3.257473
0.063896 -0.659780 3.235142
0.089437 -0.599275 3.263122
-0.089437 -0.599275 3.263122
-0.063896 -0.659780 3.235142
0.000000 -0.368692 4.161963
0.197632 -0.324594 4.139156
-0.197632 -0.324594 4.139156
0.000000 -0.613236 3.912938
0.169797 -0.533966 3.904771
-0.169797 -0.533966 3.904771
0.396448 -0.231348 4.024713
-0.396448 -0.231348 4.024713
0.364868 -0.436506 3.868234
-0.364868 -0.436506 3.868234
0.527046 -0.147416 3.846445
0.538699 0.002352 3.506461
-0.538699 0.002352 3.506461
-0.527046 -0.147416 3.846445
0.503006 -0.302870 3.740501
0.534896 -0.206327 3.493785
-0.534896 -0.206327 3.493785
-0.503006 -0.302870 3.740501
0.508035 0.010267 3.331996
0.531815 0.084076 3.344283
-0.508035 0.010267 3.331996
-0.531815 0.084076 3.344283
0.484247 -0.192791 3.319702
-0.484247 -0.192791 3.319702
0.164386 -0.531469 2.590290
0.311189 -0.295807 2.713565
-0.311189 -0.295807 2.713565
-0.164386 -0.531469 2.590290
0.407761 -0.075916 2.851241
-0.407761 -0.075916 2.851241
0.380640 -0.264717 2.885880
-0.380640 -0.264717 2.885880
0.082424 -0.554283 2.568219
0.000000 -0.565675 2.566084
-0.082424 -0.554283 2.568219
0.456902 0.018643 3.155374
-0.456902 0.018643 3.155374
0.461866 -0.002092 3.019220
-0.461866 -0.002092 3.019220
0.436138 -0.247098 3.034270
-0.436138 -0.247098 3.034270
0.071039 -0.553496 3.470227
0.068311 -0.580019 3.378735
-0.071039 -0.553496 3.470227
-0.068311 -0.580019 3.378735
0.107041 -0.563107 3.141283
0.108910 -0.570675 3.041990
-0.108910 -0.570675 3.041990
-0.107041 -0.563107 3.141283
0.091681 -0.663409 3.225893
0.114480 -0.621765 3.235741
-0.114480 -0.621765 3.235741
-0.091681 -0.663409 3.225893
0.050635 -0.733690 3.215344
-0.050635 -0.733690 3.215344
0.000000 -0.763099 3.215446
0.000000 -0.720256 3.123945
0.000000 -0.664852 3.117704
0.024120 -0.653568 3.131708
0.030281 -0.678294 3.138490
-0.024120 -0.653568 3.131708
-0.030281 -0.678294 3.138490
0.035137 -0.623850 3.120273
-0.035137 -0.623850 3.120273
0.120403 -0.620271 3.152199
0.107041 -0.656497 3.151911
0.083181 -0.649261 3.154313
0.092525 -0.624261 3.153274
-0.083181 -0.649261 3.154313
-0.107041 -0.656497 3.151911
-0.120403 -0.620271 3.152199
-0.092525 -0.624261 3.153274
0.084372 -0.600350 3.144818
-0.084372 -0.600350 3.144818
0.046775 -0.696649 3.139219
0.054285 -0.670834 3.151528
-0.046775 -0.696649 3.139219
-0.054285 -0.670834 3.151528
0.054834 -0.606310 3.137351
-0.054834 -0.606310 3.137351
0.049776 -0.620069 3.176816
0.034935 -0.628561 3.166398
-0.049776 -0.620069 3.176816
-0.034935 -0.628561 3.166398
0.067323 -0.614968 3.177220
-0.067323 -0.614968 3.177220
0.049451 -0.652746 3.184529
0.066775 -0.643532 3.183151
-0.049451 -0.652746 3.184529
-0.066775 -0.643532 3.183151
0.034783 -0.659196 3.175597
-0.034783 -0.659196 3.175597
0.068383 -0.628792 3.185106
-0.068383 -0.628792 3.185106
0.032460 -0.644225 3.175561
-0.032460 -0.644225 3.175561
0.046537 -0.635321 3.197336
-0.046537 -0.635321 3.197336
0.390986 -0.473634 3.232761
0.317718 -0.469925 3.109696
0.399652 -0.321131 2.983506
-0.399652 -0.321131 2.983506
-0.317718 -0.469925 3.109696
-0.390986 -0.473634 3.232761
0.217777 -0.555012 3.264493
0.205821 -0.539377 3.173014
-0.205821 -0.539377 3.173014
-0.217777 -0.555012 3.264493
0.120490 -0.583835 3.203043
-0.120490 -0.583835 3.203043
0.130995 -0.615386 3.198209
0.112922 -0.659953 3.193144
-0.112922 -0.659953 3.193144
-0.130995 -0.615386 3.198209
0.051335 -0.723654 3.164854
-0.051335 -0.723654 3.164854
0.000000 -0.747399 3.155027
0.456902 -0.213570 3.155374
-0.456902 -0.213570 3.155374
0.336528 -0.530271 3.700991
-0.336528 -0.530271 3.700991
0.455784 -0.340337 3.478655
0.426830 -0.398533 3.384745
-0.426830 -0.398533 3.384745
-0.455784 -0.340337 3.478655
0.449687 -0.418714 3.635220
-0.449687 -0.418714 3.635220
0.349912 -0.493122 3.344103
-0.349912 -0.493122 3.344103
0.214328 -0.539896 3.351224
-0.214328 -0.539896 3.351224
0.125627 -0.596909 2.994970
0.163347 -0.556455 2.984400
-0.163347 -0.556455 2.984400
-0.125627 -0.596909 2.994970
0.068095 -0.626353 2.992351
-0.068095 -0.626353 2.992351
0.057936 -0.568208 2.947893
0.116183 -0.550748 2.947698
-0.116183 -0.550748 2.947698
-0.057936 -0.568208 2.947893
0.202106 -0.515005 2.962986
-0.202106 -0.515005 2.962986
0.070570 -0.608785 2.895231
0.000000 -0.618186 2.888153
-0.070570 -0.608785 2.895231
0.058961 -0.567580 2.947893
0.000000 -0.581296 2.943672
-0.058961 -0.567580 2.947893
0.135540 -0.582897 2.902236
-0.135540 -0.582897 2.902236
0.116883 -0.551491 2.947698
-0.116883 -0.551491 2.947698
0.202178 -0.512645 2.921508
-0.202178 -0.512645 2.921508
0.194068 -0.509730 2.942712
-0.194068 -0.509730 2.942712
0.000000 -0.611310 3.000324
0.000000 -0.582133 2.943672
0.192784 -0.510502 2.942712
-0.192784 -0.510502 2.942712
0.289941 -0.489998 3.582435
0.370258 -0.421181 3.541201
-0.370258 -0.421181 3.541201
-0.289941 -0.489998 3.582435
0.247192 -0.470986 3.518683
0.313635 -0.439587 3.506339
-0.313635 -0.439587 3.506339
-0.247192 -0.470986 3.518683
0.401672 -0.371492 3.480524
-0.401672 -0.371492 3.480524
0.344991 -0.411535 3.482399
-0.344991 -0.411535 3.482399
0.369111 -0.416982 3.423078
-0.369111 -0.416982 3.423078
0.311975 -0.439998 3.459658
-0.311975 -0.439998 3.459658
0.295460 -0.478800 3.393114
-0.295460 -0.478800 3.393114
0.246269 -0.469983 3.441628
-0.246269 -0.469983 3.441628
0.157907 -0.563071 3.559433
-0.157907 -0.563071 3.559433
0.186291 -0.501065 3.507572
-0.186291 -0.501065 3.507572
0.105367 -0.515098 3.471288
0.147806 -0.492357 3.461433
-0.147806 -0.492357 3.461433
-0.105367 -0.515098 3.471288
0.197690 -0.485452 3.444441
0.205533 -0.507212 3.398944
-0.205533 -0.507212 3.398944
-0.197690 -0.485452 3.444441
0.110389 -0.535755 3.414968
-0.110389 -0.535755 3.414968
0.091204 -0.582133 3.547940
-0.091204 -0.582133 3.547940
1.880640 0.232041 0.991820
2.078907 0.439810 1.127887
-2.078907 0.439810 1.127887
-1.880640 0.232041 0.991820
2.066050 0.261644 0.722846
2.252167 0.469702 0.873762
-2.252167 0.469702 0.873762
-2.066050 0.261644 0.722846
2.082630 0.767557 1.159568
-2.082630 0.767557 1.159568
2.252622 0.796937 0.905486
-2.252622 0.796937 0.905486
1.889334 1.006063 1.065969
-1.889334 1.006063 1.065969
2.014463 1.033451 0.829613
-2.014463 1.033451 0.829613
1.633693 1.032296 0.886431
-1.633693 1.032296 0.886431
1.825344 1.008400 0.596895
-1.825344 1.008400 0.596895
1.626045 0.301629 0.821764
-1.626045 0.301629 0.821764
1.824421 0.330929 0.531945
-1.824421 0.330929 0.531945
1.489884 0.516101 0.744383
-1.489884 0.516101 0.744383
1.693981 0.542219 0.443865
-1.693981 0.542219 0.443865
1.492958 0.828394 0.770285
-1.492958 0.828394 0.770285
1.694349 0.816157 0.469868
-1.694349 0.816157 0.469868
1.917819 0.740862 0.267286
1.917703 0.531945 0.257589
-1.917703 0.531945 0.257589
-1.917819 0.740862 0.267286
2.200364 0.655733 0.039581
2.200508 0.564557 0.046205
-2.200508 0.564557 0.046205
-2.200364 0.655733 0.039581
1.992349 0.914425 0.374789
-1.992349 0.914425 0.374789
2.165509 0.857175 0.170071
-2.165509 0.857175 0.170071
1.992097 0.359046 0.352293
-1.992097 0.359046 0.352293
2.224556 0.428266 0.152012
-2.224556 0.428266 0.152012
2.191230 0.310922 0.512083
-2.191230 0.310922 0.512083
2.316417 0.450315 0.301312
-2.316417 0.450315 0.301312
2.134635 0.947845 0.567710
-2.134635 0.947845 0.567710
2.344562 0.758358 0.637219
-2.344562 0.758358 0.637219
2.344440 0.488648 0.626223
-2.344440 0.488648 0.626223
2.436705 0.507595 0.378685
2.442650 0.756504 0.386347
-2.442650 0.756504 0.386347
-2.436705 0.507595 0.378685
2.451207 0.297228 0.104458
2.592368 0.475596 0.201276
-2.592368 0.475596 0.201276
-2.451207 0.297228 0.104458
2.592721 0.731057 0.186969
-2.592721 0.731057 0.186969
2.268791 0.327690 -0.057633
-2.268791 0.327690 -0.057633
2.203582 0.483360 -0.166969
-2.203582 0.483360 -0.166969
2.269534 0.849880 -0.086940
2.203899 0.677681 -0.178015
-2.203899 0.677681 -0.178015
-2.269534 0.849880 -0.086940
2.452051 0.897817 0.070837
2.302910 0.918401 0.135540
2.374692 0.928978 0.166009
-2.302910 0.918401 0.135540
-2.452051 0.897817 0.070837
-2.374692 0.928978 0.166009
2.415572 0.876431 0.223195
-2.415572 0.876431 0.223195
2.227196 0.952275 0.214696
-2.227196 0.952275 0.214696
2.383343 0.892550 0.337495
-2.383343 0.892550 0.337495
2.302802 0.892932 0.424796
2.239981 0.952989 0.404933
-2.302802 0.892932 0.424796
-2.239981 0.952989 0.404933
2.187947 0.941748 0.332343
-2.187947 0.941748 0.332343
2.308098 0.964627 0.281499
-2.308098 0.964627 0.281499
1.190174 -0.035498 1.460930
1.001121 -0.381730 1.357446
-1.001121 -0.381730 1.357446
-1.190174 -0.035498 1.460930
0.693445 1.291400 1.518542
1.168594 1.037470 1.573729
-1.168594 1.037470 1.573729
-0.693445 1.291400 1.518542
1.413968 0.013427 1.678981
1.617452 0.263036 1.865128
-1.617452 0.263036 1.865128
-1.413968 0.013427 1.678981
1.662416 0.682846 1.919925
-1.662416 0.682846 1.919925
1.445216 1.004288 1.714537
-1.445216 1.004288 1.714537
1.300989 1.020882 1.602726
-1.300989 1.020882 1.602726
1.287115 0.000765 1.492251
-1.287115 0.000765 1.492251
0.581202 -0.623287 1.258262
0.000000 -0.611267 1.272461
-0.581202 -0.623287 1.258262
0.358288 1.237858 1.529011
-0.358288 1.237858 1.529011
0.000000 1.054634 1.516450
0.620076 -0.150735 -0.169408
0.852023 0.005043 -0.178051
-0.852023 0.005043 -0.178051
-0.620076 -0.150735 -0.169408
0.660062 -0.242899 -0.656620
0.881042 0.011277 -0.573489
-0.881042 0.011277 -0.573489
-0.660062 -0.242899 -0.656620
0.818041 0.528958 -0.249876
-0.818041 0.528958 -0.249876
0.823351 0.586440 -0.537335
-0.823351 0.586440 -0.537335
0.582594 0.739260 -0.283837
-0.582594 0.739260 -0.283837
0.604946 0.802766 -0.564680
-0.604946 0.802766 -0.564680
0.356795 -0.425474 -0.588807
0.371160 -0.353880 -0.115216
0.000000 -0.422437 -0.081904
0.000000 -0.503829 -0.584420
-0.371160 -0.353880 -0.115216
-0.356795 -0.425474 -0.588807
0.000000 0.886179 -0.617031
0.000000 0.795335 -0.324897
0.200035 0.839144 -0.312105
0.301016 0.909743 -0.621837
-0.200035 0.839144 -0.312105
-0.301016 0.909743 -0.621837
0.247192 -0.463915 3.518683
0.313635 -0.432509 3.506339
-0.247192 -0.463915 3.518683
-0.313635 -0.432509 3.506339
0.344991 -0.404457 3.482399
-0.344991 -0.404457 3.482399
0.311975 -0.432927 3.459658
-0.311975 -0.432927 3.459658
0.246269 -0.462905 3.441628
-0.246269 -0.462905 3.441628
0.197690 -0.478374 3.444441
0.147806 -0.485286 3.461433
-0.147806 -0.485286 3.461433
-0.197690 -0.478374 3.444441
0.186291 -0.493987 3.507572
-0.186291 -0.493987 3.507572
2.656971 0.606339 -1.042239
2.798601 0.568554 -1.339517
2.796010 0.426556 -1.328500
2.656415 0.439341 -1.030962
-2.796010 0.426556 -1.328500
-2.798601 0.568554 -1.339517
-2.656971 0.606339 -1.042239
-2.656415 0.439341 -1.030962
2.744524 0.736814 -0.991503
2.874856 0.683532 -1.310780
-2.874856 0.683532 -1.310780
-2.744524 0.736814 -0.991503
2.874235 0.323541 -1.282865
2.744640 0.316788 -0.963494
-2.874235 0.323541 -1.282865
-2.744640 0.316788 -0.963494
3.021081 0.310482 -1.210261
2.905707 0.297848 -0.854404
-3.021081 0.310482 -1.210261
-2.905707 0.297848 -0.854404
2.904148 0.770891 -0.885400
3.012907 0.714960 -1.241473
-3.012907 0.714960 -1.241473
-2.904148 0.770891 -0.885400
3.023874 0.638575 -0.803452
3.119421 0.607443 -1.185340
-3.119421 0.607443 -1.185340
-3.023874 0.638575 -0.803452
3.024689 0.441722 -0.790212
3.124371 0.440907 -1.169388
-3.124371 0.440907 -1.169388
-3.024689 0.441722 -0.790212
2.764315 0.441376 0.023290
2.590643 0.224797 -0.092647
-2.590643 0.224797 -0.092647
-2.764315 0.441376 0.023290
2.765195 0.746194 0.004012
-2.765195 0.746194 0.004012
2.592772 0.947398 -0.138347
-2.592772 0.947398 -0.138347
2.367665 0.891128 -0.324854
-2.367665 0.891128 -0.324854
2.365883 0.258368 -0.284825
-2.365883 0.258368 -0.284825
2.244823 0.443317 -0.398995
-2.244823 0.443317 -0.398995
2.245580 0.694080 -0.414846
-2.245580 0.694080 -0.414846
2.873499 0.413923 -1.527582
2.877258 0.545271 -1.538520
-2.877258 0.545271 -1.538520
-2.873499 0.413923 -1.527582
2.948881 0.653828 -1.523932
-2.948881 0.653828 -1.523932
2.948636 0.320150 -1.495166
-2.948636 0.320150 -1.495166
3.091470 0.311348 -1.444538
-3.091470 0.311348 -1.444538
3.077070 0.684636 -1.477482
-3.077070 0.684636 -1.477482
3.179205 0.591202 -1.435382
-3.179205 0.591202 -1.435382
3.187956 0.438829 -1.416753
-3.187956 0.438829 -1.416753
2.166425 0.688655 -0.165944
2.166179 0.473915 -0.153556
-2.166179 0.473915 -0.153556
-2.166425 0.688655 -0.165944
2.252810 0.878516 -0.075584
-2.252810 0.878516 -0.075584
2.251872 0.300200 -0.042576
-2.251872 0.300200 -0.042576
2.461373 0.270258 0.127885
-2.461373 0.270258 0.127885
2.462657 0.926951 0.090411
-2.462657 0.926951 0.090411
2.622101 0.742803 0.214595
-2.622101 0.742803 0.214595
2.621617 0.466859 0.230352
-2.621617 0.466859 0.230352
0.633034 0.322805 3.549073
-0.633034 0.322805 3.549073
0.617948 0.331095 3.484189
0.631519 0.368916 3.409088
-0.617948 0.331095 3.484189
-0.631519 0.368916 3.409088
0.598604 0.236463 3.505660
-0.598604 0.236463 3.505660
0.597039 0.327697 3.267227
0.572984 0.272214 3.214854
-0.597039 0.327697 3.267227
-0.572984 0.272214 3.214854
0.531577 0.166233 3.274009
-0.531577 0.166233 3.274009
0.546635 0.163275 3.433208
-0.546635 0.163275 3.433208
0.594203 0.140634 3.348107
-0.594203 0.140634 3.348107
0.496606 0.192705 3.348107
-0.496606 0.192705 3.348107
0.154480 -0.530625 2.945201
-0.154480 -0.530625 2.945201
2.840960 0.556390 -1.499278
2.837092 0.407451 -1.487092
-2.837092 0.407451 -1.487092
-2.840960 0.556390 -1.499278
2.921861 0.678849 -1.479285
-2.921861 0.678849 -1.479285
2.921493 0.300677 -1.447511
-2.921493 0.300677 -1.447511
3.081435 0.289760 -1.385347
-3.081435 0.289760 -1.385347
3.067077 0.713286 -1.421530
-3.067077 0.713286 -1.421530
3.181852 0.605603 -1.370960
-3.181852 0.605603 -1.370960
3.190576 0.432343 -1.350953
-3.190576 0.432343 -1.350953
2.192168 0.697074 -0.309262
2.191634 0.451008 -0.294313
-2.191634 0.451008 -0.294313
-2.192168 0.697074 -0.309262
2.302694 0.901215 -0.214169
-2.302694 0.901215 -0.214169
2.301251 0.261694 -0.175533
-2.301251 0.261694 -0.175533
2.530485 0.228145 0.016046
-2.530485 0.228145 0.016046
2.532303 0.956561 -0.027951
-2.532303 0.956561 -0.027951
2.707519 0.753070 0.112907
-2.707519 0.753070 0.112907
2.706790 0.446354 0.131442
-2.706790 0.446354 0.131442
-0.313635 -0.432509 3.506086
-0.370705 -0.384890 3.494759
-0.369854 -0.385099 3.470985
-0.311975 -0.432927 3.459658
-0.197690 -0.478374 3.444441
-0.138167 -0.483764 3.449203
-0.128484 -0.497025 3.502818
-0.186291 -0.493987 3.507572
-0.246269 -0.462905 3.441628
-0.247192 -0.463915 3.518683
0.197690 -0.478374 3.444441
0.246269 -0.462905 3.441628
0.247192 -0.463915 3.518683
0.186291 -0.493987 3.507572
0.311975 -0.432927 3.459658
0.313635 -0.432509 3.506086
0.128484 -0.497025 3.502818
0.138167 -0.483764 3.449203
0.369854 -0.385099 3.470985
0.370705 -0.384890 3.494759
-0.116183 -0.530322 2.964451
-0.154480 -0.510199 2.963773
-0.201132 -0.472039 2.871061
-0.131413 -0.537162 2.846104
-0.058961 -0.553201 2.830895
-0.057936 -0.547782 2.964869
0.000000 -0.566476 2.831688
0.000000 -0.561714 2.963499
0.116183 -0.530322 2.964451
0.131413 -0.537162 2.846104
0.201132 -0.472039 2.871061
0.154480 -0.510199 2.963773
0.057936 -0.547782 2.964869
0.058961 -0.553201 2.830895
0.246355 -0.422631 2.875909
0.193498 -0.432155 2.987459
-0.246355 -0.422631 2.875909
-0.193498 -0.432155 2.987459
4 0 1 2 3
4 4 5 6 7
4 8 9 10 11
4 12 13 14 15
4 9 8 3 2
4 7 14 13 4
4 11 10 16 17
4 18 12 15 19
4 17 16 20 21
4 22 18 19 23
4 21 20 24 25
4 26 22 23 27
4 25 24 28 29
4 30 26 27 31
4 1 0 29 28
4 5 30 31 6
4 32 33 34 35
4 36 37 38 39
4 40 32 35 41
4 39 38 42 43
4 41 0 3 40
4 43 42 7 6
4 44 45 46 47
4 48 49 50 51
4 52 44 47 53
4 51 50 54 55
4 11 52 53 8
4 55 54 15 14
4 47 46 33 32
4 37 48 51 38
4 53 47 32 40
4 38 51 55 42
4 8 53 40 3
4 42 55 14 7
4 56 57 45 44
4 49 58 59 50
4 60 56 44 52
4 50 59 61 54
4 17 60 52 11
4 54 61 19 15
4 62 63 57 56
4 58 64 65 59
4 66 62 56 60
4 59 65 67 61
4 21 66 60 17
4 61 67 23 19
4 68 69 63 62
4 64 70 71 65
4 72 68 62 66
4 65 71 73 67
4 25 72 66 21
4 67 73 27 23
4 74 75 69 68
4 70 76 77 71
4 78 74 68 72
4 71 77 79 73
4 29 78 72 25
4 73 79 31 27
4 35 34 75 74
4 76 36 39 77
4 41 35 74 78
4 77 39 43 79
4 0 41 78 29
4 79 43 6 31
4 33 80 81 34
4 82 83 37 36
4 45 84 85 46
4 86 87 49 48
4 46 85 80 33
4 83 86 48 37
4 57 88 84 45
4 87 89 58 49
4 63 90 88 57
4 89 91 64 58
4 69 92 90 63
4 91 93 70 64
4 75 94 92 69
4 93 95 76 70
4 34 81 94 75
4 95 82 36 76
4 80 96 97 81
4 98 99 83 82
4 84 100 101 85
4 102 103 87 86
4 85 101 96 80
4 99 102 86 83
4 88 104 100 84
4 103 105 89 87
4 90 106 104 88
4 105 107 91 89
4 92 108 106 90
4 107 109 93 91
4 94 110 108 92
4 109 111 95 93
4 81 97 110 94
4 111 98 82 95
4 112 113 114 115
4 116 117 118 119
4 120 112 115 121
4 119 118 122 123
4 124 120 121 125
4 123 122 126 127
4 128 124 125 129
4 127 126 130 131
4 132 128 129 133
4 131 130 134 135
4 136 137 138 139
4 140 141 142 143
4 137 132 133 138
4 135 134 141 140
4 113 136 139 114
4 143 142 117 116
4 114 139 144 145
4 146 143 116 147
4 138 133 148 149
4 150 135 140 151
4 139 138 149 144
4 151 140 143 146
4 133 129 152 148
4 153 131 135 150
4 129 125 154 152
4 155 127 131 153
4 125 121 156 154
4 157 123 127 155
4 121 115 158 156
4 159 119 123 157
4 115 114 145 158
4 147 116 119 159
4 148 152 160 161
4 162 153 150 163
4 154 156 164 165
4 166 157 155 167
4 144 149 168 169
4 170 151 146 171
4 168 149 172 173
4 174 151 170 175
4 154 165 176 177
4 178 167 155 179
4 152 154 177 160
4 179 155 153 162
4 148 161 172 149
4 174 163 150 151
4 177 176 180 181
4 182 178 179 183
4 173 172 184 185
4 186 174 175 187
4 158 145 188 189
4 190 147 159 191
4 145 144 169 188
4 171 146 147 190
4 156 158 189 164
4 191 159 157 166
4 161 160 192 193
4 194 162 163 195
4 161 193 184 172
4 186 195 163 174
4 160 177 181 192
4 183 179 162 194
4 185 184 196 197
4 198 186 187 199
4 181 180 200 201
4 202 182 183 203
4 193 192 204 205
4 206 194 195 207
4 184 193 205 196
4 207 195 186 198
4 181 201 204 192
4 206 203 183 194
4 205 204 208 209
4 210 206 207 211
4 197 196 205 209
4 207 198 199 211
4 200 208 204 201
4 206 210 202 203
4 208 200 212 213
4 214 202 210 215
4 197 209 216 217
4 218 211 199 219
4 209 208 213 216
4 215 210 211 218
4 200 180 220 212
4 221 182 202 214
4 185 197 217 222
4 219 199 187 223
4 164 189 224 225
4 226 191 166 227
4 188 169 228 229
4 230 171 190 231
4 189 188 229 224
4 231 190 191 226
4 173 185 222 232
4 223 187 175 233
4 180 176 234 220
4 235 178 182 221
4 176 165 236 234
4 237 167 178 235
4 168 173 232 238
4 233 175 170 239
4 169 168 238 228
4 239 170 171 230
4 165 164 225 236
4 227 166 167 237
4 236 238 232 234
4 233 239 237 235
4 232 222 220 234
4 221 223 233 235
4 220 222 217 212
4 219 223 221 214
4 216 213 212 217
4 214 215 218 219
4 225 228 238 236
4 239 230 227 237
4 224 229 228 225
4 230 231 226 227
4 96 136 113 97
4 117 142 99 98
4 100 132 137 101
4 141 134 103 102
4 101 137 136 96
4 142 141 102 99
4 104 128 132 100
4 134 130 105 103
4 106 124 128 104
4 130 126 107 105
4 108 120 124 106
4 126 122 109 107
4 110 112 120 108
4 122 118 111 109
4 97 113 112 110
4 118 117 98 111
4 240 241 242 243
4 244 245 246 247
4 248 249 250 251
4 252 253 254 255
4 256 257 258 259
4 260 261 262 263
4 264 265 266 267
4 268 269 270 271
4 250 249 272 273
4 274 253 252 275
4 240 243 276 277
4 278 247 246 279
4 249 240 277 272
4 279 246 253 274
4 272 277 280 281
4 282 279 274 283
4 277 276 284 280
4 285 278 279 282
4 273 272 281 286
4 283 274 275 287
4 288 273 286 289
4 287 275 290 291
4 276 292 293 284
4 294 295 278 285
4 292 296 297 293
4 298 299 295 294
4 296 300 301 297
4 302 303 299 298
4 300 288 289 301
4 291 290 303 302
4 304 305 306 307
4 308 309 310 311
4 312 304 307 313
4 311 310 314 315
4 316 312 313 317
4 315 314 318 319
4 320 321 322 323
4 324 325 326 327
4 328 320 323 329
4 327 326 330 331
4 332 328 329 333
4 331 330 334 335
4 336 332 333 337
4 335 334 338 339
4 340 336 337 341
4 339 338 342 343
4 344 345 346 347
4 348 349 350 351
4 345 340 341 346
4 343 342 349 348
4 322 347 352 353
4 354 351 324 355
4 346 341 356 357
4 358 343 348 359
4 347 346 357 352
4 359 348 351 354
4 341 337 360 356
4 361 339 343 358
4 337 333 362 360
4 363 335 339 361
4 333 329 364 362
4 365 331 335 363
4 329 323 366 364
4 367 327 331 365
4 323 322 353 366
4 355 324 327 367
4 368 369 370 371
4 372 373 374 375
4 369 376 377 370
4 378 379 373 372
4 380 381 382 383
4 384 385 386 387
4 381 388 389 382
4 390 391 385 384
4 388 392 393 389
4 394 395 391 390
4 392 368 371 393
4 375 374 395 394
4 396 397 398 399
4 400 401 402 403
4 404 405 406 407
4 408 409 410 411
4 412 413 414 415
4 416 417 418 419
4 420 421 422 423
4 424 425 426 427
4 399 412 415 396
4 419 418 403 402
4 407 420 423 404
4 427 426 411 410
4 428 429 430 431
4 432 433 434 435
4 436 437 431 430
4 435 438 439 432
4 436 430 429 440
4 433 432 439 441
4 397 431 437 398
4 438 435 401 400
4 442 443 444 445
4 446 447 448 449
4 405 442 445 406
4 449 448 409 408
4 450 451 452 453
4 454 455 456 457
4 458 459 460 461
4 462 463 464 465
4 451 466 467 452
4 468 469 455 454
4 466 470 471 467
4 472 473 469 468
4 459 474 475 460
4 476 477 463 462
4 474 478 479 475
4 480 481 477 476
4 470 482 483 471
4 484 485 473 472
4 478 486 487 479
4 488 489 481 480
4 490 491 492 493
4 494 495 496 497
4 491 450 453 492
4 457 456 495 494
4 498 499 500 501
4 502 503 504 505
4 499 458 461 500
4 465 464 503 502
4 501 506 507 508
4 509 510 505 511
4 512 513 514 490
4 515 516 517 496
4 518 519 520 521
4 522 523 524 525
4 526 527 528 529
4 530 531 532 533
4 534 518 521 535
4 525 524 536 537
4 538 534 535 539
4 537 536 540 541
4 542 526 529 543
4 533 532 544 545
4 546 542 543 547
4 545 544 548 549
4 506 550 551 507
4 552 553 510 509
4 513 554 555 514
4 556 557 516 515
4 550 538 539 551
4 541 540 553 552
4 554 546 547 555
4 549 548 557 556
4 558 559 560 561
4 562 563 564 565
4 566 567 568 569
4 570 571 572 573
4 559 574 575 560
4 576 577 563 562
4 574 578 579 575
4 580 581 577 576
4 567 582 583 568
4 584 585 571 570
4 582 586 587 583
4 588 589 585 584
4 578 590 591 579
4 592 593 581 580
4 586 594 595 587
4 596 597 589 588
4 598 599 600 512
4 601 602 603 517
4 599 558 561 600
4 565 564 602 601
4 508 604 605 606
4 607 608 511 609
4 604 566 569 605
4 573 572 608 607
4 512 610 611 598
4 612 613 517 603
4 598 611 443 614
4 447 612 603 615
4 493 616 617 490
4 618 619 497 496
4 490 617 610 512
4 613 618 496 517
4 508 620 621 501
4 622 623 511 505
4 501 621 624 498
4 625 622 505 504
4 626 436 440 606
4 441 439 627 609
4 606 440 620 508
4 623 441 609 511
4 606 628 629 626
4 630 631 609 627
4 614 632 633 598
4 634 635 615 603
4 636 637 638 639
4 640 641 642 643
4 644 645 646 647
4 648 649 650 651
4 652 636 639 653
4 643 642 654 655
4 656 652 653 657
4 655 654 658 659
4 660 644 647 661
4 651 650 662 663
4 664 660 661 665
4 663 662 666 667
4 628 668 669 629
4 670 671 631 630
4 632 672 673 633
4 674 675 635 634
4 668 656 657 669
4 659 658 671 670
4 672 664 665 673
4 667 666 675 674
4 444 676 677 678
4 679 680 446 681
4 443 611 676 444
4 680 612 447 446
4 610 677 676 611
4 680 679 613 612
4 682 683 617 616
4 618 684 685 619
4 678 677 683 682
4 684 679 681 685
4 610 617 683 677
4 684 618 613 679
4 686 687 688 689
4 690 691 692 693
4 687 686 624 621
4 625 692 691 622
4 620 688 687 621
4 691 690 623 622
4 689 688 429 428
4 433 690 693 434
4 620 440 429 688
4 433 441 623 690
4 406 694 695 407
4 696 697 408 411
4 694 397 396 695
4 402 401 697 696
4 398 698 699 399
4 700 701 400 403
4 698 405 404 699
4 410 409 701 700
4 422 702 703 423
4 704 705 424 427
4 702 413 412 703
4 418 417 705 704
4 414 706 707 415
4 708 709 416 419
4 706 421 420 707
4 426 425 709 708
4 423 703 699 404
4 700 704 427 410
4 703 412 399 699
4 403 418 704 700
4 415 707 695 396
4 696 708 419 402
4 707 420 407 695
4 411 426 708 696
4 413 702 706 414
4 709 705 417 416
4 702 422 421 706
4 425 424 705 709
4 436 710 711 437
4 712 713 439 438
4 710 443 442 711
4 448 447 713 712
4 437 711 698 398
4 701 712 438 400
4 711 442 405 698
4 409 448 712 701
4 444 714 715 445
4 716 717 446 449
4 714 428 431 715
4 435 434 717 716
4 445 715 694 406
4 697 716 449 408
4 715 431 397 694
4 401 435 716 697
4 486 718 719 487
4 720 721 489 488
4 718 483 482 719
4 485 484 721 720
4 452 722 723 453
4 724 725 454 457
4 722 459 458 723
4 464 463 725 724
4 460 726 727 461
4 728 729 462 465
4 726 451 450 727
4 456 455 729 728
4 467 730 722 452
4 725 731 468 454
4 730 474 459 722
4 463 477 731 725
4 471 732 730 467
4 731 733 472 468
4 732 478 474 730
4 477 481 733 731
4 475 734 726 460
4 729 735 476 462
4 734 466 451 726
4 455 469 735 729
4 479 736 734 475
4 735 737 480 476
4 736 470 466 734
4 469 473 737 735
4 483 718 732 471
4 733 721 484 472
4 718 486 478 732
4 481 489 721 733
4 487 719 736 479
4 737 720 488 480
4 719 482 470 736
4 473 485 720 737
4 492 738 739 493
4 740 741 494 497
4 738 499 498 739
4 504 503 741 740
4 453 723 738 492
4 741 724 457 494
4 723 458 499 738
4 503 464 724 741
4 500 742 743 501
4 744 745 502 505
4 742 491 490 743
4 496 495 745 744
4 461 727 742 500
4 745 728 465 502
4 727 450 491 742
4 495 456 728 745
4 507 746 747 508
4 748 749 509 511
4 746 513 512 747
4 517 516 749 748
4 514 750 743 490
4 744 751 515 496
4 750 506 501 743
4 505 510 751 744
4 520 752 753 521
4 754 755 522 525
4 752 527 526 753
4 532 531 755 754
4 528 756 757 529
4 758 759 530 533
4 756 519 518 757
4 524 523 759 758
4 521 753 760 535
4 761 754 525 537
4 753 526 542 760
4 544 532 754 761
4 535 760 762 539
4 763 761 537 541
4 760 542 546 762
4 548 544 761 763
4 529 757 764 543
4 765 758 533 545
4 757 518 534 764
4 536 524 758 765
4 543 764 766 547
4 767 765 545 549
4 764 534 538 766
4 540 536 765 767
4 551 768 746 507
4 749 769 552 509
4 768 554 513 746
4 516 557 769 749
4 555 770 750 514
4 751 771 556 515
4 770 550 506 750
4 510 553 771 751
4 539 762 768 551
4 769 763 541 552
4 762 546 554 768
4 557 548 763 769
4 547 766 770 555
4 771 767 549 556
4 766 538 550 770
4 553 540 767 771
4 519 756 752 520
4 755 759 523 522
4 756 528 527 752
4 531 530 759 755
4 594 772 773 595
4 774 775 597 596
4 772 591 590 773
4 593 592 775 774
4 560 776 777 561
4 778 779 562 565
4 776 567 566 777
4 572 571 779 778
4 568 780 781 569
4 782 783 570 573
4 780 559 558 781
4 564 563 783 782
4 575 784 776 560
4 779 785 576 562
4 784 582 567 776
4 571 585 785 779
4 579 786 784 575
4 785 787 580 576
4 786 586 582 784
4 585 589 787 785
4 583 788 780 568
4 783 789 584 570
4 788 574 559 780
4 563 577 789 783
4 587 790 788 583
4 789 791 588 584
4 790 578 574 788
4 577 581 791 789
4 591 772 786 579
4 787 775 592 580
4 772 594 586 786
4 589 597 775 787
4 595 773 790 587
4 791 774 596 588
4 773 590 578 790
4 581 593 774 791
4 600 792 747 512
4 748 793 601 517
4 792 604 508 747
4 511 608 793 748
4 561 777 792 600
4 793 778 565 601
4 777 566 604 792
4 608 572 778 793
4 605 794 795 606
4 796 797 607 609
4 794 599 598 795
4 603 602 797 796
4 569 781 794 605
4 797 782 573 607
4 781 558 599 794
4 602 564 782 797
4 626 798 710 436
4 713 799 627 439
4 798 614 443 710
4 447 615 799 713
4 493 739 800 616
4 801 740 497 619
4 739 498 624 800
4 625 504 740 801
4 629 802 798 626
4 799 803 630 627
4 802 632 614 798
4 615 635 803 799
4 633 804 795 598
4 796 805 634 603
4 804 628 606 795
4 609 631 805 796
4 638 806 807 639
4 808 809 640 643
4 806 645 644 807
4 650 649 809 808
4 646 810 811 647
4 812 813 648 651
4 810 637 636 811
4 642 641 813 812
4 639 807 814 653
4 815 808 643 655
4 807 644 660 814
4 662 650 808 815
4 653 814 816 657
4 817 815 655 659
4 814 660 664 816
4 666 662 815 817
4 647 811 818 661
4 819 812 651 663
4 811 636 652 818
4 654 642 812 819
4 661 818 820 665
4 821 819 663 667
4 818 652 656 820
4 658 654 819 821
4 669 822 802 629
4 803 823 670 630
4 822 672 632 802
4 635 675 823 803
4 673 824 804 633
4 805 825 674 634
4 824 668 628 804
4 631 671 825 805
4 657 816 822 669
4 823 817 659 670
4 816 664 672 822
4 675 666 817 823
4 665 820 824 673
4 825 821 667 674
4 820 656 668 824
4 671 658 821 825
4 637 810 806 638
4 809 813 641 640
4 810 646 645 806
4 649 648 813 809
4 616 800 826 682
4 827 801 619 685
4 686 826 800 624
4 801 827 692 625
4 828 444 678 829
4 681 446 830 831
4 829 678 682 832
4 685 681 831 833
4 832 682 826 834
4 827 685 833 835
4 834 826 686 836
4 692 827 835 837
4 838 714 444 828
4 446 717 839 830
4 840 428 714 838
4 717 434 841 839
4 836 686 689 842
4 693 692 837 843
4 842 689 428 840
4 434 693 843 841
4 321 844 347 322
4 351 845 325 324
4 344 347 844 846
4 845 351 350 847
4 848 849 850 851
4 852 853 848 851
4 854 855 856 857
4 856 855 858 859
4 860 861 862 863
4 864 865 860 863
4 866 867 868 869
4 868 867 870 871
4 872 873 874 875
4 874 873 876 877
4 878 879 880 881
4 880 879 882 883
4 884 885 879 878
4 879 885 886 882
4 887 888 889 890
4 889 888 891 892
4 890 889 893 894
4 893 889 892 895
4 894 893 896 897
4 896 893 895 898
4 897 896 899 900
4 899 896 898 901
4 902 903 900 899
4 901 904 902 899
4 903 902 905 906
4 905 902 904 907
4 906 905 908 909
4 908 905 907 910
4 849 248 251 850
4 255 254 853 852
4 241 854 857 242
4 859 858 245 244
4 861 264 267 862
4 271 270 865 864
4 257 866 869 258
4 871 870 261 260
4 911 316 317 912
4 319 318 913 914
4 305 872 875 306
4 877 876 309 308
4 915 878 881 916
4 883 882 917 918
4 919 884 878 915
4 882 886 920 917
4 340 887 890 336
4 892 891 342 338
4 336 890 894 332
4 895 892 338 334
4 332 894 897 328
4 898 895 334 330
4 328 897 900 320
4 901 898 330 326
4 903 321 320 900
4 326 325 904 901
4 321 903 906 844
4 907 904 325 845
4 844 906 909 846
4 910 907 845 847
4 921 922 923 924
4 925 926 927 928
4 922 915 916 923
4 918 917 926 925
4 929 930 922 921
4 926 931 932 927
4 930 919 915 922
4 917 920 931 926
4 933 934 935 936
4 937 934 933 938
4 934 885 884 935
4 886 885 934 937
4 936 935 930 929
4 931 937 938 932
4 935 884 919 930
4 920 886 937 931
4 939 940 941 942
4 943 944 945 946
4 940 929 921 941
4 927 932 944 943
4 936 947 948 933
4 948 949 938 933
4 947 950 951 948
4 951 952 949 948
4 929 940 947 936
4 949 944 932 938
4 940 939 950 947
4 952 945 944 949
4 307 953 954 313
4 955 956 311 315
4 953 942 957 954
4 958 946 956 955
4 306 959 953 307
4 956 960 308 311
4 959 939 942 953
4 946 945 960 956
4 950 961 962 951
4 962 963 952 951
4 961 875 874 962
4 874 877 963 962
4 939 959 961 950
4 963 960 945 952
4 959 306 875 961
4 877 308 960 963
4 964 965 966 967
4 968 969 970 971
4 972 964 967 973
4 971 970 974 975
4 976 972 973 977
4 975 974 978 979
4 980 981 982 983
4 982 981 984 985
4 986 987 988 989
4 990 991 992 993
4 941 994 995 942
4 996 997 943 946
4 994 987 986 995
4 992 991 997 996
4 921 998 994 941
4 997 999 927 943
4 998 1000 987 994
4 991 1001 999 997
4 942 995 1002 957
4 1003 996 946 958
4 995 986 989 1002
4 993 992 996 1003
4 924 1004 998 921
4 999 1005 928 927
4 371 1006 1007 393
4 1008 1009 375 394
4 1006 1010 1011 1007
4 1012 1013 1009 1008
4 393 1007 1014 389
4 1015 1008 394 390
4 1007 1011 1016 1014
4 1017 1012 1008 1015
4 389 1014 1018 382
4 1019 1015 390 384
4 1014 1016 1020 1018
4 1021 1017 1015 1019
4 382 1018 1022 383
4 1023 1019 384 387
4 1018 1020 1024 1022
4 1025 1021 1019 1023
4 1022 1024 1026 1027
4 1028 1025 1023 1029
4 377 1030 1031 370
4 1032 1033 378 372
4 1030 1034 1035 1031
4 1036 1037 1033 1032
4 1027 1026 1034 1030
4 1037 1028 1029 1033
4 370 1031 1006 371
4 1009 1032 372 375
4 1031 1035 1010 1006
4 1013 1036 1032 1009
4 353 1038 1039 366
4 1040 1041 355 367
4 1038 368 392 1039
4 395 374 1041 1040
4 366 1039 1042 364
4 1043 1040 367 365
4 1039 392 388 1042
4 391 395 1040 1043
4 364 1042 1044 362
4 1045 1043 365 363
4 1042 388 381 1044
4 385 391 1043 1045
4 362 1044 1046 360
4 1047 1045 363 361
4 1044 381 380 1046
4 386 385 1045 1047
4 360 1046 1048 356
4 1049 1047 361 358
4 1046 380 1050 1048
4 1051 386 1047 1049
4 357 1052 1053 352
4 1054 1055 359 354
4 1052 376 369 1053
4 373 379 1055 1054
4 356 1048 1052 357
4 1055 1049 358 359
4 1048 1050 376 1052
4 379 1051 1049 1055
4 352 1053 1038 353
4 1041 1054 354 355
4 1053 369 368 1038
4 374 373 1054 1041
4 1027 1030 1056 1057
4 1058 1033 1029 1059
4 1022 1027 1057 1060
4 1059 1029 1023 1061
4 1030 377 1062 1056
4 1063 378 1033 1058
4 383 1022 1060 1064
4 1061 1023 387 1065
4 380 383 1064 1066
4 1065 387 386 1067
4 377 376 1068 1062
4 1069 379 378 1063
4 376 1050 1070 1068
4 1071 1051 379 1069
4 1050 380 1066 1070
4 1067 386 1051 1071
4 1072 1057 1056 1062
4 1058 1059 1073 1063
4 1064 1060 1057 1072
4 1059 1061 1065 1073
4 1070 1066 1064 1072
4 1065 1067 1071 1073
4 1068 1070 1072 1062
4 1073 1071 1069 1063
4 1074 1075 1076 1077
4 1078 1079 1080 1081
4 1075 249 248 1076
4 254 253 1079 1078
4 1082 1083 1084 1085
4 1086 1087 1088 1089
4 1083 241 240 1084
4 246 245 1087 1086
4 1085 1084 1075 1074
4 1079 1086 1089 1080
4 1084 240 249 1075
4 253 246 1086 1079
4 1090 1091 1092 1093
4 1094 1091 1090 1095
4 1091 855 854 1092
4 858 855 1091 1094
4 1096 1097 1098 1099
4 1098 1100 1101 1099
4 1097 849 848 1098
4 848 853 1100 1098
4 1093 1092 1083 1082
4 1087 1094 1095 1088
4 1092 854 241 1083
4 245 858 1094 1087
4 1077 1076 1097 1096
4 1100 1078 1081 1101
4 1076 248 849 1097
4 853 254 1078 1100
4 266 1102 1103 267
4 1104 1105 268 271
4 1102 1106 1107 1103
4 1108 1109 1105 1104
4 259 1110 1102 266
4 1105 1111 263 268
4 1110 1112 1106 1102
4 1109 1113 1111 1105
4 258 1114 1110 259
4 1111 1115 260 263
4 1114 1116 1112 1110
4 1113 1117 1115 1111
4 868 1118 1119 869
4 1120 1118 868 871
4 1118 1121 1122 1119
4 1123 1121 1118 1120
4 869 1119 1114 258
4 1115 1120 871 260
4 1119 1122 1116 1114
4 1117 1123 1120 1115
4 267 1103 1124 862
4 1125 1104 271 864
4 1103 1107 1126 1124
4 1127 1108 1104 1125
4 1128 1129 1130 1131
4 1132 1133 1128 1131
4 1129 911 912 1130
4 914 913 1133 1132
4 1134 1135 1136 1137
4 1138 1139 1134 1137
4 1135 976 977 1136
4 979 978 1139 1138
4 1126 1140 1141 1124
4 1142 1143 1127 1125
4 1140 1144 1145 1141
4 1145 1144 1143 1142
4 1145 1146 1147 1141
4 1148 1146 1145 1142
4 863 862 1147 1146
4 1148 864 863 1146
4 862 1124 1141 1147
4 1142 1125 864 1148
4 1106 1149 1150 1107
4 1151 1152 1109 1108
4 1149 312 316 1150
4 318 314 1152 1151
4 1112 1153 1149 1106
4 1152 1154 1113 1109
4 1153 304 312 1149
4 314 310 1154 1152
4 1116 1155 1153 1112
4 1154 1156 1117 1113
4 1155 305 304 1153
4 310 309 1156 1154
4 1121 1157 1158 1122
4 1159 1157 1121 1123
4 1157 873 872 1158
4 876 873 1157 1159
4 1122 1158 1155 1116
4 1156 1159 1123 1117
4 1158 872 305 1155
4 309 876 1159 1156
4 1107 1150 1160 1126
4 1161 1151 1108 1127
4 1150 316 911 1160
4 913 318 1151 1161
4 1140 1162 1163 1144
4 1163 1164 1143 1144
4 1162 1129 1128 1163
4 1128 1133 1164 1163
4 1126 1160 1162 1140
4 1164 1161 1127 1143
4 1160 911 1129 1162
4 1133 913 1161 1164
4 976 1165 1166 972
4 1167 1168 978 974
4 1169 1135 1134 1170
4 1134 1139 1171 1170
4 1165 976 1135 1169
4 1139 978 1168 1171
4 965 1172 1173 966
4 1174 1175 969 968
4 1176 1177 1178 1179
4 1180 1181 1176 1179
4 1182 1179 1178 1183
4 1180 1179 1182 1184
4 1185 1186 1177 1176
4 1181 1187 1185 1176
4 1188 1189 1190 1191
4 1192 1193 1188 1191
4 1189 1194 1195 1190
4 1196 1197 1193 1192
4 880 1198 1199 881
4 1200 1198 880 883
4 1198 1201 1202 1199
4 1203 1201 1198 1200
4 881 1199 1204 916
4 1205 1200 883 918
4 1199 1202 1206 1204
4 1207 1203 1200 1205
4 923 1208 1209 924
4 1210 1211 925 928
4 1208 1212 1213 1209
4 1214 1215 1211 1210
4 924 1209 1216 1217
4 1218 1210 928 1219
4 1209 1213 1220 1216
4 1221 1214 1210 1218
4 916 1204 1208 923
4 1211 1205 918 925
4 1204 1206 1212 1208
4 1215 1207 1205 1211
4 1165 1222 1223 1166
4 1224 1225 1168 1167
4 1222 912 317 1223
4 319 914 1225 1224
4 313 1226 1223 317
4 1224 1227 315 319
4 1226 1228 1166 1223
4 1167 1229 1227 1224
4 1130 1230 1231 1131
4 1231 1232 1132 1131
4 1230 1169 1170 1231
4 1170 1171 1232 1231
4 912 1222 1230 1130
4 1232 1225 914 1132
4 1222 1165 1169 1230
4 1171 1168 1225 1232
4 1233 957 1217 1216
4 1219 958 1234 1218
4 954 1235 1226 313
4 1227 1236 955 315
4 1235 1237 1228 1226
4 1229 1238 1236 1227
4 1235 954 957 1233
4 958 955 1236 1234
4 1239 1177 1186 1240
4 1187 1181 1241 1242
4 1172 1243 1244 1173
4 1245 1246 1175 1174
4 1243 980 983 1244
4 985 984 1246 1245
4 1194 1247 1248 1195
4 1249 1250 1197 1196
4 1189 1251 1247 1194
4 1250 1252 1193 1197
4 1188 1253 1251 1189
4 1252 1253 1188 1193
4 1254 1255 1256 1257
4 1258 1255 1254 1259
4 1255 981 1260 1256
4 1261 981 1255 1258
4 1262 1263 1264 1265
4 1266 1267 1268 1269
4 1243 1262 1265 1270
4 1269 1268 1246 1271
4 1272 1254 1257 1273
4 1259 1254 1274 1275
4 1263 1272 1273 1264
4 1275 1274 1267 1266
4 980 1243 1270 1276
4 1271 1246 984 1277
4 981 980 1276 1260
4 1277 984 981 1261
4 1260 1276 1278 1279
4 1280 1277 1261 1281
4 1276 1270 1282 1278
4 1283 1271 1277 1280
4 1264 1273 1284 1285
4 1286 1275 1266 1287
4 1273 1257 1288 1284
4 1289 1259 1275 1286
4 1270 1265 1290 1282
4 1291 1269 1271 1283
4 1265 1264 1285 1290
4 1287 1266 1269 1291
4 1256 1260 1279 1292
4 1281 1261 1258 1293
4 1257 1256 1292 1288
4 1293 1258 1259 1289
4 1282 1290 1294 1278
4 1295 1291 1283 1280
4 1290 1285 1284 1294
4 1286 1287 1291 1295
4 1278 1294 1292 1279
4 1293 1295 1280 1281
4 1294 1284 1288 1292
4 1289 1286 1295 1293
4 1296 1297 1298 1237
4 1299 1300 1301 1238
4 1297 965 964 1298
4 970 969 1300 1299
4 972 1166 1298 964
4 1299 1167 974 970
4 1166 1228 1237 1298
4 1238 1229 1167 1299
4 1302 1303 1297 1296
4 1300 1304 1305 1301
4 1303 1172 965 1297
4 969 1175 1304 1300
4 1172 1303 1306 1243
4 1307 1304 1175 1246
4 1303 1302 1195 1306
4 1196 1305 1304 1307
4 1262 1308 1309 1263
4 1310 1311 1268 1267
4 1308 1248 1247 1309
4 1250 1249 1311 1310
4 1248 1308 1306 1195
4 1307 1311 1249 1196
4 1308 1262 1243 1306
4 1246 1268 1311 1307
4 1251 1312 1309 1247
4 1310 1313 1252 1250
4 1312 1272 1263 1309
4 1267 1274 1313 1310
4 1253 1314 1312 1251
4 1313 1314 1253 1252
4 1314 1254 1272 1312
4 1274 1254 1314 1313
4 1237 1315 1220 1296
4 1221 1316 1238 1301
4 1237 1235 1233 1315
4 1234 1236 1238 1316
4 1220 1315 1233 1216
4 1234 1316 1221 1218
4 1183 1202 1201 1182
4 1201 1203 1184 1182
4 1317 1206 1202 1183
4 1203 1207 1318 1184
4 1213 1319 1320 1220
4 1321 1322 1214 1221
4 1212 1323 1319 1213
4 1322 1324 1215 1214
4 1206 1317 1323 1212
4 1324 1318 1207 1215
4 1220 1320 1325 1296
4 1326 1321 1221 1301
4 1327 1302 1296 1325
4 1301 1305 1328 1326
4 1240 1195 1302 1327
4 1305 1196 1242 1328
4 1190 1186 1185 1191
4 1185 1187 1192 1191
4 1195 1240 1186 1190
4 1187 1242 1196 1192
4 1244 1329 1330 1173
4 1331 1332 1245 1174
4 983 1333 1329 1244
4 1332 1334 985 1245
4 1333 1335 1336 1329
4 1337 1338 1334 1332
4 1173 1330 1339 966
4 1340 1331 1174 968
4 1136 1341 1342 1137
4 1342 1343 1138 1137
4 1341 1344 1345 1342
4 1345 1346 1343 1342
4 977 1347 1341 1136
4 1343 1348 979 1138
4 1347 1349 1344 1341
4 1346 1350 1348 1343
4 973 1351 1347 977
4 1348 1352 975 979
4 1351 1353 1349 1347
4 1350 1354 1352 1348
4 982 1355 1333 983
4 1334 1355 982 985
4 1355 1356 1335 1333
4 1338 1356 1355 1334
3 967 1351 973
3 975 1352 971
3 967 1353 1351
3 1352 1354 971
3 966 1339 967
3 971 1340 968
3 1339 1357 967
3 971 1358 1340
4 1317 1359 1360 1323
4 1361 1362 1318 1324
4 1359 1363 1364 1360
4 1365 1366 1362 1361
4 1323 1360 1367 1319
4 1368 1361 1324 1322
4 1360 1364 1369 1367
4 1370 1365 1361 1368
4 1319 1367 1371 1320
4 1372 1368 1322 1321
4 1367 1369 1373 1371
4 1374 1370 1368 1372
4 1320 1371 1375 1325
4 1376 1372 1321 1326
4 1371 1373 1377 1375
4 1378 1374 1372 1376
4 1183 1379 1359 1317
4 1362 1380 1184 1318
4 1379 1381 1363 1359
4 1366 1382 1380 1362
4 1383 1384 1381 1379
4 1382 1385 1386 1380
4 1387 1388 1375 1377
4 1376 1389 1390 1378
4 1388 1327 1325 1375
4 1326 1328 1389 1376
3 1384 1383 1391
3 1392 1386 1385
4 1383 1239 1240 1391
4 1242 1241 1386 1392
4 1327 1388 1391 1240
4 1392 1389 1328 1242
4 1388 1387 1384 1391
4 1385 1390 1389 1392
3 1178 1393 1183
3 1184 1394 1180
3 1393 1379 1183
3 1184 1380 1394
4 1239 1383 1379 1393
4 1380 1386 1241 1394
4 1177 1239 1393 1178
4 1394 1241 1181 1180
4 289 1395 1396 301
4 1397 1398 291 302
4 1395 1399 1400 1396
4 1401 1402 1398 1397
4 301 1396 1403 297
4 1404 1397 302 298
4 1396 1400 1405 1403
4 1406 1401 1397 1404
4 297 1403 1407 293
4 1408 1404 298 294
4 1403 1405 1409 1407
4 1410 1406 1404 1408
4 293 1407 1411 284
4 1412 1408 294 285
4 1407 1409 1413 1411
4 1414 1410 1408 1412
4 286 1415 1395 289
4 1398 1416 287 291
4 1415 1417 1399 1395
4 1402 1418 1416 1398
4 281 1419 1415 286
4 1416 1420 283 287
4 1419 1421 1417 1415
4 1418 1422 1420 1416
4 284 1411 1423 280
4 1424 1412 285 282
4 1411 1413 1425 1423
4 1426 1414 1412 1424
4 280 1423 1419 281
4 1420 1424 282 283
4 1423 1425 1421 1419
4 1422 1426 1424 1420
4 1425 1427 1428 1421
4 1429 1430 1426 1422
4 1427 1431 1432 1428
4 1433 1434 1430 1429
4 1413 1435 1427 1425
4 1430 1436 1414 1426
4 1435 1437 1431 1427
4 1434 1438 1436 1430
4 1421 1428 1439 1417
4 1440 1429 1422 1418
4 1428 1432 1441 1439
4 1442 1433 1429 1440
4 1417 1439 1443 1399
4 1444 1440 1418 1402
4 1439 1441 1445 1443
4 1446 1442 1440 1444
4 1409 1447 1435 1413
4 1436 1448 1410 1414
4 1405 1449 1447 1409
4 1448 1450 1406 1410
4 1400 1451 1449 1405
4 1450 1452 1401 1406
4 1451 1453 1454 1449
4 1455 1456 1452 1450
4 1399 1443 1451 1400
4 1452 1444 1402 1401
4 1443 1445 1453 1451
4 1456 1446 1444 1452
4 1445 1457 1458 1453
4 1459 1460 1446 1456
4 1453 1458 1461 1454
4 1462 1459 1456 1455
4 1441 1463 1457 1445
4 1460 1464 1442 1446
4 1432 1465 1463 1441
4 1464 1466 1433 1442
4 1437 1467 1468 1431
4 1469 1470 1438 1434
4 1431 1468 1465 1432
4 1466 1469 1434 1433
4 1471 1467 1472 1473
4 1474 1470 1475 1476
4 1461 1471 1473 1477
4 1476 1475 1462 1478
4 1467 1437 1479 1472
4 1480 1438 1470 1474
4 1454 1461 1477 1481
4 1478 1462 1455 1482
4 1447 1449 1483 1484
4 1485 1450 1448 1486
4 1435 1447 1484 1487
4 1486 1448 1436 1488
4 1449 1454 1481 1483
4 1482 1455 1450 1485
4 1437 1435 1487 1479
4 1488 1436 1438 1480
4 1489 1473 1472 1479
4 1474 1476 1490 1480
4 1481 1477 1473 1489
4 1476 1478 1482 1490
4 1483 1481 1489 1484
4 1490 1482 1485 1486
4 1484 1489 1479 1487
4 1480 1490 1486 1488
4 250 1491 1492 251
4 1493 1494 252 255
4 1491 265 264 1492
4 270 269 1494 1493
4 242 1495 1496 243
4 1497 1498 244 247
4 1495 257 256 1496
4 262 261 1498 1497
4 265 1499 1500 266
4 1501 1502 269 268
4 1499 288 300 1500
4 303 290 1502 1501
4 266 1500 1503 259
4 1504 1501 268 263
4 1500 300 296 1503
4 299 303 1501 1504
4 259 1503 1505 256
4 1506 1504 263 262
4 1503 296 292 1505
4 295 299 1504 1506
4 256 1505 1507 1496
4 1508 1506 262 1497
4 243 1496 1507 276
4 1508 1497 247 278
4 276 1507 1505 292
4 1506 1508 278 295
4 265 1491 1509 1499
4 1510 1494 269 1502
4 288 1499 1509 273
4 1510 1502 290 275
4 273 1509 1491 250
4 1494 1510 275 252
4 850 1511 1512 851
4 1512 1513 852 851
4 1511 861 860 1512
4 860 865 1513 1512
4 857 1514 1495 242
4 1498 1515 859 244
4 1514 866 257 1495
4 261 870 1515 1498
4 251 1492 1511 850
4 1513 1493 255 852
4 1492 264 861 1511
4 865 270 1493 1513
4 856 1516 1514 857
4 1515 1516 856 859
4 1516 867 866 1514
4 870 867 1516 1515
4 1077 1517 1518 1074
4 1519 1520 1081 1080
4 1517 1521 1522 1518
4 1523 1524 1520 1519
4 1074 1518 1525 1085
4 1526 1519 1080 1089
4 1518 1522 1527 1525
4 1528 1523 1519 1526
4 1085 1525 1529 1082
4 1530 1526 1089 1088
4 1525 1527 1531 1529
4 1532 1528 1526 1530
4 1533 1534 1535 1536
4 1535 1537 1538 1536
4 1534 1096 1099 1535
4 1099 1101 1537 1535
4 1539 1540 1541 1542
4 1543 1540 1539 1544
4 1540 1090 1093 1541
4 1095 1090 1540 1543
4 1521 1517 1534 1533
4 1537 1520 1524 1538
4 1517 1077 1096 1534
4 1101 1081 1520 1537
4 1542 1541 1529 1531
4 1530 1543 1544 1532
4 1541 1093 1082 1529
4 1088 1095 1543 1530
4 1364 1363 1545 1546
4 1547 1366 1365 1548
4 1369 1364 1546 1549
4 1548 1365 1370 1550
4 1373 1369 1549 1551
4 1550 1370 1374 1552
4 1377 1373 1551 1553
4 1552 1374 1378 1554
4 1555 1556 1384 1387
4 1385 1557 1558 1390
4 1553 1555 1387 1377
4 1390 1558 1554 1378
4 1381 1384 1556 1559
4 1557 1385 1382 1560
4 1363 1381 1559 1545
4 1560 1382 1366 1547
4 1561 1562 1563 1564
4 1565 1566 1567 1568
4 1569 1570 1562 1561
4 1566 1571 1572 1567
4 1564 1563 1573 1574
4 1575 1565 1568 1576
4 1574 1573 1577 1578
4 1579 1575 1576 1580
4 1581 1582 1570 1569
4 1571 1583 1584 1572
4 1585 1586 1582 1581
4 1583 1587 1588 1584
4 1589 1590 1586 1585
4 1587 1591 1592 1588
4 1578 1577 1590 1589
4 1591 1579 1580 1592
4 1593 1594 1578 1589
4 1580 1595 1596 1592
4 1597 1593 1589 1585
4 1592 1596 1598 1588
4 1599 1597 1585 1581
4 1588 1598 1600 1584
4 1601 1599 1581 1569
4 1584 1600 1602 1572
4 1594 1603 1574 1578
4 1576 1604 1595 1580
4 1603 1605 1564 1574
4 1568 1606 1604 1576
4 1607 1601 1569 1561
4 1572 1602 1608 1567
4 1605 1607 1561 1564
4 1567 1608 1606 1568
4 840 1609 1610 842
4 1611 1612 841 843
4 842 1610 1613 836
4 1614 1611 843 837
4 838 1615 1609 840
4 1612 1616 839 841
4 828 1617 1615 838
4 1616 1618 830 839
4 836 1613 1619 834
4 1620 1614 837 835
4 834 1619 1621 832
4 1622 1620 835 833
4 832 1621 1623 829
4 1624 1622 833 831
4 829 1623 1617 828
4 1618 1624 831 830
4 1468 1625 1626 1465
4 1627 1628 1469 1466
4 1467 1629 1625 1468
4 1628 1630 1470 1469
4 1465 1626 1631 1463
4 1632 1627 1466 1464
4 1463 1631 1633 1457
4 1634 1632 1464 1460
4 1471 1635 1629 1467
4 1630 1636 1475 1470
4 1461 1637 1635 1471
4 1636 1638 1462 1475
4 1458 1639 1637 1461
4 1638 1640 1459 1462
4 1457 1633 1639 1458
4 1640 1634 1460 1459
4 9 2 1035 1034
4 1036 4 13 1037
4 9 1034 1026 10
4 1028 1037 13 12
4 10 1026 1024 16
4 1025 1028 12 18
4 16 1024 1020 20
4 1021 1025 18 22
4 20 1020 1016 24
4 1017 1021 22 26
4 24 1016 1011 28
4 1012 1017 26 30
4 28 1011 1010 1
4 1013 1012 30 5
4 1 1010 1035 2
4 1036 1013 5 4
4 909 1542 1531 846
4 1532 1544 910 847
4 340 1521 1533 887
4 1538 1524 342 891
4 908 1539 1542 909
4 1544 1539 908 910
4 1536 888 887 1533
4 891 888 1536 1538
4 1527 344 846 1531
4 847 350 1528 1532
4 1522 345 344 1527
4 350 349 1523 1528
4 1521 340 345 1522
4 349 342 1524 1523
4 1000 998 1004 1641
4 1005 999 1001 1642
4 988 987 1000 1641
4 1001 991 990 1642
4 988 1641 1643 1644
4 1645 1642 990 1646
4 1641 1004 1647 1643
4 1648 1005 1642 1645
4 1002 989 1649 1650
4 1651 993 1003 1652
4 957 1002 1650 1653
4 1652 1003 958 1654
4 989 988 1644 1649
4 1646 990 993 1651
4 1004 924 1655 1647
4 1656 928 1005 1648
4 924 1217 1657 1655
4 1658 1219 928 1656
4 1217 957 1653 1657
4 1654 958 1219 1658
3 1647 1655 1659
3 1660 1656 1648
3 1655 1657 1659
3 1660 1658 1656
3 1650 1659 1653
3 1654 1660 1652
3 1659 1657 1653
3 1654 1658 1660
3 1643 1647 1644
3 1646 1648 1645
3 1647 1659 1644
3 1646 1660 1648
3 1650 1649 1659
3 1660 1651 1652
3 1649 1644 1659
3 1660 1646 1651
4 1336 1661 1330 1329
4 1331 1662 1337 1332
4 1661 1357 1339 1330
4 1340 1358 1662 1331
4 1562 1663 1664 1563
4 1665 1666 1566 1565
4 1663 1610 1609 1664
4 1612 1611 1666 1665
4 1570 1667 1663 1562
4 1666 1668 1571 1566
4 1667 1613 1610 1663
4 1611 1614 1668 1666
4 1563 1664 1669 1573
4 1670 1665 1565 1575
4 1664 1609 1615 1669
4 1616 1612 1665 1670
4 1573 1669 1671 1577
4 1672 1670 1575 1579
4 1669 1615 1617 1671
4 1618 1616 1670 1672
4 1582 1673 1667 1570
4 1668 1674 1583 1571
4 1673 1619 1613 1667
4 1614 1620 1674 1668
4 1586 1675 1673 1582
4 1674 1676 1587 1583
4 1675 1621 1619 1673
4 1620 1622 1676 1674
4 1590 1677 1675 1586
4 1676 1678 1591 1587
4 1677 1623 1621 1675
4 1622 1624 1678 1676
4 1577 1671 1677 1590
4 1678 1672 1579 1591
4 1671 1617 1623 1677
4 1624 1618 1672 1678
4 1625 1679 1680 1626
4 1681 1682 1628 1627
4 1679 1607 1605 1680
4 1606 1608 1682 1681
4 1629 1683 1679 1625
4 1682 1684 1630 1628
4 1683 1601 1607 1679
4 1608 1602 1684 1682
4 1626 1680 1685 1631
4 1686 1681 1627 1632
4 1680 1605 1603 1685
4 1604 1606 1681 1686
4 1631 1685 1687 1633
4 1688 1686 1632 1634
4 1685 1603 1594 1687
4 1595 1604 1686 1688
4 1635 1689 1683 1629
4 1684 1690 1636 1630
4 1689 1599 1601 1683
4 1602 1600 1690 1684
4 1637 1691 1689 1635
4 1690 1692 1638 1636
4 1691 1597 1599 1689
4 1600 1598 1692 1690
4 1639 1693 1691 1637
4 1692 1694 1640 1638
4 1693 1593 1597 1691
4 1598 1596 1694 1692
4 1633 1687 1693 1639
4 1694 1688 1634 1640
4 1687 1594 1593 1693
4 1596 1595 1688 1694
4 1695 1696 1697 1698
4 1699 1700 1701 1702
4 1698 1703 1704 1695
4 1699 1702 1704 1703
4 1705 1706 1707 1708
4 1709 1710 1707 1706
4 1705 1708 1711 1712
4 1710 1709 1713 1714
4 1715 1716 1717 1718
4 1715 1718 1719 1720
4 1719 1721 1722 1720
4 1723 1724 1725 1726
4 1723 1727 1728 1724
4 1728 1727 1722 1721
4 1726 1725 1729 1730
4 1731 1717 1716 1732
