ply
format ascii 1.0
comment Created by Blender 2.62 (sub 0) - www.blender.org, source file: 'shaolin.blend'
element vertex 1747
property float x
property float y
property float z
element face 1724
property list uchar uint vertex_indices
end_header
1.141949 0.788820 0.910977
0.707832 0.953271 0.884050
0.683719 1.225152 1.311970
1.134605 0.996893 1.360015
-0.683719 1.225152 1.311970
-0.707832 0.953271 0.884050
-1.141949 0.788820 0.910977
-1.134605 0.996893 1.360015
0.916561 -0.164234 0.890681
1.029115 0.193845 0.928033
1.155831 -0.008066 1.207238
0.959165 -0.320179 0.974894
-1.155831 -0.008066 1.207238
-1.029115 0.193845 0.928033
-0.916561 -0.164234 0.890681
-0.959165 -0.320179 0.974894
1.175449 1.076719 1.827812
0.704852 1.279012 1.860084
0.679448 1.158897 2.129708
1.342280 0.639643 2.240205
-0.679448 1.158897 2.129708
-0.704852 1.279012 1.860084
-1.175449 1.076719 1.827812
-1.342280 0.639643 2.240205
0.928091 -0.371391 1.788122
1.176538 -0.012042 1.780258
1.312223 0.201658 2.153936
0.735804 -0.088607 2.122810
-1.312223 0.201658 2.153936
-1.176538 -0.012042 1.780258
-0.928091 -0.371391 1.788122
-0.735804 -0.088607 2.122810
1.180780 0.368476 1.095182
1.314950 0.118708 1.325751
-1.180780 0.368476 1.095182
-1.314950 0.118708 1.325751
1.379553 0.981654 1.248240
1.179446 0.763726 1.093436
-1.379553 0.981654 1.248240
-1.179446 0.763726 1.093436
1.319351 0.822045 1.087909
1.313868 0.500971 1.064569
-1.319351 0.822045 1.087909
-1.313868 0.500971 1.064569
1.456493 1.018285 1.182173
-1.456493 1.018285 1.182173
1.416147 0.293960 1.229878
-1.416147 0.293960 1.229878
1.556796 0.082049 1.499516
1.585144 0.250020 1.322266
-1.556796 0.082049 1.499516
-1.585144 0.250020 1.322266
1.582077 0.957852 1.536341
1.701781 0.945948 1.323752
-1.701781 0.945948 1.323752
-1.582077 0.957852 1.536341
1.748829 0.685307 1.591406
1.931642 0.702269 1.335895
-1.931642 0.702269 1.335895
-1.748829 0.685307 1.591406
1.701658 0.295915 1.619761
1.796744 0.425380 1.335260
-1.796744 0.425380 1.335260
-1.701658 0.295915 1.619761
0.385922 0.279970 2.782388
0.333866 0.485596 2.766047
0.339190 0.452285 2.930836
0.404897 0.243332 2.893961
-0.339190 0.452285 2.930836
-0.333866 0.485596 2.766047
-0.385922 0.279970 2.782388
-0.404897 0.243332 2.893961
0.411340 0.135872 2.759243
0.434882 0.113196 2.849567
-0.411340 0.135872 2.759243
-0.434882 0.113196 2.849567
0.304869 -0.000101 2.687122
0.311146 -0.259905 2.669546
-0.304869 -0.000101 2.687122
-0.311146 -0.259905 2.669546
2.811681 0.121421 -1.967472
2.852648 0.188542 -1.850503
2.933600 0.186875 -1.953670
2.872604 0.164653 -2.013727
-2.933600 0.186875 -1.953670
-2.852648 0.188542 -1.850503
-2.811681 0.121421 -1.967472
-2.872604 0.164653 -2.013727
2.939350 0.066544 -2.025257
3.022034 0.095512 -1.924853
2.940158 0.094386 -1.822184
2.870216 0.024221 -1.978691
-2.940158 0.094386 -1.822184
-3.022034 0.095512 -1.924853
-2.939350 0.066544 -2.025257
-2.870216 0.024221 -1.978691
2.856111 0.159494 -2.039485
2.868860 0.099321 -2.194044
2.840916 0.080981 -2.206893
2.785881 0.110930 -2.012746
-2.840916 0.080981 -2.206893
-2.868860 0.099321 -2.194044
-2.856111 0.159494 -2.039485
-2.785881 0.110930 -2.012746
2.847417 0.004841 -2.028128
2.878420 0.021061 -2.204974
2.908578 0.040837 -2.190653
2.927979 0.054127 -2.054903
-2.908578 0.040837 -2.190653
-2.878420 0.021061 -2.204974
-2.847417 0.004841 -2.028128
-2.927979 0.054127 -2.054903
2.890555 0.378238 -1.614819
2.961984 0.376557 -1.794190
2.942691 0.305316 -1.834781
2.878420 0.260533 -1.760345
-2.942691 0.305316 -1.834781
-2.961984 0.376557 -1.794190
-2.890555 0.378238 -1.614819
-2.878420 0.260533 -1.760345
3.018931 0.252885 -1.979745
2.966955 0.218246 -1.940344
-2.966955 0.218246 -1.940344
-3.018931 0.252885 -1.979745
3.036247 0.357256 -1.942234
-3.036247 0.357256 -1.942234
3.087041 0.138412 -1.882552
3.159104 0.191298 -1.904016
3.109371 0.284450 -1.590980
3.016320 0.167640 -1.708058
-3.109371 0.284450 -1.590980
-3.159104 0.191298 -1.904016
-3.087041 0.138412 -1.882552
-3.016320 0.167640 -1.708058
3.180417 0.662883 -2.337095
3.159703 0.658777 -2.380450
3.141254 0.727356 -2.378177
3.162430 0.734542 -2.334202
-3.141254 0.727356 -2.378177
-3.159703 0.658777 -2.380450
-3.180417 0.662883 -2.337095
-3.162430 0.734542 -2.334202
3.090684 0.706187 -2.307225
3.077885 0.700076 -2.336121
3.101709 0.629679 -2.344144
3.114876 0.632926 -2.315767
-3.101709 0.629679 -2.344144
-3.077885 0.700076 -2.336121
-3.090684 0.706187 -2.307225
-3.114876 0.632926 -2.315767
3.122589 0.648979 -2.438646
3.103397 0.710920 -2.437556
-3.103397 0.710920 -2.437556
-3.122589 0.648979 -2.438646
3.103895 0.642356 -2.465658
3.084234 0.701317 -2.465168
-3.084234 0.701317 -2.465168
-3.103895 0.642356 -2.465658
3.050583 0.687717 -2.400377
3.073404 0.623554 -2.407405
-3.073404 0.623554 -2.407405
-3.050583 0.687717 -2.400377
3.038751 0.681281 -2.427145
3.061197 0.619997 -2.433638
-3.061197 0.619997 -2.433638
-3.038751 0.681281 -2.427145
3.020843 0.591007 -2.568227
3.002228 0.636057 -2.567851
-3.002228 0.636057 -2.567851
-3.020843 0.591007 -2.568227
2.970613 0.620055 -2.510940
2.986998 0.578900 -2.513357
-2.986998 0.578900 -2.513357
-2.970613 0.620055 -2.510940
3.244471 0.612241 -2.172240
3.202567 0.641663 -2.220602
3.181658 0.728791 -2.213575
3.192653 0.726317 -2.153777
-3.181658 0.728791 -2.213575
-3.202567 0.641663 -2.220602
-3.244471 0.612241 -2.172240
-3.192653 0.726317 -2.153777
3.091810 0.700711 -2.172651
3.090807 0.701692 -2.213589
3.117676 0.613821 -2.225335
3.128195 0.588431 -2.193228
-3.117676 0.613821 -2.225335
-3.090807 0.701692 -2.213589
-3.091810 0.700711 -2.172651
-3.128195 0.588431 -2.193228
3.143981 0.564189 -2.240833
3.166939 0.470070 -2.249260
3.159565 0.451686 -2.204462
-3.166939 0.470070 -2.249260
-3.143981 0.564189 -2.240833
-3.159565 0.451686 -2.204462
3.289312 0.443317 -2.183964
3.276419 0.479088 -2.249635
3.256975 0.589319 -2.242218
-3.256975 0.589319 -2.242218
-3.276419 0.479088 -2.249635
-3.289312 0.443317 -2.183964
3.084263 0.537472 -2.527880
2.999025 0.488706 -2.616386
3.008607 0.438670 -2.616617
3.097243 0.456838 -2.532953
-3.008607 0.438670 -2.616617
-2.999025 0.488706 -2.616386
-3.084263 0.537472 -2.527880
-3.097243 0.456838 -2.532953
3.156506 0.471643 -2.571596
3.049407 0.441895 -2.678544
3.038635 0.495200 -2.680535
3.146694 0.548345 -2.573797
-3.038635 0.495200 -2.680535
-3.049407 0.441895 -2.678544
-3.156506 0.471643 -2.571596
-3.146694 0.548345 -2.573797
3.098750 0.544449 -2.494309
3.111536 0.460164 -2.499944
-3.098750 0.544449 -2.494309
-3.111536 0.460164 -2.499944
3.131449 0.557674 -2.413667
3.144003 0.465481 -2.420320
-3.131449 0.557674 -2.413667
-3.144003 0.465481 -2.420320
3.179392 0.477227 -2.537440
3.170828 0.557501 -2.538963
-3.179392 0.477227 -2.537440
-3.170828 0.557501 -2.538963
3.223779 0.484550 -2.463884
3.217653 0.572840 -2.464100
-3.223779 0.484550 -2.463884
-3.217653 0.572840 -2.464100
3.146961 0.564081 -2.377152
3.159479 0.468620 -2.384317
-3.159479 0.468620 -2.384317
-3.146961 0.564081 -2.377152
3.247869 0.487927 -2.409144
3.242754 0.579874 -2.408602
-3.242754 0.579874 -2.408602
-3.247869 0.487927 -2.409144
3.236975 0.269645 -2.412997
3.208368 0.262921 -2.469713
3.217184 0.356968 -2.481589
3.247754 0.367278 -2.424678
-3.217184 0.356968 -2.481589
-3.208368 0.262921 -2.469713
-3.236975 0.269645 -2.412997
-3.247754 0.367278 -2.424678
3.150525 0.384248 -2.387917
3.131117 0.375171 -2.425125
3.127654 0.273938 -2.420031
3.146268 0.279537 -2.382852
-3.127654 0.273938 -2.420031
-3.131117 0.375171 -2.425125
-3.150525 0.384248 -2.387917
-3.146268 0.279537 -2.382852
3.157062 0.254602 -2.545218
3.161968 0.340756 -2.557310
-3.161968 0.340756 -2.557310
-3.157062 0.254602 -2.545218
3.130576 0.249140 -2.579944
3.133563 0.331795 -2.592245
-3.133563 0.331795 -2.592245
-3.130576 0.249140 -2.579944
3.090121 0.356059 -2.507469
3.088296 0.263202 -2.502412
-3.088296 0.263202 -2.502412
-3.090121 0.356059 -2.507469
3.071918 0.346831 -2.541545
3.070951 0.257820 -2.536401
-3.070951 0.257820 -2.536401
-3.071918 0.346831 -2.541545
3.021247 0.250562 -2.684864
3.032164 0.302762 -2.678926
-3.032164 0.302762 -2.678926
-3.021247 0.250562 -2.684864
2.977618 0.319378 -2.626451
2.978065 0.266175 -2.619684
-2.978065 0.266175 -2.619684
-2.977618 0.319378 -2.626451
3.267617 0.282307 -2.167326
3.261859 0.292387 -2.236605
3.280654 0.405734 -2.248192
-3.280654 0.405734 -2.248192
-3.261859 0.292387 -2.236605
-3.267617 0.282307 -2.167326
3.161478 0.422047 -2.245183
3.155388 0.318231 -2.238084
3.143909 0.309270 -2.191475
-3.155388 0.318231 -2.238084
-3.161478 0.422047 -2.245183
-3.143909 0.309270 -2.191475
3.272061 0.446311 -1.896051
3.222689 0.297286 -1.894767
-3.222689 0.297286 -1.894767
-3.272061 0.446311 -1.896051
3.222877 0.159112 -2.142550
-3.222877 0.159112 -2.142550
3.169204 0.712298 -1.842451
3.234709 0.606793 -1.886751
-3.234709 0.606793 -1.886751
-3.169204 0.712298 -1.842451
3.053736 0.480495 -1.924839
3.058722 0.605747 -1.910062
-3.058722 0.605747 -1.910062
-3.053736 0.480495 -1.924839
3.056211 0.722478 -1.866722
-3.056211 0.722478 -1.866722
3.114385 0.181507 -2.170487
-3.114385 0.181507 -2.170487
3.134905 0.274010 -2.223236
3.110937 0.169321 -2.210934
-3.110937 0.169321 -2.210934
-3.134905 0.274010 -2.223236
3.209609 0.143066 -2.204996
3.242465 0.243902 -2.221280
-3.242465 0.243902 -2.221280
-3.209609 0.143066 -2.204996
3.040230 0.195230 -2.484309
2.950072 0.190764 -2.567159
2.944083 0.141183 -2.557353
3.028866 0.114004 -2.473833
-2.944083 0.141183 -2.557353
-2.950072 0.190764 -2.567159
-3.040230 0.195230 -2.484309
-3.028866 0.114004 -2.473833
3.082048 0.092943 -2.514056
2.975865 0.114567 -2.617844
2.984249 0.167409 -2.630585
3.094479 0.167445 -2.530507
-2.984249 0.167409 -2.630585
-2.975865 0.114567 -2.617844
-3.082048 0.092943 -2.514056
-3.094479 0.167445 -2.530507
3.058159 0.203599 -2.453328
3.045547 0.118968 -2.442801
-3.058159 0.203599 -2.453328
-3.045547 0.118968 -2.442801
3.098411 0.221413 -2.377990
3.083274 0.129307 -2.367355
-3.098411 0.221413 -2.377990
-3.083274 0.129307 -2.367355
3.107105 0.096594 -2.482368
3.121730 0.174032 -2.498616
-3.107105 0.096594 -2.482368
-3.121730 0.174032 -2.498616
3.155424 0.102258 -2.413184
3.174609 0.186399 -2.429194
-3.155424 0.102258 -2.413184
-3.174609 0.186399 -2.429194
3.117495 0.229739 -2.344065
3.101081 0.134357 -2.333473
-3.101081 0.134357 -2.333473
-3.117495 0.229739 -2.344065
3.182704 0.108585 -2.361164
3.204139 0.195749 -2.376987
-3.204139 0.195749 -2.376987
-3.182704 0.108585 -2.361164
3.200633 0.317444 -1.738996
3.242069 0.448952 -1.739991
3.198007 0.447696 -1.561969
-3.242069 0.448952 -1.739991
-3.200633 0.317444 -1.738996
-3.198007 0.447696 -1.561969
3.182394 0.618034 -1.601161
3.224298 0.579391 -1.753786
-3.224298 0.579391 -1.753786
-3.182394 0.618034 -1.601161
2.983261 0.660437 -1.635764
3.016817 0.603042 -1.781239
2.988866 0.494832 -1.779681
2.907438 0.528699 -1.618578
-2.988866 0.494832 -1.779681
-3.016817 0.603042 -1.781239
-2.983261 0.660437 -1.635764
-2.907438 0.528699 -1.618578
2.879892 0.141716 -1.816318
2.828052 0.064964 -1.963865
-2.828052 0.064964 -1.963865
-2.879892 0.141716 -1.816318
2.993239 0.141493 -1.959406
2.918247 0.124429 -2.028597
-2.918247 0.124429 -2.028597
-2.993239 0.141493 -1.959406
2.891010 0.071082 -2.195530
2.906407 0.116919 -2.052363
-2.906407 0.116919 -2.052363
-2.891010 0.071082 -2.195530
2.857439 0.049047 -2.211670
2.801616 0.048824 -2.015127
-2.801616 0.048824 -2.015127
-2.857439 0.049047 -2.211670
3.093534 0.198051 -1.980646
3.041312 0.172019 -1.944651
-3.041312 0.172019 -1.944651
-3.093534 0.198051 -1.980646
2.958874 0.294897 -1.591774
2.926948 0.213029 -1.701009
-2.926948 0.213029 -1.701009
-2.958874 0.294897 -1.591774
2.976212 0.630827 -2.541459
2.998289 0.575632 -2.543789
-2.998289 0.575632 -2.543789
-2.976212 0.630827 -2.541459
3.105136 0.727132 -2.355926
3.122091 0.734296 -2.319462
-3.122091 0.734296 -2.319462
-3.105136 0.727132 -2.355926
3.134530 0.630531 -2.363134
3.151427 0.633684 -2.327434
-3.151427 0.633684 -2.327434
-3.134530 0.630531 -2.363134
3.072639 0.711403 -2.417989
-3.072639 0.711403 -2.417989
3.057171 0.702882 -2.445283
-3.057171 0.702882 -2.445283
3.101839 0.623943 -2.423660
-3.101839 0.623943 -2.423660
3.086420 0.619376 -2.450182
-3.086420 0.619376 -2.450182
3.131355 0.731973 -2.211822
3.134197 0.732392 -2.160703
-3.134197 0.732392 -2.160703
-3.131355 0.731973 -2.211822
3.163613 0.612183 -2.225198
3.186044 0.603763 -2.193070
-3.186044 0.603763 -2.193070
-3.163613 0.612183 -2.225198
3.225200 0.456650 -2.251670
3.230590 0.446571 -2.207723
-3.230590 0.446571 -2.207723
-3.225200 0.456650 -2.251670
3.196290 0.594651 -2.240717
-3.196290 0.594651 -2.240717
3.021348 0.431246 -2.651090
3.128787 0.448879 -2.552375
-3.128787 0.448879 -2.552375
-3.021348 0.431246 -2.651090
3.009003 0.496729 -2.651898
3.112942 0.558143 -2.550319
-3.112942 0.558143 -2.550319
-3.009003 0.496729 -2.651898
3.147213 0.452689 -2.518905
-3.147213 0.452689 -2.518905
3.185308 0.457321 -2.442527
-3.185308 0.457321 -2.442527
3.132336 0.566830 -2.516012
-3.132336 0.566830 -2.516012
3.172307 0.582782 -2.437996
-3.172307 0.582782 -2.437996
3.204933 0.459954 -2.397362
-3.204933 0.459954 -2.397362
3.192675 0.590120 -2.391965
-3.192675 0.590120 -2.391965
2.992193 0.319818 -2.666025
2.987712 0.250446 -2.656437
-2.987712 0.250446 -2.656437
-2.992193 0.319818 -2.666025
3.174933 0.385207 -2.454720
3.200106 0.395525 -2.407729
-3.200106 0.395525 -2.407729
-3.174933 0.385207 -2.454720
3.166398 0.249443 -2.442989
3.189717 0.254970 -2.396157
-3.189717 0.254970 -2.396157
-3.166398 0.249443 -2.442989
3.126312 0.365813 -2.533797
-3.126312 0.365813 -2.533797
3.102813 0.356066 -2.568327
-3.102813 0.356066 -2.568327
3.121701 0.241615 -2.521943
-3.121701 0.241615 -2.521943
3.100071 0.236839 -2.556278
-3.100071 0.236839 -2.556278
3.223072 0.433107 -2.249087
-3.223072 0.433107 -2.249087
3.206116 0.286045 -2.236367
3.208180 0.292553 -2.189715
-3.208180 0.292553 -2.189715
-3.206116 0.286045 -2.236367
3.161550 0.148773 -2.153337
-3.161550 0.148773 -2.153337
3.107206 0.740566 -1.848310
-3.107206 0.740566 -1.848310
3.154277 0.136493 -2.205306
-3.154277 0.136493 -2.205306
3.193396 0.277336 -2.225335
-3.193396 0.277336 -2.225335
2.949661 0.122402 -2.588176
3.052871 0.088448 -2.491142
-3.052871 0.088448 -2.491142
-2.949661 0.122402 -2.588176
2.959307 0.186579 -2.603544
3.069393 0.196608 -2.509785
-3.069393 0.196608 -2.509785
-2.959307 0.186579 -2.603544
3.073404 0.092200 -2.459785
-3.073404 0.092200 -2.459785
3.115626 0.098730 -2.387463
-3.115626 0.098730 -2.387463
3.092242 0.204660 -2.478335
-3.092242 0.204660 -2.478335
3.139486 0.221269 -2.405919
-3.139486 0.221269 -2.405919
3.137820 0.103860 -2.344620
-3.137820 0.103860 -2.344620
3.164046 0.230655 -2.362917
-3.164046 0.230655 -2.362917
3.087964 0.695913 -1.613008
-3.087964 0.695913 -1.613008
3.071528 0.346052 -1.433312
3.143714 0.448612 -1.411530
-3.071528 0.346052 -1.433312
-3.143714 0.448612 -1.411530
3.136853 0.574716 -1.429156
-3.136853 0.574716 -1.429156
3.062466 0.645790 -1.459596
-3.062466 0.645790 -1.459596
2.970642 0.620170 -1.495627
-2.970642 0.620170 -1.495627
2.964848 0.354392 -1.473874
-2.964848 0.354392 -1.473874
2.909617 0.423908 -1.497352
-2.909617 0.423908 -1.497352
2.914473 0.531159 -1.506132
-2.914473 0.531159 -1.506132
0.000000 -0.567400 0.927542
0.502530 -0.546953 0.874188
0.552948 -0.593713 0.947520
0.000000 -0.565509 1.067036
-0.552948 -0.593713 0.947520
-0.502530 -0.546953 0.874188
0.203606 0.999865 0.884050
0.000000 0.874685 0.884050
0.000000 1.038306 1.308846
0.297300 1.228753 1.314503
-0.203606 0.999865 0.884050
-0.297300 1.228753 1.314503
0.000000 -0.548489 1.648837
0.547522 -0.570733 1.684587
0.415828 -0.219984 2.118315
0.000000 -0.322257 1.920329
-0.415828 -0.219984 2.118315
-0.547522 -0.570733 1.684587
0.435423 1.246646 1.735929
0.000000 1.070954 1.724061
0.000000 0.956323 2.092680
0.338873 1.126574 2.125393
-0.435423 1.246646 1.735929
-0.338873 1.126574 2.125393
0.146327 0.591808 2.754553
0.000000 0.643164 2.730917
0.000000 0.608395 2.982460
0.147799 0.561851 2.964249
-0.146327 0.591808 2.754553
-0.147799 0.561851 2.964249
0.226709 0.313996 4.253376
0.000000 0.315806 4.281024
0.000000 -0.111060 4.271349
0.225475 -0.073766 4.244805
-0.226709 0.313996 4.253376
-0.225475 -0.073766 4.244805
0.190684 0.621404 4.113479
0.000000 0.652132 4.123522
-0.190684 0.621404 4.113479
0.168563 -0.131074 2.615723
0.177200 -0.463865 2.577714
-0.168563 -0.131074 2.615723
-0.177200 -0.463865 2.577714
0.430337 0.278455 4.120160
0.428028 -0.010923 4.113551
-0.430337 0.278455 4.120160
-0.428028 -0.010923 4.113551
0.377199 0.486542 4.040636
-0.377199 0.486542 4.040636
0.548020 0.249674 3.537529
0.546859 0.258621 3.889035
0.551087 0.073492 3.884756
0.542494 0.147575 3.519131
-0.551087 0.073492 3.884756
-0.546859 0.258621 3.889035
-0.548020 0.249674 3.537529
-0.542494 0.147575 3.519131
0.487075 0.608410 3.562464
0.440258 0.561440 3.869584
-0.440258 0.561440 3.869584
-0.487075 0.608410 3.562464
0.000000 0.874837 3.676482
0.000000 0.799375 3.910738
0.204674 0.778005 3.891770
0.205785 0.855046 3.645818
-0.204674 0.778005 3.891770
-0.205785 0.855046 3.645818
0.469305 0.575661 3.207155
0.481037 0.597392 3.377068
0.549687 0.327531 3.355026
0.510748 0.241824 3.163721
-0.549687 0.327531 3.355026
-0.481037 0.597392 3.377068
-0.469305 0.575661 3.207155
-0.510748 0.241824 3.163721
0.204544 0.832427 3.450343
0.000000 0.860573 3.461909
-0.204544 0.832427 3.450343
0.203513 0.813668 3.288180
0.000000 0.848733 3.301722
-0.203513 0.813668 3.288180
0.451426 0.240663 3.018109
0.487588 0.161709 3.004169
-0.487588 0.161709 3.004169
-0.451426 0.240663 3.018109
0.511368 0.153679 3.190049
-0.511368 0.153679 3.190049
0.413418 0.495207 3.081839
-0.413418 0.495207 3.081839
0.170519 0.688243 3.123252
0.000000 0.720624 3.134306
-0.170519 0.688243 3.123252
0.307250 -0.413706 2.946767
0.252733 -0.470459 3.047308
0.210583 -0.505106 2.977842
0.246355 -0.469998 2.936378
-0.210583 -0.505106 2.977842
-0.252733 -0.470459 3.047308
-0.307250 -0.413706 2.946767
-0.246355 -0.469998 2.936378
0.255561 -0.412429 2.846869
0.210288 -0.495142 2.904646
-0.255561 -0.412429 2.846869
-0.210288 -0.495142 2.904646
0.136053 -0.557299 2.737988
0.136753 -0.556765 2.856104
-0.136053 -0.557299 2.737988
-0.136753 -0.556765 2.856104
0.058874 -0.586325 3.121131
0.000000 -0.609961 3.096023
0.000000 -0.605935 3.031211
0.053607 -0.591505 3.034876
-0.058874 -0.586325 3.121131
-0.053607 -0.591505 3.034876
0.557443 0.364551 3.230763
0.620495 0.428815 3.446072
0.650531 0.411001 3.443886
0.597428 0.347524 3.225409
-0.650531 0.411001 3.443886
-0.620495 0.428815 3.446072
-0.557443 0.364551 3.230763
-0.597428 0.347524 3.225409
0.566736 0.339356 3.374398
0.527335 0.291052 3.155330
-0.527335 0.291052 3.155330
-0.566736 0.339356 3.374398
0.568417 0.265872 3.557392
-0.568417 0.265872 3.557392
0.600985 0.322805 3.549073
-0.600985 0.322805 3.549073
0.566346 0.235468 3.149565
-0.566346 0.235468 3.149565
0.603742 0.243209 3.550898
-0.603742 0.243209 3.550898
0.833610 -0.005750 0.036767
1.001727 0.093686 0.486505
0.616743 -0.144480 0.465366
0.656267 -0.223311 0.134271
-0.616743 -0.144480 0.465366
-1.001727 0.093686 0.486505
-0.833610 -0.005750 0.036767
-0.656267 -0.223311 0.134271
0.564283 0.690018 -0.100230
0.703647 0.757096 0.391910
1.028249 0.634701 0.452090
0.821966 0.480589 -0.058997
-1.028249 0.634701 0.452090
-0.703647 0.757096 0.391910
-0.564283 0.690018 -0.100230
-0.821966 0.480589 -0.058997
0.000000 0.720739 -0.125266
0.000000 0.785768 0.379392
0.295785 0.859289 0.528930
0.131103 0.802492 -0.122373
-0.295785 0.859289 0.528930
-0.131103 0.802492 -0.122373
0.391427 -0.444413 0.259674
0.383389 -0.413216 0.628402
0.000000 -0.498872 0.711728
0.000000 -0.497378 0.323375
-0.383389 -0.413216 0.628402
-0.391427 -0.444413 0.259674
0.865926 0.264465 2.320529
0.719939 0.000317 2.160501
-0.719939 0.000317 2.160501
-0.865926 0.264465 2.320529
0.567169 0.263577 2.470291
0.470560 0.055259 2.381503
-0.470560 0.055259 2.381503
-0.567169 0.263577 2.470291
0.864440 0.503778 2.368855
-0.864440 0.503778 2.368855
0.563460 0.431607 2.536654
-0.563460 0.431607 2.536654
0.566224 0.899967 2.362881
-0.566224 0.899967 2.362881
0.481404 0.680263 2.557527
-0.481404 0.680263 2.557527
0.000000 0.864938 2.287398
0.277553 0.990305 2.350811
-0.277553 0.990305 2.350811
0.000000 0.756194 2.451351
0.186089 0.843892 2.494439
-0.186089 0.843892 2.494439
0.389623 -0.105872 2.143532
-0.389623 -0.105872 2.143532
0.265547 -0.067496 2.325161
-0.265547 -0.067496 2.325161
0.000000 -0.166356 2.600016
0.084285 -0.131904 2.610975
0.088600 -0.486888 2.556755
0.000000 -0.498497 2.555773
-0.088600 -0.486888 2.556755
-0.084285 -0.131904 2.610975
0.000000 -0.580589 2.742216
0.068420 -0.566693 2.748052
0.066118 -0.580098 2.846493
0.000000 -0.595351 2.852937
-0.066118 -0.580098 2.846493
-0.068420 -0.566693 2.748052
0.131312 -0.066320 2.260256
0.188845 -0.145670 2.133402
-0.188845 -0.145670 2.133402
-0.131312 -0.066320 2.260256
0.000000 -0.026926 2.255111
0.000000 -0.056436 2.052024
0.000000 -0.228729 1.971916
0.175944 -0.199328 2.060682
-0.175944 -0.199328 2.060682
0.448822 0.236124 2.599857
0.367920 0.042172 2.526206
-0.367920 0.042172 2.526206
-0.448822 0.236124 2.599857
0.444724 0.346427 2.656466
-0.444724 0.346427 2.656466
0.390554 0.564333 2.667360
-0.390554 0.564333 2.667360
0.000000 0.697608 2.606516
0.166154 0.711057 2.616992
-0.166154 0.711057 2.616992
0.217055 -0.067619 2.458429
-0.217055 -0.067619 2.458429
0.107799 -0.053246 2.448718
0.000000 -0.134155 2.431366
-0.107799 -0.053246 2.448718
0.151572 -0.574600 2.674792
0.298101 -0.368772 2.818283
-0.298101 -0.368772 2.818283
-0.151572 -0.574600 2.674792
0.076248 -0.607291 2.669481
0.000000 -0.603691 2.667245
-0.076248 -0.607291 2.669481
0.182452 -0.535870 3.099176
0.161558 -0.543172 3.017957
-0.161558 -0.543172 3.017957
-0.182452 -0.535870 3.099176
0.000000 -0.618539 3.466952
0.039076 -0.576563 3.467414
0.035967 -0.601195 3.536454
0.000000 -0.632060 3.533849
-0.035967 -0.601195 3.536454
-0.039076 -0.576563 3.467414
0.000000 -0.640538 3.625645
0.129004 -0.633929 3.633604
-0.129004 -0.633929 3.633604
0.000000 -0.641743 3.384680
0.040498 -0.609716 3.380712
-0.040498 -0.609716 3.380712
0.000000 -0.716923 3.264738
0.045245 -0.690437 3.257473
0.045923 -0.647919 3.307480
0.000000 -0.678568 3.321794
-0.045923 -0.647919 3.307480
-0.045245 -0.690437 3.257473
0.063896 -0.659780 3.235142
0.089437 -0.599275 3.263122
-0.089437 -0.599275 3.263122
-0.063896 -0.659780 3.235142
0.000000 -0.368692 4.161963
0.197632 -0.324594 4.139156
-0.197632 -0.324594 4.139156
0.000000 -0.613236 3.912938
0.169797 -0.533966 3.904771
-0.169797 -0.533966 3.904771
0.396448 -0.231348 4.024713
-0.396448 -0.231348 4.024713
0.364868 -0.436506 3.868234
-0.364868 -0.436506 3.868234
0.527046 -0.147416 3.846445
0.538699 0.002352 3.506461
-0.538699 0.002352 3.506461
-0.527046 -0.147416 3.846445
0.503006 -0.302870 3.740501
0.534896 -0.206327 3.493785
-0.534896 -0.206327 3.493785
-0.503006 -0.302870 3.740501
0.508035 0.010267 3.331996
0.531815 0.084076 3.344283
-0.508035 0.010267 3.331996
-0.531815 0.084076 3.344283
0.484247 -0.192791 3.319702
-0.484247 -0.192791 3.319702
0.164386 -0.531469 2.590290
0.311189 -0.295807 2.713565
-0.311189 -0.295807 2.713565
-0.164386 -0.531469 2.590290
0.407761 -0.075916 2.851241
-0.407761 -0.075916 2.851241
0.380640 -0.264717 2.885880
-0.380640 -0.264717 2.885880
0.082424 -0.554283 2.568219
0.000000 -0.565675 2.566084
-0.082424 -0.554283 2.568219
0.456902 0.018643 3.155374
-0.456902 0.018643 3.155374
0.461866 -0.002092 3.019220
-0.461866 -0.002092 3.019220
0.436138 -0.247098 3.034270
-0.436138 -0.247098 3.034270
0.071039 -0.553496 3.470227
0.068311 -0.580019 3.378735
-0.071039 -0.553496 3.470227
-0.068311 -0.580019 3.378735
0.107041 -0.563107 3.141283
0.108910 -0.570675 3.041990
-0.108910 -0.570675 3.041990
-0.107041 -0.563107 3.141283
0.091681 -0.663409 3.225893
0.114480 -0.621765 3.235741
-0.114480 -0.621765 3.235741
-0.091681 -0.663409 3.225893
0.050635 -0.733690 3.215344
-0.050635 -0.733690 3.215344
0.000000 -0.763099 3.215446
0.000000 -0.720256 3.123945
0.000000 -0.664852 3.117704
0.024120 -0.653568 3.131708
0.030281 -0.678294 3.138490
-0.024120 -0.653568 3.131708
-0.030281 -0.678294 3.138490
0.035137 -0.623850 3.120273
-0.035137 -0.623850 3.120273
0.120403 -0.620271 3.152199
0.107041 -0.656497 3.151911
0.083181 -0.649261 3.154313
0.092525 -0.624261 3.153274
-0.083181 -0.649261 3.154313
-0.107041 -0.656497 3.151911
-0.120403 -0.620271 3.152199
-0.092525 -0.624261 3.153274
0.084372 -0.600350 3.144818
-0.084372 -0.600350 3.144818
0.046775 -0.696649 3.139219
0.054285 -0.670834 3.151528
-0.046775 -0.696649 3.139219
-0.054285 -0.670834 3.151528
0.054834 -0.606310 3.137351
-0.054834 -0.606310 3.137351
0.049776 -0.620069 3.176816
0.034935 -0.628561 3.166398
-0.049776 -0.620069 3.176816
-0.034935 -0.628561 3.166398
0.067323 -0.614968 3.177220
-0.067323 -0.614968 3.177220
0.049451 -0.652746 3.184529
0.066775 -0.643532 3.183151
-0.049451 -0.652746 3.184529
-0.066775 -0.643532 3.183151
0.034783 -0.659196 3.175597
-0.034783 -0.659196 3.175597
0.068383 -0.628792 3.185106
-0.068383 -0.628792 3.185106
0.032460 -0.644225 3.175561
-0.032460 -0.644225 3.175561
0.046537 -0.635321 3.197336
-0.046537 -0.635321 3.197336
0.390986 -0.473634 3.232761
0.317718 -0.469925 3.109696
0.399652 -0.321131 2.983506
-0.399652 -0.321131 2.983506
-0.317718 -0.469925 3.109696
-0.390986 -0.473634 3.232761
0.217777 -0.555012 3.264493
0.205821 -0.539377 3.173014
-0.205821 -0.539377 3.173014
-0.217777 -0.555012 3.264493
0.120490 -0.583835 3.203043
-0.120490 -0.583835 3.203043
0.130995 -0.615386 3.198209
0.112922 -0.659953 3.193144
-0.112922 -0.659953 3.193144
-0.130995 -0.615386 3.198209
0.051335 -0.723654 3.164854
-0.051335 -0.723654 3.164854
0.000000 -0.747399 3.155027
0.456902 -0.213570 3.155374
-0.456902 -0.213570 3.155374
0.336528 -0.530271 3.700991
-0.336528 -0.530271 3.700991
0.455784 -0.340337 3.478655
0.426830 -0.398533 3.384745
-0.426830 -0.398533 3.384745
-0.455784 -0.340337 3.478655
0.449687 -0.418714 3.635220
-0.449687 -0.418714 3.635220
0.349912 -0.493122 3.344103
-0.349912 -0.493122 3.344103
0.214328 -0.539896 3.351224
-0.214328 -0.539896 3.351224
0.125627 -0.596909 2.994970
0.163347 -0.556455 2.984400
-0.163347 -0.556455 2.984400
-0.125627 -0.596909 2.994970
0.068095 -0.626353 2.992351
-0.068095 -0.626353 2.992351
0.057936 -0.568208 2.947893
0.116183 -0.550748 2.947698
-0.116183 -0.550748 2.947698
-0.057936 -0.568208 2.947893
0.202106 -0.515005 2.962986
-0.202106 -0.515005 2.962986
0.070570 -0.608785 2.895231
0.000000 -0.618186 2.888153
-0.070570 -0.608785 2.895231
0.058961 -0.567580 2.947893
0.000000 -0.581296 2.943672
-0.058961 -0.567580 2.947893
0.135540 -0.582897 2.902236
-0.135540 -0.582897 2.902236
0.116883 -0.551491 2.947698
-0.116883 -0.551491 2.947698
0.202178 -0.512645 2.921508
-0.202178 -0.512645 2.921508
0.194068 -0.509730 2.942712
-0.194068 -0.509730 2.942712
0.000000 -0.611310 3.000324
0.000000 -0.582133 2.943672
0.192784 -0.510502 2.942712
-0.192784 -0.510502 2.942712
0.289941 -0.489998 3.582435
0.370258 -0.421181 3.541201
-0.370258 -0.421181 3.541201
-0.289941 -0.489998 3.582435
0.247192 -0.470986 3.518683
0.313635 -0.439587 3.506339
-0.313635 -0.439587 3.506339
-0.247192 -0.470986 3.518683
0.401672 -0.371492 3.480524
-0.401672 -0.371492 3.480524
0.344991 -0.411535 3.482399
-0.344991 -0.411535 3.482399
0.369111 -0.416982 3.423078
-0.369111 -0.416982 3.423078
0.311975 -0.439998 3.459658
-0.311975 -0.439998 3.459658
0.295460 -0.478800 3.393114
-0.295460 -0.478800 3.393114
0.246269 -0.469983 3.441628
-0.246269 -0.469983 3.441628
0.157907 -0.563071 3.559433
-0.157907 -0.563071 3.559433
0.186291 -0.501065 3.507572
-0.186291 -0.501065 3.507572
0.105367 -0.515098 3.471288
0.147806 -0.492357 3.461433
-0.147806 -0.492357 3.461433
-0.105367 -0.515098 3.471288
0.197690 -0.485452 3.444441
0.205533 -0.507212 3.398944
-0.205533 -0.507212 3.398944
-0.197690 -0.485452 3.444441
0.110389 -0.535755 3.414968
-0.110389 -0.535755 3.414968
0.091204 -0.582133 3.547940
-0.091204 -0.582133 3.547940
1.880640 0.232041 0.991820
2.078907 0.439810 1.127887
-2.078907 0.439810 1.127887
-1.880640 0.232041 0.991820
2.066050 0.261644 0.722846
2.252167 0.469702 0.873762
-2.252167 0.469702 0.873762
-2.066050 0.261644 0.722846
2.082630 0.767557 1.159568
-2.082630 0.767557 1.159568
2.252622 0.796937 0.905486
-2.252622 0.796937 0.905486
1.889334 1.006063 1.065969
-1.889334 1.006063 1.065969
2.014463 1.033451 0.829613
-2.014463 1.033451 0.829613
1.633693 1.032296 0.886431
-1.633693 1.032296 0.886431
1.825344 1.008400 0.596895
-1.825344 1.008400 0.596895
1.626045 0.301629 0.821764
-1.626045 0.301629 0.821764
1.824421 0.330929 0.531945
-1.824421 0.330929 0.531945
1.489884 0.516101 0.744383
-1.489884 0.516101 0.744383
1.693981 0.542219 0.443865
-1.693981 0.542219 0.443865
1.492958 0.828394 0.770285
-1.492958 0.828394 0.770285
1.694349 0.816157 0.469868
-1.694349 0.816157 0.469868
1.917819 0.740862 0.267286
1.917703 0.531945 0.257589
-1.917703 0.531945 0.257589
-1.917819 0.740862 0.267286
2.200364 0.655733 0.039581
2.200508 0.564557 0.046205
-2.200508 0.564557 0.046205
-2.200364 0.655733 0.039581
1.992349 0.914425 0.374789
-1.992349 0.914425 0.374789
2.165509 0.857175 0.170071
-2.165509 0.857175 0.170071
1.992097 0.359046 0.352293
-1.992097 0.359046 0.352293
2.224556 0.428266 0.152012
-2.224556 0.428266 0.152012
2.191230 0.310922 0.512083
-2.191230 0.310922 0.512083
2.316417 0.450315 0.301312
-2.316417 0.450315 0.301312
2.134635 0.947845 0.567710
-2.134635 0.947845 0.567710
2.344562 0.758358 0.637219
-2.344562 0.758358 0.637219
2.344440 0.488648 0.626223
-2.344440 0.488648 0.626223
2.436705 0.507595 0.378685
2.442650 0.756504 0.386347
-2.442650 0.756504 0.386347
-2.436705 0.507595 0.378685
2.451207 0.297228 0.104458
2.592368 0.475596 0.201276
-2.592368 0.475596 0.201276
-2.451207 0.297228 0.104458
2.592721 0.731057 0.186969
-2.592721 0.731057 0.186969
2.268791 0.327690 -0.057633
-2.268791 0.327690 -0.057633
2.203582 0.483360 -0.166969
-2.203582 0.483360 -0.166969
2.269534 0.849880 -0.086940
2.203899 0.677681 -0.178015
-2.203899 0.677681 -0.178015
-2.269534 0.849880 -0.086940
2.452051 0.897817 0.070837
2.302910 0.918401 0.135540
2.374692 0.928978 0.166009
-2.302910 0.918401 0.135540
-2.452051 0.897817 0.070837
-2.374692 0.928978 0.166009
2.415572 0.876431 0.223195
-2.415572 0.876431 0.223195
2.227196 0.952275 0.214696
-2.227196 0.952275 0.214696
2.383343 0.892550 0.337495
-2.383343 0.892550 0.337495
2.302802 0.892932 0.424796
2.239981 0.952989 0.404933
-2.302802 0.892932 0.424796
-2.239981 0.952989 0.404933
2.187947 0.941748 0.332343
-2.187947 0.941748 0.332343
2.308098 0.964627 0.281499
-2.308098 0.964627 0.281499
1.190174 -0.035498 1.460930
1.001121 -0.381730 1.357446
-1.001121 -0.381730 1.357446
-1.190174 -0.035498 1.460930
0.693445 1.291400 1.518542
1.168594 1.037470 1.573729
-1.168594 1.037470 1.573729
-0.693445 1.291400 1.518542
1.413968 0.013427 1.678981
1.617452 0.263036 1.865128
-1.617452 0.263036 1.865128
-1.413968 0.013427 1.678981
1.662416 0.682846 1.919925
-1.662416 0.682846 1.919925
1.445216 1.004288 1.714537
-1.445216 1.004288 1.714537
1.300989 1.020882 1.602726
-1.300989 1.020882 1.602726
1.287115 0.000765 1.492251
-1.287115 0.000765 1.492251
0.581202 -0.623287 1.258262
0.000000 -0.611267 1.272461
-0.581202 -0.623287 1.258262
0.358288 1.237858 1.529011
-0.358288 1.237858 1.529011
0.000000 1.054634 1.516450
0.620076 -0.150735 -0.169408
0.852023 0.005043 -0.178051
-0.852023 0.005043 -0.178051
-0.620076 -0.150735 -0.169408
0.660062 -0.242899 -0.640065
0.881042 0.011277 -0.585547
-0.881042 0.011277 -0.585547
-0.660062 -0.242899 -0.640065
0.818041 0.528958 -0.249876
-0.818041 0.528958 -0.249876
0.823351 0.586440 -0.549392
-0.823351 0.586440 -0.549392
0.582594 0.739260 -0.283837
-0.582594 0.739260 -0.283837
0.604946 0.802766 -0.576737
-0.604946 0.802766 -0.576737
0.356795 -0.425474 -0.600864
0.371160 -0.353880 -0.115216
0.000000 -0.422437 -0.081904
0.000000 -0.503829 -0.596477
-0.371160 -0.353880 -0.115216
-0.356795 -0.425474 -0.600864
0.000000 0.886179 -0.656970
0.000000 0.795335 -0.324897
0.200035 0.839144 -0.312105
0.301016 0.909743 -0.609480
-0.200035 0.839144 -0.312105
-0.301016 0.909743 -0.609480
0.247192 -0.463915 3.518683
0.313635 -0.432509 3.506339
-0.247192 -0.463915 3.518683
-0.313635 -0.432509 3.506339
0.344991 -0.404457 3.482399
-0.344991 -0.404457 3.482399
0.311975 -0.432927 3.459658
-0.311975 -0.432927 3.459658
0.246269 -0.462905 3.441628
-0.246269 -0.462905 3.441628
0.197690 -0.478374 3.444441
0.147806 -0.485286 3.461433
-0.147806 -0.485286 3.461433
-0.197690 -0.478374 3.444441
0.186291 -0.493987 3.507572
-0.186291 -0.493987 3.507572
2.656971 0.606339 -1.042239
2.798601 0.568554 -1.339517
2.796010 0.426556 -1.328500
2.656415 0.439341 -1.030962
-2.796010 0.426556 -1.328500
-2.798601 0.568554 -1.339517
-2.656971 0.606339 -1.042239
-2.656415 0.439341 -1.030962
2.744524 0.736814 -0.991503
2.874856 0.683532 -1.310780
-2.874856 0.683532 -1.310780
-2.744524 0.736814 -0.991503
2.874235 0.323541 -1.282865
2.744640 0.316788 -0.963494
-2.874235 0.323541 -1.282865
-2.744640 0.316788 -0.963494
3.021081 0.310482 -1.210261
2.905707 0.297848 -0.854404
-3.021081 0.310482 -1.210261
-2.905707 0.297848 -0.854404
2.904148 0.770891 -0.885400
3.012907 0.714960 -1.241473
-3.012907 0.714960 -1.241473
-2.904148 0.770891 -0.885400
3.023874 0.638575 -0.803452
3.119421 0.607443 -1.185340
-3.119421 0.607443 -1.185340
-3.023874 0.638575 -0.803452
3.024689 0.441722 -0.790212
3.124371 0.440907 -1.169388
-3.124371 0.440907 -1.169388
-3.024689 0.441722 -0.790212
2.764315 0.441376 0.023290
2.590643 0.224797 -0.092647
-2.590643 0.224797 -0.092647
-2.764315 0.441376 0.023290
2.765195 0.746194 0.004012
-2.765195 0.746194 0.004012
2.592772 0.947398 -0.138347
-2.592772 0.947398 -0.138347
2.367665 0.891128 -0.324854
-2.367665 0.891128 -0.324854
2.365883 0.258368 -0.284825
-2.365883 0.258368 -0.284825
2.244823 0.443317 -0.398995
-2.244823 0.443317 -0.398995
2.245580 0.694080 -0.414846
-2.245580 0.694080 -0.414846
2.873499 0.413923 -1.527582
2.877258 0.545271 -1.538520
-2.877258 0.545271 -1.538520
-2.873499 0.413923 -1.527582
2.948881 0.653828 -1.523932
-2.948881 0.653828 -1.523932
2.948636 0.320150 -1.495166
-2.948636 0.320150 -1.495166
3.091470 0.311348 -1.444538
-3.091470 0.311348 -1.444538
3.077070 0.684636 -1.477482
-3.077070 0.684636 -1.477482
3.179205 0.591202 -1.435382
-3.179205 0.591202 -1.435382
3.187956 0.438829 -1.416753
-3.187956 0.438829 -1.416753
2.166425 0.688655 -0.165944
2.166179 0.473915 -0.153556
-2.166179 0.473915 -0.153556
-2.166425 0.688655 -0.165944
2.252810 0.878516 -0.075584
-2.252810 0.878516 -0.075584
2.251872 0.300200 -0.042576
-2.251872 0.300200 -0.042576
2.461373 0.270258 0.127885
-2.461373 0.270258 0.127885
2.462657 0.926951 0.090411
-2.462657 0.926951 0.090411
2.622101 0.742803 0.214595
-2.622101 0.742803 0.214595
2.621617 0.466859 0.230352
-2.621617 0.466859 0.230352
0.633034 0.322805 3.549073
-0.633034 0.322805 3.549073
0.617948 0.331095 3.484189
0.631519 0.368916 3.409088
-0.617948 0.331095 3.484189
-0.631519 0.368916 3.409088
0.598604 0.236463 3.505660
-0.598604 0.236463 3.505660
0.597039 0.327697 3.267227
0.572984 0.272214 3.214854
-0.597039 0.327697 3.267227
-0.572984 0.272214 3.214854
0.531577 0.166233 3.274009
-0.531577 0.166233 3.274009
0.546635 0.163275 3.433208
-0.546635 0.163275 3.433208
0.594203 0.140634 3.348107
-0.594203 0.140634 3.348107
0.496606 0.192705 3.348107
-0.496606 0.192705 3.348107
0.154480 -0.530625 2.945201
-0.154480 -0.530625 2.945201
2.840960 0.556390 -1.499278
2.837092 0.407451 -1.487092
-2.837092 0.407451 -1.487092
-2.840960 0.556390 -1.499278
2.921861 0.678849 -1.479285
-2.921861 0.678849 -1.479285
2.921493 0.300677 -1.447511
-2.921493 0.300677 -1.447511
3.081435 0.289760 -1.385347
-3.081435 0.289760 -1.385347
3.067077 0.713286 -1.421530
-3.067077 0.713286 -1.421530
3.181852 0.605603 -1.370960
-3.181852 0.605603 -1.370960
3.190576 0.432343 -1.350953
-3.190576 0.432343 -1.350953
2.192168 0.697074 -0.309262
2.191634 0.451008 -0.294313
-2.191634 0.451008 -0.294313
-2.192168 0.697074 -0.309262
2.302694 0.901215 -0.214169
-2.302694 0.901215 -0.214169
2.301251 0.261694 -0.175533
-2.301251 0.261694 -0.175533
2.530485 0.228145 0.016046
-2.530485 0.228145 0.016046
2.532303 0.956561 -0.027951
-2.532303 0.956561 -0.027951
2.707519 0.753070 0.112907
-2.707519 0.753070 0.112907
2.706790 0.446354 0.131442
-2.706790 0.446354 0.131442
-0.313635 -0.432509 3.506086
-0.370705 -0.384890 3.494759
-0.369854 -0.385099 3.470985
-0.311975 -0.432927 3.459658
-0.197690 -0.478374 3.444441
-0.138167 -0.483764 3.449203
-0.128484 -0.497025 3.502818
-0.186291 -0.493987 3.507572
-0.246269 -0.462905 3.441628
-0.247192 -0.463915 3.518683
0.197690 -0.478374 3.444441
0.246269 -0.462905 3.441628
0.247192 -0.463915 3.518683
0.186291 -0.493987 3.507572
0.311975 -0.432927 3.459658
0.313635 -0.432509 3.506086
0.128484 -0.497025 3.502818
0.138167 -0.483764 3.449203
0.369854 -0.385099 3.470985
0.370705 -0.384890 3.494759
-0.116183 -0.530322 2.964451
-0.154480 -0.510199 2.963773
-0.201132 -0.472039 2.871061
-0.131413 -0.537162 2.846104
-0.058961 -0.553201 2.830895
-0.057936 -0.547782 2.964869
0.000000 -0.566476 2.831688
0.000000 -0.561714 2.963499
0.116183 -0.530322 2.964451
0.131413 -0.537162 2.846104
0.201132 -0.472039 2.871061
0.154480 -0.510199 2.963773
0.057936 -0.547782 2.964869
0.058961 -0.553201 2.830895
0.246355 -0.422631 2.875909
0.193498 -0.432155 2.987459
-0.246355 -0.422631 2.875909
-0.193498 -0.432155 2.987459
0.684017 -0.251469 -0.629840
0.913017 0.011932 -0.579453
0.853232 0.607969 -0.545096
0.369744 -0.440670 -0.594009
-0.311940 0.943006 -0.600983
-0.626902 0.832147 -0.571081
0.000000 -0.521868 -0.589840
0.626902 0.832147 -0.571081
0.311940 0.943006 -0.600983
-0.684017 -0.251469 -0.629840
-0.369744 -0.440670 -0.594009
-0.853232 0.607969 -0.545096
-0.913017 0.011932 -0.579453
0.000000 0.918586 -0.648712
1.799981 1.398346 -5.400948
1.796779 1.252995 -5.371179
2.118251 0.887369 -5.350126
2.167953 0.979839 -5.376843
-2.118251 0.887369 -5.350126
-1.796779 1.252995 -5.371179
-1.799981 1.398346 -5.400948
-2.167953 0.979839 -5.376843
2.253106 0.444810 -5.441323
2.192634 0.419956 -5.406453
1.929698 0.115738 -5.496871
1.952130 0.096580 -5.544814
-1.929698 0.115738 -5.496871
-2.192634 0.419956 -5.406453
-2.253106 0.444810 -5.441323
-1.952130 0.096580 -5.544814
1.489146 0.196163 -5.564821
1.447848 0.188641 -5.622599
-1.489146 0.196163 -5.564821
-1.447848 0.188641 -5.622599
1.188744 0.507210 -5.570846
1.103992 0.544677 -5.629489
-1.188744 0.507210 -5.570846
-1.103992 0.544677 -5.629489
1.158422 0.920311 -5.525666
1.069287 1.017542 -5.577772
-1.158422 0.920311 -5.525666
-1.069287 1.017542 -5.577772
1.380798 1.232248 -5.451243
1.323819 1.374601 -5.492585
-1.380798 1.232248 -5.451243
-1.323819 1.374601 -5.492585
2.212146 1.008006 -5.755044
2.268134 1.019910 -5.929509
1.912782 1.410132 -5.956436
1.869769 1.388778 -5.779734
-1.912782 1.410132 -5.956436
-2.268134 1.019910 -5.929509
-2.212146 1.008006 -5.755044
-1.869769 1.388778 -5.779734
2.197126 0.999745 -5.558285
1.836118 1.405930 -5.583082
-2.197126 0.999745 -5.558285
-1.836118 1.405930 -5.583082
2.009108 0.201537 -5.904899
2.056127 0.191718 -6.081348
2.296411 0.516888 -5.985036
2.288086 0.518658 -5.810859
-2.296411 0.516888 -5.985036
-2.056127 0.191718 -6.081348
-2.009108 0.201537 -5.904899
-2.288086 0.518658 -5.810859
1.984254 0.141033 -5.719799
2.278991 0.479153 -5.619410
-1.984254 0.141033 -5.719799
-2.278991 0.479153 -5.619410
1.543041 0.281820 -5.978665
1.574206 0.271954 -6.158707
-1.574206 0.271954 -6.158707
-1.543041 0.281820 -5.978665
1.491113 0.228610 -5.796819
-1.491113 0.228610 -5.796819
1.222183 0.608399 -5.988910
1.240664 0.608202 -6.171543
-1.240664 0.608202 -6.171543
-1.222183 0.608399 -5.988910
1.153300 0.575519 -5.805534
-1.153300 0.575519 -5.805534
1.188847 1.041736 -5.943614
1.205472 1.054127 -6.126161
-1.205472 1.054127 -6.126161
-1.188847 1.041736 -5.943614
1.118721 1.036047 -5.756235
-1.118721 1.036047 -5.756235
1.428540 1.368715 -5.865058
1.455889 1.390478 -6.045021
-1.455889 1.390478 -6.045021
-1.428540 1.368715 -5.865058
1.369902 1.383672 -5.673017
-1.369902 1.383672 -5.673017
2.187284 0.984654 -5.930621
1.892090 1.306850 -5.953506
-1.892090 1.306850 -5.953506
-2.187284 0.984654 -5.930621
2.010659 0.300168 -6.055288
2.250439 0.568721 -5.975793
-2.250439 0.568721 -5.975793
-2.010659 0.300168 -6.055288
1.611035 0.365589 -6.119869
-1.611035 0.365589 -6.119869
1.333749 0.643843 -6.131413
-1.333749 0.643843 -6.131413
1.304284 1.012774 -6.094349
-1.304284 1.012774 -6.094349
1.512954 1.290989 -6.027113
-1.512954 1.290989 -6.027113
2.204365 0.976338 -6.155013
1.932303 1.266669 -6.177835
-1.932303 1.266669 -6.177835
-2.204365 0.976338 -6.155013
2.039880 0.357233 -6.264998
2.260053 0.599476 -6.193447
-2.260053 0.599476 -6.193447
-2.039880 0.357233 -6.264998
1.673978 0.413426 -6.325575
-1.673978 0.413426 -6.325575
1.417722 0.666282 -6.339147
-1.417722 0.666282 -6.339147
1.389768 1.001216 -6.307155
-1.389768 1.001216 -6.307155
1.584277 1.253609 -6.245713
-1.584277 1.253609 -6.245713
1.727298 1.184529 -6.731597
2.016032 1.191508 -6.674476
2.102539 1.139556 -7.488650
1.856488 1.103978 -7.492517
-2.102539 1.139556 -7.488650
-2.016032 1.191508 -6.674476
-1.727298 1.184529 -6.731597
-1.856488 1.103978 -7.492517
1.558313 0.982853 -6.781827
1.733939 0.902011 -7.483946
-1.558313 0.982853 -6.781827
-1.733939 0.902011 -7.483946
1.583836 0.714583 -6.803148
1.786590 0.670877 -7.482460
-1.583836 0.714583 -6.803148
-1.786590 0.670877 -7.482460
1.800870 0.511443 -6.784216
1.996418 0.510153 -7.472323
-1.800870 0.511443 -6.784216
-1.996418 0.510153 -7.472323
2.102020 0.474810 -6.730609
2.253507 0.539012 -7.468678
-2.102020 0.474810 -6.730609
-2.253507 0.539012 -7.468678
2.244538 0.964631 -6.650862
2.284853 0.664732 -6.674931
2.390911 0.710618 -7.473773
2.324877 0.962318 -7.475093
-2.390911 0.710618 -7.473773
-2.284853 0.664732 -6.674931
-2.244538 0.964631 -6.650862
-2.324877 0.962318 -7.475093
2.426671 0.963144 -7.961035
2.130391 1.302138 -8.106590
-2.426671 0.963144 -7.961035
-2.130391 1.302138 -8.106590
2.356206 0.325510 -7.764153
2.513776 0.576321 -7.918266
-2.356206 0.325510 -7.764153
-2.513776 0.576321 -7.918266
2.047385 0.280632 -7.764153
-2.047385 0.280632 -7.764153
1.793207 0.474063 -7.918266
-1.793207 0.474063 -7.918266
1.702176 0.859115 -7.961035
-1.702176 0.859115 -7.961035
1.832633 1.258565 -8.106590
-1.832633 1.258565 -8.106590
2.112704 -0.215821 -8.015761
2.438378 -0.168496 -8.015761
-2.112704 -0.215821 -8.015761
-2.438378 -0.168496 -8.015761
1.688824 0.879273 -8.515816
1.842405 0.496628 -8.493262
-1.688824 0.879273 -8.515816
-1.842405 0.496628 -8.493262
2.461777 0.586636 -8.493262
2.435876 0.987833 -8.515816
-2.461777 0.586636 -8.493262
-2.435876 0.987833 -8.515816
2.624452 0.003102 -8.196778
2.644665 0.010026 -8.532209
-2.624452 0.003102 -8.196778
-2.644665 0.010026 -8.532209
1.833317 -0.107882 -8.532209
1.855741 -0.108614 -8.196778
-1.833317 -0.107882 -8.532209
-1.855741 -0.108614 -8.196778
1.841020 -0.692053 -8.536445
1.871193 -0.662108 -8.256113
-1.841020 -0.692053 -8.536445
-1.871193 -0.662108 -8.256113
2.737175 -0.536262 -8.256113
2.772785 -0.556648 -8.536445
-2.737175 -0.536262 -8.256113
-2.772785 -0.556648 -8.536445
2.137016 1.304939 -8.529359
1.825024 1.259604 -8.529359
-2.137016 1.304939 -8.529359
-1.825024 1.259604 -8.529359
2.171682 -0.795264 -8.156323
2.513925 -0.745531 -8.156323
-2.171682 -0.795264 -8.156323
-2.513925 -0.745531 -8.156323
2.719559 -0.835122 -8.268834
2.743493 -0.888482 -8.536445
-2.719559 -0.835122 -8.268834
-2.743493 -0.888482 -8.536445
1.962948 -1.001913 -8.536445
1.971154 -0.943880 -8.268834
-1.962948 -1.001913 -8.536445
-1.971154 -0.943880 -8.268834
2.230053 -1.050654 -8.240774
2.523366 -1.008034 -8.240774
-2.230053 -1.050654 -8.240774
-2.523366 -1.008034 -8.240774
2.244845 -1.172456 -8.535065
2.544256 -1.128947 -8.535065
-2.244845 -1.172456 -8.535065
-2.544256 -1.128947 -8.535065
2.020422 -0.967145 -8.623854
2.245482 -1.139151 -8.622223
-2.020422 -0.967145 -8.623854
-2.245482 -1.139151 -8.622223
2.532879 -1.097389 -8.622223
2.678434 -0.871519 -8.623854
-2.532879 -1.097389 -8.622223
-2.678434 -0.871519 -8.623854
1.911421 -0.666396 -8.623854
-1.911421 -0.666396 -8.623854
2.697899 -0.552108 -8.623854
-2.697899 -0.552108 -8.623854
1.842302 1.203711 -8.622223
1.754411 0.852443 -8.622273
-1.842302 1.203711 -8.622223
-1.754411 0.852443 -8.622273
2.381745 0.943608 -8.622273
2.140635 1.247063 -8.622223
-2.381745 0.943608 -8.622273
-2.140635 1.247063 -8.622223
2.581746 -0.001941 -8.622273
-2.581746 -0.001941 -8.622273
1.895961 -0.101596 -8.622273
-1.895961 -0.101596 -8.622273
1.896417 0.481695 -8.601646
-1.896417 0.481695 -8.601646
2.413256 0.556801 -8.601646
-2.413256 0.556801 -8.601646
0.329781 0.835110 -2.066990
0.581819 1.219218 -1.896233
0.901261 1.060445 -2.049197
0.553141 0.823474 -2.439426
-0.901261 1.060445 -2.049197
-0.581819 1.219218 -1.896233
-0.329781 0.835110 -2.066990
-0.553141 0.823474 -2.439426
0.215618 0.464850 -2.183295
0.338852 0.483654 -2.558596
-0.215618 0.464850 -2.183295
-0.338852 0.483654 -2.558596
0.226342 0.096997 -2.065662
0.335249 0.086548 -2.448726
-0.226342 0.096997 -2.065662
-0.335249 0.086548 -2.448726
0.407342 -0.279889 -1.761118
0.487153 -0.291808 -2.106087
-0.407342 -0.279889 -1.761118
-0.487153 -0.291808 -2.106087
0.703849 -0.259723 -1.069361
0.929436 -0.445405 -1.610116
-0.703849 -0.259723 -1.069361
-0.929436 -0.445405 -1.610116
0.905486 0.724300 -0.855444
0.954605 0.030057 -0.855444
1.169673 0.066855 -1.337166
1.105479 0.779500 -1.565931
-1.169673 0.066855 -1.337166
-0.954605 0.030057 -0.855444
-0.905486 0.724300 -0.855444
-1.105479 0.779500 -1.565931
1.572546 0.693513 -2.783963
1.225275 0.953049 -2.892901
-1.572546 0.693513 -2.783963
-1.225275 0.953049 -2.892901
1.324244 -0.448969 -2.861856
1.647479 -0.042146 -2.760456
-1.324244 -0.448969 -2.861856
-1.647479 -0.042146 -2.760456
0.844219 -0.358009 -3.012439
-0.844219 -0.358009 -3.012439
0.545651 0.016013 -3.106097
-0.545651 0.016013 -3.106097
0.512574 0.512859 -3.116472
-0.512574 0.512859 -3.116472
0.753133 0.880830 -3.041011
-0.753133 0.880830 -3.041011
1.558333 0.874934 -4.255974
1.859857 0.509414 -4.203197
1.940733 0.565997 -4.549288
1.623865 0.850161 -4.536694
-1.944923 0.593030 -4.579084
-1.863337 0.497774 -4.127846
-1.559165 0.875870 -4.198679
-1.625272 0.881143 -4.564285
1.888679 0.032141 -4.229842
1.987946 0.159924 -4.704864
-1.992550 0.196269 -4.779483
-1.892412 0.014467 -4.159858
1.222520 -0.235762 -4.344810
0.962003 0.076212 -4.369978
1.125817 0.259311 -4.773883
1.410417 -0.023064 -4.850896
-1.122851 0.305017 -4.869970
-0.957599 0.074594 -4.342690
-1.220403 -0.245953 -4.308130
-1.409950 0.025729 -4.968711
0.939253 0.486781 -4.366522
1.084246 0.616209 -4.674015
-1.080915 0.657738 -4.741875
-0.934649 0.492469 -4.340512
1.158147 0.816420 -4.327675
1.258029 0.838357 -4.595603
-1.256224 0.875521 -4.640970
-1.155465 0.824053 -4.291766
0.655926 1.252617 -1.250313
-0.655926 1.252617 -1.250313
0.630875 0.956496 -0.867602
-0.630875 0.956496 -0.867602
0.344069 -0.512517 -1.158488
0.000000 -0.547576 -1.158488
0.000000 -0.400306 -1.634546
0.266138 -0.379165 -1.647186
-0.344069 -0.512517 -1.158488
-0.266138 -0.379165 -1.647186
0.000000 0.024400 -2.077819
0.132801 0.045832 -2.047559
-0.132801 0.045832 -2.047559
0.000000 0.422025 -2.181116
0.098482 0.436116 -2.174673
-0.098482 0.436116 -2.174673
0.000000 0.796770 -2.066297
0.127978 0.814670 -2.063837
-0.127978 0.814670 -2.063837
0.000000 1.227554 -1.843030
0.239206 1.204993 -1.838585
-0.239206 1.204993 -1.838585
0.000000 1.328715 -1.279410
0.254635 1.308597 -1.279295
-0.254635 1.308597 -1.279295
0.000000 0.995426 -0.950755
0.303832 1.024238 -0.914218
-0.303832 1.024238 -0.914218
1.705874 1.055992 -5.146707
1.368454 1.037896 -5.212687
-1.368454 1.037896 -5.212687
-1.705874 1.055992 -5.146707
1.825221 1.268904 -5.620283
1.430987 1.249242 -5.696156
-1.430987 1.249242 -5.696156
-1.825221 1.268904 -5.620283
1.196423 0.723655 -5.267904
-1.196423 0.723655 -5.267904
1.220239 0.953616 -5.766689
-1.220239 0.953616 -5.766689
1.226738 0.386525 -5.308503
-1.226738 0.386525 -5.308503
1.248981 0.562112 -5.809503
-1.248981 0.562112 -5.809503
1.465928 0.130128 -5.320934
-1.465928 0.130128 -5.320934
1.533671 0.267328 -5.803803
-1.533671 0.267328 -5.803803
1.951193 0.191112 -5.739402
1.820548 0.059703 -5.275790
-1.951193 0.191112 -5.739402
-1.820548 0.059703 -5.275790
2.033098 0.312056 -5.188221
1.979738 0.751294 -5.119023
-1.979738 0.751294 -5.119023
-2.033098 0.312056 -5.188221
2.200384 0.479421 -5.653710
2.129880 0.922396 -5.600327
-2.129880 0.922396 -5.600327
-2.200384 0.479421 -5.653710
1.402474 0.919926 -3.646101
0.945754 0.846377 -3.769376
-0.945754 0.846377 -3.769376
-1.402474 0.919926 -3.646101
0.706572 0.481954 -3.805025
-0.706572 0.481954 -3.805025
0.736281 0.008184 -3.761757
-0.736281 0.008184 -3.761757
1.028319 -0.347670 -3.661902
-1.028319 -0.347670 -3.661902
1.491704 -0.428835 -3.535532
-1.491704 -0.428835 -3.535532
1.527911 -0.340208 -4.097337
-1.528476 -0.379250 -3.985109
1.798982 -0.035340 -3.472047
1.741500 0.612026 -3.516643
-1.741500 0.612026 -3.516643
-1.798982 -0.035340 -3.472047
1.852656 0.053991 -4.978403
1.742129 -0.042846 -5.082183
-1.852656 0.053991 -4.978403
-1.742129 -0.042846 -5.082183
1.588761 -0.033452 -5.040069
-1.588761 -0.033452 -5.040069
1.901798 -0.008816 -4.752734
-1.905646 0.029575 -4.840897
1.516474 -0.134782 -4.842208
-1.516939 -0.089024 -4.956758
1.498637 -0.247463 -4.607018
-1.498945 -0.229375 -4.649693
1.813342 -0.127997 -4.546818
-1.816413 -0.114216 -4.571937
1.645117 -0.271617 -4.504375
-1.646711 -0.265136 -4.515823
1.723747 -0.127635 -4.808256
-1.726031 -0.085433 -4.912563
4 0 1 2 3
4 4 5 6 7
4 8 9 10 11
4 12 13 14 15
4 16 17 18 19
4 20 21 22 23
4 24 25 26 27
4 28 29 30 31
4 10 9 32 33
4 34 13 12 35
4 0 3 36 37
4 38 7 6 39
4 9 0 37 32
4 39 6 13 34
4 32 37 40 41
4 42 39 34 43
4 37 36 44 40
4 45 38 39 42
4 33 32 41 46
4 43 34 35 47
4 48 33 46 49
4 47 35 50 51
4 36 52 53 44
4 54 55 38 45
4 52 56 57 53
4 58 59 55 54
4 56 60 61 57
4 62 63 59 58
4 60 48 49 61
4 51 50 63 62
4 64 65 66 67
4 68 69 70 71
4 72 64 67 73
4 71 70 74 75
4 76 72 73 77
4 75 74 78 79
4 80 81 82 83
4 84 85 86 87
4 88 89 90 91
4 92 93 94 95
4 96 97 98 99
4 100 101 102 103
4 104 105 106 107
4 108 109 110 111
4 83 96 99 80
4 103 102 87 86
4 91 104 107 88
4 111 110 95 94
4 112 113 114 115
4 116 117 118 119
4 120 121 115 114
4 119 122 123 116
4 120 114 113 124
4 117 116 123 125
4 81 115 121 82
4 122 119 85 84
4 126 127 128 129
4 130 131 132 133
4 89 126 129 90
4 133 132 93 92
4 134 135 136 137
4 138 139 140 141
4 142 143 144 145
4 146 147 148 149
4 135 150 151 136
4 152 153 139 138
4 150 154 155 151
4 156 157 153 152
4 143 158 159 144
4 160 161 147 146
4 158 162 163 159
4 164 165 161 160
4 154 166 167 155
4 168 169 157 156
4 162 170 171 163
4 172 173 165 164
4 174 175 176 177
4 178 179 180 181
4 175 134 137 176
4 141 140 179 178
4 182 183 184 185
4 186 187 188 189
4 183 142 145 184
4 149 148 187 186
4 185 190 191 192
4 193 194 189 195
4 196 197 198 174
4 199 200 201 180
4 202 203 204 205
4 206 207 208 209
4 210 211 212 213
4 214 215 216 217
4 218 202 205 219
4 209 208 220 221
4 222 218 219 223
4 221 220 224 225
4 226 210 213 227
4 217 216 228 229
4 230 226 227 231
4 229 228 232 233
4 190 234 235 191
4 236 237 194 193
4 197 238 239 198
4 240 241 200 199
4 234 222 223 235
4 225 224 237 236
4 238 230 231 239
4 233 232 241 240
4 242 243 244 245
4 246 247 248 249
4 250 251 252 253
4 254 255 256 257
4 243 258 259 244
4 260 261 247 246
4 258 262 263 259
4 264 265 261 260
4 251 266 267 252
4 268 269 255 254
4 266 270 271 267
4 272 273 269 268
4 262 274 275 263
4 276 277 265 264
4 270 278 279 271
4 280 281 273 272
4 282 283 284 196
4 285 286 287 201
4 283 242 245 284
4 249 248 286 285
4 192 288 289 290
4 291 292 195 293
4 288 250 253 289
4 257 256 292 291
4 196 294 295 282
4 296 297 201 287
4 282 295 127 298
4 131 296 287 299
4 177 300 301 174
4 302 303 181 180
4 174 301 294 196
4 297 302 180 201
4 192 304 305 185
4 306 307 195 189
4 185 305 308 182
4 309 306 189 188
4 310 120 124 290
4 125 123 311 293
4 290 124 304 192
4 307 125 293 195
4 290 312 313 310
4 314 315 293 311
4 298 316 317 282
4 318 319 299 287
4 320 321 322 323
4 324 325 326 327
4 328 329 330 331
4 332 333 334 335
4 336 320 323 337
4 327 326 338 339
4 340 336 337 341
4 339 338 342 343
4 344 328 331 345
4 335 334 346 347
4 348 344 345 349
4 347 346 350 351
4 312 352 353 313
4 354 355 315 314
4 316 356 357 317
4 358 359 319 318
4 352 340 341 353
4 343 342 355 354
4 356 348 349 357
4 351 350 359 358
4 128 360 361 362
4 363 364 130 365
4 127 295 360 128
4 364 296 131 130
4 294 361 360 295
4 364 363 297 296
4 366 367 301 300
4 302 368 369 303
4 362 361 367 366
4 368 363 365 369
4 294 301 367 361
4 368 302 297 363
4 370 371 372 373
4 374 375 376 377
4 371 370 308 305
4 309 376 375 306
4 304 372 371 305
4 375 374 307 306
4 373 372 113 112
4 117 374 377 118
4 304 124 113 372
4 117 125 307 374
4 90 378 379 91
4 380 381 92 95
4 378 81 80 379
4 86 85 381 380
4 82 382 383 83
4 384 385 84 87
4 382 89 88 383
4 94 93 385 384
4 106 386 387 107
4 388 389 108 111
4 386 97 96 387
4 102 101 389 388
4 98 390 391 99
4 392 393 100 103
4 390 105 104 391
4 110 109 393 392
4 107 387 383 88
4 384 388 111 94
4 387 96 83 383
4 87 102 388 384
4 99 391 379 80
4 380 392 103 86
4 391 104 91 379
4 95 110 392 380
4 97 386 390 98
4 393 389 101 100
4 386 106 105 390
4 109 108 389 393
4 120 394 395 121
4 396 397 123 122
4 394 127 126 395
4 132 131 397 396
4 121 395 382 82
4 385 396 122 84
4 395 126 89 382
4 93 132 396 385
4 128 398 399 129
4 400 401 130 133
4 398 112 115 399
4 119 118 401 400
4 129 399 378 90
4 381 400 133 92
4 399 115 81 378
4 85 119 400 381
4 170 402 403 171
4 404 405 173 172
4 402 167 166 403
4 169 168 405 404
4 136 406 407 137
4 408 409 138 141
4 406 143 142 407
4 148 147 409 408
4 144 410 411 145
4 412 413 146 149
4 410 135 134 411
4 140 139 413 412
4 151 414 406 136
4 409 415 152 138
4 414 158 143 406
4 147 161 415 409
4 155 416 414 151
4 415 417 156 152
4 416 162 158 414
4 161 165 417 415
4 159 418 410 144
4 413 419 160 146
4 418 150 135 410
4 139 153 419 413
4 163 420 418 159
4 419 421 164 160
4 420 154 150 418
4 153 157 421 419
4 167 402 416 155
4 417 405 168 156
4 402 170 162 416
4 165 173 405 417
4 171 403 420 163
4 421 404 172 164
4 403 166 154 420
4 157 169 404 421
4 176 422 423 177
4 424 425 178 181
4 422 183 182 423
4 188 187 425 424
4 137 407 422 176
4 425 408 141 178
4 407 142 183 422
4 187 148 408 425
4 184 426 427 185
4 428 429 186 189
4 426 175 174 427
4 180 179 429 428
4 145 411 426 184
4 429 412 149 186
4 411 134 175 426
4 179 140 412 429
4 191 430 431 192
4 432 433 193 195
4 430 197 196 431
4 201 200 433 432
4 198 434 427 174
4 428 435 199 180
4 434 190 185 427
4 189 194 435 428
4 204 436 437 205
4 438 439 206 209
4 436 211 210 437
4 216 215 439 438
4 212 440 441 213
4 442 443 214 217
4 440 203 202 441
4 208 207 443 442
4 205 437 444 219
4 445 438 209 221
4 437 210 226 444
4 228 216 438 445
4 219 444 446 223
4 447 445 221 225
4 444 226 230 446
4 232 228 445 447
4 213 441 448 227
4 449 442 217 229
4 441 202 218 448
4 220 208 442 449
4 227 448 450 231
4 451 449 229 233
4 448 218 222 450
4 224 220 449 451
4 235 452 430 191
4 433 453 236 193
4 452 238 197 430
4 200 241 453 433
4 239 454 434 198
4 435 455 240 199
4 454 234 190 434
4 194 237 455 435
4 223 446 452 235
4 453 447 225 236
4 446 230 238 452
4 241 232 447 453
4 231 450 454 239
4 455 451 233 240
4 450 222 234 454
4 237 224 451 455
4 203 440 436 204
4 439 443 207 206
4 440 212 211 436
4 215 214 443 439
4 278 456 457 279
4 458 459 281 280
4 456 275 274 457
4 277 276 459 458
4 244 460 461 245
4 462 463 246 249
4 460 251 250 461
4 256 255 463 462
4 252 464 465 253
4 466 467 254 257
4 464 243 242 465
4 248 247 467 466
4 259 468 460 244
4 463 469 260 246
4 468 266 251 460
4 255 269 469 463
4 263 470 468 259
4 469 471 264 260
4 470 270 266 468
4 269 273 471 469
4 267 472 464 252
4 467 473 268 254
4 472 258 243 464
4 247 261 473 467
4 271 474 472 267
4 473 475 272 268
4 474 262 258 472
4 261 265 475 473
4 275 456 470 263
4 471 459 276 264
4 456 278 270 470
4 273 281 459 471
4 279 457 474 271
4 475 458 280 272
4 457 274 262 474
4 265 277 458 475
4 284 476 431 196
4 432 477 285 201
4 476 288 192 431
4 195 292 477 432
4 245 461 476 284
4 477 462 249 285
4 461 250 288 476
4 292 256 462 477
4 289 478 479 290
4 480 481 291 293
4 478 283 282 479
4 287 286 481 480
4 253 465 478 289
4 481 466 257 291
4 465 242 283 478
4 286 248 466 481
4 310 482 394 120
4 397 483 311 123
4 482 298 127 394
4 131 299 483 397
4 177 423 484 300
4 485 424 181 303
4 423 182 308 484
4 309 188 424 485
4 313 486 482 310
4 483 487 314 311
4 486 316 298 482
4 299 319 487 483
4 317 488 479 282
4 480 489 318 287
4 488 312 290 479
4 293 315 489 480
4 322 490 491 323
4 492 493 324 327
4 490 329 328 491
4 334 333 493 492
4 330 494 495 331
4 496 497 332 335
4 494 321 320 495
4 326 325 497 496
4 323 491 498 337
4 499 492 327 339
4 491 328 344 498
4 346 334 492 499
4 337 498 500 341
4 501 499 339 343
4 498 344 348 500
4 350 346 499 501
4 331 495 502 345
4 503 496 335 347
4 495 320 336 502
4 338 326 496 503
4 345 502 504 349
4 505 503 347 351
4 502 336 340 504
4 342 338 503 505
4 353 506 486 313
4 487 507 354 314
4 506 356 316 486
4 319 359 507 487
4 357 508 488 317
4 489 509 358 318
4 508 352 312 488
4 315 355 509 489
4 341 500 506 353
4 507 501 343 354
4 500 348 356 506
4 359 350 501 507
4 349 504 508 357
4 509 505 351 358
4 504 340 352 508
4 355 342 505 509
4 321 494 490 322
4 493 497 325 324
4 494 330 329 490
4 333 332 497 493
4 300 484 510 366
4 511 485 303 369
4 370 510 484 308
4 485 511 376 309
4 512 128 362 513
4 365 130 514 515
4 513 362 366 516
4 369 365 515 517
4 516 366 510 518
4 511 369 517 519
4 518 510 370 520
4 376 511 519 521
4 522 398 128 512
4 130 401 523 514
4 524 112 398 522
4 401 118 525 523
4 520 370 373 526
4 377 376 521 527
4 526 373 112 524
4 118 377 527 525
4 528 529 530 531
4 532 533 528 531
4 534 535 536 537
4 536 535 538 539
4 540 541 542 543
4 544 545 540 543
4 546 547 548 549
4 548 547 550 551
4 552 553 554 555
4 554 553 556 557
4 558 559 560 561
4 560 559 562 563
4 564 565 559 558
4 559 565 566 562
4 529 8 11 530
4 15 14 533 532
4 1 534 537 2
4 539 538 5 4
4 541 24 27 542
4 31 30 545 544
4 17 546 549 18
4 551 550 21 20
4 567 76 77 568
4 79 78 569 570
4 65 552 555 66
4 557 556 69 68
4 571 558 561 572
4 563 562 573 574
4 575 564 558 571
4 562 566 576 573
4 577 578 579 580
4 581 582 583 584
4 578 571 572 579
4 574 573 582 581
4 585 586 578 577
4 582 587 588 583
4 586 575 571 578
4 573 576 587 582
4 589 590 591 592
4 593 590 589 594
4 590 565 564 591
4 566 565 590 593
4 592 591 586 585
4 587 593 594 588
4 591 564 575 586
4 576 566 593 587
4 595 596 597 598
4 599 600 601 602
4 596 585 577 597
4 583 588 600 599
4 592 603 604 589
4 604 605 594 589
4 603 606 607 604
4 607 608 605 604
4 585 596 603 592
4 605 600 588 594
4 596 595 606 603
4 608 601 600 605
4 67 609 610 73
4 611 612 71 75
4 609 598 613 610
4 614 602 612 611
4 66 615 609 67
4 612 616 68 71
4 615 595 598 609
4 602 601 616 612
4 606 617 618 607
4 618 619 608 607
4 617 555 554 618
4 554 557 619 618
4 595 615 617 606
4 619 616 601 608
4 615 66 555 617
4 557 68 616 619
4 620 621 622 623
4 624 625 626 627
4 628 620 623 629
4 627 626 630 631
4 632 628 629 633
4 631 630 634 635
4 636 637 638 639
4 638 637 640 641
4 642 643 644 645
4 646 647 648 649
4 597 650 651 598
4 652 653 599 602
4 650 643 642 651
4 648 647 653 652
4 577 654 650 597
4 653 655 583 599
4 654 656 643 650
4 647 657 655 653
4 598 651 658 613
4 659 652 602 614
4 651 642 645 658
4 649 648 652 659
4 580 660 654 577
4 655 661 584 583
4 662 663 664 665
4 666 667 668 669
4 663 9 8 664
4 14 13 667 666
4 670 671 672 673
4 674 675 676 677
4 0 672 671 1
4 6 5 675 674
4 673 672 663 662
4 667 674 677 668
4 672 0 9 663
4 13 6 674 667
4 678 679 680 681
4 682 679 678 683
4 679 535 534 680
4 538 535 679 682
4 684 685 686 687
4 686 688 689 687
4 685 529 528 686
4 528 533 688 686
4 681 680 671 670
4 675 682 683 676
4 680 534 1 671
4 5 538 682 675
4 665 664 685 684
4 688 666 669 689
4 664 8 529 685
4 533 14 666 688
4 26 690 691 27
4 692 693 28 31
4 690 694 695 691
4 696 697 693 692
4 19 698 690 26
4 693 699 23 28
4 698 700 694 690
4 697 701 699 693
4 18 702 698 19
4 699 703 20 23
4 702 704 700 698
4 701 705 703 699
4 548 706 707 549
4 708 706 548 551
4 706 709 710 707
4 711 709 706 708
4 549 707 702 18
4 703 708 551 20
4 707 710 704 702
4 705 711 708 703
4 27 691 712 542
4 713 692 31 544
4 691 695 714 712
4 715 696 692 713
4 716 717 718 719
4 720 721 716 719
4 717 567 568 718
4 570 569 721 720
4 722 723 724 725
4 726 727 722 725
4 723 632 633 724
4 635 634 727 726
4 714 728 729 712
4 730 731 715 713
4 728 732 733 729
4 733 732 731 730
4 733 734 735 729
4 736 734 733 730
4 543 542 735 734
4 736 544 543 734
4 542 712 729 735
4 730 713 544 736
4 694 737 738 695
4 739 740 697 696
4 737 72 76 738
4 78 74 740 739
4 700 741 737 694
4 740 742 701 697
4 741 64 72 737
4 74 70 742 740
4 704 743 741 700
4 742 744 705 701
4 743 65 64 741
4 70 69 744 742
4 709 745 746 710
4 747 745 709 711
4 745 553 552 746
4 556 553 745 747
4 710 746 743 704
4 744 747 711 705
4 746 552 65 743
4 69 556 747 744
4 695 738 748 714
4 749 739 696 715
4 738 76 567 748
4 569 78 739 749
4 728 750 751 732
4 751 752 731 732
4 750 717 716 751
4 716 721 752 751
4 714 748 750 728
4 752 749 715 731
4 748 567 717 750
4 721 569 749 752
4 632 753 754 628
4 755 756 634 630
4 757 723 722 758
4 722 727 759 758
4 753 632 723 757
4 727 634 756 759
4 621 760 761 622
4 762 763 625 624
4 764 765 766 767
4 768 769 764 767
4 770 767 766 771
4 768 767 770 772
4 773 774 765 764
4 769 775 773 764
4 776 777 778 779
4 780 781 776 779
4 777 782 783 778
4 784 785 781 780
4 560 786 787 561
4 788 786 560 563
4 786 789 790 787
4 791 789 786 788
4 561 787 792 572
4 793 788 563 574
4 787 790 794 792
4 795 791 788 793
4 579 796 797 580
4 798 799 581 584
4 796 800 801 797
4 802 803 799 798
4 580 797 804 805
4 806 798 584 807
4 797 801 808 804
4 809 802 798 806
4 572 792 796 579
4 799 793 574 581
4 792 794 800 796
4 803 795 793 799
4 753 810 811 754
4 812 813 756 755
4 810 568 77 811
4 79 570 813 812
4 73 814 811 77
4 812 815 75 79
4 814 816 754 811
4 755 817 815 812
4 718 818 819 719
4 819 820 720 719
4 818 757 758 819
4 758 759 820 819
4 568 810 818 718
4 820 813 570 720
4 810 753 757 818
4 759 756 813 820
4 821 613 805 804
4 807 614 822 806
4 610 823 814 73
4 815 824 611 75
4 823 825 816 814
4 817 826 824 815
4 823 610 613 821
4 614 611 824 822
4 827 765 774 828
4 775 769 829 830
4 760 831 832 761
4 833 834 763 762
4 831 636 639 832
4 641 640 834 833
4 782 835 836 783
4 837 838 785 784
4 777 839 835 782
4 838 840 781 785
4 776 841 839 777
4 840 841 776 781
4 842 843 844 845
4 846 843 842 847
4 843 637 848 844
4 849 637 843 846
4 850 851 852 853
4 854 855 856 857
4 831 850 853 858
4 857 856 834 859
4 860 842 845 861
4 847 842 862 863
4 851 860 861 852
4 863 862 855 854
4 636 831 858 864
4 859 834 640 865
4 637 636 864 848
4 865 640 637 849
4 848 864 866 867
4 868 865 849 869
4 864 858 870 866
4 871 859 865 868
4 852 861 872 873
4 874 863 854 875
4 861 845 876 872
4 877 847 863 874
4 858 853 878 870
4 879 857 859 871
4 853 852 873 878
4 875 854 857 879
4 844 848 867 880
4 869 849 846 881
4 845 844 880 876
4 881 846 847 877
4 870 878 882 866
4 883 879 871 868
4 878 873 872 882
4 874 875 879 883
4 866 882 880 867
4 881 883 868 869
4 882 872 876 880
4 877 874 883 881
4 884 885 886 825
4 887 888 889 826
4 885 621 620 886
4 626 625 888 887
4 628 754 886 620
4 887 755 630 626
4 754 816 825 886
4 826 817 755 887
4 890 891 885 884
4 888 892 893 889
4 891 760 621 885
4 625 763 892 888
4 760 891 894 831
4 895 892 763 834
4 891 890 783 894
4 784 893 892 895
4 850 896 897 851
4 898 899 856 855
4 896 836 835 897
4 838 837 899 898
4 836 896 894 783
4 895 899 837 784
4 896 850 831 894
4 834 856 899 895
4 839 900 897 835
4 898 901 840 838
4 900 860 851 897
4 855 862 901 898
4 841 902 900 839
4 901 902 841 840
4 902 842 860 900
4 862 842 902 901
4 825 903 808 884
4 809 904 826 889
4 825 823 821 903
4 822 824 826 904
4 808 903 821 804
4 822 904 809 806
4 771 790 789 770
4 789 791 772 770
4 905 794 790 771
4 791 795 906 772
4 801 907 908 808
4 909 910 802 809
4 800 911 907 801
4 910 912 803 802
4 794 905 911 800
4 912 906 795 803
4 808 908 913 884
4 914 909 809 889
4 915 890 884 913
4 889 893 916 914
4 828 783 890 915
4 893 784 830 916
4 778 774 773 779
4 773 775 780 779
4 783 828 774 778
4 775 830 784 780
4 832 917 918 761
4 919 920 833 762
4 639 921 917 832
4 920 922 641 833
4 921 923 924 917
4 925 926 922 920
4 761 918 927 622
4 928 919 762 624
4 724 929 930 725
4 930 931 726 725
4 929 932 933 930
4 933 934 931 930
4 633 935 929 724
4 931 936 635 726
4 935 937 932 929
4 934 938 936 931
4 629 939 935 633
4 936 940 631 635
4 939 941 937 935
4 938 942 940 936
4 638 943 921 639
4 922 943 638 641
4 943 944 923 921
4 926 944 943 922
3 623 939 629
3 631 940 627
3 623 941 939
3 940 942 627
3 622 927 623
3 627 928 624
3 927 945 623
3 627 946 928
4 905 947 948 911
4 949 950 906 912
4 947 951 952 948
4 953 954 950 949
4 911 948 955 907
4 956 949 912 910
4 948 952 957 955
4 958 953 949 956
4 907 955 959 908
4 960 956 910 909
4 955 957 961 959
4 962 958 956 960
4 908 959 963 913
4 964 960 909 914
4 959 961 965 963
4 966 962 960 964
4 771 967 947 905
4 950 968 772 906
4 967 969 951 947
4 954 970 968 950
4 971 972 969 967
4 970 973 974 968
4 975 976 963 965
4 964 977 978 966
4 976 915 913 963
4 914 916 977 964
3 972 971 979
3 980 974 973
4 971 827 828 979
4 830 829 974 980
4 915 976 979 828
4 980 977 916 830
4 976 975 972 979
4 973 978 977 980
3 766 981 771
3 772 982 768
3 981 967 771
3 772 968 982
4 827 971 967 981
4 968 974 829 982
4 765 827 981 766
4 982 829 769 768
4 49 983 984 61
4 985 986 51 62
4 983 987 988 984
4 989 990 986 985
4 61 984 991 57
4 992 985 62 58
4 984 988 993 991
4 994 989 985 992
4 57 991 995 53
4 996 992 58 54
4 991 993 997 995
4 998 994 992 996
4 53 995 999 44
4 1000 996 54 45
4 995 997 1001 999
4 1002 998 996 1000
4 46 1003 983 49
4 986 1004 47 51
4 1003 1005 987 983
4 990 1006 1004 986
4 41 1007 1003 46
4 1004 1008 43 47
4 1007 1009 1005 1003
4 1006 1010 1008 1004
4 44 999 1011 40
4 1012 1000 45 42
4 999 1001 1013 1011
4 1014 1002 1000 1012
4 40 1011 1007 41
4 1008 1012 42 43
4 1011 1013 1009 1007
4 1010 1014 1012 1008
4 1013 1015 1016 1009
4 1017 1018 1014 1010
4 1015 1019 1020 1016
4 1021 1022 1018 1017
4 1001 1023 1015 1013
4 1018 1024 1002 1014
4 1023 1025 1019 1015
4 1022 1026 1024 1018
4 1009 1016 1027 1005
4 1028 1017 1010 1006
4 1016 1020 1029 1027
4 1030 1021 1017 1028
4 1005 1027 1031 987
4 1032 1028 1006 990
4 1027 1029 1033 1031
4 1034 1030 1028 1032
4 997 1035 1023 1001
4 1024 1036 998 1002
4 993 1037 1035 997
4 1036 1038 994 998
4 988 1039 1037 993
4 1038 1040 989 994
4 1039 1041 1042 1037
4 1043 1044 1040 1038
4 987 1031 1039 988
4 1040 1032 990 989
4 1031 1033 1041 1039
4 1044 1034 1032 1040
4 1033 1045 1046 1041
4 1047 1048 1034 1044
4 1041 1046 1049 1042
4 1050 1047 1044 1043
4 1029 1051 1045 1033
4 1048 1052 1030 1034
4 1020 1053 1051 1029
4 1052 1054 1021 1030
4 1025 1055 1056 1019
4 1057 1058 1026 1022
4 1019 1056 1053 1020
4 1054 1057 1022 1021
4 1059 1055 1060 1061
4 1062 1058 1063 1064
4 1049 1059 1061 1065
4 1064 1063 1050 1066
4 1055 1025 1067 1060
4 1068 1026 1058 1062
4 1042 1049 1065 1069
4 1066 1050 1043 1070
4 1035 1037 1071 1072
4 1073 1038 1036 1074
4 1023 1035 1072 1075
4 1074 1036 1024 1076
4 1037 1042 1069 1071
4 1070 1043 1038 1073
4 1025 1023 1075 1067
4 1076 1024 1026 1068
4 1077 1061 1060 1067
4 1062 1064 1078 1068
4 1069 1065 1061 1077
4 1064 1066 1070 1078
4 1071 1069 1077 1072
4 1078 1070 1073 1074
4 1072 1077 1067 1075
4 1068 1078 1074 1076
4 10 1079 1080 11
4 1081 1082 12 15
4 1079 25 24 1080
4 30 29 1082 1081
4 2 1083 1084 3
4 1085 1086 4 7
4 1083 17 16 1084
4 22 21 1086 1085
4 25 1087 1088 26
4 1089 1090 29 28
4 1087 48 60 1088
4 63 50 1090 1089
4 26 1088 1091 19
4 1092 1089 28 23
4 1088 60 56 1091
4 59 63 1089 1092
4 19 1091 1093 16
4 1094 1092 23 22
4 1091 56 52 1093
4 55 59 1092 1094
4 16 1093 1095 1084
4 1096 1094 22 1085
4 3 1084 1095 36
4 1096 1085 7 38
4 36 1095 1093 52
4 1094 1096 38 55
4 25 1079 1097 1087
4 1098 1082 29 1090
4 48 1087 1097 33
4 1098 1090 50 35
4 33 1097 1079 10
4 1082 1098 35 12
4 530 1099 1100 531
4 1100 1101 532 531
4 1099 541 540 1100
4 540 545 1101 1100
4 537 1102 1083 2
4 1086 1103 539 4
4 1102 546 17 1083
4 21 550 1103 1086
4 11 1080 1099 530
4 1101 1081 15 532
4 1080 24 541 1099
4 545 30 1081 1101
4 536 1104 1102 537
4 1103 1104 536 539
4 1104 547 546 1102
4 550 547 1104 1103
4 665 1105 1106 662
4 1107 1108 669 668
4 1105 1109 1110 1106
4 1111 1112 1108 1107
4 662 1106 1113 673
4 1114 1107 668 677
4 1106 1110 1115 1113
4 1116 1111 1107 1114
4 673 1113 1117 670
4 1118 1114 677 676
4 1113 1115 1119 1117
4 1120 1116 1114 1118
4 1121 1122 1123 1124
4 1123 1125 1126 1124
4 1122 684 687 1123
4 687 689 1125 1123
4 1127 1128 1129 1130
4 1131 1128 1127 1132
4 1128 678 681 1129
4 683 678 1128 1131
4 1109 1105 1122 1121
4 1125 1108 1112 1126
4 1105 665 684 1122
4 689 669 1108 1125
4 1130 1129 1117 1119
4 1118 1131 1132 1120
4 1129 681 670 1117
4 676 683 1131 1118
4 952 951 1133 1134
4 1135 954 953 1136
4 957 952 1134 1137
4 1136 953 958 1138
4 961 957 1137 1139
4 1138 958 962 1140
4 965 961 1139 1141
4 1140 962 966 1142
4 1143 1144 972 975
4 973 1145 1146 978
4 1141 1143 975 965
4 978 1146 1142 966
4 969 972 1144 1147
4 1145 973 970 1148
4 951 969 1147 1133
4 1148 970 954 1135
4 1149 1150 1151 1152
4 1153 1154 1155 1156
4 1157 1158 1150 1149
4 1154 1159 1160 1155
4 1152 1151 1161 1162
4 1163 1153 1156 1164
4 1162 1161 1165 1166
4 1167 1163 1164 1168
4 1169 1170 1158 1157
4 1159 1171 1172 1160
4 1173 1174 1170 1169
4 1171 1175 1176 1172
4 1177 1178 1174 1173
4 1175 1179 1180 1176
4 1166 1165 1178 1177
4 1179 1167 1168 1180
4 1181 1182 1166 1177
4 1168 1183 1184 1180
4 1185 1181 1177 1173
4 1180 1184 1186 1176
4 1187 1185 1173 1169
4 1176 1186 1188 1172
4 1189 1187 1169 1157
4 1172 1188 1190 1160
4 1182 1191 1162 1166
4 1164 1192 1183 1168
4 1191 1193 1152 1162
4 1156 1194 1192 1164
4 1195 1189 1157 1149
4 1160 1190 1196 1155
4 1193 1195 1149 1152
4 1155 1196 1194 1156
4 524 1197 1198 526
4 1199 1200 525 527
4 526 1198 1201 520
4 1202 1199 527 521
4 522 1203 1197 524
4 1200 1204 523 525
4 512 1205 1203 522
4 1204 1206 514 523
4 520 1201 1207 518
4 1208 1202 521 519
4 518 1207 1209 516
4 1210 1208 519 517
4 516 1209 1211 513
4 1212 1210 517 515
4 513 1211 1205 512
4 1206 1212 515 514
4 1056 1213 1214 1053
4 1215 1216 1057 1054
4 1055 1217 1213 1056
4 1216 1218 1058 1057
4 1053 1214 1219 1051
4 1220 1215 1054 1052
4 1051 1219 1221 1045
4 1222 1220 1052 1048
4 1059 1223 1217 1055
4 1218 1224 1063 1058
4 1049 1225 1223 1059
4 1224 1226 1050 1063
4 1046 1227 1225 1049
4 1226 1228 1047 1050
4 1045 1221 1227 1046
4 1228 1222 1048 1047
4 656 654 660 1229
4 661 655 657 1230
4 644 643 656 1229
4 657 647 646 1230
4 644 1229 1231 1232
4 1233 1230 646 1234
4 1229 660 1235 1231
4 1236 661 1230 1233
4 658 645 1237 1238
4 1239 649 659 1240
4 613 658 1238 1241
4 1240 659 614 1242
4 645 644 1232 1237
4 1234 646 649 1239
4 660 580 1243 1235
4 1244 584 661 1236
4 580 805 1245 1243
4 1246 807 584 1244
4 805 613 1241 1245
4 1242 614 807 1246
3 1235 1243 1247
3 1248 1244 1236
3 1243 1245 1247
3 1248 1246 1244
3 1238 1247 1241
3 1242 1248 1240
3 1247 1245 1241
3 1242 1246 1248
3 1231 1235 1232
3 1234 1236 1233
3 1235 1247 1232
3 1234 1248 1236
3 1238 1237 1247
3 1248 1239 1240
3 1237 1232 1247
3 1248 1234 1239
4 924 1249 918 917
4 919 1250 925 920
4 1249 945 927 918
4 928 946 1250 919
4 1150 1251 1252 1151
4 1253 1254 1154 1153
4 1251 1198 1197 1252
4 1200 1199 1254 1253
4 1158 1255 1251 1150
4 1254 1256 1159 1154
4 1255 1201 1198 1251
4 1199 1202 1256 1254
4 1151 1252 1257 1161
4 1258 1253 1153 1163
4 1252 1197 1203 1257
4 1204 1200 1253 1258
4 1161 1257 1259 1165
4 1260 1258 1163 1167
4 1257 1203 1205 1259
4 1206 1204 1258 1260
4 1170 1261 1255 1158
4 1256 1262 1171 1159
4 1261 1207 1201 1255
4 1202 1208 1262 1256
4 1174 1263 1261 1170
4 1262 1264 1175 1171
4 1263 1209 1207 1261
4 1208 1210 1264 1262
4 1178 1265 1263 1174
4 1264 1266 1179 1175
4 1265 1211 1209 1263
4 1210 1212 1266 1264
4 1165 1259 1265 1178
4 1266 1260 1167 1179
4 1259 1205 1211 1265
4 1212 1206 1260 1266
4 1213 1267 1268 1214
4 1269 1270 1216 1215
4 1267 1195 1193 1268
4 1194 1196 1270 1269
4 1217 1271 1267 1213
4 1270 1272 1218 1216
4 1271 1189 1195 1267
4 1196 1190 1272 1270
4 1214 1268 1273 1219
4 1274 1269 1215 1220
4 1268 1193 1191 1273
4 1192 1194 1269 1274
4 1219 1273 1275 1221
4 1276 1274 1220 1222
4 1273 1191 1182 1275
4 1183 1192 1274 1276
4 1223 1277 1271 1217
4 1272 1278 1224 1218
4 1277 1187 1189 1271
4 1190 1188 1278 1272
4 1225 1279 1277 1223
4 1278 1280 1226 1224
4 1279 1185 1187 1277
4 1188 1186 1280 1278
4 1227 1281 1279 1225
4 1280 1282 1228 1226
4 1281 1181 1185 1279
4 1186 1184 1282 1280
4 1221 1275 1281 1227
4 1282 1276 1222 1228
4 1275 1182 1181 1281
4 1184 1183 1276 1282
4 1283 1284 1285 1286
4 1287 1288 1289 1290
4 1286 1291 1292 1283
4 1287 1290 1292 1291
4 1293 1294 1295 1296
4 1297 1298 1295 1294
4 1293 1296 1299 1300
4 1298 1297 1301 1302
4 1303 1304 1305 1306
4 1303 1306 1307 1308
4 1307 1309 1310 1308
4 1311 1312 1313 1314
4 1311 1315 1316 1312
4 1316 1315 1310 1309
4 1314 1313 1317 1318
4 1319 1305 1304 1320
4 1110 1109 1321 1322
4 1115 1110 1322 1323
4 1109 1121 1324 1321
4 1120 1132 1325 1326
4 1121 1124 1327 1324
4 1130 1119 1328 1329
4 1126 1112 1330 1331
4 1119 1115 1323 1328
4 1116 1120 1326 1332
4 1111 1116 1332 1333
4 1127 1130 1329 1334
4 1132 1127 1334 1325
4 1112 1111 1333 1330
4 1124 1126 1331 1327
4 1335 1336 1337 1338
4 1339 1340 1341 1342
4 1343 1344 1345 1346
4 1347 1348 1349 1350
4 1344 1343 1338 1337
4 1342 1349 1348 1339
4 1346 1345 1351 1352
4 1353 1347 1350 1354
4 1352 1351 1355 1356
4 1357 1353 1354 1358
4 1356 1355 1359 1360
4 1361 1357 1358 1362
4 1360 1359 1363 1364
4 1365 1361 1362 1366
4 1336 1335 1364 1363
4 1340 1365 1366 1341
4 1367 1368 1369 1370
4 1371 1372 1373 1374
4 1375 1367 1370 1376
4 1374 1373 1377 1378
4 1376 1335 1338 1375
4 1378 1377 1342 1341
4 1379 1380 1381 1382
4 1383 1384 1385 1386
4 1387 1379 1382 1388
4 1386 1385 1389 1390
4 1346 1387 1388 1343
4 1390 1389 1350 1349
4 1382 1381 1368 1367
4 1372 1383 1386 1373
4 1388 1382 1367 1375
4 1373 1386 1390 1377
4 1343 1388 1375 1338
4 1377 1390 1349 1342
4 1391 1392 1380 1379
4 1384 1393 1394 1385
4 1395 1391 1379 1387
4 1385 1394 1396 1389
4 1352 1395 1387 1346
4 1389 1396 1354 1350
4 1397 1398 1392 1391
4 1393 1399 1400 1394
4 1401 1397 1391 1395
4 1394 1400 1402 1396
4 1356 1401 1395 1352
4 1396 1402 1358 1354
4 1403 1404 1398 1397
4 1399 1405 1406 1400
4 1407 1403 1397 1401
4 1400 1406 1408 1402
4 1360 1407 1401 1356
4 1402 1408 1362 1358
4 1409 1410 1404 1403
4 1405 1411 1412 1406
4 1413 1409 1403 1407
4 1406 1412 1414 1408
4 1364 1413 1407 1360
4 1408 1414 1366 1362
4 1370 1369 1410 1409
4 1411 1371 1374 1412
4 1376 1370 1409 1413
4 1412 1374 1378 1414
4 1335 1376 1413 1364
4 1414 1378 1341 1366
4 1368 1415 1416 1369
4 1417 1418 1372 1371
4 1380 1419 1420 1381
4 1421 1422 1384 1383
4 1381 1420 1415 1368
4 1418 1421 1383 1372
4 1392 1423 1419 1380
4 1422 1424 1393 1384
4 1398 1425 1423 1392
4 1424 1426 1399 1393
4 1404 1427 1425 1398
4 1426 1428 1405 1399
4 1410 1429 1427 1404
4 1428 1430 1411 1405
4 1369 1416 1429 1410
4 1430 1417 1371 1411
4 1415 1431 1432 1416
4 1433 1434 1418 1417
4 1419 1435 1436 1420
4 1437 1438 1422 1421
4 1420 1436 1431 1415
4 1434 1437 1421 1418
4 1423 1439 1435 1419
4 1438 1440 1424 1422
4 1425 1441 1439 1423
4 1440 1442 1426 1424
4 1427 1443 1441 1425
4 1442 1444 1428 1426
4 1429 1445 1443 1427
4 1444 1446 1430 1428
4 1416 1432 1445 1429
4 1446 1433 1417 1430
4 1447 1448 1449 1450
4 1451 1452 1453 1454
4 1455 1447 1450 1456
4 1454 1453 1457 1458
4 1459 1455 1456 1460
4 1458 1457 1461 1462
4 1463 1459 1460 1464
4 1462 1461 1465 1466
4 1467 1463 1464 1468
4 1466 1465 1469 1470
4 1471 1472 1473 1474
4 1475 1476 1477 1478
4 1472 1467 1468 1473
4 1470 1469 1476 1475
4 1448 1471 1474 1449
4 1478 1477 1452 1451
4 1449 1474 1479 1480
4 1481 1478 1451 1482
4 1473 1468 1483 1484
4 1485 1470 1475 1486
4 1474 1473 1484 1479
4 1486 1475 1478 1481
4 1468 1464 1487 1483
4 1488 1466 1470 1485
4 1464 1460 1489 1487
4 1490 1462 1466 1488
4 1460 1456 1491 1489
4 1492 1458 1462 1490
4 1456 1450 1493 1491
4 1494 1454 1458 1492
4 1450 1449 1480 1493
4 1482 1451 1454 1494
4 1483 1487 1495 1496
4 1497 1488 1485 1498
4 1489 1491 1499 1500
4 1501 1492 1490 1502
4 1479 1484 1503 1504
4 1505 1486 1481 1506
4 1503 1484 1507 1508
4 1509 1486 1505 1510
4 1489 1500 1511 1512
4 1513 1502 1490 1514
4 1487 1489 1512 1495
4 1514 1490 1488 1497
4 1483 1496 1507 1484
4 1509 1498 1485 1486
4 1512 1511 1515 1516
4 1517 1513 1514 1518
4 1508 1507 1519 1520
4 1521 1509 1510 1522
4 1493 1480 1523 1524
4 1525 1482 1494 1526
4 1480 1479 1504 1523
4 1506 1481 1482 1525
4 1491 1493 1524 1499
4 1526 1494 1492 1501
4 1496 1495 1527 1528
4 1529 1497 1498 1530
4 1496 1528 1519 1507
4 1521 1530 1498 1509
4 1495 1512 1516 1527
4 1518 1514 1497 1529
4 1520 1519 1531 1532
4 1533 1521 1522 1534
4 1516 1515 1535 1536
4 1537 1517 1518 1538
4 1528 1527 1539 1540
4 1541 1529 1530 1542
4 1519 1528 1540 1531
4 1542 1530 1521 1533
4 1516 1536 1539 1527
4 1541 1538 1518 1529
4 1540 1539 1543 1544
4 1545 1541 1542 1546
4 1532 1531 1540 1544
4 1542 1533 1534 1546
4 1535 1543 1539 1536
4 1541 1545 1537 1538
4 1543 1535 1547 1548
4 1549 1537 1545 1550
4 1532 1544 1551 1552
4 1553 1546 1534 1554
4 1544 1543 1548 1551
4 1550 1545 1546 1553
4 1535 1515 1555 1547
4 1556 1517 1537 1549
4 1520 1532 1552 1557
4 1554 1534 1522 1558
4 1499 1524 1559 1560
4 1561 1526 1501 1562
4 1523 1504 1563 1564
4 1565 1506 1525 1566
4 1524 1523 1564 1559
4 1566 1525 1526 1561
4 1508 1520 1557 1567
4 1558 1522 1510 1568
4 1515 1511 1569 1555
4 1570 1513 1517 1556
4 1511 1500 1571 1569
4 1572 1502 1513 1570
4 1503 1508 1567 1573
4 1568 1510 1505 1574
4 1504 1503 1573 1563
4 1574 1505 1506 1565
4 1500 1499 1560 1571
4 1562 1501 1502 1572
4 1571 1573 1567 1569
4 1568 1574 1572 1570
4 1567 1557 1555 1569
4 1556 1558 1568 1570
4 1555 1557 1552 1547
4 1554 1558 1556 1549
4 1551 1548 1547 1552
4 1549 1550 1553 1554
4 1560 1563 1573 1571
4 1574 1565 1562 1572
4 1559 1564 1563 1560
4 1565 1566 1561 1562
4 1431 1471 1448 1432
4 1452 1477 1434 1433
4 1435 1467 1472 1436
4 1476 1469 1438 1437
4 1436 1472 1471 1431
4 1477 1476 1437 1434
4 1439 1463 1467 1435
4 1469 1465 1440 1438
4 1441 1459 1463 1439
4 1465 1461 1442 1440
4 1443 1455 1459 1441
4 1461 1457 1444 1442
4 1445 1447 1455 1443
4 1457 1453 1446 1444
4 1432 1448 1447 1445
4 1453 1452 1433 1446
4 1575 1576 1577 1578
4 1579 1580 1581 1582
4 1583 1575 1578 1584
4 1582 1581 1585 1586
4 1587 1583 1584 1588
4 1586 1585 1589 1590
4 1591 1587 1588 1592
4 1590 1589 1593 1594
4 1595 1591 1592 1596
4 1594 1593 1597 1598
4 1599 1600 1601 1602
4 1603 1604 1605 1606
4 1600 1595 1596 1601
4 1598 1597 1604 1603
4 1577 1602 1607 1608
4 1609 1606 1579 1610
4 1601 1596 1611 1612
4 1613 1598 1603 1614
4 1602 1601 1612 1607
4 1614 1603 1606 1609
4 1596 1592 1615 1611
4 1616 1594 1598 1613
4 1592 1588 1617 1615
4 1618 1590 1594 1616
4 1588 1584 1619 1617
4 1620 1586 1590 1618
4 1584 1578 1621 1619
4 1622 1582 1586 1620
4 1578 1577 1608 1621
4 1610 1579 1582 1622
4 1623 1624 1625 1626
4 1627 1628 1629 1630
4 1624 1631 1632 1625
4 1633 1634 1628 1627
4 1635 1636 1637 1638
4 1639 1640 1641 1642
4 1636 1643 1644 1637
4 1645 1646 1640 1639
4 1643 1647 1648 1644
4 1649 1650 1646 1645
4 1647 1623 1626 1648
4 1630 1629 1650 1649
4 1576 1651 1602 1577
4 1606 1652 1580 1579
4 1599 1602 1651 1653
4 1652 1606 1605 1654
4 1655 1656 1657 1658
4 1657 1656 1659 1660
4 1658 1657 1661 1662
4 1661 1657 1660 1663
4 1662 1661 1664 1665
4 1664 1661 1663 1666
4 1665 1664 1667 1668
4 1667 1664 1666 1669
4 1670 1671 1668 1667
4 1669 1672 1670 1667
4 1671 1670 1673 1674
4 1673 1670 1672 1675
4 1674 1673 1676 1677
4 1676 1673 1675 1678
4 1595 1655 1658 1591
4 1660 1659 1597 1593
4 1591 1658 1662 1587
4 1663 1660 1593 1589
4 1587 1662 1665 1583
4 1666 1663 1589 1585
4 1583 1665 1668 1575
4 1669 1666 1585 1581
4 1671 1576 1575 1668
4 1581 1580 1672 1669
4 1576 1671 1674 1651
4 1675 1672 1580 1652
4 1651 1674 1677 1653
4 1678 1675 1652 1654
4 1626 1679 1680 1648
4 1681 1682 1630 1649
4 1679 1683 1684 1680
4 1685 1686 1682 1681
4 1648 1680 1687 1644
4 1688 1681 1649 1645
4 1680 1684 1689 1687
4 1690 1685 1681 1688
4 1644 1687 1691 1637
4 1692 1688 1645 1639
4 1687 1689 1693 1691
4 1694 1690 1688 1692
4 1637 1691 1695 1638
4 1696 1692 1639 1642
4 1691 1693 1697 1695
4 1698 1694 1692 1696
4 1695 1697 1699 1700
4 1701 1698 1696 1702
4 1632 1703 1704 1625
4 1705 1706 1633 1627
4 1703 1707 1708 1704
4 1709 1710 1706 1705
4 1700 1699 1707 1703
4 1710 1701 1702 1706
4 1625 1704 1679 1626
4 1682 1705 1627 1630
4 1704 1708 1683 1679
4 1686 1709 1705 1682
4 1608 1711 1712 1621
4 1713 1714 1610 1622
4 1711 1623 1647 1712
4 1650 1629 1714 1713
4 1621 1712 1715 1619
4 1716 1713 1622 1620
4 1712 1647 1643 1715
4 1646 1650 1713 1716
4 1619 1715 1717 1617
4 1718 1716 1620 1618
4 1715 1643 1636 1717
4 1640 1646 1716 1718
4 1617 1717 1719 1615
4 1720 1718 1618 1616
4 1717 1636 1635 1719
4 1641 1640 1718 1720
4 1615 1719 1721 1611
4 1722 1720 1616 1613
4 1719 1635 1723 1721
4 1724 1641 1720 1722
4 1612 1725 1726 1607
4 1727 1728 1614 1609
4 1725 1631 1624 1726
4 1628 1634 1728 1727
4 1611 1721 1725 1612
4 1728 1722 1613 1614
4 1721 1723 1631 1725
4 1634 1724 1722 1728
4 1607 1726 1711 1608
4 1714 1727 1609 1610
4 1726 1624 1623 1711
4 1629 1628 1727 1714
4 1700 1703 1729 1730
4 1731 1706 1702 1732
4 1695 1700 1730 1733
4 1732 1702 1696 1734
4 1703 1632 1735 1729
4 1736 1633 1706 1731
4 1638 1695 1733 1737
4 1734 1696 1642 1738
4 1635 1638 1737 1739
4 1738 1642 1641 1740
4 1632 1631 1741 1735
4 1742 1634 1633 1736
4 1631 1723 1743 1741
4 1744 1724 1634 1742
4 1723 1635 1739 1743
4 1740 1641 1724 1744
4 1745 1730 1729 1735
4 1731 1732 1746 1736
4 1737 1733 1730 1745
4 1732 1734 1738 1746
4 1743 1739 1737 1745
4 1738 1740 1744 1746
4 1741 1743 1745 1735
4 1746 1744 1742 1736
4 1344 1337 1708 1707
4 1709 1339 1348 1710
4 1344 1707 1699 1345
4 1701 1710 1348 1347
4 1345 1699 1697 1351
4 1698 1701 1347 1353
4 1351 1697 1693 1355
4 1694 1698 1353 1357
4 1355 1693 1689 1359
4 1690 1694 1357 1361
4 1359 1689 1684 1363
4 1685 1690 1361 1365
4 1363 1684 1683 1336
4 1686 1685 1365 1340
4 1336 1683 1708 1337
4 1709 1686 1340 1339
4 1677 1329 1328 1653
4 1326 1325 1678 1654
4 1595 1321 1324 1655
4 1331 1330 1597 1659
4 1676 1334 1329 1677
4 1325 1334 1676 1678
4 1327 1656 1655 1324
4 1659 1656 1327 1331
4 1323 1599 1653 1328
4 1654 1605 1332 1326
4 1322 1600 1599 1323
4 1605 1604 1333 1332
4 1321 1595 1600 1322
4 1604 1597 1330 1333
