ply
format ascii 1.0
comment Created by Blender 2.60 (sub 0) - www.blender.org, source file: 'meshgit_durano.blend'
element vertex 534
property float x
property float y
property float z
element face 520
property list uchar uint vertex_indices
end_header
0.875233 -0.567415 -0.369819
1.106942 -0.367664 -0.354289
1.515585 0.264989 -0.680381
1.386886 0.232303 -0.201480
-1.515585 0.264989 -0.680381
-1.106942 -0.367664 -0.354289
-0.875233 -0.567415 -0.369819
-1.386886 0.232303 -0.201480
1.182074 0.887381 -0.599733
0.973754 0.821355 -0.364565
-1.182074 0.887381 -0.599733
-0.973754 0.821355 -0.364565
0.853401 -0.451054 -0.377364
1.173952 0.186846 -0.202425
-0.853401 -0.451054 -0.377364
-1.173952 0.186846 -0.202425
0.939439 0.830956 -0.297188
-0.939439 0.830956 -0.297188
0.858495 -0.250608 -1.724631
0.509760 -0.289529 -1.639700
0.472668 0.267663 -1.761749
0.784284 0.293990 -1.684068
-0.472668 0.267663 -1.761749
-0.509760 -0.289529 -1.639700
-0.858495 -0.250608 -1.724631
-0.784284 0.293990 -1.684068
0.177219 -0.167159 -1.534712
0.207867 0.237715 -1.585084
-0.207867 0.237715 -1.585084
-0.177219 -0.167159 -1.534712
0.000000 -0.399723 -1.553673
0.000000 0.261989 -1.806016
0.000000 -0.891205 1.388462
0.304254 -0.679291 1.222302
0.300770 0.022676 1.307587
0.000000 -0.021166 1.458138
-0.300770 0.022676 1.307587
-0.304254 -0.679291 1.222302
0.671271 -0.317551 1.121943
0.724417 0.105425 1.186470
-0.724417 0.105425 1.186470
-0.671271 -0.317551 1.121943
0.938485 0.085862 0.775169
0.976767 0.275141 0.748022
-0.976767 0.275141 0.748022
-0.938485 0.085862 0.775169
0.880813 0.748125 0.913587
0.522752 0.857457 1.051621
-0.522752 0.857457 1.051621
-0.880813 0.748125 0.913587
0.331394 0.905282 1.258993
-0.331394 0.905282 1.258993
0.000000 0.822276 1.418821
0.000000 1.330820 -0.224212
0.328371 1.138240 -0.393256
0.437156 1.273367 -0.459199
0.000000 1.566893 -0.257722
-0.437156 1.273367 -0.459199
-0.328371 1.138240 -0.393256
0.661042 0.955712 -0.434503
0.874311 1.142601 -0.494339
-0.874311 1.142601 -0.494339
-0.661042 0.955712 -0.434503
0.000000 -1.013483 0.091417
0.415539 -1.041097 -0.166615
0.294267 -0.928681 -0.196649
0.000000 -1.040227 -0.012943
-0.294267 -0.928681 -0.196649
-0.415539 -1.041097 -0.166615
0.748779 -0.778951 -0.281912
0.543730 -0.746626 -0.308472
-0.543730 -0.746626 -0.308472
-0.748779 -0.778951 -0.281912
0.625440 0.959068 -0.335694
-0.625440 0.959068 -0.335694
0.309078 1.111569 -0.275509
-0.309078 1.111569 -0.275509
0.000000 1.263885 -0.066025
0.242994 -0.857165 -0.171488
0.000000 -1.066604 0.037456
-0.242994 -0.857165 -0.171488
0.483514 -0.660507 -0.249916
-0.483514 -0.660507 -0.249916
0.242288 -0.686332 -1.568956
0.000000 -0.748660 -1.671303
-0.242288 -0.686332 -1.568956
0.478469 -0.828643 -1.583132
-0.478469 -0.828643 -1.583132
0.810290 -0.665866 -1.501411
-0.810290 -0.665866 -1.501411
0.859580 -1.029943 -0.351133
1.069988 -1.105413 -0.538188
-0.859580 -1.029943 -0.351133
-1.069988 -1.105413 -0.538188
0.462526 -1.303058 -0.010780
-0.462526 -1.303058 -0.010780
0.000000 -1.339190 0.160519
0.315288 -1.429579 -1.946818
0.000000 -1.569590 -2.012644
-0.315288 -1.429579 -1.946818
0.587053 -1.238278 -1.898236
-0.587053 -1.238278 -1.898236
0.765485 -1.120577 -1.734555
-0.765485 -1.120577 -1.734555
0.930767 -1.982916 -0.602553
1.115326 -1.546221 -0.646056
-0.930767 -1.982916 -0.602553
-1.115326 -1.546221 -0.646056
0.000000 -2.566803 -0.021762
0.453503 -2.349688 -0.238438
-0.453503 -2.349688 -0.238438
1.003300 -0.271101 -0.553615
1.465374 0.370544 -1.150856
-1.465374 0.370544 -1.150856
-1.003300 -0.271101 -0.553615
1.051016 1.003055 -1.075814
-1.051016 1.003055 -1.075814
1.087453 -0.744285 -0.781804
-1.087453 -0.744285 -0.781804
1.082171 -1.545272 -1.081521
-1.082171 -1.545272 -1.081521
0.361002 1.490683 -0.972740
0.000000 1.602035 -0.895486
-0.361002 1.490683 -0.972740
0.700984 1.252926 -0.986978
-0.700984 1.252926 -0.986978
1.078899 -2.205378 -1.014834
-1.078899 -2.205378 -1.014834
0.583969 -2.601728 -1.097410
-0.583969 -2.601728 -1.097410
0.000000 -2.671867 -1.067240
0.908563 -0.045456 0.700784
1.092767 0.301448 0.419795
-1.092767 0.301448 0.419795
-0.908563 -0.045456 0.700784
0.876961 -0.276278 -0.258227
1.085771 0.198714 -0.196174
-0.876961 -0.276278 -0.258227
-1.085771 0.198714 -0.196174
0.874281 0.865236 -0.202951
-0.874281 0.865236 -0.202951
0.902943 0.913359 0.574153
-0.902943 0.913359 0.574153
0.735910 0.979439 0.747998
-0.735910 0.979439 0.747998
0.601517 0.963842 -0.222782
-0.601517 0.963842 -0.222782
0.297874 1.113864 -0.075827
-0.297874 1.113864 -0.075827
0.000000 1.254728 0.131148
0.163364 -0.735722 -0.079704
0.000000 -1.004466 0.162051
-0.163364 -0.735722 -0.079704
0.225448 -0.732620 1.102968
0.000000 -1.038692 1.189665
-0.225448 -0.732620 1.102968
0.470931 -0.594822 -0.135609
-0.470931 -0.594822 -0.135609
0.653524 -0.364350 1.004751
-0.653524 -0.364350 1.004751
0.074135 -0.678966 0.047531
0.000000 -0.900913 0.233799
-0.074135 -0.678966 0.047531
0.078022 -0.765938 0.796242
0.000000 -1.046166 0.812096
-0.078022 -0.765938 0.796242
0.954524 0.153523 0.143708
1.046670 0.286824 0.176191
-1.046670 0.286824 0.176191
-0.954524 0.153523 0.143708
0.906800 -0.037373 -0.205409
1.037852 0.321063 -0.125918
-1.037852 0.321063 -0.125918
-0.906800 -0.037373 -0.205409
0.804400 0.908197 -0.068903
-0.804400 0.908197 -0.068903
0.903295 0.905324 0.205348
-0.903295 0.905324 0.205348
0.577529 1.007653 0.236133
-0.577529 1.007653 0.236133
0.598685 0.988101 -0.027923
-0.598685 0.988101 -0.027923
0.315272 1.138113 0.106211
-0.315272 1.138113 0.106211
0.332669 1.157193 0.298113
-0.332669 1.157193 0.298113
0.000000 1.228644 0.225278
0.000000 1.210832 0.268502
0.469139 -0.546390 -0.074738
0.206706 -0.643484 -0.026373
-0.469139 -0.546390 -0.074738
-0.206706 -0.643484 -0.026373
0.280849 -0.703011 0.959373
0.644387 -0.423097 0.903583
-0.280849 -0.703011 0.959373
-0.644387 -0.423097 0.903583
0.849070 -0.292772 -0.203128
-0.849070 -0.292772 -0.203128
0.895061 -0.152604 0.632475
-0.895061 -0.152604 0.632475
0.134962 -0.716854 0.666364
-0.134962 -0.716854 0.666364
0.137922 -0.627373 0.056269
-0.137922 -0.627373 0.056269
0.920356 0.099102 0.110104
-0.920356 0.099102 0.110104
0.875272 -0.119558 -0.112040
-0.875272 -0.119558 -0.112040
0.000000 1.231559 0.304351
0.352943 1.166553 0.338620
-0.352943 1.166553 0.338620
0.562722 1.096713 0.411506
-0.562722 1.096713 0.411506
0.703107 1.143371 0.804805
-0.703107 1.143371 0.804805
0.590684 1.066553 1.065174
-0.590684 1.066553 1.065174
0.433089 1.079625 1.222731
0.000000 0.993889 1.375002
-0.433089 1.079625 1.222731
0.581256 1.402284 1.023150
0.433844 1.443451 1.129489
-0.581256 1.402284 1.023150
-0.433844 1.443451 1.129489
0.000000 1.429007 1.243804
0.621116 1.363286 0.814209
-0.621116 1.363286 0.814209
0.549146 1.198486 0.566017
-0.549146 1.198486 0.566017
0.318539 1.238298 0.384725
-0.318539 1.238298 0.384725
0.000000 1.302655 0.298657
0.000000 1.271773 0.241047
0.471427 1.347490 0.150957
-0.471427 1.347490 0.150957
0.624223 1.352798 0.467149
-0.624223 1.352798 0.467149
0.619648 1.415304 0.601976
-0.619648 1.415304 0.601976
0.573877 1.646910 0.731761
-0.573877 1.646910 0.731761
0.264730 1.766040 0.760183
0.000000 1.811353 0.826725
-0.264730 1.766040 0.760183
0.501131 1.600177 0.256272
-0.501131 1.600177 0.256272
1.206969 -0.346223 -0.581423
1.134576 0.358899 -1.420127
-1.134576 0.358899 -1.420127
-1.206969 -0.346223 -0.581423
0.975572 0.971996 -1.289124
-0.975572 0.971996 -1.289124
0.759287 0.967469 -1.449410
-0.759287 0.967469 -1.449410
1.313577 -0.725474 -1.044198
-1.313577 -0.725474 -1.044198
1.163591 -1.453382 -1.400845
-1.163591 -1.453382 -1.400845
0.340294 1.309108 -0.924328
0.000000 1.408075 -0.913704
-0.340294 1.309108 -0.924328
0.681337 1.199437 -0.996547
-0.681337 1.199437 -0.996547
0.990247 -1.891303 -1.487669
-0.990247 -1.891303 -1.487669
0.494014 -2.226515 -1.668015
-0.494014 -2.226515 -1.668015
0.000000 -2.410376 -1.672702
0.000000 -2.275853 -1.579655
0.436046 -2.119723 -1.575261
-0.436046 -2.119723 -1.575261
0.857321 -1.836488 -1.413374
-0.857321 -1.836488 -1.413374
1.005934 -1.448777 -1.318791
-1.005934 -1.448777 -1.318791
1.112377 -0.872331 -1.080712
-1.112377 -0.872331 -1.080712
1.044216 -0.395128 -0.634504
-1.044216 -0.395128 -0.634504
1.055265 -0.417743 -1.239603
-1.055265 -0.417743 -1.239603
0.804681 -1.274233 -1.536613
0.612992 -1.463193 -1.719445
-0.804681 -1.274233 -1.536613
-0.612992 -1.463193 -1.719445
0.227739 -1.766148 -1.880949
-0.227739 -1.766148 -1.880949
0.000000 -1.792000 -1.845253
0.902652 -0.798118 -1.339117
-0.902652 -0.798118 -1.339117
0.552129 -2.020876 -0.242389
0.567896 -1.408516 -0.032542
-0.552129 -2.020876 -0.242389
-0.567896 -1.408516 -0.032542
0.838481 -1.189601 -0.250834
0.848574 -1.853855 -0.490505
-0.838481 -1.189601 -0.250834
-0.848574 -1.853855 -0.490505
0.689415 -1.432047 -0.168826
0.734879 -1.359329 -0.241738
-0.689415 -1.432047 -0.168826
-0.734879 -1.359329 -0.241738
0.755810 -1.680573 -0.337747
0.717966 -1.738621 -0.303620
-0.755810 -1.680573 -0.337747
-0.717966 -1.738621 -0.303620
0.660599 -1.585986 -0.448432
0.667885 -1.526609 -0.434083
-0.660599 -1.585986 -0.448432
-0.667885 -1.526609 -0.434083
0.635331 -1.543053 -0.393275
0.597402 -1.589973 -0.408595
-0.635331 -1.543053 -0.393275
-0.597402 -1.589973 -0.408595
0.000000 -2.111064 -1.488049
0.459748 -1.981121 -1.484392
-0.459748 -1.981121 -1.484392
0.810363 -1.745392 -1.349658
-0.810363 -1.745392 -1.349658
0.934049 -1.422712 -1.270939
-0.934049 -1.422712 -1.270939
1.022639 -0.953603 -1.101197
-1.022639 -0.953603 -1.101197
0.958810 -0.341920 -0.715824
-0.958810 -0.341920 -0.715824
0.969624 -0.352927 -1.206731
-0.969624 -0.352927 -1.206731
0.771398 -1.392124 -1.437693
0.486370 -1.645589 -1.536893
-0.771398 -1.392124 -1.437693
-0.486370 -1.645589 -1.536893
0.258319 -1.716893 -1.703566
-0.258319 -1.716893 -1.703566
0.000000 -1.739274 -1.648029
0.900235 -0.954466 -1.276651
-0.900235 -0.954466 -1.276651
0.757669 -1.121970 -0.697885
0.746556 -0.300776 -0.459016
-0.757669 -1.121970 -0.697885
-0.746556 -0.300776 -0.459016
0.438892 -1.150758 -0.652871
0.375271 -0.227725 -0.356635
-0.375271 -0.227725 -0.356635
-0.438892 -1.150758 -0.652871
0.000000 -1.178975 -0.604547
0.000000 -0.159812 -0.387538
0.320043 0.103277 -1.346998
0.731069 -0.000097 -1.352680
-0.320043 0.103277 -1.346998
-0.731069 -0.000097 -1.352680
0.000000 0.195540 -1.440062
0.333451 -0.962010 -1.381377
0.630447 -0.959749 -1.276651
-0.333451 -0.962010 -1.381377
-0.630447 -0.959749 -1.276651
0.000000 -0.964225 -1.484030
0.000000 -1.645919 -1.251053
0.432049 -1.558701 -1.290396
-0.432049 -1.558701 -1.290396
0.000000 -1.843606 -1.351776
0.443821 -1.738230 -1.372844
-0.443821 -1.738230 -1.372844
0.654047 -1.410812 -1.251458
-0.654047 -1.410812 -1.251458
0.630574 -1.713438 -1.299313
-0.630574 -1.713438 -1.299313
0.465192 -1.380578 -1.437693
0.219935 -1.371330 -1.437693
0.212573 -1.454180 -1.536893
0.352326 -1.507209 -1.536893
-0.212573 -1.454180 -1.536893
-0.219935 -1.371330 -1.437693
-0.465192 -1.380578 -1.437693
-0.352326 -1.507209 -1.536893
0.000000 -1.364633 -1.437693
0.000000 -1.460876 -1.536893
0.871816 -0.220462 -1.298551
-0.871816 -0.220462 -1.298551
0.789622 -0.956632 -1.276651
-0.789622 -0.956632 -1.276651
0.645854 -1.387390 -1.437693
0.431412 -1.588853 -1.536893
-0.431412 -1.588853 -1.536893
-0.645854 -1.387390 -1.437693
0.239563 -1.609180 -1.635230
0.000000 -1.625131 -1.602464
-0.239563 -1.609180 -1.635230
0.639308 0.531805 -1.855312
0.779540 1.085240 -1.305911
-0.639308 0.531805 -1.855312
-0.779540 1.085240 -1.305911
0.670758 1.355600 -1.178034
0.553247 1.389104 -1.241255
-0.670758 1.355600 -1.178034
-0.553247 1.389104 -1.241255
0.319884 1.483084 -1.081468
0.261800 1.570662 -1.082919
-0.319884 1.483084 -1.081468
-0.261800 1.570662 -1.082919
0.000000 1.551822 -1.048737
0.000000 1.666542 -1.045072
0.476615 0.377754 -2.047593
-0.476615 0.377754 -2.047593
0.225366 0.319082 -2.055122
-0.225366 0.319082 -2.055122
0.000000 0.315629 -2.144051
1.246069 0.882243 -2.233016
1.196392 1.365659 -1.558330
-1.246069 0.882243 -2.233016
-1.196392 1.365659 -1.558330
0.830658 1.717555 -1.291543
-0.830658 1.717555 -1.291543
0.370277 1.855121 -1.074914
-0.370277 1.855121 -1.074914
0.000000 1.896990 -0.974428
0.659922 0.482235 -2.315307
-0.659922 0.482235 -2.315307
0.268379 0.288692 -2.360094
-0.268379 0.288692 -2.360094
0.000000 0.271480 -2.387767
0.695029 1.173435 -1.066119
0.530706 1.283480 -1.001610
-0.695029 1.173435 -1.066119
-0.530706 1.283480 -1.001610
0.295117 1.433351 -0.922719
-0.295117 1.433351 -0.922719
0.000000 1.503032 -0.893871
0.687491 1.206056 -1.162384
-0.687491 1.206056 -1.162384
0.000000 1.626420 -1.010984
0.284466 1.496220 -1.042750
-0.284466 1.496220 -1.042750
0.523640 1.352792 -1.120736
-0.523640 1.352792 -1.120736
0.382698 1.653631 0.149684
0.244331 1.935426 0.442297
-0.382698 1.653631 0.149684
-0.244331 1.935426 0.442297
0.508719 1.364938 -0.086355
-0.508719 1.364938 -0.086355
0.000000 1.865835 0.427958
0.000000 1.049781 -0.010512
0.000000 1.329310 -0.481671
0.503408 1.628658 -0.226906
-0.503408 1.628658 -0.226906
0.254127 1.923286 0.365100
0.000000 1.848451 0.352601
-0.254127 1.923286 0.365100
0.475111 1.904855 0.135414
-0.475111 1.904855 0.135414
0.314771 2.026636 -0.053750
0.168059 2.093201 0.278183
-0.314771 2.026636 -0.053750
-0.168059 2.093201 0.278183
0.430831 1.812936 -0.307901
-0.430831 1.812936 -0.307901
0.000000 2.004827 0.256875
0.000000 1.878429 -0.458448
0.000000 2.061754 0.056557
0.442502 -0.485216 -0.000559
0.185430 -0.573291 0.073018
-0.442502 -0.485216 -0.000559
-0.185430 -0.573291 0.073018
0.309309 -0.756603 0.929058
0.692299 -0.494419 0.850538
-0.309309 -0.756603 0.929058
-0.692299 -0.494419 0.850538
0.821252 -0.254954 -0.098337
-0.821252 -0.254954 -0.098337
0.926535 -0.213230 0.607504
-0.926535 -0.213230 0.607504
0.144218 -0.710475 0.592924
-0.144218 -0.710475 0.592924
0.138431 -0.593484 0.055186
-0.138431 -0.593484 0.055186
0.904952 0.094521 0.088673
-0.904952 0.094521 0.088673
0.878051 -0.099020 -0.089959
-0.878051 -0.099020 -0.089959
0.070234 -0.720162 0.374694
0.000000 -0.925891 0.356893
-0.070234 -0.720162 0.374694
0.130498 -0.661910 0.351233
-0.130498 -0.661910 0.351233
0.137699 -0.638253 0.341680
-0.137699 -0.638253 0.341680
0.437298 -0.461658 0.013297
0.206700 -0.543908 0.078435
-0.437298 -0.461658 0.013297
-0.206700 -0.543908 0.078435
0.774168 -0.237037 -0.069354
-0.774168 -0.237037 -0.069354
0.604148 -0.440844 0.717906
0.304872 -0.609786 0.743324
0.301484 -0.472638 0.837191
0.597096 -0.274517 0.791518
-0.301484 -0.472638 0.837191
-0.304872 -0.609786 0.743324
-0.604148 -0.440844 0.717906
-0.597096 -0.274517 0.791518
0.816179 -0.239955 0.578071
0.774672 -0.093009 0.629244
-0.816179 -0.239955 0.578071
-0.774672 -0.093009 0.629244
0.149507 -0.569411 0.560750
0.186675 -0.377984 0.610359
-0.186675 -0.377984 0.610359
-0.149507 -0.569411 0.560750
0.127551 -0.543846 0.360516
0.168581 -0.375585 0.387649
-0.168581 -0.375585 0.387649
-0.127551 -0.543846 0.360516
0.818480 0.004706 0.240633
0.747664 0.115547 0.324509
-0.818480 0.004706 0.240633
-0.747664 0.115547 0.324509
0.418634 -0.376872 -0.004707
0.230394 -0.446968 -0.004059
-0.418634 -0.376872 -0.004707
-0.230394 -0.446968 -0.004059
0.669015 -0.137740 0.001910
-0.669015 -0.137740 0.001910
0.298954 -0.647718 0.758053
0.611677 -0.457458 0.728256
-0.611677 -0.457458 0.728256
-0.298954 -0.647718 0.758053
0.833040 -0.237313 0.573430
-0.833040 -0.237313 0.573430
0.132900 -0.618843 0.564619
-0.132900 -0.618843 0.564619
0.113563 -0.572963 0.357159
-0.113563 -0.572963 0.357159
0.838820 0.017372 0.202258
-0.838820 0.017372 0.202258
4 0 1 2 3
4 4 5 6 7
4 3 2 8 9
4 10 4 7 11
4 12 0 3 13
4 7 6 14 15
4 9 16 13 3
4 15 17 11 7
4 18 19 20 21
4 22 23 24 25
4 19 26 27 20
4 28 29 23 22
4 26 30 31 27
4 31 30 29 28
4 32 33 34 35
4 36 37 32 35
4 33 38 39 34
4 40 41 37 36
4 38 42 43 39
4 44 45 41 40
4 46 47 39 43
4 40 48 49 44
4 47 50 34 39
4 36 51 48 40
4 50 52 35 34
4 35 52 51 36
4 53 54 55 56
4 57 58 53 56
4 54 59 60 55
4 61 62 58 57
4 59 9 8 60
4 10 11 62 61
4 63 64 65 66
4 67 68 63 66
4 64 69 70 65
4 71 72 68 67
4 69 1 0 70
4 6 5 72 71
4 9 59 73 16
4 74 62 11 17
4 59 54 75 73
4 76 58 62 74
4 54 53 77 75
4 77 53 58 76
4 66 65 78 79
4 80 67 66 79
4 65 70 81 78
4 82 71 67 80
4 70 0 12 81
4 14 6 71 82
4 30 26 83 84
4 85 29 30 84
4 26 19 86 83
4 87 23 29 85
4 19 18 88 86
4 89 24 23 87
4 1 69 90 91
4 92 72 5 93
4 69 64 94 90
4 95 68 72 92
4 64 63 96 94
4 96 63 68 95
4 84 83 97 98
4 99 85 84 98
4 83 86 100 97
4 101 87 85 99
4 86 88 102 100
4 103 89 87 101
4 91 90 104 105
4 106 92 93 107
4 94 96 108 109
4 108 96 95 110
4 1 111 112 2
4 113 114 5 4
4 2 112 115 8
4 116 113 4 10
4 111 1 91 117
4 93 5 114 118
4 117 91 105 119
4 107 93 118 120
4 55 121 122 56
4 122 123 57 56
4 60 124 121 55
4 123 125 61 57
4 8 115 124 60
4 125 116 10 61
4 104 126 119 105
4 120 127 106 107
4 109 128 126 104
4 127 129 110 106
4 108 130 128 109
4 129 130 108 110
4 42 131 132 43
4 133 134 45 44
4 135 12 13 136
4 15 14 137 138
4 16 139 136 13
4 138 140 17 15
4 141 46 43 132
4 44 49 142 133
4 46 141 143 47
4 144 142 49 48
4 139 16 73 145
4 74 17 140 146
4 75 147 145 73
4 146 148 76 74
4 77 149 147 75
4 148 149 77 76
4 78 150 151 79
4 151 152 80 79
4 153 33 32 154
4 32 37 155 154
4 81 156 150 78
4 152 157 82 80
4 158 38 33 153
4 37 41 159 155
4 12 135 156 81
4 157 137 14 82
4 131 42 38 158
4 41 45 134 159
4 150 160 161 151
4 161 162 152 151
4 163 153 154 164
4 154 155 165 164
4 131 166 167 132
4 168 169 134 133
4 166 170 171 167
4 172 173 169 168
4 170 135 136 171
4 138 137 173 172
4 139 174 171 136
4 172 175 140 138
4 174 176 167 171
4 168 177 175 172
4 176 141 132 167
4 133 142 177 168
4 141 176 178 143
4 179 177 142 144
4 176 174 180 178
4 181 175 177 179
4 174 139 145 180
4 146 140 175 181
4 147 182 180 145
4 181 183 148 146
4 182 184 178 180
4 179 185 183 181
4 149 186 182 147
4 183 186 149 148
4 186 187 184 182
4 185 187 186 183
4 150 156 188 189
4 190 157 152 191
4 158 153 192 193
4 194 155 159 195
4 156 135 196 188
4 197 137 157 190
4 131 158 193 198
4 195 159 134 199
4 153 163 200 192
4 201 165 155 194
4 160 150 189 202
4 191 152 162 203
4 166 131 198 204
4 199 134 169 205
4 170 166 204 206
4 205 169 173 207
4 135 170 206 196
4 207 173 137 197
4 184 187 208 209
4 208 187 185 210
4 178 184 209 211
4 210 185 179 212
4 143 178 211 213
4 212 179 144 214
4 47 143 213 215
4 214 144 48 216
4 52 50 217 218
4 219 51 52 218
4 50 47 215 217
4 216 48 51 219
4 217 215 220 221
4 222 216 219 223
4 218 217 221 224
4 223 219 218 224
4 215 213 225 220
4 226 214 216 222
4 213 211 227 225
4 228 212 214 226
4 211 209 229 227
4 230 210 212 228
4 209 208 231 229
4 231 208 210 230
4 229 231 232 233
4 232 231 230 234
4 227 229 233 235
4 234 230 228 236
4 225 227 235 237
4 236 228 226 238
4 220 225 237 239
4 238 226 222 240
4 224 221 241 242
4 243 223 224 242
4 221 220 239 241
4 240 222 223 243
4 233 244 237 235
4 238 245 234 236
4 244 241 239 237
4 240 243 245 238
4 111 246 247 112
4 248 249 114 113
4 246 18 21 247
4 25 24 249 248
4 112 247 250 115
4 251 248 113 116
4 247 21 252 250
4 253 25 248 251
4 246 111 117 254
4 118 114 249 255
4 254 117 119 256
4 120 118 255 257
4 121 258 259 122
4 259 260 123 122
4 124 261 258 121
4 260 262 125 123
4 115 250 261 124
4 262 251 116 125
4 126 263 256 119
4 257 264 127 120
4 128 265 263 126
4 264 266 129 127
4 130 267 265 128
4 266 267 130 129
4 265 267 268 269
4 268 267 266 270
4 263 265 269 271
4 270 266 264 272
4 256 263 271 273
4 272 264 257 274
4 254 256 273 275
4 274 257 255 276
4 246 254 275 277
4 276 255 249 278
4 18 246 277 279
4 278 249 24 280
4 100 102 281 282
4 283 103 101 284
4 97 100 282 285
4 284 101 99 286
4 98 97 285 287
4 286 99 98 287
4 102 88 288 281
4 289 89 103 283
4 88 18 279 288
4 280 24 89 289
4 94 109 290 291
4 292 110 95 293
4 104 90 294 295
4 296 92 106 297
4 109 104 295 290
4 297 106 110 292
4 90 94 291 294
4 293 95 92 296
4 294 291 298 299
4 300 293 296 301
4 290 295 302 303
4 304 297 292 305
4 295 294 299 302
4 301 296 297 304
4 291 290 303 298
4 305 292 293 300
4 298 303 306 307
4 308 305 300 309
4 302 299 310 311
4 312 301 304 313
4 303 302 311 306
4 313 304 305 308
4 299 298 307 310
4 309 300 301 312
4 310 307 306 311
4 308 309 312 313
4 269 268 314 315
4 314 268 270 316
4 271 269 315 317
4 316 270 272 318
4 273 271 317 319
4 318 272 274 320
4 275 273 319 321
4 320 274 276 322
4 277 275 321 323
4 322 276 278 324
4 279 277 323 325
4 324 278 280 326
4 282 281 327 328
4 329 283 284 330
4 285 282 328 331
4 330 284 286 332
4 287 285 331 333
4 332 286 287 333
4 281 288 334 327
4 335 289 283 329
4 288 279 325 334
4 326 280 289 335
4 323 321 336 337
4 338 322 324 339
4 336 340 341 337
4 342 343 338 339
4 340 344 345 341
4 345 344 343 342
4 337 341 346 347
4 348 342 339 349
4 341 345 350 346
4 350 345 342 348
4 347 346 351 352
4 353 348 349 354
4 346 350 355 351
4 355 350 348 353
4 356 344 340 357
4 343 344 356 358
4 314 359 360 315
4 361 359 314 316
4 359 356 357 360
4 358 356 359 361
4 319 362 336 321
4 338 363 320 322
4 336 362 357 340
4 358 363 338 343
4 357 362 364 360
4 365 363 358 361
4 317 364 362 319
4 363 365 318 320
4 315 360 364 317
4 365 361 316 318
4 366 367 368 369
4 370 371 372 373
4 367 374 375 368
4 375 374 371 370
4 355 374 367 351
4 371 374 355 353
4 352 351 367 366
4 371 353 354 372
3 347 376 337
3 339 377 349
4 325 376 378 334
4 379 377 326 335
4 376 347 352 378
4 354 349 377 379
4 327 380 381 328
4 382 383 329 330
4 380 366 369 381
4 373 372 383 382
4 334 378 380 327
4 383 379 335 329
4 378 352 366 380
4 372 354 379 383
4 331 384 385 333
4 385 386 332 333
4 384 368 375 385
4 375 370 386 385
4 328 381 384 331
4 386 382 330 332
4 381 369 368 384
4 370 373 382 386
4 337 376 325 323
4 326 377 339 324
4 252 21 387 388
4 389 25 253 390
4 391 252 388 392
4 390 253 393 394
4 395 391 392 396
4 394 393 397 398
4 399 395 396 400
4 398 397 399 400
4 21 20 401 387
4 402 22 25 389
4 20 27 403 401
4 404 28 22 402
4 27 31 405 403
4 405 31 28 404
4 388 387 406 407
4 408 389 390 409
4 392 388 407 410
4 409 390 394 411
4 396 392 410 412
4 411 394 398 413
4 400 396 412 414
4 413 398 400 414
4 387 401 415 406
4 416 402 389 408
4 401 403 417 415
4 418 404 402 416
4 403 405 419 417
4 419 405 404 418
4 261 250 420 421
4 422 251 262 423
4 258 261 421 424
4 423 262 260 425
4 259 258 424 426
4 425 260 259 426
4 250 252 427 420
4 428 253 251 422
4 395 399 429 430
4 429 399 397 431
4 391 395 430 432
4 431 397 393 433
4 252 391 432 427
4 433 393 253 428
4 420 427 432 421
4 433 428 422 423
4 421 432 430 424
4 431 433 423 425
4 424 430 429 426
4 429 431 425 426
4 241 244 434 435
4 436 245 243 437
4 244 233 438 434
4 439 234 245 436
4 242 241 435 440
4 437 243 242 440
4 233 232 441 438
4 441 232 234 439
4 438 441 442 443
4 442 441 439 444
4 440 435 445 446
4 447 437 440 446
4 434 438 443 448
4 444 439 436 449
4 435 434 448 445
4 449 436 437 447
4 445 448 450 451
4 452 449 447 453
4 448 443 454 450
4 455 444 449 452
4 446 445 451 456
4 453 447 446 456
4 443 442 457 454
4 457 442 444 455
4 458 456 451 450
4 453 456 458 452
4 457 458 450 454
4 452 458 457 455
4 189 188 459 460
4 461 190 191 462
4 193 192 463 464
4 465 194 195 466
4 188 196 467 459
4 468 197 190 461
4 198 193 464 469
4 466 195 199 470
4 192 200 471 463
4 472 201 194 465
4 202 189 460 473
4 462 191 203 474
4 204 198 469 475
4 470 199 205 476
4 206 204 475 477
4 476 205 207 478
4 160 479 480 161
4 480 481 162 161
4 479 163 164 480
4 164 165 481 480
4 163 479 482 200
4 483 481 165 201
4 479 160 202 482
4 203 162 481 483
4 200 482 484 471
4 485 483 201 472
4 482 202 473 484
4 474 203 483 485
4 460 459 486 487
4 488 461 462 489
4 459 467 490 486
4 491 468 461 488
4 492 493 494 495
4 496 497 498 499
4 500 492 495 501
4 499 498 502 503
4 493 504 505 494
4 506 507 497 496
4 504 508 509 505
4 510 511 507 506
4 512 500 501 513
4 503 502 514 515
4 487 486 516 517
4 518 488 489 519
4 486 490 520 516
4 521 491 488 518
4 487 517 509 508
4 510 519 489 511
4 490 512 513 520
4 515 514 491 521
4 463 522 523 464
4 524 525 465 466
4 522 493 492 523
4 498 497 525 524
4 464 523 526 469
4 527 524 466 470
4 523 492 500 526
4 502 498 524 527
4 471 528 522 463
4 525 529 472 465
4 528 504 493 522
4 497 507 529 525
4 484 530 528 471
4 529 531 485 472
4 530 508 504 528
4 507 511 531 529
4 469 526 532 475
4 533 527 470 476
4 526 500 512 532
4 514 502 527 533
4 467 532 512 490
4 514 533 468 491
4 460 530 484 473
4 485 531 462 474
4 460 487 508 530
4 511 489 462 531
4 196 206 477 467
4 478 207 197 468
4 475 532 467 477
4 468 533 476 478
